%!PS-Adobe-3.0 EPSF-3.0
%%Creator: (MATLAB, The Mathworks, Inc. Version 9.5.0.944444 \(R2018b\). Operating System: Windows 10)
%%Title: D:/LAB/UltrasonicManipulation/IFAC_article/figures/BSv2.eps
%%CreationDate: 2019-01-31T14:23:54
%%Pages: (atend)
%%BoundingBox: 0 0 315 601
%%LanguageLevel: 3
%%EndComments
%%BeginProlog
%%BeginResource: procset (Apache XML Graphics Std ProcSet) 1.2 0
%%Version: 1.2 0
%%Copyright: (Copyright 2001-2003,2010 The Apache Software Foundation. License terms: http://www.apache.org/licenses/LICENSE-2.0)
/bd{bind def}bind def
/ld{load def}bd
/GR/grestore ld
/GS/gsave ld
/RM/rmoveto ld
/C/curveto ld
/t/show ld
/L/lineto ld
/ML/setmiterlimit ld
/CT/concat ld
/f/fill ld
/N/newpath ld
/S/stroke ld
/CC/setcmykcolor ld
/A/ashow ld
/cp/closepath ld
/RC/setrgbcolor ld
/LJ/setlinejoin ld
/GC/setgray ld
/LW/setlinewidth ld
/M/moveto ld
/re {4 2 roll M
1 index 0 rlineto
0 exch rlineto
neg 0 rlineto
cp } bd
/_ctm matrix def
/_tm matrix def
/BT { _ctm currentmatrix pop matrix _tm copy pop 0 0 moveto } bd
/ET { _ctm setmatrix } bd
/iTm { _ctm setmatrix _tm concat } bd
/Tm { _tm astore pop iTm 0 0 moveto } bd
/ux 0.0 def
/uy 0.0 def
/F {
  /Tp exch def
  /Tf exch def
  Tf findfont Tp scalefont setfont
  /cf Tf def  /cs Tp def
} bd
/ULS {currentpoint /uy exch def /ux exch def} bd
/ULE {
  /Tcx currentpoint pop def
  gsave
  newpath
  cf findfont cs scalefont dup
  /FontMatrix get 0 get /Ts exch def /FontInfo get dup
  /UnderlinePosition get Ts mul /To exch def
  /UnderlineThickness get Ts mul /Tt exch def
  ux uy To add moveto  Tcx uy To add lineto
  Tt setlinewidth stroke
  grestore
} bd
/OLE {
  /Tcx currentpoint pop def
  gsave
  newpath
  cf findfont cs scalefont dup
  /FontMatrix get 0 get /Ts exch def /FontInfo get dup
  /UnderlinePosition get Ts mul /To exch def
  /UnderlineThickness get Ts mul /Tt exch def
  ux uy To add cs add moveto Tcx uy To add cs add lineto
  Tt setlinewidth stroke
  grestore
} bd
/SOE {
  /Tcx currentpoint pop def
  gsave
  newpath
  cf findfont cs scalefont dup
  /FontMatrix get 0 get /Ts exch def /FontInfo get dup
  /UnderlinePosition get Ts mul /To exch def
  /UnderlineThickness get Ts mul /Tt exch def
  ux uy To add cs 10 mul 26 idiv add moveto Tcx uy To add cs 10 mul 26 idiv add lineto
  Tt setlinewidth stroke
  grestore
} bd
/QT {
/Y22 exch store
/X22 exch store
/Y21 exch store
/X21 exch store
currentpoint
/Y21 load 2 mul add 3 div exch
/X21 load 2 mul add 3 div exch
/X21 load 2 mul /X22 load add 3 div
/Y21 load 2 mul /Y22 load add 3 div
/X22 load /Y22 load curveto
} bd
/SSPD {
dup length /d exch dict def
{
/v exch def
/k exch def
currentpagedevice k known {
/cpdv currentpagedevice k get def
v cpdv ne {
/upd false def
/nullv v type /nulltype eq def
/nullcpdv cpdv type /nulltype eq def
nullv nullcpdv or
{
/upd true def
} {
/sametype v type cpdv type eq def
sametype {
v type /arraytype eq {
/vlen v length def
/cpdvlen cpdv length def
vlen cpdvlen eq {
0 1 vlen 1 sub {
/i exch def
/obj v i get def
/cpdobj cpdv i get def
obj cpdobj ne {
/upd true def
exit
} if
} for
} {
/upd true def
} ifelse
} {
v type /dicttype eq {
v {
/dv exch def
/dk exch def
/cpddv cpdv dk get def
dv cpddv ne {
/upd true def
exit
} if
} forall
} {
/upd true def
} ifelse
} ifelse
} if
} ifelse
upd true eq {
d k v put
} if
} if
} if
} forall
d length 0 gt {
d setpagedevice
} if
} bd
/RE { % /NewFontName [NewEncodingArray] /FontName RE -
  findfont dup length dict begin
  {
    1 index /FID ne
    {def} {pop pop} ifelse
  } forall
  /Encoding exch def
  /FontName 1 index def
  currentdict definefont pop
  end
} bind def
%%EndResource
%%BeginResource: procset (Apache XML Graphics EPS ProcSet) 1.0 0
%%Version: 1.0 0
%%Copyright: (Copyright 2002-2003 The Apache Software Foundation. License terms: http://www.apache.org/licenses/LICENSE-2.0)
/BeginEPSF { %def
/b4_Inc_state save def         % Save state for cleanup
/dict_count countdictstack def % Count objects on dict stack
/op_count count 1 sub def      % Count objects on operand stack
userdict begin                 % Push userdict on dict stack
/showpage { } def              % Redefine showpage, { } = null proc
0 setgray 0 setlinecap         % Prepare graphics state
1 setlinewidth 0 setlinejoin
10 setmiterlimit [ ] 0 setdash newpath
/languagelevel where           % If level not equal to 1 then
{pop languagelevel             % set strokeadjust and
1 ne                           % overprint to their defaults.
{false setstrokeadjust false setoverprint
} if
} if
} bd
/EndEPSF { %def
count op_count sub {pop} repeat            % Clean up stacks
countdictstack dict_count sub {end} repeat
b4_Inc_state restore
} bd
%%EndResource
%FOPBeginFontDict
%%IncludeResource: font Courier-Oblique
%%IncludeResource: font Courier-BoldOblique
%%IncludeResource: font Courier-Bold
%%IncludeResource: font ZapfDingbats
%%IncludeResource: font Symbol
%%IncludeResource: font Helvetica
%%IncludeResource: font Helvetica-Oblique
%%IncludeResource: font Helvetica-Bold
%%IncludeResource: font Helvetica-BoldOblique
%%IncludeResource: font Times-Roman
%%IncludeResource: font Times-Italic
%%IncludeResource: font Times-Bold
%%IncludeResource: font Times-BoldItalic
%%IncludeResource: font Courier
%FOPEndFontDict
%%BeginResource: encoding WinAnsiEncoding
/WinAnsiEncoding [
/.notdef /.notdef /.notdef /.notdef /.notdef
/.notdef /.notdef /.notdef /.notdef /.notdef
/.notdef /.notdef /.notdef /.notdef /.notdef
/.notdef /.notdef /.notdef /.notdef /.notdef
/.notdef /.notdef /.notdef /.notdef /.notdef
/.notdef /.notdef /.notdef /.notdef /.notdef
/.notdef /.notdef /space /exclam /quotedbl
/numbersign /dollar /percent /ampersand /quotesingle
/parenleft /parenright /asterisk /plus /comma
/hyphen /period /slash /zero /one
/two /three /four /five /six
/seven /eight /nine /colon /semicolon
/less /equal /greater /question /at
/A /B /C /D /E
/F /G /H /I /J
/K /L /M /N /O
/P /Q /R /S /T
/U /V /W /X /Y
/Z /bracketleft /backslash /bracketright /asciicircum
/underscore /quoteleft /a /b /c
/d /e /f /g /h
/i /j /k /l /m
/n /o /p /q /r
/s /t /u /v /w
/x /y /z /braceleft /bar
/braceright /asciitilde /bullet /Euro /bullet
/quotesinglbase /florin /quotedblbase /ellipsis /dagger
/daggerdbl /circumflex /perthousand /Scaron /guilsinglleft
/OE /bullet /Zcaron /bullet /bullet
/quoteleft /quoteright /quotedblleft /quotedblright /bullet
/endash /emdash /asciitilde /trademark /scaron
/guilsinglright /oe /bullet /zcaron /Ydieresis
/space /exclamdown /cent /sterling /currency
/yen /brokenbar /section /dieresis /copyright
/ordfeminine /guillemotleft /logicalnot /sfthyphen /registered
/macron /degree /plusminus /twosuperior /threesuperior
/acute /mu /paragraph /middot /cedilla
/onesuperior /ordmasculine /guillemotright /onequarter /onehalf
/threequarters /questiondown /Agrave /Aacute /Acircumflex
/Atilde /Adieresis /Aring /AE /Ccedilla
/Egrave /Eacute /Ecircumflex /Edieresis /Igrave
/Iacute /Icircumflex /Idieresis /Eth /Ntilde
/Ograve /Oacute /Ocircumflex /Otilde /Odieresis
/multiply /Oslash /Ugrave /Uacute /Ucircumflex
/Udieresis /Yacute /Thorn /germandbls /agrave
/aacute /acircumflex /atilde /adieresis /aring
/ae /ccedilla /egrave /eacute /ecircumflex
/edieresis /igrave /iacute /icircumflex /idieresis
/eth /ntilde /ograve /oacute /ocircumflex
/otilde /odieresis /divide /oslash /ugrave
/uacute /ucircumflex /udieresis /yacute /thorn
/ydieresis
] def
%%EndResource
%FOPBeginFontReencode
/Courier-Oblique findfont
dup length dict begin
  {1 index /FID ne {def} {pop pop} ifelse} forall
  /Encoding WinAnsiEncoding def
  currentdict
end
/Courier-Oblique exch definefont pop
/Courier-BoldOblique findfont
dup length dict begin
  {1 index /FID ne {def} {pop pop} ifelse} forall
  /Encoding WinAnsiEncoding def
  currentdict
end
/Courier-BoldOblique exch definefont pop
/Courier-Bold findfont
dup length dict begin
  {1 index /FID ne {def} {pop pop} ifelse} forall
  /Encoding WinAnsiEncoding def
  currentdict
end
/Courier-Bold exch definefont pop
/Helvetica findfont
dup length dict begin
  {1 index /FID ne {def} {pop pop} ifelse} forall
  /Encoding WinAnsiEncoding def
  currentdict
end
/Helvetica exch definefont pop
/Helvetica-Oblique findfont
dup length dict begin
  {1 index /FID ne {def} {pop pop} ifelse} forall
  /Encoding WinAnsiEncoding def
  currentdict
end
/Helvetica-Oblique exch definefont pop
/Helvetica-Bold findfont
dup length dict begin
  {1 index /FID ne {def} {pop pop} ifelse} forall
  /Encoding WinAnsiEncoding def
  currentdict
end
/Helvetica-Bold exch definefont pop
/Helvetica-BoldOblique findfont
dup length dict begin
  {1 index /FID ne {def} {pop pop} ifelse} forall
  /Encoding WinAnsiEncoding def
  currentdict
end
/Helvetica-BoldOblique exch definefont pop
/Times-Roman findfont
dup length dict begin
  {1 index /FID ne {def} {pop pop} ifelse} forall
  /Encoding WinAnsiEncoding def
  currentdict
end
/Times-Roman exch definefont pop
/Times-Italic findfont
dup length dict begin
  {1 index /FID ne {def} {pop pop} ifelse} forall
  /Encoding WinAnsiEncoding def
  currentdict
end
/Times-Italic exch definefont pop
/Times-Bold findfont
dup length dict begin
  {1 index /FID ne {def} {pop pop} ifelse} forall
  /Encoding WinAnsiEncoding def
  currentdict
end
/Times-Bold exch definefont pop
/Times-BoldItalic findfont
dup length dict begin
  {1 index /FID ne {def} {pop pop} ifelse} forall
  /Encoding WinAnsiEncoding def
  currentdict
end
/Times-BoldItalic exch definefont pop
/Courier findfont
dup length dict begin
  {1 index /FID ne {def} {pop pop} ifelse} forall
  /Encoding WinAnsiEncoding def
  currentdict
end
/Courier exch definefont pop
%FOPEndFontReencode
%%EndProlog
%%Page: 1 1
%%PageBoundingBox: 0 0 315 601
%%BeginPageSetup
[1 0 0 -1 0 601] CT
%%EndPageSetup
GS
[0.75 0 0 0.75 0 0.25] CT
N
0 0 M
420 0 L
420 801 L
0 801 L
0 0 L
cp
clip
1 GC
N
0 0 420 801 re
f
GR
GS
[0.75 0 0 0.75 0 0.25] CT
1 GC
N
0 0 420 801 re
f
GR
GS
[0.75 0 0 0.75 0 0.25] CT
1 GC
N
78 713 M
357 713 L
357 434 L
78 434 L
cp
f
GR
GS
[0.75 0 0 0.75 0 0.25] CT
0.873 GC
1 LJ
0.667 LW
N
78 713 M
78 434 L
S
GR
GS
[0.75 0 0 0.75 0 0.25] CT
0.873 GC
1 LJ
0.667 LW
N
147.75 713 M
147.75 434 L
S
GR
GS
[0.75 0 0 0.75 0 0.25] CT
0.873 GC
1 LJ
0.667 LW
N
217.5 713 M
217.5 434 L
S
GR
GS
[0.75 0 0 0.75 0 0.25] CT
0.873 GC
1 LJ
0.667 LW
N
287.25 713 M
287.25 434 L
S
GR
GS
[0.75 0 0 0.75 0 0.25] CT
0.873 GC
1 LJ
0.667 LW
N
357 713 M
357 434 L
S
GR
GS
[0.75 0 0 0.75 0 0.25] CT
0.873 GC
1 LJ
0.667 LW
N
357 700.318 M
78 700.318 L
S
GR
GS
[0.75 0 0 0.75 0 0.25] CT
0.873 GC
1 LJ
0.667 LW
N
357 636.909 M
78 636.909 L
S
GR
GS
[0.75 0 0 0.75 0 0.25] CT
0.873 GC
1 LJ
0.667 LW
N
357 573.5 M
78 573.5 L
S
GR
GS
[0.75 0 0 0.75 0 0.25] CT
0.873 GC
1 LJ
0.667 LW
N
357 510.091 M
78 510.091 L
S
GR
GS
[0.75 0 0 0.75 0 0.25] CT
0.873 GC
1 LJ
0.667 LW
N
357 446.682 M
78 446.682 L
S
GR
GS
[0.75 0 0 0.75 0 0.25] CT
0.149 GC
2 setlinecap
1 LJ
0.667 LW
N
78 713 M
357 713 L
S
GR
GS
[0.75 0 0 0.75 0 0.25] CT
0.149 GC
2 setlinecap
1 LJ
0.667 LW
N
78 434 M
357 434 L
S
GR
GS
[0.75 0 0 0.75 0 0.25] CT
0.149 GC
2 setlinecap
1 LJ
0.667 LW
N
78 713 M
78 710.21 L
S
GR
GS
[0.75 0 0 0.75 0 0.25] CT
0.149 GC
2 setlinecap
1 LJ
0.667 LW
N
147.75 713 M
147.75 710.21 L
S
GR
GS
[0.75 0 0 0.75 0 0.25] CT
0.149 GC
2 setlinecap
1 LJ
0.667 LW
N
217.5 713 M
217.5 710.21 L
S
GR
GS
[0.75 0 0 0.75 0 0.25] CT
0.149 GC
2 setlinecap
1 LJ
0.667 LW
N
287.25 713 M
287.25 710.21 L
S
GR
GS
[0.75 0 0 0.75 0 0.25] CT
0.149 GC
2 setlinecap
1 LJ
0.667 LW
N
357 713 M
357 710.21 L
S
GR
GS
[0.75 0 0 0.75 0 0.25] CT
0.149 GC
2 setlinecap
1 LJ
0.667 LW
N
78 434 M
78 436.79 L
S
GR
GS
[0.75 0 0 0.75 0 0.25] CT
0.149 GC
2 setlinecap
1 LJ
0.667 LW
N
147.75 434 M
147.75 436.79 L
S
GR
GS
[0.75 0 0 0.75 0 0.25] CT
0.149 GC
2 setlinecap
1 LJ
0.667 LW
N
217.5 434 M
217.5 436.79 L
S
GR
GS
[0.75 0 0 0.75 0 0.25] CT
0.149 GC
2 setlinecap
1 LJ
0.667 LW
N
287.25 434 M
287.25 436.79 L
S
GR
GS
[0.75 0 0 0.75 0 0.25] CT
0.149 GC
2 setlinecap
1 LJ
0.667 LW
N
357 434 M
357 436.79 L
S
GR
GS
[0.75 0 0 0.75 58.5 539.39998] CT
0.149 GC
/Helvetica 16 F
GS
[1 0 0 1 0 0] CT
-9 17 moveto 
1 -1 scale
(34) t 
GR
GR
GS
[0.75 0 0 0.75 110.8125 539.39998] CT
0.149 GC
/Helvetica 16 F
GS
[1 0 0 1 0 0] CT
-16 17 moveto 
1 -1 scale
(34.5) t 
GR
GR
GS
[0.75 0 0 0.75 163.125 539.39998] CT
0.149 GC
/Helvetica 16 F
GS
[1 0 0 1 0 0] CT
-9 17 moveto 
1 -1 scale
(35) t 
GR
GR
GS
[0.75 0 0 0.75 215.4375 539.39998] CT
0.149 GC
/Helvetica 16 F
GS
[1 0 0 1 0 0] CT
-16 17 moveto 
1 -1 scale
(35.5) t 
GR
GR
GS
[0.75 0 0 0.75 267.75 539.39998] CT
0.149 GC
/Helvetica 16 F
GS
[1 0 0 1 0 0] CT
-9 17 moveto 
1 -1 scale
(36) t 
GR
GR
GS
[0.75 0 0 0.75 163.125 556.15001] CT
0.149 GC
/Helvetica 17.6 F
GS
[1 0 0 1 0 0] CT
-14.5 18 moveto 
1 -1 scale
(t [s]) t 
GR
GR
GS
[0.75 0 0 0.75 0 0.25] CT
0.149 GC
2 setlinecap
1 LJ
0.667 LW
N
78 713 M
78 434 L
S
GR
GS
[0.75 0 0 0.75 0 0.25] CT
0.149 GC
2 setlinecap
1 LJ
0.667 LW
N
357 713 M
357 434 L
S
GR
GS
[0.75 0 0 0.75 0 0.25] CT
0.149 GC
2 setlinecap
1 LJ
0.667 LW
N
78 700.318 M
80.79 700.318 L
S
GR
GS
[0.75 0 0 0.75 0 0.25] CT
0.149 GC
2 setlinecap
1 LJ
0.667 LW
N
78 636.909 M
80.79 636.909 L
S
GR
GS
[0.75 0 0 0.75 0 0.25] CT
0.149 GC
2 setlinecap
1 LJ
0.667 LW
N
78 573.5 M
80.79 573.5 L
S
GR
GS
[0.75 0 0 0.75 0 0.25] CT
0.149 GC
2 setlinecap
1 LJ
0.667 LW
N
78 510.091 M
80.79 510.091 L
S
GR
GS
[0.75 0 0 0.75 0 0.25] CT
0.149 GC
2 setlinecap
1 LJ
0.667 LW
N
78 446.682 M
80.79 446.682 L
S
GR
GS
[0.75 0 0 0.75 0 0.25] CT
0.149 GC
2 setlinecap
1 LJ
0.667 LW
N
357 700.318 M
354.21 700.318 L
S
GR
GS
[0.75 0 0 0.75 0 0.25] CT
0.149 GC
2 setlinecap
1 LJ
0.667 LW
N
357 636.909 M
354.21 636.909 L
S
GR
GS
[0.75 0 0 0.75 0 0.25] CT
0.149 GC
2 setlinecap
1 LJ
0.667 LW
N
357 573.5 M
354.21 573.5 L
S
GR
GS
[0.75 0 0 0.75 0 0.25] CT
0.149 GC
2 setlinecap
1 LJ
0.667 LW
N
357 510.091 M
354.21 510.091 L
S
GR
GS
[0.75 0 0 0.75 0 0.25] CT
0.149 GC
2 setlinecap
1 LJ
0.667 LW
N
357 446.682 M
354.21 446.682 L
S
GR
GS
[0.75 0 0 0.75 54.10018 525.48863] CT
0.149 GC
/Helvetica 16 F
GS
[1 0 0 1 0 0] CT
-24 6.5 moveto 
1 -1 scale
(-10) t 
GR
GR
GS
[0.75 0 0 0.75 54.10018 477.93184] CT
0.149 GC
/Helvetica 16 F
GS
[1 0 0 1 0 0] CT
-15 6.5 moveto 
1 -1 scale
(-5) t 
GR
GR
GS
[0.75 0 0 0.75 54.10018 430.375] CT
0.149 GC
/Helvetica 16 F
GS
[1 0 0 1 0 0] CT
-9 6.5 moveto 
1 -1 scale
(0) t 
GR
GR
GS
[0.75 0 0 0.75 54.10018 382.81818] CT
0.149 GC
/Helvetica 16 F
GS
[1 0 0 1 0 0] CT
-9 6.5 moveto 
1 -1 scale
(5) t 
GR
GR
GS
[0.75 0 0 0.75 54.10018 335.26137] CT
0.149 GC
/Helvetica 16 F
GS
[1 0 0 1 0 0] CT
-18 6.5 moveto 
1 -1 scale
(10) t 
GR
GR
GS
[0 -0.75 0.75 0 33.10007 430.37491] CT
0.149 GC
/Helvetica 17.6 F
GS
[1 0 0 1 0 0] CT
-45 -4 moveto 
1 -1 scale
(position [m]) t 
GR
GR
GS
[0.75 0 0 0.75 0 0.25] CT
0 0.447 0.741 RC
1 LJ
2 LW
N
78 509.307 M
80.79 508.002 L
83.58 506.487 L
86.37 505.032 L
89.16 502.467 L
91.95 499.885 L
94.74 497.789 L
97.53 496.539 L
100.32 497.035 L
103.11 499.655 L
105.9 502.985 L
108.69 506.355 L
111.48 509.405 L
114.27 511.747 L
117.06 513.961 L
119.85 516.053 L
122.64 517.898 L
125.43 519.555 L
128.22 521.013 L
131.01 522.398 L
133.8 524.008 L
136.59 525.77 L
139.38 528.026 L
142.17 530.821 L
144.96 533.701 L
147.75 536.648 L
150.54 539.574 L
153.33 542.685 L
156.12 546.518 L
158.91 551.192 L
161.7 556.052 L
164.49 561.216 L
167.28 566.584 L
170.07 571.772 L
172.86 576.595 L
175.65 580.306 L
178.44 583.327 L
181.23 586.862 L
184.02 591.152 L
186.81 596.305 L
189.6 602.625 L
192.39 609.609 L
195.18 616.422 L
197.97 622.255 L
200.76 627.14 L
203.55 630.718 L
206.34 634.305 L
209.13 637.722 L
211.92 640.718 L
214.71 643.181 L
217.5 645.455 L
220.29 647.441 L
223.08 649.867 L
225.87 652.451 L
228.66 654.993 L
231.45 657.653 L
234.24 659.488 L
237.03 659.676 L
239.82 658.455 L
242.61 655.809 L
245.4 652.576 L
248.19 649.261 L
250.98 646.173 L
253.77 643.211 L
256.56 640.694 L
259.35 638.535 L
262.14 636.498 L
264.93 634.403 L
267.72 631.298 L
270.51 627.335 L
273.3 623.021 L
276.09 618.038 L
278.88 613.187 L
281.67 607.923 L
284.46 602.804 L
287.25 597.566 L
290.04 592.558 L
292.83 587.502 L
295.62 582.41 L
298.41 577.28 L
301.2 572.237 L
303.99 567.263 L
306.78 561.85 L
309.57 556.601 L
312.36 551.471 L
315.15 546.906 L
317.94 542.79 L
320.73 538.854 L
323.52 535.063 L
326.31 531.006 L
329.1 527.374 L
331.89 524.219 L
334.68 521.302 L
337.47 518.519 L
340.26 515.941 L
343.05 513.493 L
345.84 510.949 L
348.63 508.543 L
351.42 506.331 L
354.21 504.515 L
357 502.533 L
S
GR
GS
[0.75 0 0 0.75 0 0.25] CT
0.851 0.325 0.098 RC
[8 2 4 2] 0 setdash
2 LJ
2 LW
N
78 497.409 M
80.79 497.559 L
83.58 498.009 L
86.37 498.757 L
89.16 499.8 L
91.95 501.133 L
94.74 502.752 L
97.53 504.651 L
100.32 506.821 L
103.11 509.254 L
105.9 511.941 L
108.69 514.871 L
111.48 518.032 L
114.27 521.412 L
117.06 524.998 L
119.85 528.775 L
122.64 532.728 L
125.43 536.843 L
128.22 541.102 L
131.01 545.489 L
133.8 549.987 L
136.59 554.577 L
139.38 559.242 L
142.17 563.963 L
144.96 568.722 L
147.75 573.5 L
150.54 578.278 L
153.33 583.037 L
156.12 587.758 L
158.91 592.423 L
161.7 597.013 L
164.49 601.511 L
167.28 605.898 L
170.07 610.157 L
172.86 614.272 L
175.65 618.225 L
178.44 622.002 L
181.23 625.588 L
184.02 628.968 L
186.81 632.129 L
189.6 635.059 L
192.39 637.746 L
195.18 640.179 L
197.97 642.349 L
200.76 644.248 L
203.55 645.867 L
206.34 647.2 L
209.13 648.243 L
211.92 648.991 L
214.71 649.441 L
217.5 649.591 L
220.29 649.441 L
223.08 648.991 L
225.87 648.243 L
228.66 647.2 L
231.45 645.867 L
234.24 644.248 L
237.03 642.349 L
239.82 640.179 L
242.61 637.746 L
245.4 635.059 L
248.19 632.129 L
250.98 628.968 L
253.77 625.588 L
256.56 622.002 L
259.35 618.225 L
262.14 614.272 L
264.93 610.157 L
267.72 605.898 L
270.51 601.511 L
273.3 597.013 L
276.09 592.423 L
278.88 587.758 L
281.67 583.037 L
284.46 578.278 L
287.25 573.5 L
290.04 568.722 L
292.83 563.963 L
295.62 559.242 L
298.41 554.577 L
301.2 549.987 L
303.99 545.489 L
306.78 541.102 L
309.57 536.843 L
312.36 532.728 L
315.15 528.775 L
317.94 524.998 L
320.73 521.412 L
323.52 518.032 L
326.31 514.871 L
329.1 511.941 L
331.89 509.254 L
334.68 506.821 L
337.47 504.651 L
340.26 502.752 L
343.05 501.133 L
345.84 499.8 L
348.63 498.757 L
351.42 498.009 L
354.21 497.559 L
357 497.409 L
S
GR
GS
[0.75 0 0 0.75 0 0.25] CT
0.929 0.694 0.125 RC
1 LJ
2 LW
N
78 603.672 M
80.79 601.098 L
83.58 598.469 L
86.37 595.687 L
89.16 593.732 L
91.95 591.945 L
94.74 589.626 L
97.53 586.58 L
100.32 582.693 L
103.11 576.908 L
105.9 570.039 L
108.69 563.018 L
111.48 556.219 L
114.27 550.662 L
117.06 545.979 L
119.85 542.147 L
122.64 538.057 L
125.43 534.193 L
128.22 529.461 L
131.01 525.076 L
133.8 520.927 L
136.59 516.771 L
139.38 513.336 L
142.17 510.616 L
144.96 507.924 L
147.75 505.439 L
150.54 502.957 L
153.33 500.478 L
156.12 498.049 L
158.91 496.405 L
161.7 494.523 L
164.49 493.431 L
167.28 493.611 L
170.07 493.849 L
172.86 495.362 L
175.65 496.69 L
178.44 497.404 L
181.23 498.032 L
184.02 498.705 L
186.81 499.83 L
189.6 501.779 L
192.39 505.059 L
195.18 509.271 L
197.97 513.659 L
200.76 517.651 L
203.55 521.4 L
206.34 525.169 L
209.13 529.134 L
211.92 533.393 L
214.71 538.252 L
217.5 543.248 L
220.29 548.263 L
223.08 552.628 L
225.87 556.606 L
228.66 560.518 L
231.45 564.476 L
234.24 567.851 L
237.03 569.836 L
239.82 571.813 L
242.61 574.759 L
245.4 578.409 L
248.19 583.607 L
250.98 590.522 L
253.77 598.203 L
256.56 605.523 L
259.35 612.604 L
262.14 618.687 L
264.93 623.935 L
267.72 628.255 L
270.51 631.697 L
273.3 634.245 L
276.09 635.908 L
278.88 637.609 L
281.67 639.474 L
284.46 641.558 L
287.25 643.184 L
290.04 644.483 L
292.83 646.571 L
295.62 648.288 L
298.41 649.581 L
301.2 650.325 L
303.99 651.168 L
306.78 651.459 L
309.57 650.693 L
312.36 649.962 L
315.15 648.916 L
317.94 647.178 L
320.73 645.194 L
323.52 643.755 L
326.31 642.227 L
329.1 640.554 L
331.89 638.606 L
334.68 636.176 L
337.47 633.168 L
340.26 629.33 L
343.05 625.277 L
345.84 621.344 L
348.63 617.468 L
351.42 613.726 L
354.21 610.314 L
357 607.446 L
S
GR
GS
[0.75 0 0 0.75 0 0.25] CT
0 1 0 RC
[8 8] 0 setdash
2 LJ
2 LW
N
78 573.5 M
80.79 568.722 L
83.58 563.963 L
86.37 559.242 L
89.16 554.577 L
91.95 549.987 L
94.74 545.489 L
97.53 541.102 L
100.32 536.843 L
103.11 532.728 L
105.9 528.775 L
108.69 524.998 L
111.48 521.412 L
114.27 518.032 L
117.06 514.871 L
119.85 511.941 L
122.64 509.254 L
125.43 506.821 L
128.22 504.651 L
131.01 502.752 L
133.8 501.133 L
136.59 499.8 L
139.38 498.757 L
142.17 498.009 L
144.96 497.559 L
147.75 497.409 L
150.54 497.559 L
153.33 498.009 L
156.12 498.757 L
158.91 499.8 L
161.7 501.133 L
164.49 502.752 L
167.28 504.651 L
170.07 506.821 L
172.86 509.254 L
175.65 511.941 L
178.44 514.871 L
181.23 518.032 L
184.02 521.412 L
186.81 524.998 L
189.6 528.775 L
192.39 532.728 L
195.18 536.843 L
197.97 541.102 L
200.76 545.489 L
203.55 549.987 L
206.34 554.577 L
209.13 559.242 L
211.92 563.963 L
214.71 568.722 L
217.5 573.5 L
220.29 578.278 L
223.08 583.037 L
225.87 587.758 L
228.66 592.423 L
231.45 597.013 L
234.24 601.511 L
237.03 605.898 L
239.82 610.157 L
242.61 614.272 L
245.4 618.225 L
248.19 622.002 L
250.98 625.588 L
253.77 628.968 L
256.56 632.129 L
259.35 635.059 L
262.14 637.746 L
264.93 640.179 L
267.72 642.349 L
270.51 644.248 L
273.3 645.867 L
276.09 647.2 L
278.88 648.243 L
281.67 648.991 L
284.46 649.441 L
287.25 649.591 L
290.04 649.441 L
292.83 648.991 L
295.62 648.243 L
298.41 647.2 L
301.2 645.867 L
303.99 644.248 L
306.78 642.349 L
309.57 640.179 L
312.36 637.746 L
315.15 635.059 L
317.94 632.129 L
320.73 628.968 L
323.52 625.588 L
326.31 622.002 L
329.1 618.225 L
331.89 614.272 L
334.68 610.157 L
337.47 605.898 L
340.26 601.511 L
343.05 597.013 L
345.84 592.423 L
348.63 587.758 L
351.42 583.037 L
354.21 578.278 L
357 573.5 L
S
GR
GS
[0.75 0 0 0.75 0 0.25] CT
1 GC
N
313 485 M
313 439 L
122 439 L
122 485 L
cp
f
GR
GS
[0.75 0 0 0.75 126.75 338.7742] CT
/Helvetica 16 F
GS
[1 0 0 1 0 0] CT
0 6.5 moveto 
1 -1 scale
(x) t 
GR
GR
GS
[0.75 0 0 0.75 0 0.25] CT
0 0.447 0.741 RC
1 LJ
2 LW
N
126 451.366 M
166 451.366 L
S
GR
GS
[0.75 0 0 0.75 171 338.7742] CT
/Helvetica 16 F
GS
[1 0 0 1 0 0] CT
0 6.5 moveto 
1 -1 scale
(x-reference) t 
GR
GR
GS
[0.75 0 0 0.75 0 0.25] CT
0.851 0.325 0.098 RC
[8 2 4 2] 0 setdash
2 LJ
2 LW
N
185 451.366 M
225 451.366 L
S
GR
GS
[0.75 0 0 0.75 126.75 354.7258] CT
/Helvetica 16 F
GS
[1 0 0 1 0 0] CT
0 6.5 moveto 
1 -1 scale
(y) t 
GR
GR
GS
[0.75 0 0 0.75 0 0.25] CT
0.929 0.694 0.125 RC
1 LJ
2 LW
N
126 472.634 M
166 472.634 L
S
GR
GS
[0.75 0 0 0.75 171 354.7258] CT
/Helvetica 16 F
GS
[1 0 0 1 0 0] CT
0 6.5 moveto 
1 -1 scale
(y-reference) t 
GR
GR
GS
[0.75 0 0 0.75 0 0.25] CT
0 1 0 RC
[8 8] 0 setdash
2 LJ
2 LW
N
185 472.634 M
225 472.634 L
S
GR
GS
[0.75 0 0 0.75 0 0.25] CT
0.149 GC
10.0 ML
0.667 LW
N
122 485 M
122 439 L
313 439 L
313 485 L
cp
S
GR
GS
[0.75 0 0 0.75 0 0.25] CT
1 GC
N
78 339 M
357 339 L
357 60 L
78 60 L
cp
f
GR
GS
[0.75 0 0 0.75 0 0.25] CT
0.873 GC
1 LJ
0.667 LW
N
78 339 M
78 60 L
S
GR
GS
[0.75 0 0 0.75 0 0.25] CT
0.873 GC
1 LJ
0.667 LW
N
147.75 339 M
147.75 60 L
S
GR
GS
[0.75 0 0 0.75 0 0.25] CT
0.873 GC
1 LJ
0.667 LW
N
217.5 339 M
217.5 60 L
S
GR
GS
[0.75 0 0 0.75 0 0.25] CT
0.873 GC
1 LJ
0.667 LW
N
287.25 339 M
287.25 60 L
S
GR
GS
[0.75 0 0 0.75 0 0.25] CT
0.873 GC
1 LJ
0.667 LW
N
357 339 M
357 60 L
S
GR
GS
[0.75 0 0 0.75 0 0.25] CT
0.873 GC
1 LJ
0.667 LW
N
357 339 M
78 339 L
S
GR
GS
[0.75 0 0 0.75 0 0.25] CT
0.873 GC
1 LJ
0.667 LW
N
357 269.25 M
78 269.25 L
S
GR
GS
[0.75 0 0 0.75 0 0.25] CT
0.873 GC
1 LJ
0.667 LW
N
357 199.5 M
78 199.5 L
S
GR
GS
[0.75 0 0 0.75 0 0.25] CT
0.873 GC
1 LJ
0.667 LW
N
357 129.75 M
78 129.75 L
S
GR
GS
[0.75 0 0 0.75 0 0.25] CT
0.873 GC
1 LJ
0.667 LW
N
357 60 M
78 60 L
S
GR
GS
[0.75 0 0 0.75 0 0.25] CT
0.149 GC
2 setlinecap
1 LJ
0.667 LW
N
78 339 M
357 339 L
S
GR
GS
[0.75 0 0 0.75 0 0.25] CT
0.149 GC
2 setlinecap
1 LJ
0.667 LW
N
78 60 M
357 60 L
S
GR
GS
[0.75 0 0 0.75 0 0.25] CT
0.149 GC
2 setlinecap
1 LJ
0.667 LW
N
78 339 M
78 336.21 L
S
GR
GS
[0.75 0 0 0.75 0 0.25] CT
0.149 GC
2 setlinecap
1 LJ
0.667 LW
N
147.75 339 M
147.75 336.21 L
S
GR
GS
[0.75 0 0 0.75 0 0.25] CT
0.149 GC
2 setlinecap
1 LJ
0.667 LW
N
217.5 339 M
217.5 336.21 L
S
GR
GS
[0.75 0 0 0.75 0 0.25] CT
0.149 GC
2 setlinecap
1 LJ
0.667 LW
N
287.25 339 M
287.25 336.21 L
S
GR
GS
[0.75 0 0 0.75 0 0.25] CT
0.149 GC
2 setlinecap
1 LJ
0.667 LW
N
357 339 M
357 336.21 L
S
GR
GS
[0.75 0 0 0.75 0 0.25] CT
0.149 GC
2 setlinecap
1 LJ
0.667 LW
N
78 60 M
78 62.79 L
S
GR
GS
[0.75 0 0 0.75 0 0.25] CT
0.149 GC
2 setlinecap
1 LJ
0.667 LW
N
147.75 60 M
147.75 62.79 L
S
GR
GS
[0.75 0 0 0.75 0 0.25] CT
0.149 GC
2 setlinecap
1 LJ
0.667 LW
N
217.5 60 M
217.5 62.79 L
S
GR
GS
[0.75 0 0 0.75 0 0.25] CT
0.149 GC
2 setlinecap
1 LJ
0.667 LW
N
287.25 60 M
287.25 62.79 L
S
GR
GS
[0.75 0 0 0.75 0 0.25] CT
0.149 GC
2 setlinecap
1 LJ
0.667 LW
N
357 60 M
357 62.79 L
S
GR
GS
[0.75 0 0 0.75 58.5 258.9] CT
0.149 GC
/Helvetica 16 F
GS
[1 0 0 1 0 0] CT
-12 17 moveto 
1 -1 scale
(-10) t 
GR
GR
GS
[0.75 0 0 0.75 110.8125 258.9] CT
0.149 GC
/Helvetica 16 F
GS
[1 0 0 1 0 0] CT
-7.5 17 moveto 
1 -1 scale
(-5) t 
GR
GR
GS
[0.75 0 0 0.75 163.125 258.9] CT
0.149 GC
/Helvetica 16 F
GS
[1 0 0 1 0 0] CT
-4.5 17 moveto 
1 -1 scale
(0) t 
GR
GR
GS
[0.75 0 0 0.75 215.4375 258.9] CT
0.149 GC
/Helvetica 16 F
GS
[1 0 0 1 0 0] CT
-4.5 17 moveto 
1 -1 scale
(5) t 
GR
GR
GS
[0.75 0 0 0.75 267.75 258.9] CT
0.149 GC
/Helvetica 16 F
GS
[1 0 0 1 0 0] CT
-9 17 moveto 
1 -1 scale
(10) t 
GR
GR
GS
[0.75 0 0 0.75 163.1251 275.65001] CT
0.149 GC
/Helvetica 17.6 F
GS
[1 0 0 1 0 0] CT
-26.5 18 moveto 
1 -1 scale
(x [mm]) t 
GR
GR
GS
[0.75 0 0 0.75 0 0.25] CT
0.149 GC
2 setlinecap
1 LJ
0.667 LW
N
78 339 M
78 60 L
S
GR
GS
[0.75 0 0 0.75 0 0.25] CT
0.149 GC
2 setlinecap
1 LJ
0.667 LW
N
357 339 M
357 60 L
S
GR
GS
[0.75 0 0 0.75 0 0.25] CT
0.149 GC
2 setlinecap
1 LJ
0.667 LW
N
78 339 M
80.79 339 L
S
GR
GS
[0.75 0 0 0.75 0 0.25] CT
0.149 GC
2 setlinecap
1 LJ
0.667 LW
N
78 269.25 M
80.79 269.25 L
S
GR
GS
[0.75 0 0 0.75 0 0.25] CT
0.149 GC
2 setlinecap
1 LJ
0.667 LW
N
78 199.5 M
80.79 199.5 L
S
GR
GS
[0.75 0 0 0.75 0 0.25] CT
0.149 GC
2 setlinecap
1 LJ
0.667 LW
N
78 129.75 M
80.79 129.75 L
S
GR
GS
[0.75 0 0 0.75 0 0.25] CT
0.149 GC
2 setlinecap
1 LJ
0.667 LW
N
78 60 M
80.79 60 L
S
GR
GS
[0.75 0 0 0.75 0 0.25] CT
0.149 GC
2 setlinecap
1 LJ
0.667 LW
N
357 339 M
354.21 339 L
S
GR
GS
[0.75 0 0 0.75 0 0.25] CT
0.149 GC
2 setlinecap
1 LJ
0.667 LW
N
357 269.25 M
354.21 269.25 L
S
GR
GS
[0.75 0 0 0.75 0 0.25] CT
0.149 GC
2 setlinecap
1 LJ
0.667 LW
N
357 199.5 M
354.21 199.5 L
S
GR
GS
[0.75 0 0 0.75 0 0.25] CT
0.149 GC
2 setlinecap
1 LJ
0.667 LW
N
357 129.75 M
354.21 129.75 L
S
GR
GS
[0.75 0 0 0.75 0 0.25] CT
0.149 GC
2 setlinecap
1 LJ
0.667 LW
N
357 60 M
354.21 60 L
S
GR
GS
[0.75 0 0 0.75 54.1 254.5] CT
0.149 GC
/Helvetica 16 F
GS
[1 0 0 1 0 0] CT
-24 6.5 moveto 
1 -1 scale
(-10) t 
GR
GR
GS
[0.75 0 0 0.75 54.1 202.1875] CT
0.149 GC
/Helvetica 16 F
GS
[1 0 0 1 0 0] CT
-15 6.5 moveto 
1 -1 scale
(-5) t 
GR
GR
GS
[0.75 0 0 0.75 54.1 149.875] CT
0.149 GC
/Helvetica 16 F
GS
[1 0 0 1 0 0] CT
-9 6.5 moveto 
1 -1 scale
(0) t 
GR
GR
GS
[0.75 0 0 0.75 54.1 97.5625] CT
0.149 GC
/Helvetica 16 F
GS
[1 0 0 1 0 0] CT
-9 6.5 moveto 
1 -1 scale
(5) t 
GR
GR
GS
[0.75 0 0 0.75 54.1 45.25] CT
0.149 GC
/Helvetica 16 F
GS
[1 0 0 1 0 0] CT
-18 6.5 moveto 
1 -1 scale
(10) t 
GR
GR
GS
[0 -0.75 0.75 0 33.1 149.8749] CT
0.149 GC
/Helvetica 17.6 F
GS
[1 0 0 1 0 0] CT
-26.5 -4 moveto 
1 -1 scale
(y [mm]) t 
GR
GR
GS
[0.75 0 0 0.75 163.12516 43] CT
N
-125.25 -4 M
-125.25 -13.516 L
-128.656 -13.516 L
-128.656 -15.453 L
-119.547 -15.453 L
-119.547 -13.516 L
-122.938 -13.516 L
-122.938 -4 L
-125.25 -4 L
cp
-115.977 -4 M
-118.164 -4 L
-118.164 -12.297 L
-116.133 -12.297 L
-116.133 -11.125 L
-115.602 -11.953 -115.188 -12.219 QT
-114.773 -12.484 -114.242 -12.484 QT
-113.492 -12.484 -112.789 -12.078 QT
-113.477 -10.156 L
-114.023 -10.516 -114.508 -10.516 QT
-114.961 -10.516 -115.281 -10.266 QT
-115.602 -10.016 -115.789 -9.352 QT
-115.977 -8.688 -115.977 -6.563 QT
-115.977 -4 L
cp
-110.203 -9.766 M
-112.203 -10.125 L
-111.859 -11.328 -111.039 -11.906 QT
-110.219 -12.484 -108.609 -12.484 QT
-107.141 -12.484 -106.422 -12.141 QT
-105.703 -11.797 -105.406 -11.258 QT
-105.109 -10.719 -105.109 -9.297 QT
-105.141 -6.734 L
-105.141 -5.641 -105.031 -5.117 QT
-104.922 -4.594 -104.641 -4 QT
-106.813 -4 L
-106.891 -4.219 -107.016 -4.656 QT
-107.078 -4.844 -107.094 -4.906 QT
-107.656 -4.359 -108.297 -4.086 QT
-108.938 -3.813 -109.672 -3.813 QT
-110.953 -3.813 -111.688 -4.508 QT
-112.422 -5.203 -112.422 -6.266 QT
-112.422 -6.969 -112.086 -7.523 QT
-111.75 -8.078 -111.148 -8.367 QT
-110.547 -8.656 -109.406 -8.875 QT
-107.859 -9.172 -107.266 -9.422 QT
-107.266 -9.641 L
-107.266 -10.266 -107.578 -10.539 QT
-107.891 -10.813 -108.766 -10.813 QT
-109.344 -10.813 -109.672 -10.578 QT
-110 -10.344 -110.203 -9.766 QT
cp
-107.266 -7.984 M
-107.688 -7.844 -108.602 -7.648 QT
-109.516 -7.453 -109.797 -7.266 QT
-110.234 -6.969 -110.234 -6.5 QT
-110.234 -6.031 -109.891 -5.695 QT
-109.547 -5.359 -109.016 -5.359 QT
-108.422 -5.359 -107.875 -5.75 QT
-107.484 -6.047 -107.359 -6.484 QT
-107.266 -6.766 -107.266 -7.547 QT
-107.266 -7.984 L
cp
-95.711 -9.844 M
-97.883 -9.453 L
-97.992 -10.109 -98.375 -10.438 QT
-98.758 -10.766 -99.383 -10.766 QT
-100.195 -10.766 -100.688 -10.195 QT
-101.18 -9.625 -101.18 -8.297 QT
-101.18 -6.828 -100.68 -6.219 QT
-100.18 -5.609 -99.352 -5.609 QT
-98.727 -5.609 -98.328 -5.961 QT
-97.93 -6.313 -97.758 -7.188 QT
-95.602 -6.813 L
-95.945 -5.328 -96.898 -4.57 QT
-97.852 -3.813 -99.445 -3.813 QT
-101.273 -3.813 -102.352 -4.961 QT
-103.43 -6.109 -103.43 -8.141 QT
-103.43 -10.203 -102.344 -11.344 QT
-101.258 -12.484 -99.414 -12.484 QT
-97.898 -12.484 -97 -11.836 QT
-96.102 -11.188 -95.711 -9.844 QT
cp
-94.125 -4 M
-94.125 -15.453 L
-91.938 -15.453 L
-91.938 -9.375 L
-89.359 -12.297 L
-86.656 -12.297 L
-89.5 -9.266 L
-86.453 -4 L
-88.828 -4 L
-90.906 -7.734 L
-91.938 -6.656 L
-91.938 -4 L
-94.125 -4 L
cp
-85.148 -13.422 M
-85.148 -15.453 L
-82.961 -15.453 L
-82.961 -13.422 L
-85.148 -13.422 L
cp
-85.148 -4 M
-85.148 -12.297 L
-82.961 -12.297 L
-82.961 -4 L
-85.148 -4 L
cp
-73.156 -4 M
-75.359 -4 L
-75.359 -8.234 L
-75.359 -9.578 -75.5 -9.977 QT
-75.641 -10.375 -75.953 -10.594 QT
-76.266 -10.813 -76.719 -10.813 QT
-77.281 -10.813 -77.734 -10.5 QT
-78.188 -10.188 -78.359 -9.672 QT
-78.531 -9.156 -78.531 -7.766 QT
-78.531 -4 L
-80.719 -4 L
-80.719 -12.297 L
-78.688 -12.297 L
-78.688 -11.078 L
-77.594 -12.484 -75.953 -12.484 QT
-75.219 -12.484 -74.617 -12.227 QT
-74.016 -11.969 -73.711 -11.563 QT
-73.406 -11.156 -73.281 -10.641 QT
-73.156 -10.125 -73.156 -9.156 QT
-73.156 -4 L
cp
-71.133 -3.453 M
-68.633 -3.141 L
-68.57 -2.703 -68.336 -2.547 QT
-68.023 -2.313 -67.352 -2.313 QT
-66.492 -2.313 -66.07 -2.563 QT
-65.773 -2.734 -65.633 -3.125 QT
-65.523 -3.391 -65.523 -4.141 QT
-65.523 -5.344 L
-66.508 -4 -68.008 -4 QT
-69.68 -4 -70.664 -5.422 QT
-71.43 -6.531 -71.43 -8.203 QT
-71.43 -10.281 -70.422 -11.383 QT
-69.414 -12.484 -67.93 -12.484 QT
-66.383 -12.484 -65.383 -11.141 QT
-65.383 -12.297 L
-63.336 -12.297 L
-63.336 -4.859 L
-63.336 -3.375 -63.578 -2.648 QT
-63.82 -1.922 -64.258 -1.508 QT
-64.695 -1.094 -65.422 -0.859 QT
-66.148 -0.625 -67.273 -0.625 QT
-69.383 -0.625 -70.266 -1.352 QT
-71.148 -2.078 -71.148 -3.188 QT
-71.148 -3.297 -71.133 -3.453 QT
cp
-69.18 -8.328 M
-69.18 -7 -68.664 -6.391 QT
-68.148 -5.781 -67.398 -5.781 QT
-66.602 -5.781 -66.047 -6.406 QT
-65.492 -7.031 -65.492 -8.266 QT
-65.492 -9.563 -66.023 -10.188 QT
-66.555 -10.813 -67.367 -10.813 QT
-68.148 -10.813 -68.664 -10.195 QT
-69.18 -9.578 -69.18 -8.328 QT
cp
-55.07 -9.766 M
-57.07 -10.125 L
-56.727 -11.328 -55.906 -11.906 QT
-55.086 -12.484 -53.477 -12.484 QT
-52.008 -12.484 -51.289 -12.141 QT
-50.57 -11.797 -50.273 -11.258 QT
-49.977 -10.719 -49.977 -9.297 QT
-50.008 -6.734 L
-50.008 -5.641 -49.898 -5.117 QT
-49.789 -4.594 -49.508 -4 QT
-51.68 -4 L
-51.758 -4.219 -51.883 -4.656 QT
-51.945 -4.844 -51.961 -4.906 QT
-52.523 -4.359 -53.164 -4.086 QT
-53.805 -3.813 -54.539 -3.813 QT
-55.82 -3.813 -56.555 -4.508 QT
-57.289 -5.203 -57.289 -6.266 QT
-57.289 -6.969 -56.953 -7.523 QT
-56.617 -8.078 -56.016 -8.367 QT
-55.414 -8.656 -54.273 -8.875 QT
-52.727 -9.172 -52.133 -9.422 QT
-52.133 -9.641 L
-52.133 -10.266 -52.445 -10.539 QT
-52.758 -10.813 -53.633 -10.813 QT
-54.211 -10.813 -54.539 -10.578 QT
-54.867 -10.344 -55.07 -9.766 QT
cp
-52.133 -7.984 M
-52.555 -7.844 -53.469 -7.648 QT
-54.383 -7.453 -54.664 -7.266 QT
-55.102 -6.969 -55.102 -6.5 QT
-55.102 -6.031 -54.758 -5.695 QT
-54.414 -5.359 -53.883 -5.359 QT
-53.289 -5.359 -52.742 -5.75 QT
-52.352 -6.047 -52.227 -6.484 QT
-52.133 -6.766 -52.133 -7.547 QT
-52.133 -7.984 L
cp
-43.539 -12.297 M
-41.508 -12.297 L
-41.508 -11.172 L
-40.43 -12.484 -38.93 -12.484 QT
-38.133 -12.484 -37.547 -12.156 QT
-36.961 -11.828 -36.586 -11.172 QT
-36.039 -11.828 -35.406 -12.156 QT
-34.773 -12.484 -34.055 -12.484 QT
-33.133 -12.484 -32.5 -12.117 QT
-31.867 -11.75 -31.555 -11.031 QT
-31.336 -10.5 -31.336 -9.313 QT
-31.336 -4 L
-33.523 -4 L
-33.523 -8.75 L
-33.523 -9.984 -33.758 -10.344 QT
-34.055 -10.813 -34.695 -10.813 QT
-35.148 -10.813 -35.555 -10.531 QT
-35.961 -10.25 -36.141 -9.703 QT
-36.32 -9.156 -36.32 -7.984 QT
-36.32 -4 L
-38.523 -4 L
-38.523 -8.547 L
-38.523 -9.766 -38.641 -10.117 QT
-38.758 -10.469 -39 -10.641 QT
-39.242 -10.813 -39.664 -10.813 QT
-40.18 -10.813 -40.586 -10.539 QT
-40.992 -10.266 -41.164 -9.75 QT
-41.336 -9.234 -41.336 -8.031 QT
-41.336 -4 L
-43.539 -4 L
-43.539 -12.297 L
cp
-29.656 -8.266 M
-29.656 -9.359 -29.117 -10.383 QT
-28.578 -11.406 -27.586 -11.945 QT
-26.594 -12.484 -25.375 -12.484 QT
-23.5 -12.484 -22.297 -11.266 QT
-21.094 -10.047 -21.094 -8.172 QT
-21.094 -6.297 -22.305 -5.055 QT
-23.516 -3.813 -25.359 -3.813 QT
-26.5 -3.813 -27.539 -4.328 QT
-28.578 -4.844 -29.117 -5.844 QT
-29.656 -6.844 -29.656 -8.266 QT
cp
-27.406 -8.156 M
-27.406 -6.922 -26.82 -6.266 QT
-26.234 -5.609 -25.375 -5.609 QT
-24.516 -5.609 -23.93 -6.266 QT
-23.344 -6.922 -23.344 -8.172 QT
-23.344 -9.391 -23.93 -10.047 QT
-24.516 -10.703 -25.375 -10.703 QT
-26.234 -10.703 -26.82 -10.047 QT
-27.406 -9.391 -27.406 -8.156 QT
cp
-17.086 -4 M
-20.43 -12.297 L
-18.133 -12.297 L
-16.57 -8.063 L
-16.117 -6.656 L
-15.93 -7.188 -15.883 -7.359 QT
-15.773 -7.719 -15.648 -8.063 QT
-14.07 -12.297 L
-11.82 -12.297 L
-15.117 -4 L
-17.086 -4 L
cp
-10.469 -13.422 M
-10.469 -15.453 L
-8.281 -15.453 L
-8.281 -13.422 L
-10.469 -13.422 L
cp
-10.469 -4 M
-10.469 -12.297 L
-8.281 -12.297 L
-8.281 -4 L
-10.469 -4 L
cp
1.523 -4 M
-0.68 -4 L
-0.68 -8.234 L
-0.68 -9.578 -0.82 -9.977 QT
-0.961 -10.375 -1.273 -10.594 QT
-1.586 -10.813 -2.039 -10.813 QT
-2.602 -10.813 -3.055 -10.5 QT
-3.508 -10.188 -3.68 -9.672 QT
-3.852 -9.156 -3.852 -7.766 QT
-3.852 -4 L
-6.039 -4 L
-6.039 -12.297 L
-4.008 -12.297 L
-4.008 -11.078 L
-2.914 -12.484 -1.273 -12.484 QT
-0.539 -12.484 0.063 -12.227 QT
0.664 -11.969 0.969 -11.563 QT
1.273 -11.156 1.398 -10.641 QT
1.523 -10.125 1.523 -9.156 QT
1.523 -4 L
cp
3.547 -3.453 M
6.047 -3.141 L
6.109 -2.703 6.344 -2.547 QT
6.656 -2.313 7.328 -2.313 QT
8.188 -2.313 8.609 -2.563 QT
8.906 -2.734 9.047 -3.125 QT
9.156 -3.391 9.156 -4.141 QT
9.156 -5.344 L
8.172 -4 6.672 -4 QT
5 -4 4.016 -5.422 QT
3.25 -6.531 3.25 -8.203 QT
3.25 -10.281 4.258 -11.383 QT
5.266 -12.484 6.75 -12.484 QT
8.297 -12.484 9.297 -11.141 QT
9.297 -12.297 L
11.344 -12.297 L
11.344 -4.859 L
11.344 -3.375 11.102 -2.648 QT
10.859 -1.922 10.422 -1.508 QT
9.984 -1.094 9.258 -0.859 QT
8.531 -0.625 7.406 -0.625 QT
5.297 -0.625 4.414 -1.352 QT
3.531 -2.078 3.531 -3.188 QT
3.531 -3.297 3.547 -3.453 QT
cp
5.5 -8.328 M
5.5 -7 6.016 -6.391 QT
6.531 -5.781 7.281 -5.781 QT
8.078 -5.781 8.633 -6.406 QT
9.188 -7.031 9.188 -8.266 QT
9.188 -9.563 8.656 -10.188 QT
8.125 -10.813 7.313 -10.813 QT
6.531 -10.813 6.016 -10.195 QT
5.5 -9.578 5.5 -8.328 QT
cp
20.063 -4 M
17.875 -4 L
17.875 -12.297 L
19.906 -12.297 L
19.906 -11.125 L
20.438 -11.953 20.852 -12.219 QT
21.266 -12.484 21.797 -12.484 QT
22.547 -12.484 23.25 -12.078 QT
22.563 -10.156 L
22.016 -10.516 21.531 -10.516 QT
21.078 -10.516 20.758 -10.266 QT
20.438 -10.016 20.25 -9.352 QT
20.063 -8.688 20.063 -6.563 QT
20.063 -4 L
cp
28.992 -6.641 M
31.18 -6.281 L
30.758 -5.078 29.852 -4.445 QT
28.945 -3.813 27.57 -3.813 QT
25.414 -3.813 24.367 -5.234 QT
23.555 -6.359 23.555 -8.094 QT
23.555 -10.156 24.633 -11.32 QT
25.711 -12.484 27.352 -12.484 QT
29.211 -12.484 30.281 -11.266 QT
31.352 -10.047 31.305 -7.516 QT
25.805 -7.516 L
25.82 -6.547 26.328 -6 QT
26.836 -5.453 27.602 -5.453 QT
28.117 -5.453 28.469 -5.734 QT
28.82 -6.016 28.992 -6.641 QT
cp
29.117 -8.859 M
29.102 -9.813 28.633 -10.313 QT
28.164 -10.813 27.492 -10.813 QT
26.773 -10.813 26.305 -10.281 QT
25.836 -9.766 25.836 -8.859 QT
29.117 -8.859 L
cp
32.125 -12.297 M
33.344 -12.297 L
33.344 -12.922 L
33.344 -13.969 33.57 -14.484 QT
33.797 -15 34.391 -15.328 QT
34.984 -15.656 35.906 -15.656 QT
36.844 -15.656 37.734 -15.375 QT
37.438 -13.844 L
36.922 -13.969 36.438 -13.969 QT
35.953 -13.969 35.75 -13.742 QT
35.547 -13.516 35.547 -12.891 QT
35.547 -12.297 L
37.188 -12.297 L
37.188 -10.578 L
35.547 -10.578 L
35.547 -4 L
33.344 -4 L
33.344 -10.578 L
32.125 -10.578 L
32.125 -12.297 L
cp
43.219 -6.641 M
45.406 -6.281 L
44.984 -5.078 44.078 -4.445 QT
43.172 -3.813 41.797 -3.813 QT
39.641 -3.813 38.594 -5.234 QT
37.781 -6.359 37.781 -8.094 QT
37.781 -10.156 38.859 -11.32 QT
39.938 -12.484 41.578 -12.484 QT
43.438 -12.484 44.508 -11.266 QT
45.578 -10.047 45.531 -7.516 QT
40.031 -7.516 L
40.047 -6.547 40.555 -6 QT
41.063 -5.453 41.828 -5.453 QT
42.344 -5.453 42.695 -5.734 QT
43.047 -6.016 43.219 -6.641 QT
cp
43.344 -8.859 M
43.328 -9.813 42.859 -10.313 QT
42.391 -10.813 41.719 -10.813 QT
41 -10.813 40.531 -10.281 QT
40.063 -9.766 40.063 -8.859 QT
43.344 -8.859 L
cp
49.414 -4 M
47.227 -4 L
47.227 -12.297 L
49.258 -12.297 L
49.258 -11.125 L
49.789 -11.953 50.203 -12.219 QT
50.617 -12.484 51.148 -12.484 QT
51.898 -12.484 52.602 -12.078 QT
51.914 -10.156 L
51.367 -10.516 50.883 -10.516 QT
50.43 -10.516 50.109 -10.266 QT
49.789 -10.016 49.602 -9.352 QT
49.414 -8.688 49.414 -6.563 QT
49.414 -4 L
cp
58.344 -6.641 M
60.531 -6.281 L
60.109 -5.078 59.203 -4.445 QT
58.297 -3.813 56.922 -3.813 QT
54.766 -3.813 53.719 -5.234 QT
52.906 -6.359 52.906 -8.094 QT
52.906 -10.156 53.984 -11.32 QT
55.063 -12.484 56.703 -12.484 QT
58.563 -12.484 59.633 -11.266 QT
60.703 -10.047 60.656 -7.516 QT
55.156 -7.516 L
55.172 -6.547 55.68 -6 QT
56.188 -5.453 56.953 -5.453 QT
57.469 -5.453 57.82 -5.734 QT
58.172 -6.016 58.344 -6.641 QT
cp
58.469 -8.859 M
58.453 -9.813 57.984 -10.313 QT
57.516 -10.813 56.844 -10.813 QT
56.125 -10.813 55.656 -10.281 QT
55.188 -9.766 55.188 -8.859 QT
58.469 -8.859 L
cp
69.992 -4 M
67.789 -4 L
67.789 -8.234 L
67.789 -9.578 67.648 -9.977 QT
67.508 -10.375 67.195 -10.594 QT
66.883 -10.813 66.43 -10.813 QT
65.867 -10.813 65.414 -10.5 QT
64.961 -10.188 64.789 -9.672 QT
64.617 -9.156 64.617 -7.766 QT
64.617 -4 L
62.43 -4 L
62.43 -12.297 L
64.461 -12.297 L
64.461 -11.078 L
65.555 -12.484 67.195 -12.484 QT
67.93 -12.484 68.531 -12.227 QT
69.133 -11.969 69.438 -11.563 QT
69.742 -11.156 69.867 -10.641 QT
69.992 -10.125 69.992 -9.156 QT
69.992 -4 L
cp
79.453 -9.844 M
77.281 -9.453 L
77.172 -10.109 76.789 -10.438 QT
76.406 -10.766 75.781 -10.766 QT
74.969 -10.766 74.477 -10.195 QT
73.984 -9.625 73.984 -8.297 QT
73.984 -6.828 74.484 -6.219 QT
74.984 -5.609 75.813 -5.609 QT
76.438 -5.609 76.836 -5.961 QT
77.234 -6.313 77.406 -7.188 QT
79.563 -6.813 L
79.219 -5.328 78.266 -4.57 QT
77.313 -3.813 75.719 -3.813 QT
73.891 -3.813 72.813 -4.961 QT
71.734 -6.109 71.734 -8.141 QT
71.734 -10.203 72.82 -11.344 QT
73.906 -12.484 75.75 -12.484 QT
77.266 -12.484 78.164 -11.836 QT
79.063 -11.188 79.453 -9.844 QT
cp
85.914 -6.641 M
88.102 -6.281 L
87.68 -5.078 86.773 -4.445 QT
85.867 -3.813 84.492 -3.813 QT
82.336 -3.813 81.289 -5.234 QT
80.477 -6.359 80.477 -8.094 QT
80.477 -10.156 81.555 -11.32 QT
82.633 -12.484 84.273 -12.484 QT
86.133 -12.484 87.203 -11.266 QT
88.273 -10.047 88.227 -7.516 QT
82.727 -7.516 L
82.742 -6.547 83.25 -6 QT
83.758 -5.453 84.523 -5.453 QT
85.039 -5.453 85.391 -5.734 QT
85.742 -6.016 85.914 -6.641 QT
cp
86.039 -8.859 M
86.023 -9.813 85.555 -10.313 QT
85.086 -10.813 84.414 -10.813 QT
83.695 -10.813 83.227 -10.281 QT
82.758 -9.766 82.758 -8.859 QT
86.039 -8.859 L
cp
94.133 -8.25 M
94.133 -9.313 L
101.492 -9.313 L
101.492 -8.25 L
94.133 -8.25 L
cp
107.805 -15.453 M
112.383 -15.453 L
113.742 -15.453 114.414 -15.344 QT
115.086 -15.234 115.609 -14.875 QT
116.133 -14.516 116.484 -13.914 QT
116.836 -13.313 116.836 -12.578 QT
116.836 -11.766 116.406 -11.094 QT
115.977 -10.422 115.227 -10.094 QT
116.273 -9.781 116.836 -9.047 QT
117.398 -8.313 117.398 -7.328 QT
117.398 -6.547 117.039 -5.805 QT
116.68 -5.063 116.047 -4.625 QT
115.414 -4.188 114.492 -4.078 QT
113.914 -4.016 111.711 -4 QT
107.805 -4 L
107.805 -15.453 L
cp
110.117 -13.547 M
110.117 -10.906 L
111.633 -10.906 L
112.992 -10.906 113.32 -10.938 QT
113.914 -11.016 114.25 -11.352 QT
114.586 -11.688 114.586 -12.25 QT
114.586 -12.781 114.297 -13.109 QT
114.008 -13.438 113.43 -13.516 QT
113.086 -13.547 111.445 -13.547 QT
110.117 -13.547 L
cp
110.117 -9 M
110.117 -5.938 L
112.258 -5.938 L
113.508 -5.938 113.852 -6 QT
114.367 -6.094 114.688 -6.461 QT
115.008 -6.828 115.008 -7.438 QT
115.008 -7.953 114.758 -8.313 QT
114.508 -8.672 114.039 -8.836 QT
113.57 -9 111.992 -9 QT
110.117 -9 L
cp
118.766 -7.734 M
121.016 -7.953 L
121.219 -6.813 121.844 -6.281 QT
122.469 -5.75 123.516 -5.75 QT
124.641 -5.75 125.203 -6.227 QT
125.766 -6.703 125.766 -7.328 QT
125.766 -7.734 125.531 -8.023 QT
125.297 -8.313 124.703 -8.516 QT
124.297 -8.656 122.844 -9.016 QT
120.984 -9.484 120.234 -10.156 QT
119.188 -11.094 119.188 -12.453 QT
119.188 -13.328 119.68 -14.094 QT
120.172 -14.859 121.109 -15.258 QT
122.047 -15.656 123.359 -15.656 QT
125.516 -15.656 126.609 -14.711 QT
127.703 -13.766 127.75 -12.188 QT
125.438 -12.078 L
125.297 -12.969 124.805 -13.352 QT
124.313 -13.734 123.344 -13.734 QT
122.328 -13.734 121.766 -13.328 QT
121.391 -13.063 121.391 -12.609 QT
121.391 -12.203 121.734 -11.922 QT
122.172 -11.547 123.859 -11.148 QT
125.547 -10.75 126.359 -10.328 QT
127.172 -9.906 127.625 -9.164 QT
128.078 -8.422 128.078 -7.344 QT
128.078 -6.359 127.531 -5.5 QT
126.984 -4.641 125.984 -4.219 QT
124.984 -3.797 123.5 -3.797 QT
121.328 -3.797 120.164 -4.805 QT
119 -5.813 118.766 -7.734 QT
cp
f
GR
GS
[0.75 0 0 0.75 0 0.25] CT
0 0.447 0.741 RC
1 LJ
2 LW
N
288.113 232.689 M
289.547 229.858 L
291.214 226.965 L
292.815 223.906 L
295.636 221.755 L
298.476 219.79 L
300.782 217.238 L
302.157 213.888 L
301.611 209.612 L
298.73 203.249 L
295.066 195.692 L
291.36 187.97 L
288.005 180.491 L
285.429 174.378 L
282.993 169.227 L
280.691 165.012 L
278.663 160.513 L
276.84 156.262 L
275.236 151.057 L
273.712 146.234 L
271.941 141.669 L
270.003 137.098 L
267.521 133.32 L
264.447 130.328 L
261.279 127.367 L
258.037 124.633 L
254.819 121.903 L
251.396 119.175 L
247.18 116.504 L
242.039 114.696 L
236.693 112.625 L
231.012 111.424 L
225.107 111.622 L
219.401 111.884 L
214.096 113.548 L
210.014 115.009 L
206.69 115.795 L
202.801 116.486 L
198.083 117.226 L
192.414 118.463 L
185.462 120.607 L
177.781 124.214 L
170.285 128.848 L
163.87 133.675 L
158.496 138.066 L
154.56 142.19 L
150.615 146.336 L
146.856 150.698 L
143.56 155.382 L
140.851 160.727 L
138.349 166.222 L
136.164 171.74 L
133.497 176.541 L
130.654 180.916 L
127.858 185.22 L
124.931 189.574 L
122.914 193.287 L
122.707 195.47 L
124.05 197.645 L
126.96 200.885 L
130.516 204.899 L
134.163 210.617 L
137.56 218.225 L
140.817 226.674 L
143.586 234.726 L
145.961 242.515 L
148.202 249.206 L
150.507 254.979 L
153.923 259.731 L
158.282 263.517 L
163.027 266.319 L
168.509 268.149 L
173.844 270.02 L
179.634 272.071 L
185.266 274.363 L
191.027 276.153 L
196.537 277.582 L
202.098 279.878 L
207.699 281.767 L
213.342 283.189 L
218.89 284.008 L
224.361 284.934 L
230.315 285.255 L
236.089 284.412 L
241.732 283.608 L
246.754 282.458 L
251.281 280.546 L
255.61 278.363 L
259.78 276.78 L
264.244 275.1 L
268.238 273.259 L
271.709 271.116 L
274.918 268.444 L
277.979 265.134 L
280.815 260.913 L
283.507 256.455 L
286.306 252.129 L
288.953 247.864 L
291.385 243.748 L
293.383 239.995 L
295.564 236.841 L
S
GR
GS
[0.75 0 0 0.75 0 0.25] CT
0.851 0.325 0.098 RC
[8 8] 0 setdash
2 LJ
2 LW
N
301.2 199.5 M
301.035 194.244 L
300.54 189.01 L
299.717 183.816 L
298.57 178.685 L
297.103 173.635 L
295.322 168.688 L
293.234 163.862 L
290.847 159.177 L
288.17 154.651 L
285.215 150.302 L
281.992 146.148 L
278.515 142.203 L
274.797 138.485 L
270.852 135.008 L
266.698 131.785 L
262.349 128.83 L
257.823 126.153 L
253.138 123.766 L
248.312 121.678 L
243.365 119.897 L
238.315 118.43 L
233.184 117.283 L
227.99 116.46 L
222.756 115.965 L
217.5 115.8 L
212.244 115.965 L
207.01 116.46 L
201.816 117.283 L
196.685 118.43 L
191.635 119.897 L
186.688 121.678 L
181.862 123.766 L
177.177 126.153 L
172.651 128.83 L
168.302 131.785 L
164.148 135.008 L
160.203 138.485 L
156.485 142.203 L
153.008 146.148 L
149.785 150.302 L
146.83 154.651 L
144.153 159.177 L
141.766 163.862 L
139.678 168.688 L
137.897 173.635 L
136.43 178.685 L
135.283 183.816 L
134.46 189.01 L
133.965 194.244 L
133.8 199.5 L
133.965 204.756 L
134.46 209.99 L
135.283 215.184 L
136.43 220.315 L
137.897 225.365 L
139.678 230.312 L
141.766 235.138 L
144.153 239.823 L
146.83 244.349 L
149.785 248.698 L
153.008 252.852 L
156.485 256.797 L
160.203 260.515 L
164.148 263.992 L
168.302 267.215 L
172.651 270.17 L
177.177 272.847 L
181.862 275.234 L
186.688 277.322 L
191.635 279.103 L
196.685 280.57 L
201.816 281.717 L
207.01 282.54 L
212.244 283.035 L
217.5 283.2 L
222.756 283.035 L
227.99 282.54 L
233.184 281.717 L
238.315 280.57 L
243.365 279.103 L
248.312 277.322 L
253.138 275.234 L
257.823 272.847 L
262.349 270.17 L
266.698 267.215 L
270.852 263.992 L
274.797 260.515 L
278.515 256.797 L
281.992 252.852 L
285.215 248.698 L
288.17 244.349 L
290.847 239.823 L
293.234 235.138 L
295.322 230.312 L
297.103 225.365 L
298.57 220.315 L
299.717 215.184 L
300.54 209.99 L
301.035 204.756 L
301.2 199.5 L
S
GR
GS
[0.75 0 0 0.75 0 0.25] CT
1 GC
N
329 89 M
329 66 L
106 66 L
106 89 L
cp
f
GR
GS
[0.75 0 0 0.75 114.75 58.375] CT
/Helvetica 14.667 F
GS
[1 0 0 1 0 0] CT
0 5.5 moveto 
1 -1 scale
(Position) t 
GR
GR
GS
[0.75 0 0 0.75 0 0.25] CT
0 0.447 0.741 RC
1 LJ
2 LW
N
110 77.5 M
150 77.5 L
S
GR
GS
[0.75 0 0 0.75 192.75 58.375] CT
/Helvetica 14.667 F
GS
[1 0 0 1 0 0] CT
0 5.5 moveto 
1 -1 scale
(Reference) t 
GR
GR
GS
[0.75 0 0 0.75 0 0.25] CT
0.851 0.325 0.098 RC
[8 8] 0 setdash
2 LJ
2 LW
N
214 77.5 M
254 77.5 L
S
GR
GS
[0.75 0 0 0.75 0 0.25] CT
0.149 GC
10.0 ML
0.667 LW
N
106 89 M
106 66 L
329 66 L
329 89 L
cp
S
GR
%%Trailer
%%Pages: 1
%%EOF
