%!PS-Adobe-3.0 EPSF-3.0
%%Creator: (MATLAB, The Mathworks, Inc. Version 9.5.0.944444 \(R2018b\). Operating System: Windows 10)
%%Title: D:/LAB/UltrasonicManipulation/IFAC_article/figures/BSv3.eps
%%CreationDate: 2019-02-04T15:41:19
%%Pages: (atend)
%%BoundingBox: 0 0 859 265
%%LanguageLevel: 3
%%EndComments
%%BeginProlog
%%BeginResource: procset (Apache XML Graphics Std ProcSet) 1.2 0
%%Version: 1.2 0
%%Copyright: (Copyright 2001-2003,2010 The Apache Software Foundation. License terms: http://www.apache.org/licenses/LICENSE-2.0)
/bd{bind def}bind def
/ld{load def}bd
/GR/grestore ld
/GS/gsave ld
/RM/rmoveto ld
/C/curveto ld
/t/show ld
/L/lineto ld
/ML/setmiterlimit ld
/CT/concat ld
/f/fill ld
/N/newpath ld
/S/stroke ld
/CC/setcmykcolor ld
/A/ashow ld
/cp/closepath ld
/RC/setrgbcolor ld
/LJ/setlinejoin ld
/GC/setgray ld
/LW/setlinewidth ld
/M/moveto ld
/re {4 2 roll M
1 index 0 rlineto
0 exch rlineto
neg 0 rlineto
cp } bd
/_ctm matrix def
/_tm matrix def
/BT { _ctm currentmatrix pop matrix _tm copy pop 0 0 moveto } bd
/ET { _ctm setmatrix } bd
/iTm { _ctm setmatrix _tm concat } bd
/Tm { _tm astore pop iTm 0 0 moveto } bd
/ux 0.0 def
/uy 0.0 def
/F {
  /Tp exch def
  /Tf exch def
  Tf findfont Tp scalefont setfont
  /cf Tf def  /cs Tp def
} bd
/ULS {currentpoint /uy exch def /ux exch def} bd
/ULE {
  /Tcx currentpoint pop def
  gsave
  newpath
  cf findfont cs scalefont dup
  /FontMatrix get 0 get /Ts exch def /FontInfo get dup
  /UnderlinePosition get Ts mul /To exch def
  /UnderlineThickness get Ts mul /Tt exch def
  ux uy To add moveto  Tcx uy To add lineto
  Tt setlinewidth stroke
  grestore
} bd
/OLE {
  /Tcx currentpoint pop def
  gsave
  newpath
  cf findfont cs scalefont dup
  /FontMatrix get 0 get /Ts exch def /FontInfo get dup
  /UnderlinePosition get Ts mul /To exch def
  /UnderlineThickness get Ts mul /Tt exch def
  ux uy To add cs add moveto Tcx uy To add cs add lineto
  Tt setlinewidth stroke
  grestore
} bd
/SOE {
  /Tcx currentpoint pop def
  gsave
  newpath
  cf findfont cs scalefont dup
  /FontMatrix get 0 get /Ts exch def /FontInfo get dup
  /UnderlinePosition get Ts mul /To exch def
  /UnderlineThickness get Ts mul /Tt exch def
  ux uy To add cs 10 mul 26 idiv add moveto Tcx uy To add cs 10 mul 26 idiv add lineto
  Tt setlinewidth stroke
  grestore
} bd
/QT {
/Y22 exch store
/X22 exch store
/Y21 exch store
/X21 exch store
currentpoint
/Y21 load 2 mul add 3 div exch
/X21 load 2 mul add 3 div exch
/X21 load 2 mul /X22 load add 3 div
/Y21 load 2 mul /Y22 load add 3 div
/X22 load /Y22 load curveto
} bd
/SSPD {
dup length /d exch dict def
{
/v exch def
/k exch def
currentpagedevice k known {
/cpdv currentpagedevice k get def
v cpdv ne {
/upd false def
/nullv v type /nulltype eq def
/nullcpdv cpdv type /nulltype eq def
nullv nullcpdv or
{
/upd true def
} {
/sametype v type cpdv type eq def
sametype {
v type /arraytype eq {
/vlen v length def
/cpdvlen cpdv length def
vlen cpdvlen eq {
0 1 vlen 1 sub {
/i exch def
/obj v i get def
/cpdobj cpdv i get def
obj cpdobj ne {
/upd true def
exit
} if
} for
} {
/upd true def
} ifelse
} {
v type /dicttype eq {
v {
/dv exch def
/dk exch def
/cpddv cpdv dk get def
dv cpddv ne {
/upd true def
exit
} if
} forall
} {
/upd true def
} ifelse
} ifelse
} if
} ifelse
upd true eq {
d k v put
} if
} if
} if
} forall
d length 0 gt {
d setpagedevice
} if
} bd
/RE { % /NewFontName [NewEncodingArray] /FontName RE -
  findfont dup length dict begin
  {
    1 index /FID ne
    {def} {pop pop} ifelse
  } forall
  /Encoding exch def
  /FontName 1 index def
  currentdict definefont pop
  end
} bind def
%%EndResource
%%BeginResource: procset (Apache XML Graphics EPS ProcSet) 1.0 0
%%Version: 1.0 0
%%Copyright: (Copyright 2002-2003 The Apache Software Foundation. License terms: http://www.apache.org/licenses/LICENSE-2.0)
/BeginEPSF { %def
/b4_Inc_state save def         % Save state for cleanup
/dict_count countdictstack def % Count objects on dict stack
/op_count count 1 sub def      % Count objects on operand stack
userdict begin                 % Push userdict on dict stack
/showpage { } def              % Redefine showpage, { } = null proc
0 setgray 0 setlinecap         % Prepare graphics state
1 setlinewidth 0 setlinejoin
10 setmiterlimit [ ] 0 setdash newpath
/languagelevel where           % If level not equal to 1 then
{pop languagelevel             % set strokeadjust and
1 ne                           % overprint to their defaults.
{false setstrokeadjust false setoverprint
} if
} if
} bd
/EndEPSF { %def
count op_count sub {pop} repeat            % Clean up stacks
countdictstack dict_count sub {end} repeat
b4_Inc_state restore
} bd
%%EndResource
%FOPBeginFontDict
%%IncludeResource: font Courier-Oblique
%%IncludeResource: font Courier-BoldOblique
%%IncludeResource: font Courier-Bold
%%IncludeResource: font ZapfDingbats
%%IncludeResource: font Symbol
%%IncludeResource: font Helvetica
%%IncludeResource: font Helvetica-Oblique
%%IncludeResource: font Helvetica-Bold
%%IncludeResource: font Helvetica-BoldOblique
%%IncludeResource: font Times-Roman
%%IncludeResource: font Times-Italic
%%IncludeResource: font Times-Bold
%%IncludeResource: font Times-BoldItalic
%%IncludeResource: font Courier
%FOPEndFontDict
%%BeginResource: encoding WinAnsiEncoding
/WinAnsiEncoding [
/.notdef /.notdef /.notdef /.notdef /.notdef
/.notdef /.notdef /.notdef /.notdef /.notdef
/.notdef /.notdef /.notdef /.notdef /.notdef
/.notdef /.notdef /.notdef /.notdef /.notdef
/.notdef /.notdef /.notdef /.notdef /.notdef
/.notdef /.notdef /.notdef /.notdef /.notdef
/.notdef /.notdef /space /exclam /quotedbl
/numbersign /dollar /percent /ampersand /quotesingle
/parenleft /parenright /asterisk /plus /comma
/hyphen /period /slash /zero /one
/two /three /four /five /six
/seven /eight /nine /colon /semicolon
/less /equal /greater /question /at
/A /B /C /D /E
/F /G /H /I /J
/K /L /M /N /O
/P /Q /R /S /T
/U /V /W /X /Y
/Z /bracketleft /backslash /bracketright /asciicircum
/underscore /quoteleft /a /b /c
/d /e /f /g /h
/i /j /k /l /m
/n /o /p /q /r
/s /t /u /v /w
/x /y /z /braceleft /bar
/braceright /asciitilde /bullet /Euro /bullet
/quotesinglbase /florin /quotedblbase /ellipsis /dagger
/daggerdbl /circumflex /perthousand /Scaron /guilsinglleft
/OE /bullet /Zcaron /bullet /bullet
/quoteleft /quoteright /quotedblleft /quotedblright /bullet
/endash /emdash /asciitilde /trademark /scaron
/guilsinglright /oe /bullet /zcaron /Ydieresis
/space /exclamdown /cent /sterling /currency
/yen /brokenbar /section /dieresis /copyright
/ordfeminine /guillemotleft /logicalnot /sfthyphen /registered
/macron /degree /plusminus /twosuperior /threesuperior
/acute /mu /paragraph /middot /cedilla
/onesuperior /ordmasculine /guillemotright /onequarter /onehalf
/threequarters /questiondown /Agrave /Aacute /Acircumflex
/Atilde /Adieresis /Aring /AE /Ccedilla
/Egrave /Eacute /Ecircumflex /Edieresis /Igrave
/Iacute /Icircumflex /Idieresis /Eth /Ntilde
/Ograve /Oacute /Ocircumflex /Otilde /Odieresis
/multiply /Oslash /Ugrave /Uacute /Ucircumflex
/Udieresis /Yacute /Thorn /germandbls /agrave
/aacute /acircumflex /atilde /adieresis /aring
/ae /ccedilla /egrave /eacute /ecircumflex
/edieresis /igrave /iacute /icircumflex /idieresis
/eth /ntilde /ograve /oacute /ocircumflex
/otilde /odieresis /divide /oslash /ugrave
/uacute /ucircumflex /udieresis /yacute /thorn
/ydieresis
] def
%%EndResource
%FOPBeginFontReencode
/Courier-Oblique findfont
dup length dict begin
  {1 index /FID ne {def} {pop pop} ifelse} forall
  /Encoding WinAnsiEncoding def
  currentdict
end
/Courier-Oblique exch definefont pop
/Courier-BoldOblique findfont
dup length dict begin
  {1 index /FID ne {def} {pop pop} ifelse} forall
  /Encoding WinAnsiEncoding def
  currentdict
end
/Courier-BoldOblique exch definefont pop
/Courier-Bold findfont
dup length dict begin
  {1 index /FID ne {def} {pop pop} ifelse} forall
  /Encoding WinAnsiEncoding def
  currentdict
end
/Courier-Bold exch definefont pop
/Helvetica findfont
dup length dict begin
  {1 index /FID ne {def} {pop pop} ifelse} forall
  /Encoding WinAnsiEncoding def
  currentdict
end
/Helvetica exch definefont pop
/Helvetica-Oblique findfont
dup length dict begin
  {1 index /FID ne {def} {pop pop} ifelse} forall
  /Encoding WinAnsiEncoding def
  currentdict
end
/Helvetica-Oblique exch definefont pop
/Helvetica-Bold findfont
dup length dict begin
  {1 index /FID ne {def} {pop pop} ifelse} forall
  /Encoding WinAnsiEncoding def
  currentdict
end
/Helvetica-Bold exch definefont pop
/Helvetica-BoldOblique findfont
dup length dict begin
  {1 index /FID ne {def} {pop pop} ifelse} forall
  /Encoding WinAnsiEncoding def
  currentdict
end
/Helvetica-BoldOblique exch definefont pop
/Times-Roman findfont
dup length dict begin
  {1 index /FID ne {def} {pop pop} ifelse} forall
  /Encoding WinAnsiEncoding def
  currentdict
end
/Times-Roman exch definefont pop
/Times-Italic findfont
dup length dict begin
  {1 index /FID ne {def} {pop pop} ifelse} forall
  /Encoding WinAnsiEncoding def
  currentdict
end
/Times-Italic exch definefont pop
/Times-Bold findfont
dup length dict begin
  {1 index /FID ne {def} {pop pop} ifelse} forall
  /Encoding WinAnsiEncoding def
  currentdict
end
/Times-Bold exch definefont pop
/Times-BoldItalic findfont
dup length dict begin
  {1 index /FID ne {def} {pop pop} ifelse} forall
  /Encoding WinAnsiEncoding def
  currentdict
end
/Times-BoldItalic exch definefont pop
/Courier findfont
dup length dict begin
  {1 index /FID ne {def} {pop pop} ifelse} forall
  /Encoding WinAnsiEncoding def
  currentdict
end
/Courier exch definefont pop
%FOPEndFontReencode
%%EndProlog
%%Page: 1 1
%%PageBoundingBox: 0 0 859 265
%%BeginPageSetup
[1 0 0 -1 0 265] CT
%%EndPageSetup
GS
[0.75 0 0 0.75 0 0.25] CT
1 GC
N
0 0 1145 353 re
f
GR
GS
[0.75 0 0 0.75 0 0.25] CT
1 GC
N
0 0 1145 353 re
f
GR
GS
[0.75 0 0 0.75 0 0.25] CT
1 GC
N
513 285 M
1036 285 L
1036 26 L
513 26 L
cp
f
GR
GS
[0.75 0 0 0.75 0 0.25] CT
0.873 GC
1 LJ
0.667 LW
N
513 285 M
513 26 L
S
GR
GS
[0.75 0 0 0.75 0 0.25] CT
0.873 GC
1 LJ
0.667 LW
N
643.75 285 M
643.75 26 L
S
GR
GS
[0.75 0 0 0.75 0 0.25] CT
0.873 GC
1 LJ
0.667 LW
N
774.5 285 M
774.5 26 L
S
GR
GS
[0.75 0 0 0.75 0 0.25] CT
0.873 GC
1 LJ
0.667 LW
N
905.25 285 M
905.25 26 L
S
GR
GS
[0.75 0 0 0.75 0 0.25] CT
0.873 GC
1 LJ
0.667 LW
N
1036 285 M
1036 26 L
S
GR
GS
[0.75 0 0 0.75 0 0.25] CT
0.873 GC
1 LJ
0.667 LW
N
1036 266.5 M
513 266.5 L
S
GR
GS
[0.75 0 0 0.75 0 0.25] CT
0.873 GC
1 LJ
0.667 LW
N
1036 229.5 M
513 229.5 L
S
GR
GS
[0.75 0 0 0.75 0 0.25] CT
0.873 GC
1 LJ
0.667 LW
N
1036 192.5 M
513 192.5 L
S
GR
GS
[0.75 0 0 0.75 0 0.25] CT
0.873 GC
1 LJ
0.667 LW
N
1036 155.5 M
513 155.5 L
S
GR
GS
[0.75 0 0 0.75 0 0.25] CT
0.873 GC
1 LJ
0.667 LW
N
1036 118.5 M
513 118.5 L
S
GR
GS
[0.75 0 0 0.75 0 0.25] CT
0.873 GC
1 LJ
0.667 LW
N
1036 81.5 M
513 81.5 L
S
GR
GS
[0.75 0 0 0.75 0 0.25] CT
0.873 GC
1 LJ
0.667 LW
N
1036 44.5 M
513 44.5 L
S
GR
GS
[0.75 0 0 0.75 0 0.25] CT
0.149 GC
2 setlinecap
1 LJ
0.667 LW
N
513 285 M
1036 285 L
S
GR
GS
[0.75 0 0 0.75 0 0.25] CT
0.149 GC
2 setlinecap
1 LJ
0.667 LW
N
513 26 M
1036 26 L
S
GR
GS
[0.75 0 0 0.75 0 0.25] CT
0.149 GC
2 setlinecap
1 LJ
0.667 LW
N
513 285 M
513 279.77 L
S
GR
GS
[0.75 0 0 0.75 0 0.25] CT
0.149 GC
2 setlinecap
1 LJ
0.667 LW
N
643.75 285 M
643.75 279.77 L
S
GR
GS
[0.75 0 0 0.75 0 0.25] CT
0.149 GC
2 setlinecap
1 LJ
0.667 LW
N
774.5 285 M
774.5 279.77 L
S
GR
GS
[0.75 0 0 0.75 0 0.25] CT
0.149 GC
2 setlinecap
1 LJ
0.667 LW
N
905.25 285 M
905.25 279.77 L
S
GR
GS
[0.75 0 0 0.75 0 0.25] CT
0.149 GC
2 setlinecap
1 LJ
0.667 LW
N
1036 285 M
1036 279.77 L
S
GR
GS
[0.75 0 0 0.75 0 0.25] CT
0.149 GC
2 setlinecap
1 LJ
0.667 LW
N
513 26 M
513 31.23 L
S
GR
GS
[0.75 0 0 0.75 0 0.25] CT
0.149 GC
2 setlinecap
1 LJ
0.667 LW
N
643.75 26 M
643.75 31.23 L
S
GR
GS
[0.75 0 0 0.75 0 0.25] CT
0.149 GC
2 setlinecap
1 LJ
0.667 LW
N
774.5 26 M
774.5 31.23 L
S
GR
GS
[0.75 0 0 0.75 0 0.25] CT
0.149 GC
2 setlinecap
1 LJ
0.667 LW
N
905.25 26 M
905.25 31.23 L
S
GR
GS
[0.75 0 0 0.75 0 0.25] CT
0.149 GC
2 setlinecap
1 LJ
0.667 LW
N
1036 26 M
1036 31.23 L
S
GR
GS
[0.75 0 0 0.75 384.75 218.4] CT
0.149 GC
/Helvetica 16 F
GS
[1 0 0 1 0 0] CT
-4.5 17 moveto 
1 -1 scale
(0) t 
GR
GR
GS
[0.75 0 0 0.75 482.8125 218.4] CT
0.149 GC
/Helvetica 16 F
GS
[1 0 0 1 0 0] CT
-11.5 17 moveto 
1 -1 scale
(0.5) t 
GR
GR
GS
[0.75 0 0 0.75 580.875 218.4] CT
0.149 GC
/Helvetica 16 F
GS
[1 0 0 1 0 0] CT
-4.5 17 moveto 
1 -1 scale
(1) t 
GR
GR
GS
[0.75 0 0 0.75 678.9375 218.4] CT
0.149 GC
/Helvetica 16 F
GS
[1 0 0 1 0 0] CT
-11.5 17 moveto 
1 -1 scale
(1.5) t 
GR
GR
GS
[0.75 0 0 0.75 777 218.4] CT
0.149 GC
/Helvetica 16 F
GS
[1 0 0 1 0 0] CT
-4.5 17 moveto 
1 -1 scale
(2) t 
GR
GR
GS
[0.75 0 0 0.75 580.87518 235.15001] CT
0.149 GC
/Helvetica 17.6 F
GS
[1 0 0 1 0 0] CT
-31.5 18 moveto 
1 -1 scale
(Time [s]) t 
GR
GR
GS
[0.75 0 0 0.75 0 0.25] CT
0.149 GC
2 setlinecap
1 LJ
0.667 LW
N
513 285 M
513 26 L
S
GR
GS
[0.75 0 0 0.75 0 0.25] CT
0.149 GC
2 setlinecap
1 LJ
0.667 LW
N
1036 285 M
1036 26 L
S
GR
GS
[0.75 0 0 0.75 0 0.25] CT
0.149 GC
2 setlinecap
1 LJ
0.667 LW
N
513 266.5 M
518.23 266.5 L
S
GR
GS
[0.75 0 0 0.75 0 0.25] CT
0.149 GC
2 setlinecap
1 LJ
0.667 LW
N
513 229.5 M
518.23 229.5 L
S
GR
GS
[0.75 0 0 0.75 0 0.25] CT
0.149 GC
2 setlinecap
1 LJ
0.667 LW
N
513 192.5 M
518.23 192.5 L
S
GR
GS
[0.75 0 0 0.75 0 0.25] CT
0.149 GC
2 setlinecap
1 LJ
0.667 LW
N
513 155.5 M
518.23 155.5 L
S
GR
GS
[0.75 0 0 0.75 0 0.25] CT
0.149 GC
2 setlinecap
1 LJ
0.667 LW
N
513 118.5 M
518.23 118.5 L
S
GR
GS
[0.75 0 0 0.75 0 0.25] CT
0.149 GC
2 setlinecap
1 LJ
0.667 LW
N
513 81.5 M
518.23 81.5 L
S
GR
GS
[0.75 0 0 0.75 0 0.25] CT
0.149 GC
2 setlinecap
1 LJ
0.667 LW
N
513 44.5 M
518.23 44.5 L
S
GR
GS
[0.75 0 0 0.75 0 0.25] CT
0.149 GC
2 setlinecap
1 LJ
0.667 LW
N
1036 266.5 M
1030.77 266.5 L
S
GR
GS
[0.75 0 0 0.75 0 0.25] CT
0.149 GC
2 setlinecap
1 LJ
0.667 LW
N
1036 229.5 M
1030.77 229.5 L
S
GR
GS
[0.75 0 0 0.75 0 0.25] CT
0.149 GC
2 setlinecap
1 LJ
0.667 LW
N
1036 192.5 M
1030.77 192.5 L
S
GR
GS
[0.75 0 0 0.75 0 0.25] CT
0.149 GC
2 setlinecap
1 LJ
0.667 LW
N
1036 155.5 M
1030.77 155.5 L
S
GR
GS
[0.75 0 0 0.75 0 0.25] CT
0.149 GC
2 setlinecap
1 LJ
0.667 LW
N
1036 118.5 M
1030.77 118.5 L
S
GR
GS
[0.75 0 0 0.75 0 0.25] CT
0.149 GC
2 setlinecap
1 LJ
0.667 LW
N
1036 81.5 M
1030.77 81.5 L
S
GR
GS
[0.75 0 0 0.75 0 0.25] CT
0.149 GC
2 setlinecap
1 LJ
0.667 LW
N
1036 44.5 M
1030.77 44.5 L
S
GR
GS
[0.75 0 0 0.75 380.35 200.125] CT
0.149 GC
/Helvetica 16 F
GS
[1 0 0 1 0 0] CT
-15 6.5 moveto 
1 -1 scale
(-6) t 
GR
GR
GS
[0.75 0 0 0.75 380.35 172.375] CT
0.149 GC
/Helvetica 16 F
GS
[1 0 0 1 0 0] CT
-15 6.5 moveto 
1 -1 scale
(-4) t 
GR
GR
GS
[0.75 0 0 0.75 380.35 144.625] CT
0.149 GC
/Helvetica 16 F
GS
[1 0 0 1 0 0] CT
-15 6.5 moveto 
1 -1 scale
(-2) t 
GR
GR
GS
[0.75 0 0 0.75 380.35 116.875] CT
0.149 GC
/Helvetica 16 F
GS
[1 0 0 1 0 0] CT
-9 6.5 moveto 
1 -1 scale
(0) t 
GR
GR
GS
[0.75 0 0 0.75 380.35 89.125] CT
0.149 GC
/Helvetica 16 F
GS
[1 0 0 1 0 0] CT
-9 6.5 moveto 
1 -1 scale
(2) t 
GR
GR
GS
[0.75 0 0 0.75 380.35 61.375] CT
0.149 GC
/Helvetica 16 F
GS
[1 0 0 1 0 0] CT
-9 6.5 moveto 
1 -1 scale
(4) t 
GR
GR
GS
[0.75 0 0 0.75 380.35 33.625] CT
0.149 GC
/Helvetica 16 F
GS
[1 0 0 1 0 0] CT
-9 6.5 moveto 
1 -1 scale
(6) t 
GR
GR
GS
[0 -0.75 0.75 0 366.1 116.87491] CT
0.149 GC
/Helvetica 17.6 F
GS
[1 0 0 1 0 0] CT
-53.5 -4 moveto 
1 -1 scale
(Position [mm]) t 
GR
GR
GS
[0.75 0 0 0.75 0 0.25] CT
0 0.447 0.741 RC
1 LJ
2 LW
N
513 61.856 M
518.23 59.953 L
523.46 57.743 L
528.69 55.621 L
533.92 51.879 L
539.15 48.112 L
544.38 45.055 L
549.61 43.231 L
554.84 43.955 L
560.07 47.776 L
565.3 52.634 L
570.53 57.55 L
575.76 61.999 L
580.99 65.415 L
586.22 68.646 L
591.45 71.698 L
596.68 74.388 L
601.91 76.806 L
607.14 78.932 L
612.37 80.954 L
617.6 83.302 L
622.83 85.872 L
628.06 89.164 L
633.29 93.241 L
638.52 97.442 L
643.75 101.741 L
648.98 106.009 L
654.21 110.548 L
659.44 116.14 L
664.67 122.957 L
669.9 130.047 L
675.13 137.581 L
680.36 145.411 L
685.59 152.979 L
690.82 160.014 L
696.05 165.428 L
701.28 169.836 L
706.51 174.993 L
711.74 181.25 L
716.97 188.768 L
722.2 197.988 L
727.43 208.175 L
732.66 218.114 L
737.89 226.623 L
743.12 233.749 L
748.35 238.969 L
753.58 244.2 L
758.81 249.186 L
764.04 253.556 L
769.27 257.15 L
774.5 260.467 L
779.73 263.364 L
784.96 266.902 L
790.19 270.673 L
795.42 274.38 L
800.65 278.261 L
805.88 280.937 L
811.11 281.211 L
816.34 279.431 L
821.57 275.57 L
826.8 270.855 L
832.03 266.018 L
837.26 261.514 L
842.49 257.194 L
847.72 253.522 L
852.95 250.372 L
858.18 247.401 L
863.41 244.344 L
868.64 239.814 L
873.87 234.033 L
879.1 227.741 L
884.33 220.471 L
889.56 213.395 L
894.79 205.716 L
900.02 198.248 L
905.25 190.607 L
910.48 183.301 L
915.71 175.925 L
920.94 168.498 L
926.17 161.014 L
931.4 153.657 L
936.63 146.401 L
941.86 138.505 L
947.09 130.848 L
952.32 123.365 L
957.55 116.705 L
962.78 110.701 L
968.01 104.96 L
973.24 99.429 L
978.47 93.51 L
983.7 88.213 L
988.93 83.61 L
994.16 79.354 L
999.39 75.294 L
1004.62 71.534 L
1009.85 67.964 L
1015.08 64.252 L
1020.31 60.742 L
1025.54 57.516 L
1030.77 54.866 L
1036 51.975 L
S
GR
GS
[0.75 0 0 0.75 0 0.25] CT
0.851 0.325 0.098 RC
[8 2 4 2] 0 setdash
2 LJ
2 LW
N
513 44.5 M
518.23 44.719 L
523.46 45.375 L
528.69 46.466 L
533.92 47.987 L
539.15 49.933 L
544.38 52.295 L
549.61 55.064 L
554.84 58.23 L
560.07 61.78 L
565.3 65.699 L
570.53 69.973 L
575.76 74.584 L
580.99 79.515 L
586.22 84.746 L
591.45 90.256 L
596.68 96.023 L
601.91 102.025 L
607.14 108.238 L
612.37 114.638 L
617.6 121.199 L
622.83 127.895 L
628.06 134.701 L
633.29 141.588 L
638.52 148.53 L
643.75 155.5 L
648.98 162.47 L
654.21 169.412 L
659.44 176.299 L
664.67 183.105 L
669.9 189.801 L
675.13 196.362 L
680.36 202.762 L
685.59 208.975 L
690.82 214.977 L
696.05 220.744 L
701.28 226.254 L
706.51 231.485 L
711.74 236.416 L
716.97 241.027 L
722.2 245.301 L
727.43 249.22 L
732.66 252.77 L
737.89 255.936 L
743.12 258.705 L
748.35 261.067 L
753.58 263.013 L
758.81 264.534 L
764.04 265.625 L
769.27 266.281 L
774.5 266.5 L
779.73 266.281 L
784.96 265.625 L
790.19 264.534 L
795.42 263.013 L
800.65 261.067 L
805.88 258.705 L
811.11 255.936 L
816.34 252.77 L
821.57 249.22 L
826.8 245.301 L
832.03 241.027 L
837.26 236.416 L
842.49 231.485 L
847.72 226.254 L
852.95 220.744 L
858.18 214.977 L
863.41 208.975 L
868.64 202.762 L
873.87 196.362 L
879.1 189.801 L
884.33 183.105 L
889.56 176.299 L
894.79 169.412 L
900.02 162.47 L
905.25 155.5 L
910.48 148.53 L
915.71 141.588 L
920.94 134.701 L
926.17 127.895 L
931.4 121.199 L
936.63 114.638 L
941.86 108.238 L
947.09 102.025 L
952.32 96.023 L
957.55 90.256 L
962.78 84.746 L
968.01 79.515 L
973.24 74.584 L
978.47 69.973 L
983.7 65.699 L
988.93 61.78 L
994.16 58.23 L
999.39 55.064 L
1004.62 52.295 L
1009.85 49.933 L
1015.08 47.987 L
1020.31 46.466 L
1025.54 45.375 L
1030.77 44.719 L
1036 44.5 L
S
GR
GS
[0.75 0 0 0.75 0 0.25] CT
0.929 0.694 0.125 RC
1 LJ
2 LW
N
513 199.514 M
518.23 195.76 L
523.46 191.924 L
528.69 187.866 L
533.92 185.014 L
539.15 182.407 L
544.38 179.024 L
549.61 174.58 L
554.84 168.91 L
560.07 160.472 L
565.3 150.451 L
570.53 140.209 L
575.76 130.291 L
580.99 122.185 L
586.22 115.353 L
591.45 109.764 L
596.68 103.797 L
601.91 98.159 L
607.14 91.256 L
612.37 84.86 L
617.6 78.807 L
622.83 72.745 L
628.06 67.734 L
633.29 63.766 L
638.52 59.839 L
643.75 56.214 L
648.98 52.594 L
654.21 48.976 L
659.44 45.433 L
664.67 43.035 L
669.9 40.29 L
675.13 38.697 L
680.36 38.959 L
685.59 39.307 L
690.82 41.514 L
696.05 43.451 L
701.28 44.493 L
706.51 45.409 L
711.74 46.391 L
716.97 48.032 L
722.2 50.874 L
727.43 55.659 L
732.66 61.804 L
737.89 68.206 L
743.12 74.029 L
748.35 79.497 L
753.58 84.995 L
758.81 90.78 L
764.04 96.992 L
769.27 104.081 L
774.5 111.368 L
779.73 118.685 L
784.96 125.053 L
790.19 130.855 L
795.42 136.562 L
800.65 142.336 L
805.88 147.26 L
811.11 150.156 L
816.34 153.04 L
821.57 157.336 L
826.8 162.661 L
832.03 170.243 L
837.26 180.332 L
842.49 191.537 L
847.72 202.215 L
852.95 212.545 L
858.18 221.418 L
863.41 229.074 L
868.64 235.376 L
873.87 240.397 L
879.1 244.114 L
884.33 246.539 L
889.56 249.021 L
894.79 251.742 L
900.02 254.781 L
905.25 257.154 L
910.48 259.049 L
915.71 262.094 L
920.94 264.6 L
926.17 266.485 L
931.4 267.571 L
936.63 268.8 L
941.86 269.225 L
947.09 268.108 L
952.32 267.041 L
957.55 265.516 L
962.78 262.981 L
968.01 260.086 L
973.24 257.987 L
978.47 255.758 L
983.7 253.317 L
988.93 250.475 L
994.16 246.931 L
999.39 242.542 L
1004.62 236.943 L
1009.85 231.032 L
1015.08 225.295 L
1020.31 219.639 L
1025.54 214.18 L
1030.77 209.203 L
1036 205.02 L
S
GR
GS
[0.75 0 0 0.75 0 0.25] CT
0 1 0 RC
[8 8] 0 setdash
2 LJ
2 LW
N
513 155.5 M
518.23 148.53 L
523.46 141.588 L
528.69 134.701 L
533.92 127.895 L
539.15 121.199 L
544.38 114.638 L
549.61 108.238 L
554.84 102.025 L
560.07 96.023 L
565.3 90.256 L
570.53 84.746 L
575.76 79.515 L
580.99 74.584 L
586.22 69.973 L
591.45 65.699 L
596.68 61.78 L
601.91 58.23 L
607.14 55.064 L
612.37 52.295 L
617.6 49.933 L
622.83 47.987 L
628.06 46.466 L
633.29 45.375 L
638.52 44.719 L
643.75 44.5 L
648.98 44.719 L
654.21 45.375 L
659.44 46.466 L
664.67 47.987 L
669.9 49.933 L
675.13 52.295 L
680.36 55.064 L
685.59 58.23 L
690.82 61.78 L
696.05 65.699 L
701.28 69.973 L
706.51 74.584 L
711.74 79.515 L
716.97 84.746 L
722.2 90.256 L
727.43 96.023 L
732.66 102.025 L
737.89 108.238 L
743.12 114.638 L
748.35 121.199 L
753.58 127.895 L
758.81 134.701 L
764.04 141.588 L
769.27 148.53 L
774.5 155.5 L
779.73 162.47 L
784.96 169.412 L
790.19 176.299 L
795.42 183.105 L
800.65 189.801 L
805.88 196.362 L
811.11 202.762 L
816.34 208.975 L
821.57 214.977 L
826.8 220.744 L
832.03 226.254 L
837.26 231.485 L
842.49 236.416 L
847.72 241.027 L
852.95 245.301 L
858.18 249.22 L
863.41 252.77 L
868.64 255.936 L
873.87 258.705 L
879.1 261.067 L
884.33 263.013 L
889.56 264.534 L
894.79 265.625 L
900.02 266.281 L
905.25 266.5 L
910.48 266.281 L
915.71 265.625 L
920.94 264.534 L
926.17 263.013 L
931.4 261.067 L
936.63 258.705 L
941.86 255.936 L
947.09 252.77 L
952.32 249.22 L
957.55 245.301 L
962.78 241.027 L
968.01 236.416 L
973.24 231.485 L
978.47 226.254 L
983.7 220.744 L
988.93 214.977 L
994.16 208.975 L
999.39 202.762 L
1004.62 196.362 L
1009.85 189.801 L
1015.08 183.105 L
1020.31 176.299 L
1025.54 169.412 L
1030.77 162.47 L
1036 155.5 L
S
GR
GS
[0.75 0 0 0.75 0 0.25] CT
1 GC
N
708 282 M
708 235 L
517 235 L
517 282 L
cp
f
GR
GS
[0.75 0 0 0.75 423 185.97581] CT
/Helvetica 16 F
GS
[1 0 0 1 0 0] CT
0 6.5 moveto 
1 -1 scale
(x) t 
GR
GR
GS
[0.75 0 0 0.75 0 0.25] CT
0 0.447 0.741 RC
1 LJ
2 LW
N
521 247.634 M
561 247.634 L
S
GR
GS
[0.75 0 0 0.75 467.25 185.97581] CT
/Helvetica 16 F
GS
[1 0 0 1 0 0] CT
0 6.5 moveto 
1 -1 scale
(x-reference) t 
GR
GR
GS
[0.75 0 0 0.75 0 0.25] CT
0.851 0.325 0.098 RC
[8 2 4 2] 0 setdash
2 LJ
2 LW
N
580 247.634 M
620 247.634 L
S
GR
GS
[0.75 0 0 0.75 423 202.2742] CT
/Helvetica 16 F
GS
[1 0 0 1 0 0] CT
0 6.5 moveto 
1 -1 scale
(y) t 
GR
GR
GS
[0.75 0 0 0.75 0 0.25] CT
0.929 0.694 0.125 RC
1 LJ
2 LW
N
521 269.366 M
561 269.366 L
S
GR
GS
[0.75 0 0 0.75 467.25 202.2742] CT
/Helvetica 16 F
GS
[1 0 0 1 0 0] CT
0 6.5 moveto 
1 -1 scale
(y-reference) t 
GR
GR
GS
[0.75 0 0 0.75 0 0.25] CT
0 1 0 RC
[8 8] 0 setdash
2 LJ
2 LW
N
580 269.366 M
620 269.366 L
S
GR
GS
[0.75 0 0 0.75 0 0.25] CT
0.149 GC
10.0 ML
0.667 LW
N
517 282 M
517 235 L
708 235 L
708 282 L
cp
S
GR
GS
[0.75 0 0 0.75 0 0.25] CT
1 GC
N
149 281 M
400 281 L
400 30 L
149 30 L
cp
f
GR
GS
[0.75 0 0 0.75 0 0.25] CT
0.873 GC
1 LJ
0.667 LW
N
149 281 M
149 30 L
S
GR
GS
[0.75 0 0 0.75 0 0.25] CT
0.873 GC
1 LJ
0.667 LW
N
211.75 281 M
211.75 30 L
S
GR
GS
[0.75 0 0 0.75 0 0.25] CT
0.873 GC
1 LJ
0.667 LW
N
274.5 281 M
274.5 30 L
S
GR
GS
[0.75 0 0 0.75 0 0.25] CT
0.873 GC
1 LJ
0.667 LW
N
337.25 281 M
337.25 30 L
S
GR
GS
[0.75 0 0 0.75 0 0.25] CT
0.873 GC
1 LJ
0.667 LW
N
400 281 M
400 30 L
S
GR
GS
[0.75 0 0 0.75 0 0.25] CT
0.873 GC
1 LJ
0.667 LW
N
400 281 M
149 281 L
S
GR
GS
[0.75 0 0 0.75 0 0.25] CT
0.873 GC
1 LJ
0.667 LW
N
400 218.25 M
149 218.25 L
S
GR
GS
[0.75 0 0 0.75 0 0.25] CT
0.873 GC
1 LJ
0.667 LW
N
400 155.5 M
149 155.5 L
S
GR
GS
[0.75 0 0 0.75 0 0.25] CT
0.873 GC
1 LJ
0.667 LW
N
400 92.75 M
149 92.75 L
S
GR
GS
[0.75 0 0 0.75 0 0.25] CT
0.873 GC
1 LJ
0.667 LW
N
400 30 M
149 30 L
S
GR
GS
[0.75 0 0 0.75 0 0.25] CT
0.149 GC
2 setlinecap
1 LJ
0.667 LW
N
149 281 M
400 281 L
S
GR
GS
[0.75 0 0 0.75 0 0.25] CT
0.149 GC
2 setlinecap
1 LJ
0.667 LW
N
149 30 M
400 30 L
S
GR
GS
[0.75 0 0 0.75 0 0.25] CT
0.149 GC
2 setlinecap
1 LJ
0.667 LW
N
149 281 M
149 278.49 L
S
GR
GS
[0.75 0 0 0.75 0 0.25] CT
0.149 GC
2 setlinecap
1 LJ
0.667 LW
N
211.75 281 M
211.75 278.49 L
S
GR
GS
[0.75 0 0 0.75 0 0.25] CT
0.149 GC
2 setlinecap
1 LJ
0.667 LW
N
274.5 281 M
274.5 278.49 L
S
GR
GS
[0.75 0 0 0.75 0 0.25] CT
0.149 GC
2 setlinecap
1 LJ
0.667 LW
N
337.25 281 M
337.25 278.49 L
S
GR
GS
[0.75 0 0 0.75 0 0.25] CT
0.149 GC
2 setlinecap
1 LJ
0.667 LW
N
400 281 M
400 278.49 L
S
GR
GS
[0.75 0 0 0.75 0 0.25] CT
0.149 GC
2 setlinecap
1 LJ
0.667 LW
N
149 30 M
149 32.51 L
S
GR
GS
[0.75 0 0 0.75 0 0.25] CT
0.149 GC
2 setlinecap
1 LJ
0.667 LW
N
211.75 30 M
211.75 32.51 L
S
GR
GS
[0.75 0 0 0.75 0 0.25] CT
0.149 GC
2 setlinecap
1 LJ
0.667 LW
N
274.5 30 M
274.5 32.51 L
S
GR
GS
[0.75 0 0 0.75 0 0.25] CT
0.149 GC
2 setlinecap
1 LJ
0.667 LW
N
337.25 30 M
337.25 32.51 L
S
GR
GS
[0.75 0 0 0.75 0 0.25] CT
0.149 GC
2 setlinecap
1 LJ
0.667 LW
N
400 30 M
400 32.51 L
S
GR
GS
[0.75 0 0 0.75 111.75 215.4] CT
0.149 GC
/Helvetica 16 F
GS
[1 0 0 1 0 0] CT
-12 17 moveto 
1 -1 scale
(-10) t 
GR
GR
GS
[0.75 0 0 0.75 158.8125 215.4] CT
0.149 GC
/Helvetica 16 F
GS
[1 0 0 1 0 0] CT
-7.5 17 moveto 
1 -1 scale
(-5) t 
GR
GR
GS
[0.75 0 0 0.75 205.875 215.4] CT
0.149 GC
/Helvetica 16 F
GS
[1 0 0 1 0 0] CT
-4.5 17 moveto 
1 -1 scale
(0) t 
GR
GR
GS
[0.75 0 0 0.75 252.9375 215.4] CT
0.149 GC
/Helvetica 16 F
GS
[1 0 0 1 0 0] CT
-4.5 17 moveto 
1 -1 scale
(5) t 
GR
GR
GS
[0.75 0 0 0.75 300 215.4] CT
0.149 GC
/Helvetica 16 F
GS
[1 0 0 1 0 0] CT
-9 17 moveto 
1 -1 scale
(10) t 
GR
GR
GS
[0.75 0 0 0.75 205.87509 232.15001] CT
0.149 GC
/Helvetica 17.6 F
GS
[1 0 0 1 0 0] CT
-26.5 18 moveto 
1 -1 scale
(x [mm]) t 
GR
GR
GS
[0.75 0 0 0.75 0 0.25] CT
0.149 GC
2 setlinecap
1 LJ
0.667 LW
N
149 281 M
149 30 L
S
GR
GS
[0.75 0 0 0.75 0 0.25] CT
0.149 GC
2 setlinecap
1 LJ
0.667 LW
N
400 281 M
400 30 L
S
GR
GS
[0.75 0 0 0.75 0 0.25] CT
0.149 GC
2 setlinecap
1 LJ
0.667 LW
N
149 281 M
151.51 281 L
S
GR
GS
[0.75 0 0 0.75 0 0.25] CT
0.149 GC
2 setlinecap
1 LJ
0.667 LW
N
149 218.25 M
151.51 218.25 L
S
GR
GS
[0.75 0 0 0.75 0 0.25] CT
0.149 GC
2 setlinecap
1 LJ
0.667 LW
N
149 155.5 M
151.51 155.5 L
S
GR
GS
[0.75 0 0 0.75 0 0.25] CT
0.149 GC
2 setlinecap
1 LJ
0.667 LW
N
149 92.75 M
151.51 92.75 L
S
GR
GS
[0.75 0 0 0.75 0 0.25] CT
0.149 GC
2 setlinecap
1 LJ
0.667 LW
N
149 30 M
151.51 30 L
S
GR
GS
[0.75 0 0 0.75 0 0.25] CT
0.149 GC
2 setlinecap
1 LJ
0.667 LW
N
400 281 M
397.49 281 L
S
GR
GS
[0.75 0 0 0.75 0 0.25] CT
0.149 GC
2 setlinecap
1 LJ
0.667 LW
N
400 218.25 M
397.49 218.25 L
S
GR
GS
[0.75 0 0 0.75 0 0.25] CT
0.149 GC
2 setlinecap
1 LJ
0.667 LW
N
400 155.5 M
397.49 155.5 L
S
GR
GS
[0.75 0 0 0.75 0 0.25] CT
0.149 GC
2 setlinecap
1 LJ
0.667 LW
N
400 92.75 M
397.49 92.75 L
S
GR
GS
[0.75 0 0 0.75 0 0.25] CT
0.149 GC
2 setlinecap
1 LJ
0.667 LW
N
400 30 M
397.49 30 L
S
GR
GS
[0.75 0 0 0.75 107.35 211] CT
0.149 GC
/Helvetica 16 F
GS
[1 0 0 1 0 0] CT
-24 6.5 moveto 
1 -1 scale
(-10) t 
GR
GR
GS
[0.75 0 0 0.75 107.35 163.9375] CT
0.149 GC
/Helvetica 16 F
GS
[1 0 0 1 0 0] CT
-15 6.5 moveto 
1 -1 scale
(-5) t 
GR
GR
GS
[0.75 0 0 0.75 107.35 116.875] CT
0.149 GC
/Helvetica 16 F
GS
[1 0 0 1 0 0] CT
-9 6.5 moveto 
1 -1 scale
(0) t 
GR
GR
GS
[0.75 0 0 0.75 107.35 69.8125] CT
0.149 GC
/Helvetica 16 F
GS
[1 0 0 1 0 0] CT
-9 6.5 moveto 
1 -1 scale
(5) t 
GR
GR
GS
[0.75 0 0 0.75 107.35 22.75] CT
0.149 GC
/Helvetica 16 F
GS
[1 0 0 1 0 0] CT
-18 6.5 moveto 
1 -1 scale
(10) t 
GR
GR
GS
[0 -0.75 0.75 0 86.35 116.87491] CT
0.149 GC
/Helvetica 17.6 F
GS
[1 0 0 1 0 0] CT
-26.5 -4 moveto 
1 -1 scale
(y [mm]) t 
GR
GR
GS
[0.75 0 0 0.75 0 0.25] CT
0 0.447 0.741 RC
1 LJ
2 LW
N
338.026 185.358 M
339.317 182.811 L
340.816 180.209 L
342.256 177.457 L
344.794 175.521 L
347.35 173.753 L
349.424 171.458 L
350.661 168.444 L
350.17 164.597 L
347.578 158.873 L
344.282 152.075 L
340.947 145.127 L
337.929 138.399 L
335.612 132.9 L
333.42 128.265 L
331.349 124.473 L
329.524 120.426 L
327.885 116.601 L
326.442 111.918 L
325.07 107.579 L
323.477 103.473 L
321.734 99.361 L
319.501 95.962 L
316.735 93.27 L
313.885 90.606 L
310.969 88.147 L
308.073 85.691 L
304.995 83.237 L
301.201 80.833 L
296.577 79.206 L
291.767 77.344 L
286.656 76.263 L
281.344 76.441 L
276.21 76.677 L
271.438 78.174 L
267.765 79.488 L
264.775 80.195 L
261.276 80.817 L
257.032 81.483 L
251.932 82.596 L
245.677 84.524 L
238.767 87.77 L
232.024 91.939 L
226.252 96.281 L
221.418 100.232 L
217.877 103.941 L
214.327 107.671 L
210.945 111.595 L
207.981 115.809 L
205.543 120.618 L
203.293 125.562 L
201.327 130.526 L
198.927 134.845 L
196.369 138.781 L
193.854 142.653 L
191.221 146.57 L
189.406 149.91 L
189.22 151.874 L
190.428 153.831 L
193.047 156.746 L
196.246 160.358 L
199.527 165.502 L
202.582 172.345 L
205.513 179.946 L
208.004 187.19 L
210.141 194.198 L
212.156 200.218 L
214.23 205.411 L
217.303 209.686 L
221.225 213.092 L
225.494 215.614 L
230.425 217.259 L
235.225 218.943 L
240.435 220.788 L
245.501 222.85 L
250.684 224.46 L
255.64 225.746 L
260.644 227.811 L
265.683 229.511 L
270.76 230.79 L
275.75 231.527 L
280.672 232.36 L
286.029 232.649 L
291.223 231.891 L
296.3 231.167 L
300.818 230.132 L
304.891 228.413 L
308.785 226.449 L
312.537 225.025 L
316.553 223.513 L
320.146 221.857 L
323.269 219.929 L
326.156 217.525 L
328.91 214.547 L
331.46 210.749 L
333.883 206.739 L
336.401 202.847 L
338.782 199.011 L
340.97 195.307 L
342.768 191.931 L
344.729 189.093 L
S
GR
GS
[0.75 0 0 0.75 0 0.25] CT
0.851 0.325 0.098 RC
[8 8] 0 setdash
2 LJ
2 LW
N
349.8 155.5 M
349.651 150.772 L
349.206 146.062 L
348.466 141.39 L
347.434 136.774 L
346.115 132.231 L
344.512 127.78 L
342.633 123.439 L
340.486 119.224 L
338.078 115.152 L
335.419 111.24 L
332.52 107.502 L
329.391 103.954 L
326.046 100.609 L
322.498 97.48 L
318.76 94.581 L
314.848 91.922 L
310.776 89.514 L
306.561 87.367 L
302.22 85.488 L
297.769 83.885 L
293.226 82.566 L
288.61 81.534 L
283.938 80.794 L
279.228 80.349 L
274.5 80.2 L
269.772 80.349 L
265.062 80.794 L
260.39 81.534 L
255.774 82.566 L
251.231 83.885 L
246.78 85.488 L
242.439 87.367 L
238.224 89.514 L
234.152 91.922 L
230.24 94.581 L
226.502 97.48 L
222.954 100.609 L
219.609 103.954 L
216.48 107.502 L
213.581 111.24 L
210.922 115.152 L
208.514 119.224 L
206.367 123.439 L
204.488 127.78 L
202.885 132.231 L
201.566 136.774 L
200.534 141.39 L
199.794 146.062 L
199.349 150.772 L
199.2 155.5 L
199.349 160.228 L
199.794 164.938 L
200.534 169.61 L
201.566 174.226 L
202.885 178.769 L
204.488 183.22 L
206.367 187.561 L
208.514 191.776 L
210.922 195.848 L
213.581 199.76 L
216.48 203.498 L
219.609 207.046 L
222.954 210.391 L
226.502 213.52 L
230.24 216.419 L
234.152 219.078 L
238.224 221.486 L
242.439 223.633 L
246.78 225.512 L
251.231 227.115 L
255.774 228.434 L
260.39 229.466 L
265.062 230.206 L
269.772 230.651 L
274.5 230.8 L
279.228 230.651 L
283.938 230.206 L
288.61 229.466 L
293.226 228.434 L
297.769 227.115 L
302.22 225.512 L
306.561 223.633 L
310.776 221.486 L
314.848 219.078 L
318.76 216.419 L
322.498 213.52 L
326.046 210.391 L
329.391 207.046 L
332.52 203.498 L
335.419 199.76 L
338.078 195.848 L
340.486 191.776 L
342.633 187.561 L
344.512 183.22 L
346.115 178.769 L
347.434 174.226 L
348.466 169.61 L
349.206 164.938 L
349.651 160.228 L
349.8 155.5 L
S
GR
GS
[0.75 0 0 0.75 0 0.25] CT
1 GC
N
387 272 M
387 249 L
164 249 L
164 272 L
cp
f
GR
GS
[0.75 0 0 0.75 158.25 195.625] CT
/Helvetica 14.667 F
GS
[1 0 0 1 0 0] CT
0 5.5 moveto 
1 -1 scale
(Position) t 
GR
GR
GS
[0.75 0 0 0.75 0 0.25] CT
0 0.447 0.741 RC
1 LJ
2 LW
N
168 260.5 M
208 260.5 L
S
GR
GS
[0.75 0 0 0.75 236.25 195.625] CT
/Helvetica 14.667 F
GS
[1 0 0 1 0 0] CT
0 5.5 moveto 
1 -1 scale
(Reference) t 
GR
GR
GS
[0.75 0 0 0.75 0 0.25] CT
0.851 0.325 0.098 RC
[8 8] 0 setdash
2 LJ
2 LW
N
272 260.5 M
312 260.5 L
S
GR
GS
[0.75 0 0 0.75 0 0.25] CT
0.149 GC
10.0 ML
0.667 LW
N
164 272 M
164 249 L
387 249 L
387 272 L
cp
S
GR
%%Trailer
%%Pages: 1
%%EOF
