%!PS-Adobe-3.0 EPSF-3.0
%%Creator: (MATLAB, The Mathworks, Inc. Version 9.5.0.944444 \(R2018b\). Operating System: Windows 10)
%%Title: D:/LAB/UltrasonicManipulation/IFAC_article/figures/DB.eps
%%CreationDate: 2019-01-30T16:47:27
%%Pages: (atend)
%%BoundingBox: 0 0 420 315
%%LanguageLevel: 3
%%EndComments
%%BeginProlog
%%BeginResource: procset (Apache XML Graphics Std ProcSet) 1.2 0
%%Version: 1.2 0
%%Copyright: (Copyright 2001-2003,2010 The Apache Software Foundation. License terms: http://www.apache.org/licenses/LICENSE-2.0)
/bd{bind def}bind def
/ld{load def}bd
/GR/grestore ld
/GS/gsave ld
/RM/rmoveto ld
/C/curveto ld
/t/show ld
/L/lineto ld
/ML/setmiterlimit ld
/CT/concat ld
/f/fill ld
/N/newpath ld
/S/stroke ld
/CC/setcmykcolor ld
/A/ashow ld
/cp/closepath ld
/RC/setrgbcolor ld
/LJ/setlinejoin ld
/GC/setgray ld
/LW/setlinewidth ld
/M/moveto ld
/re {4 2 roll M
1 index 0 rlineto
0 exch rlineto
neg 0 rlineto
cp } bd
/_ctm matrix def
/_tm matrix def
/BT { _ctm currentmatrix pop matrix _tm copy pop 0 0 moveto } bd
/ET { _ctm setmatrix } bd
/iTm { _ctm setmatrix _tm concat } bd
/Tm { _tm astore pop iTm 0 0 moveto } bd
/ux 0.0 def
/uy 0.0 def
/F {
  /Tp exch def
  /Tf exch def
  Tf findfont Tp scalefont setfont
  /cf Tf def  /cs Tp def
} bd
/ULS {currentpoint /uy exch def /ux exch def} bd
/ULE {
  /Tcx currentpoint pop def
  gsave
  newpath
  cf findfont cs scalefont dup
  /FontMatrix get 0 get /Ts exch def /FontInfo get dup
  /UnderlinePosition get Ts mul /To exch def
  /UnderlineThickness get Ts mul /Tt exch def
  ux uy To add moveto  Tcx uy To add lineto
  Tt setlinewidth stroke
  grestore
} bd
/OLE {
  /Tcx currentpoint pop def
  gsave
  newpath
  cf findfont cs scalefont dup
  /FontMatrix get 0 get /Ts exch def /FontInfo get dup
  /UnderlinePosition get Ts mul /To exch def
  /UnderlineThickness get Ts mul /Tt exch def
  ux uy To add cs add moveto Tcx uy To add cs add lineto
  Tt setlinewidth stroke
  grestore
} bd
/SOE {
  /Tcx currentpoint pop def
  gsave
  newpath
  cf findfont cs scalefont dup
  /FontMatrix get 0 get /Ts exch def /FontInfo get dup
  /UnderlinePosition get Ts mul /To exch def
  /UnderlineThickness get Ts mul /Tt exch def
  ux uy To add cs 10 mul 26 idiv add moveto Tcx uy To add cs 10 mul 26 idiv add lineto
  Tt setlinewidth stroke
  grestore
} bd
/QT {
/Y22 exch store
/X22 exch store
/Y21 exch store
/X21 exch store
currentpoint
/Y21 load 2 mul add 3 div exch
/X21 load 2 mul add 3 div exch
/X21 load 2 mul /X22 load add 3 div
/Y21 load 2 mul /Y22 load add 3 div
/X22 load /Y22 load curveto
} bd
/SSPD {
dup length /d exch dict def
{
/v exch def
/k exch def
currentpagedevice k known {
/cpdv currentpagedevice k get def
v cpdv ne {
/upd false def
/nullv v type /nulltype eq def
/nullcpdv cpdv type /nulltype eq def
nullv nullcpdv or
{
/upd true def
} {
/sametype v type cpdv type eq def
sametype {
v type /arraytype eq {
/vlen v length def
/cpdvlen cpdv length def
vlen cpdvlen eq {
0 1 vlen 1 sub {
/i exch def
/obj v i get def
/cpdobj cpdv i get def
obj cpdobj ne {
/upd true def
exit
} if
} for
} {
/upd true def
} ifelse
} {
v type /dicttype eq {
v {
/dv exch def
/dk exch def
/cpddv cpdv dk get def
dv cpddv ne {
/upd true def
exit
} if
} forall
} {
/upd true def
} ifelse
} ifelse
} if
} ifelse
upd true eq {
d k v put
} if
} if
} if
} forall
d length 0 gt {
d setpagedevice
} if
} bd
/RE { % /NewFontName [NewEncodingArray] /FontName RE -
  findfont dup length dict begin
  {
    1 index /FID ne
    {def} {pop pop} ifelse
  } forall
  /Encoding exch def
  /FontName 1 index def
  currentdict definefont pop
  end
} bind def
%%EndResource
%%BeginResource: procset (Apache XML Graphics EPS ProcSet) 1.0 0
%%Version: 1.0 0
%%Copyright: (Copyright 2002-2003 The Apache Software Foundation. License terms: http://www.apache.org/licenses/LICENSE-2.0)
/BeginEPSF { %def
/b4_Inc_state save def         % Save state for cleanup
/dict_count countdictstack def % Count objects on dict stack
/op_count count 1 sub def      % Count objects on operand stack
userdict begin                 % Push userdict on dict stack
/showpage { } def              % Redefine showpage, { } = null proc
0 setgray 0 setlinecap         % Prepare graphics state
1 setlinewidth 0 setlinejoin
10 setmiterlimit [ ] 0 setdash newpath
/languagelevel where           % If level not equal to 1 then
{pop languagelevel             % set strokeadjust and
1 ne                           % overprint to their defaults.
{false setstrokeadjust false setoverprint
} if
} if
} bd
/EndEPSF { %def
count op_count sub {pop} repeat            % Clean up stacks
countdictstack dict_count sub {end} repeat
b4_Inc_state restore
} bd
%%EndResource
%FOPBeginFontDict
%%IncludeResource: font Courier-Oblique
%%IncludeResource: font Courier-BoldOblique
%%IncludeResource: font Courier-Bold
%%IncludeResource: font ZapfDingbats
%%IncludeResource: font Symbol
%%IncludeResource: font Helvetica
%%IncludeResource: font Helvetica-Oblique
%%IncludeResource: font Helvetica-Bold
%%IncludeResource: font Helvetica-BoldOblique
%%IncludeResource: font Times-Roman
%%IncludeResource: font Times-Italic
%%IncludeResource: font Times-Bold
%%IncludeResource: font Times-BoldItalic
%%IncludeResource: font Courier
%FOPEndFontDict
%%BeginResource: encoding WinAnsiEncoding
/WinAnsiEncoding [
/.notdef /.notdef /.notdef /.notdef /.notdef
/.notdef /.notdef /.notdef /.notdef /.notdef
/.notdef /.notdef /.notdef /.notdef /.notdef
/.notdef /.notdef /.notdef /.notdef /.notdef
/.notdef /.notdef /.notdef /.notdef /.notdef
/.notdef /.notdef /.notdef /.notdef /.notdef
/.notdef /.notdef /space /exclam /quotedbl
/numbersign /dollar /percent /ampersand /quotesingle
/parenleft /parenright /asterisk /plus /comma
/hyphen /period /slash /zero /one
/two /three /four /five /six
/seven /eight /nine /colon /semicolon
/less /equal /greater /question /at
/A /B /C /D /E
/F /G /H /I /J
/K /L /M /N /O
/P /Q /R /S /T
/U /V /W /X /Y
/Z /bracketleft /backslash /bracketright /asciicircum
/underscore /quoteleft /a /b /c
/d /e /f /g /h
/i /j /k /l /m
/n /o /p /q /r
/s /t /u /v /w
/x /y /z /braceleft /bar
/braceright /asciitilde /bullet /Euro /bullet
/quotesinglbase /florin /quotedblbase /ellipsis /dagger
/daggerdbl /circumflex /perthousand /Scaron /guilsinglleft
/OE /bullet /Zcaron /bullet /bullet
/quoteleft /quoteright /quotedblleft /quotedblright /bullet
/endash /emdash /asciitilde /trademark /scaron
/guilsinglright /oe /bullet /zcaron /Ydieresis
/space /exclamdown /cent /sterling /currency
/yen /brokenbar /section /dieresis /copyright
/ordfeminine /guillemotleft /logicalnot /sfthyphen /registered
/macron /degree /plusminus /twosuperior /threesuperior
/acute /mu /paragraph /middot /cedilla
/onesuperior /ordmasculine /guillemotright /onequarter /onehalf
/threequarters /questiondown /Agrave /Aacute /Acircumflex
/Atilde /Adieresis /Aring /AE /Ccedilla
/Egrave /Eacute /Ecircumflex /Edieresis /Igrave
/Iacute /Icircumflex /Idieresis /Eth /Ntilde
/Ograve /Oacute /Ocircumflex /Otilde /Odieresis
/multiply /Oslash /Ugrave /Uacute /Ucircumflex
/Udieresis /Yacute /Thorn /germandbls /agrave
/aacute /acircumflex /atilde /adieresis /aring
/ae /ccedilla /egrave /eacute /ecircumflex
/edieresis /igrave /iacute /icircumflex /idieresis
/eth /ntilde /ograve /oacute /ocircumflex
/otilde /odieresis /divide /oslash /ugrave
/uacute /ucircumflex /udieresis /yacute /thorn
/ydieresis
] def
%%EndResource
%FOPBeginFontReencode
/Courier-Oblique findfont
dup length dict begin
  {1 index /FID ne {def} {pop pop} ifelse} forall
  /Encoding WinAnsiEncoding def
  currentdict
end
/Courier-Oblique exch definefont pop
/Courier-BoldOblique findfont
dup length dict begin
  {1 index /FID ne {def} {pop pop} ifelse} forall
  /Encoding WinAnsiEncoding def
  currentdict
end
/Courier-BoldOblique exch definefont pop
/Courier-Bold findfont
dup length dict begin
  {1 index /FID ne {def} {pop pop} ifelse} forall
  /Encoding WinAnsiEncoding def
  currentdict
end
/Courier-Bold exch definefont pop
/Helvetica findfont
dup length dict begin
  {1 index /FID ne {def} {pop pop} ifelse} forall
  /Encoding WinAnsiEncoding def
  currentdict
end
/Helvetica exch definefont pop
/Helvetica-Oblique findfont
dup length dict begin
  {1 index /FID ne {def} {pop pop} ifelse} forall
  /Encoding WinAnsiEncoding def
  currentdict
end
/Helvetica-Oblique exch definefont pop
/Helvetica-Bold findfont
dup length dict begin
  {1 index /FID ne {def} {pop pop} ifelse} forall
  /Encoding WinAnsiEncoding def
  currentdict
end
/Helvetica-Bold exch definefont pop
/Helvetica-BoldOblique findfont
dup length dict begin
  {1 index /FID ne {def} {pop pop} ifelse} forall
  /Encoding WinAnsiEncoding def
  currentdict
end
/Helvetica-BoldOblique exch definefont pop
/Times-Roman findfont
dup length dict begin
  {1 index /FID ne {def} {pop pop} ifelse} forall
  /Encoding WinAnsiEncoding def
  currentdict
end
/Times-Roman exch definefont pop
/Times-Italic findfont
dup length dict begin
  {1 index /FID ne {def} {pop pop} ifelse} forall
  /Encoding WinAnsiEncoding def
  currentdict
end
/Times-Italic exch definefont pop
/Times-Bold findfont
dup length dict begin
  {1 index /FID ne {def} {pop pop} ifelse} forall
  /Encoding WinAnsiEncoding def
  currentdict
end
/Times-Bold exch definefont pop
/Times-BoldItalic findfont
dup length dict begin
  {1 index /FID ne {def} {pop pop} ifelse} forall
  /Encoding WinAnsiEncoding def
  currentdict
end
/Times-BoldItalic exch definefont pop
/Courier findfont
dup length dict begin
  {1 index /FID ne {def} {pop pop} ifelse} forall
  /Encoding WinAnsiEncoding def
  currentdict
end
/Courier exch definefont pop
%FOPEndFontReencode
%%EndProlog
%%Page: 1 1
%%PageBoundingBox: 0 0 420 315
%%BeginPageSetup
[1 0 0 -1 0 315] CT
%%EndPageSetup
GS
[0.75 0 0 0.75 0 0] CT
1 GC
N
0 0 560 420 re
f
GR
GS
[0.75 0 0 0.75 0 0] CT
1 GC
N
0 0 560 420 re
f
GR
GS
[0.75 0 0 0.75 0 0] CT
1 GC
N
73 370 M
507 370 L
507 31 L
73 31 L
cp
f
GR
GS
[0.75 0 0 0.75 0 0] CT
0.873 GC
1 LJ
0.667 LW
N
73 370 M
73 31 L
S
GR
GS
[0.75 0 0 0.75 0 0] CT
0.873 GC
1 LJ
0.667 LW
N
145.333 370 M
145.333 31 L
S
GR
GS
[0.75 0 0 0.75 0 0] CT
0.873 GC
1 LJ
0.667 LW
N
217.667 370 M
217.667 31 L
S
GR
GS
[0.75 0 0 0.75 0 0] CT
0.873 GC
1 LJ
0.667 LW
N
290 370 M
290 31 L
S
GR
GS
[0.75 0 0 0.75 0 0] CT
0.873 GC
1 LJ
0.667 LW
N
362.333 370 M
362.333 31 L
S
GR
GS
[0.75 0 0 0.75 0 0] CT
0.873 GC
1 LJ
0.667 LW
N
434.667 370 M
434.667 31 L
S
GR
GS
[0.75 0 0 0.75 0 0] CT
0.873 GC
1 LJ
0.667 LW
N
507 370 M
507 31 L
S
GR
GS
[0.75 0 0 0.75 0 0] CT
0.873 GC
1 LJ
0.667 LW
N
507 370 M
73 370 L
S
GR
GS
[0.75 0 0 0.75 0 0] CT
0.873 GC
1 LJ
0.667 LW
N
507 332.333 M
73 332.333 L
S
GR
GS
[0.75 0 0 0.75 0 0] CT
0.873 GC
1 LJ
0.667 LW
N
507 294.667 M
73 294.667 L
S
GR
GS
[0.75 0 0 0.75 0 0] CT
0.873 GC
1 LJ
0.667 LW
N
507 257 M
73 257 L
S
GR
GS
[0.75 0 0 0.75 0 0] CT
0.873 GC
1 LJ
0.667 LW
N
507 219.333 M
73 219.333 L
S
GR
GS
[0.75 0 0 0.75 0 0] CT
0.873 GC
1 LJ
0.667 LW
N
507 181.667 M
73 181.667 L
S
GR
GS
[0.75 0 0 0.75 0 0] CT
0.873 GC
1 LJ
0.667 LW
N
507 144 M
73 144 L
S
GR
GS
[0.75 0 0 0.75 0 0] CT
0.873 GC
1 LJ
0.667 LW
N
507 106.333 M
73 106.333 L
S
GR
GS
[0.75 0 0 0.75 0 0] CT
0.873 GC
1 LJ
0.667 LW
N
507 68.667 M
73 68.667 L
S
GR
GS
[0.75 0 0 0.75 0 0] CT
0.873 GC
1 LJ
0.667 LW
N
507 31 M
73 31 L
S
GR
GS
[0.75 0 0 0.75 0 0] CT
0.149 GC
2 setlinecap
1 LJ
0.667 LW
N
73 370 M
507 370 L
S
GR
GS
[0.75 0 0 0.75 0 0] CT
0.149 GC
2 setlinecap
1 LJ
0.667 LW
N
73 31 M
507 31 L
S
GR
GS
[0.75 0 0 0.75 0 0] CT
0.149 GC
2 setlinecap
1 LJ
0.667 LW
N
73 370 M
73 365.66 L
S
GR
GS
[0.75 0 0 0.75 0 0] CT
0.149 GC
2 setlinecap
1 LJ
0.667 LW
N
145.333 370 M
145.333 365.66 L
S
GR
GS
[0.75 0 0 0.75 0 0] CT
0.149 GC
2 setlinecap
1 LJ
0.667 LW
N
217.667 370 M
217.667 365.66 L
S
GR
GS
[0.75 0 0 0.75 0 0] CT
0.149 GC
2 setlinecap
1 LJ
0.667 LW
N
290 370 M
290 365.66 L
S
GR
GS
[0.75 0 0 0.75 0 0] CT
0.149 GC
2 setlinecap
1 LJ
0.667 LW
N
362.333 370 M
362.333 365.66 L
S
GR
GS
[0.75 0 0 0.75 0 0] CT
0.149 GC
2 setlinecap
1 LJ
0.667 LW
N
434.667 370 M
434.667 365.66 L
S
GR
GS
[0.75 0 0 0.75 0 0] CT
0.149 GC
2 setlinecap
1 LJ
0.667 LW
N
507 370 M
507 365.66 L
S
GR
GS
[0.75 0 0 0.75 0 0] CT
0.149 GC
2 setlinecap
1 LJ
0.667 LW
N
73 31 M
73 35.34 L
S
GR
GS
[0.75 0 0 0.75 0 0] CT
0.149 GC
2 setlinecap
1 LJ
0.667 LW
N
145.333 31 M
145.333 35.34 L
S
GR
GS
[0.75 0 0 0.75 0 0] CT
0.149 GC
2 setlinecap
1 LJ
0.667 LW
N
217.667 31 M
217.667 35.34 L
S
GR
GS
[0.75 0 0 0.75 0 0] CT
0.149 GC
2 setlinecap
1 LJ
0.667 LW
N
290 31 M
290 35.34 L
S
GR
GS
[0.75 0 0 0.75 0 0] CT
0.149 GC
2 setlinecap
1 LJ
0.667 LW
N
362.333 31 M
362.333 35.34 L
S
GR
GS
[0.75 0 0 0.75 0 0] CT
0.149 GC
2 setlinecap
1 LJ
0.667 LW
N
434.667 31 M
434.667 35.34 L
S
GR
GS
[0.75 0 0 0.75 0 0] CT
0.149 GC
2 setlinecap
1 LJ
0.667 LW
N
507 31 M
507 35.34 L
S
GR
GS
[0.75 0 0 0.75 54.75 281.9] CT
0.149 GC
/Helvetica 16 F
GS
[1 0 0 1 0 0] CT
-12 17 moveto 
1 -1 scale
(-15) t 
GR
GR
GS
[0.75 0 0 0.75 109 281.9] CT
0.149 GC
/Helvetica 16 F
GS
[1 0 0 1 0 0] CT
-12 17 moveto 
1 -1 scale
(-10) t 
GR
GR
GS
[0.75 0 0 0.75 163.25 281.9] CT
0.149 GC
/Helvetica 16 F
GS
[1 0 0 1 0 0] CT
-7.5 17 moveto 
1 -1 scale
(-5) t 
GR
GR
GS
[0.75 0 0 0.75 217.5 281.9] CT
0.149 GC
/Helvetica 16 F
GS
[1 0 0 1 0 0] CT
-4.5 17 moveto 
1 -1 scale
(0) t 
GR
GR
GS
[0.75 0 0 0.75 271.75001 281.9] CT
0.149 GC
/Helvetica 16 F
GS
[1 0 0 1 0 0] CT
-4.5 17 moveto 
1 -1 scale
(5) t 
GR
GR
GS
[0.75 0 0 0.75 325.99999 281.9] CT
0.149 GC
/Helvetica 16 F
GS
[1 0 0 1 0 0] CT
-9 17 moveto 
1 -1 scale
(10) t 
GR
GR
GS
[0.75 0 0 0.75 380.25 281.9] CT
0.149 GC
/Helvetica 16 F
GS
[1 0 0 1 0 0] CT
-9 17 moveto 
1 -1 scale
(15) t 
GR
GR
GS
[0.75 0 0 0.75 217.50016 298.65001] CT
0.149 GC
/Helvetica 17.6 F
GS
[1 0 0 1 0 0] CT
-26.5 18 moveto 
1 -1 scale
(x [mm]) t 
GR
GR
GS
[0.75 0 0 0.75 0 0] CT
0.149 GC
2 setlinecap
1 LJ
0.667 LW
N
73 370 M
73 31 L
S
GR
GS
[0.75 0 0 0.75 0 0] CT
0.149 GC
2 setlinecap
1 LJ
0.667 LW
N
507 370 M
507 31 L
S
GR
GS
[0.75 0 0 0.75 0 0] CT
0.149 GC
2 setlinecap
1 LJ
0.667 LW
N
73 370 M
77.34 370 L
S
GR
GS
[0.75 0 0 0.75 0 0] CT
0.149 GC
2 setlinecap
1 LJ
0.667 LW
N
73 332.333 M
77.34 332.333 L
S
GR
GS
[0.75 0 0 0.75 0 0] CT
0.149 GC
2 setlinecap
1 LJ
0.667 LW
N
73 294.667 M
77.34 294.667 L
S
GR
GS
[0.75 0 0 0.75 0 0] CT
0.149 GC
2 setlinecap
1 LJ
0.667 LW
N
73 257 M
77.34 257 L
S
GR
GS
[0.75 0 0 0.75 0 0] CT
0.149 GC
2 setlinecap
1 LJ
0.667 LW
N
73 219.333 M
77.34 219.333 L
S
GR
GS
[0.75 0 0 0.75 0 0] CT
0.149 GC
2 setlinecap
1 LJ
0.667 LW
N
73 181.667 M
77.34 181.667 L
S
GR
GS
[0.75 0 0 0.75 0 0] CT
0.149 GC
2 setlinecap
1 LJ
0.667 LW
N
73 144 M
77.34 144 L
S
GR
GS
[0.75 0 0 0.75 0 0] CT
0.149 GC
2 setlinecap
1 LJ
0.667 LW
N
73 106.333 M
77.34 106.333 L
S
GR
GS
[0.75 0 0 0.75 0 0] CT
0.149 GC
2 setlinecap
1 LJ
0.667 LW
N
73 68.667 M
77.34 68.667 L
S
GR
GS
[0.75 0 0 0.75 0 0] CT
0.149 GC
2 setlinecap
1 LJ
0.667 LW
N
73 31 M
77.34 31 L
S
GR
GS
[0.75 0 0 0.75 0 0] CT
0.149 GC
2 setlinecap
1 LJ
0.667 LW
N
507 370 M
502.66 370 L
S
GR
GS
[0.75 0 0 0.75 0 0] CT
0.149 GC
2 setlinecap
1 LJ
0.667 LW
N
507 332.333 M
502.66 332.333 L
S
GR
GS
[0.75 0 0 0.75 0 0] CT
0.149 GC
2 setlinecap
1 LJ
0.667 LW
N
507 294.667 M
502.66 294.667 L
S
GR
GS
[0.75 0 0 0.75 0 0] CT
0.149 GC
2 setlinecap
1 LJ
0.667 LW
N
507 257 M
502.66 257 L
S
GR
GS
[0.75 0 0 0.75 0 0] CT
0.149 GC
2 setlinecap
1 LJ
0.667 LW
N
507 219.333 M
502.66 219.333 L
S
GR
GS
[0.75 0 0 0.75 0 0] CT
0.149 GC
2 setlinecap
1 LJ
0.667 LW
N
507 181.667 M
502.66 181.667 L
S
GR
GS
[0.75 0 0 0.75 0 0] CT
0.149 GC
2 setlinecap
1 LJ
0.667 LW
N
507 144 M
502.66 144 L
S
GR
GS
[0.75 0 0 0.75 0 0] CT
0.149 GC
2 setlinecap
1 LJ
0.667 LW
N
507 106.333 M
502.66 106.333 L
S
GR
GS
[0.75 0 0 0.75 0 0] CT
0.149 GC
2 setlinecap
1 LJ
0.667 LW
N
507 68.667 M
502.66 68.667 L
S
GR
GS
[0.75 0 0 0.75 0 0] CT
0.149 GC
2 setlinecap
1 LJ
0.667 LW
N
507 31 M
502.66 31 L
S
GR
GS
[0.75 0 0 0.75 50.35 277.5] CT
0.149 GC
/Helvetica 16 F
GS
[1 0 0 1 0 0] CT
-15 6.5 moveto 
1 -1 scale
(-8) t 
GR
GR
GS
[0.75 0 0 0.75 50.35 249.25001] CT
0.149 GC
/Helvetica 16 F
GS
[1 0 0 1 0 0] CT
-15 6.5 moveto 
1 -1 scale
(-6) t 
GR
GR
GS
[0.75 0 0 0.75 50.35 220.99999] CT
0.149 GC
/Helvetica 16 F
GS
[1 0 0 1 0 0] CT
-15 6.5 moveto 
1 -1 scale
(-4) t 
GR
GR
GS
[0.75 0 0 0.75 50.35 192.75] CT
0.149 GC
/Helvetica 16 F
GS
[1 0 0 1 0 0] CT
-15 6.5 moveto 
1 -1 scale
(-2) t 
GR
GR
GS
[0.75 0 0 0.75 50.35 164.5] CT
0.149 GC
/Helvetica 16 F
GS
[1 0 0 1 0 0] CT
-9 6.5 moveto 
1 -1 scale
(0) t 
GR
GR
GS
[0.75 0 0 0.75 50.35 136.25] CT
0.149 GC
/Helvetica 16 F
GS
[1 0 0 1 0 0] CT
-9 6.5 moveto 
1 -1 scale
(2) t 
GR
GR
GS
[0.75 0 0 0.75 50.35 108] CT
0.149 GC
/Helvetica 16 F
GS
[1 0 0 1 0 0] CT
-9 6.5 moveto 
1 -1 scale
(4) t 
GR
GR
GS
[0.75 0 0 0.75 50.35 79.75] CT
0.149 GC
/Helvetica 16 F
GS
[1 0 0 1 0 0] CT
-9 6.5 moveto 
1 -1 scale
(6) t 
GR
GR
GS
[0.75 0 0 0.75 50.35 51.5] CT
0.149 GC
/Helvetica 16 F
GS
[1 0 0 1 0 0] CT
-9 6.5 moveto 
1 -1 scale
(8) t 
GR
GR
GS
[0.75 0 0 0.75 50.35 23.25] CT
0.149 GC
/Helvetica 16 F
GS
[1 0 0 1 0 0] CT
-18 6.5 moveto 
1 -1 scale
(10) t 
GR
GR
GS
[0 -0.75 0.75 0 33.85 150.37487] CT
0.149 GC
/Helvetica 17.6 F
GS
[1 0 0 1 0 0] CT
-26.5 -4 moveto 
1 -1 scale
(y [mm]) t 
GR
GR
GS
[0.75 0 0 0.75 217.50021 20.775] CT
N
-137.297 -4 M
-137.297 -14.703 L
-141.109 -14.703 L
-141.109 -16.891 L
-130.875 -16.891 L
-130.875 -14.703 L
-134.688 -14.703 L
-134.688 -4 L
-137.297 -4 L
cp
-127.097 -4 M
-129.566 -4 L
-129.566 -13.328 L
-127.269 -13.328 L
-127.269 -12 L
-126.691 -12.953 -126.214 -13.25 QT
-125.737 -13.547 -125.144 -13.547 QT
-124.3 -13.547 -123.519 -13.078 QT
-124.284 -10.922 L
-124.909 -11.328 -125.441 -11.328 QT
-125.956 -11.328 -126.323 -11.047 QT
-126.691 -10.766 -126.894 -10.016 QT
-127.097 -9.266 -127.097 -6.891 QT
-127.097 -4 L
cp
-120.766 -10.484 M
-123.016 -10.891 L
-122.625 -12.25 -121.703 -12.898 QT
-120.781 -13.547 -118.969 -13.547 QT
-117.313 -13.547 -116.508 -13.156 QT
-115.703 -12.766 -115.367 -12.164 QT
-115.031 -11.563 -115.031 -9.953 QT
-115.063 -7.063 L
-115.063 -5.844 -114.945 -5.258 QT
-114.828 -4.672 -114.5 -4 QT
-116.938 -4 L
-117.047 -4.25 -117.188 -4.734 QT
-117.25 -4.953 -117.266 -5.016 QT
-117.906 -4.406 -118.625 -4.094 QT
-119.344 -3.781 -120.156 -3.781 QT
-121.609 -3.781 -122.438 -4.57 QT
-123.266 -5.359 -123.266 -6.547 QT
-123.266 -7.344 -122.891 -7.961 QT
-122.516 -8.578 -121.828 -8.906 QT
-121.141 -9.234 -119.859 -9.484 QT
-118.125 -9.813 -117.469 -10.094 QT
-117.469 -10.344 L
-117.469 -11.047 -117.82 -11.352 QT
-118.172 -11.656 -119.141 -11.656 QT
-119.797 -11.656 -120.172 -11.398 QT
-120.547 -11.141 -120.766 -10.484 QT
cp
-117.469 -8.484 M
-117.938 -8.328 -118.969 -8.109 QT
-120 -7.891 -120.313 -7.672 QT
-120.797 -7.328 -120.797 -6.797 QT
-120.797 -6.281 -120.406 -5.906 QT
-120.016 -5.531 -119.422 -5.531 QT
-118.75 -5.531 -118.156 -5.969 QT
-117.703 -6.297 -117.563 -6.781 QT
-117.469 -7.109 -117.469 -7.984 QT
-117.469 -8.484 L
cp
-104.684 -10.578 M
-107.121 -10.141 L
-107.246 -10.859 -107.684 -11.234 QT
-108.121 -11.609 -108.809 -11.609 QT
-109.731 -11.609 -110.286 -10.969 QT
-110.84 -10.328 -110.84 -8.828 QT
-110.84 -7.172 -110.278 -6.484 QT
-109.715 -5.797 -108.778 -5.797 QT
-108.075 -5.797 -107.629 -6.203 QT
-107.184 -6.609 -106.996 -7.578 QT
-104.575 -7.172 L
-104.95 -5.5 -106.02 -4.641 QT
-107.09 -3.781 -108.887 -3.781 QT
-110.934 -3.781 -112.153 -5.078 QT
-113.371 -6.375 -113.371 -8.656 QT
-113.371 -10.969 -112.153 -12.258 QT
-110.934 -13.547 -108.84 -13.547 QT
-107.137 -13.547 -106.137 -12.813 QT
-105.137 -12.078 -104.684 -10.578 QT
cp
-103.134 -4 M
-103.134 -16.891 L
-100.665 -16.891 L
-100.665 -10.047 L
-97.774 -13.328 L
-94.727 -13.328 L
-97.915 -9.922 L
-94.509 -4 L
-97.165 -4 L
-99.509 -8.188 L
-100.665 -6.984 L
-100.665 -4 L
-103.134 -4 L
cp
-93.255 -14.594 M
-93.255 -16.891 L
-90.786 -16.891 L
-90.786 -14.594 L
-93.255 -14.594 L
cp
-93.255 -4 M
-93.255 -13.328 L
-90.786 -13.328 L
-90.786 -4 L
-93.255 -4 L
cp
-79.882 -4 M
-82.351 -4 L
-82.351 -8.766 L
-82.351 -10.281 -82.507 -10.719 QT
-82.664 -11.156 -83.023 -11.406 QT
-83.382 -11.656 -83.882 -11.656 QT
-84.523 -11.656 -85.031 -11.305 QT
-85.539 -10.953 -85.726 -10.375 QT
-85.914 -9.797 -85.914 -8.234 QT
-85.914 -4 L
-88.382 -4 L
-88.382 -13.328 L
-86.101 -13.328 L
-86.101 -11.969 L
-84.867 -13.547 -83.023 -13.547 QT
-82.195 -13.547 -81.523 -13.25 QT
-80.851 -12.953 -80.5 -12.5 QT
-80.148 -12.047 -80.015 -11.461 QT
-79.882 -10.875 -79.882 -9.797 QT
-79.882 -4 L
cp
-77.854 -3.391 M
-75.026 -3.047 L
-74.964 -2.547 -74.714 -2.359 QT
-74.354 -2.094 -73.604 -2.094 QT
-72.636 -2.094 -72.151 -2.391 QT
-71.823 -2.578 -71.651 -3.016 QT
-71.542 -3.328 -71.542 -4.156 QT
-71.542 -5.516 L
-72.651 -4 -74.339 -4 QT
-76.214 -4 -77.323 -5.594 QT
-78.182 -6.844 -78.182 -8.719 QT
-78.182 -11.063 -77.05 -12.305 QT
-75.917 -13.547 -74.245 -13.547 QT
-72.511 -13.547 -71.386 -12.031 QT
-71.386 -13.328 L
-69.073 -13.328 L
-69.073 -4.953 L
-69.073 -3.313 -69.346 -2.492 QT
-69.62 -1.672 -70.112 -1.203 QT
-70.604 -0.734 -71.425 -0.477 QT
-72.245 -0.219 -73.495 -0.219 QT
-75.87 -0.219 -76.862 -1.031 QT
-77.854 -1.844 -77.854 -3.078 QT
-77.854 -3.203 -77.854 -3.391 QT
cp
-75.651 -8.859 M
-75.651 -7.375 -75.073 -6.688 QT
-74.495 -6 -73.651 -6 QT
-72.745 -6 -72.12 -6.703 QT
-71.495 -7.406 -71.495 -8.797 QT
-71.495 -10.25 -72.096 -10.953 QT
-72.698 -11.656 -73.604 -11.656 QT
-74.495 -11.656 -75.073 -10.969 QT
-75.651 -10.281 -75.651 -8.859 QT
cp
-60.141 -10.484 M
-62.391 -10.891 L
-62 -12.25 -61.079 -12.898 QT
-60.157 -13.547 -58.344 -13.547 QT
-56.688 -13.547 -55.883 -13.156 QT
-55.079 -12.766 -54.743 -12.164 QT
-54.407 -11.563 -54.407 -9.953 QT
-54.438 -7.063 L
-54.438 -5.844 -54.321 -5.258 QT
-54.204 -4.672 -53.875 -4 QT
-56.313 -4 L
-56.422 -4.25 -56.563 -4.734 QT
-56.625 -4.953 -56.641 -5.016 QT
-57.282 -4.406 -58 -4.094 QT
-58.719 -3.781 -59.532 -3.781 QT
-60.985 -3.781 -61.813 -4.57 QT
-62.641 -5.359 -62.641 -6.547 QT
-62.641 -7.344 -62.266 -7.961 QT
-61.891 -8.578 -61.204 -8.906 QT
-60.516 -9.234 -59.235 -9.484 QT
-57.5 -9.813 -56.844 -10.094 QT
-56.844 -10.344 L
-56.844 -11.047 -57.196 -11.352 QT
-57.547 -11.656 -58.516 -11.656 QT
-59.172 -11.656 -59.547 -11.398 QT
-59.922 -11.141 -60.141 -10.484 QT
cp
-56.844 -8.484 M
-57.313 -8.328 -58.344 -8.109 QT
-59.375 -7.891 -59.688 -7.672 QT
-60.172 -7.328 -60.172 -6.797 QT
-60.172 -6.281 -59.782 -5.906 QT
-59.391 -5.531 -58.797 -5.531 QT
-58.125 -5.531 -57.532 -5.969 QT
-57.079 -6.297 -56.938 -6.781 QT
-56.844 -7.109 -56.844 -7.984 QT
-56.844 -8.484 L
cp
-47.499 -13.328 M
-45.218 -13.328 L
-45.218 -12.063 L
-43.999 -13.547 -42.312 -13.547 QT
-41.421 -13.547 -40.757 -13.18 QT
-40.093 -12.813 -39.671 -12.063 QT
-39.062 -12.813 -38.351 -13.18 QT
-37.64 -13.547 -36.828 -13.547 QT
-35.796 -13.547 -35.085 -13.125 QT
-34.374 -12.703 -34.031 -11.906 QT
-33.765 -11.297 -33.765 -9.969 QT
-33.765 -4 L
-36.249 -4 L
-36.249 -9.328 L
-36.249 -10.719 -36.499 -11.125 QT
-36.843 -11.656 -37.546 -11.656 QT
-38.078 -11.656 -38.531 -11.336 QT
-38.984 -11.016 -39.187 -10.406 QT
-39.39 -9.797 -39.39 -8.484 QT
-39.39 -4 L
-41.859 -4 L
-41.859 -9.109 L
-41.859 -10.484 -41.992 -10.875 QT
-42.124 -11.266 -42.398 -11.461 QT
-42.671 -11.656 -43.156 -11.656 QT
-43.718 -11.656 -44.179 -11.352 QT
-44.64 -11.047 -44.835 -10.461 QT
-45.031 -9.875 -45.031 -8.531 QT
-45.031 -4 L
-47.499 -4 L
-47.499 -13.328 L
cp
-32.246 -8.797 M
-32.246 -10.031 -31.637 -11.18 QT
-31.028 -12.328 -29.918 -12.938 QT
-28.809 -13.547 -27.434 -13.547 QT
-25.324 -13.547 -23.965 -12.172 QT
-22.606 -10.797 -22.606 -8.688 QT
-22.606 -6.578 -23.973 -5.18 QT
-25.34 -3.781 -27.418 -3.781 QT
-28.699 -3.781 -29.864 -4.367 QT
-31.028 -4.953 -31.637 -6.07 QT
-32.246 -7.188 -32.246 -8.797 QT
cp
-29.715 -8.672 M
-29.715 -7.281 -29.051 -6.539 QT
-28.387 -5.797 -27.434 -5.797 QT
-26.465 -5.797 -25.809 -6.539 QT
-25.153 -7.281 -25.153 -8.688 QT
-25.153 -10.063 -25.809 -10.797 QT
-26.465 -11.531 -27.434 -11.531 QT
-28.387 -11.531 -29.051 -10.797 QT
-29.715 -10.063 -29.715 -8.672 QT
cp
-18.359 -4 M
-22.124 -13.328 L
-19.531 -13.328 L
-17.765 -8.578 L
-17.265 -6.984 L
-17.062 -7.594 -16.999 -7.781 QT
-16.89 -8.172 -16.749 -8.578 QT
-14.968 -13.328 L
-12.421 -13.328 L
-16.14 -4 L
-18.359 -4 L
cp
-11.136 -14.594 M
-11.136 -16.891 L
-8.668 -16.891 L
-8.668 -14.594 L
-11.136 -14.594 L
cp
-11.136 -4 M
-11.136 -13.328 L
-8.668 -13.328 L
-8.668 -4 L
-11.136 -4 L
cp
2.236 -4 M
-0.233 -4 L
-0.233 -8.766 L
-0.233 -10.281 -0.389 -10.719 QT
-0.545 -11.156 -0.905 -11.406 QT
-1.264 -11.656 -1.764 -11.656 QT
-2.405 -11.656 -2.912 -11.305 QT
-3.42 -10.953 -3.608 -10.375 QT
-3.795 -9.797 -3.795 -8.234 QT
-3.795 -4 L
-6.264 -4 L
-6.264 -13.328 L
-3.983 -13.328 L
-3.983 -11.969 L
-2.748 -13.547 -0.905 -13.547 QT
-0.076 -13.547 0.595 -13.25 QT
1.267 -12.953 1.619 -12.5 QT
1.97 -12.047 2.103 -11.461 QT
2.236 -10.875 2.236 -9.797 QT
2.236 -4 L
cp
4.264 -3.391 M
7.092 -3.047 L
7.155 -2.547 7.405 -2.359 QT
7.764 -2.094 8.514 -2.094 QT
9.483 -2.094 9.967 -2.391 QT
10.295 -2.578 10.467 -3.016 QT
10.577 -3.328 10.577 -4.156 QT
10.577 -5.516 L
9.467 -4 7.78 -4 QT
5.905 -4 4.795 -5.594 QT
3.936 -6.844 3.936 -8.719 QT
3.936 -11.063 5.069 -12.305 QT
6.202 -13.547 7.874 -13.547 QT
9.608 -13.547 10.733 -12.031 QT
10.733 -13.328 L
13.045 -13.328 L
13.045 -4.953 L
13.045 -3.313 12.772 -2.492 QT
12.499 -1.672 12.006 -1.203 QT
11.514 -0.734 10.694 -0.477 QT
9.874 -0.219 8.624 -0.219 QT
6.249 -0.219 5.256 -1.031 QT
4.264 -1.844 4.264 -3.078 QT
4.264 -3.203 4.264 -3.391 QT
cp
6.467 -8.859 M
6.467 -7.375 7.045 -6.688 QT
7.624 -6 8.467 -6 QT
9.374 -6 9.999 -6.703 QT
10.624 -7.406 10.624 -8.797 QT
10.624 -10.25 10.022 -10.953 QT
9.42 -11.656 8.514 -11.656 QT
7.624 -11.656 7.045 -10.969 QT
6.467 -10.281 6.467 -8.859 QT
cp
22.493 -4 M
20.024 -4 L
20.024 -13.328 L
22.321 -13.328 L
22.321 -12 L
22.899 -12.953 23.376 -13.25 QT
23.852 -13.547 24.446 -13.547 QT
25.29 -13.547 26.071 -13.078 QT
25.306 -10.922 L
24.681 -11.328 24.149 -11.328 QT
23.634 -11.328 23.266 -11.047 QT
22.899 -10.766 22.696 -10.016 QT
22.493 -9.266 22.493 -6.891 QT
22.493 -4 L
cp
32.387 -6.969 M
34.84 -6.563 L
34.371 -5.203 33.348 -4.492 QT
32.324 -3.781 30.777 -3.781 QT
28.34 -3.781 27.184 -5.375 QT
26.262 -6.656 26.262 -8.594 QT
26.262 -10.922 27.473 -12.234 QT
28.684 -13.547 30.543 -13.547 QT
32.621 -13.547 33.824 -12.172 QT
35.027 -10.797 34.98 -7.953 QT
28.793 -7.953 L
28.809 -6.859 29.379 -6.25 QT
29.949 -5.641 30.809 -5.641 QT
31.387 -5.641 31.785 -5.953 QT
32.184 -6.266 32.387 -6.969 QT
cp
32.527 -9.469 M
32.496 -10.547 31.965 -11.102 QT
31.434 -11.656 30.684 -11.656 QT
29.871 -11.656 29.355 -11.063 QT
28.824 -10.484 28.824 -9.469 QT
32.527 -9.469 L
cp
35.687 -13.328 M
37.047 -13.328 L
37.047 -14.031 L
37.047 -15.219 37.297 -15.797 QT
37.547 -16.375 38.218 -16.742 QT
38.89 -17.109 39.922 -17.109 QT
40.984 -17.109 41.984 -16.781 QT
41.656 -15.063 L
41.062 -15.203 40.515 -15.203 QT
39.984 -15.203 39.75 -14.953 QT
39.515 -14.703 39.515 -14 QT
39.515 -13.328 L
41.359 -13.328 L
41.359 -11.391 L
39.515 -11.391 L
39.515 -4 L
37.047 -4 L
37.047 -11.391 L
35.687 -11.391 L
35.687 -13.328 L
cp
48.03 -6.969 M
50.483 -6.563 L
50.015 -5.203 48.991 -4.492 QT
47.968 -3.781 46.421 -3.781 QT
43.983 -3.781 42.827 -5.375 QT
41.905 -6.656 41.905 -8.594 QT
41.905 -10.922 43.116 -12.234 QT
44.327 -13.547 46.187 -13.547 QT
48.265 -13.547 49.468 -12.172 QT
50.671 -10.797 50.624 -7.953 QT
44.437 -7.953 L
44.452 -6.859 45.023 -6.25 QT
45.593 -5.641 46.452 -5.641 QT
47.03 -5.641 47.429 -5.953 QT
47.827 -6.266 48.03 -6.969 QT
cp
48.171 -9.469 M
48.14 -10.547 47.608 -11.102 QT
47.077 -11.656 46.327 -11.656 QT
45.515 -11.656 44.999 -11.063 QT
44.468 -10.484 44.468 -9.469 QT
48.171 -9.469 L
cp
54.768 -4 M
52.3 -4 L
52.3 -13.328 L
54.596 -13.328 L
54.596 -12 L
55.175 -12.953 55.651 -13.25 QT
56.128 -13.547 56.721 -13.547 QT
57.565 -13.547 58.346 -13.078 QT
57.581 -10.922 L
56.956 -11.328 56.425 -11.328 QT
55.909 -11.328 55.542 -11.047 QT
55.175 -10.766 54.971 -10.016 QT
54.768 -9.266 54.768 -6.891 QT
54.768 -4 L
cp
64.662 -6.969 M
67.115 -6.563 L
66.646 -5.203 65.623 -4.492 QT
64.599 -3.781 63.053 -3.781 QT
60.615 -3.781 59.459 -5.375 QT
58.537 -6.656 58.537 -8.594 QT
58.537 -10.922 59.748 -12.234 QT
60.959 -13.547 62.818 -13.547 QT
64.896 -13.547 66.099 -12.172 QT
67.303 -10.797 67.256 -7.953 QT
61.068 -7.953 L
61.084 -6.859 61.654 -6.25 QT
62.224 -5.641 63.084 -5.641 QT
63.662 -5.641 64.06 -5.953 QT
64.459 -6.266 64.662 -6.969 QT
cp
64.803 -9.469 M
64.771 -10.547 64.24 -11.102 QT
63.709 -11.656 62.959 -11.656 QT
62.146 -11.656 61.631 -11.063 QT
61.099 -10.484 61.099 -9.469 QT
64.803 -9.469 L
cp
77.525 -4 M
75.056 -4 L
75.056 -8.766 L
75.056 -10.281 74.9 -10.719 QT
74.744 -11.156 74.384 -11.406 QT
74.025 -11.656 73.525 -11.656 QT
72.884 -11.656 72.376 -11.305 QT
71.869 -10.953 71.681 -10.375 QT
71.494 -9.797 71.494 -8.234 QT
71.494 -4 L
69.025 -4 L
69.025 -13.328 L
71.306 -13.328 L
71.306 -11.969 L
72.541 -13.547 74.384 -13.547 QT
75.212 -13.547 75.884 -13.25 QT
76.556 -12.953 76.908 -12.5 QT
77.259 -12.047 77.392 -11.461 QT
77.525 -10.875 77.525 -9.797 QT
77.525 -4 L
cp
87.928 -10.578 M
85.491 -10.141 L
85.366 -10.859 84.928 -11.234 QT
84.491 -11.609 83.803 -11.609 QT
82.881 -11.609 82.327 -10.969 QT
81.772 -10.328 81.772 -8.828 QT
81.772 -7.172 82.334 -6.484 QT
82.897 -5.797 83.834 -5.797 QT
84.537 -5.797 84.983 -6.203 QT
85.428 -6.609 85.616 -7.578 QT
88.037 -7.172 L
87.662 -5.5 86.592 -4.641 QT
85.522 -3.781 83.725 -3.781 QT
81.678 -3.781 80.459 -5.078 QT
79.241 -6.375 79.241 -8.656 QT
79.241 -10.969 80.459 -12.258 QT
81.678 -13.547 83.772 -13.547 QT
85.475 -13.547 86.475 -12.813 QT
87.475 -12.078 87.928 -10.578 QT
cp
94.979 -6.969 M
97.432 -6.563 L
96.963 -5.203 95.939 -4.492 QT
94.916 -3.781 93.369 -3.781 QT
90.932 -3.781 89.775 -5.375 QT
88.854 -6.656 88.854 -8.594 QT
88.854 -10.922 90.064 -12.234 QT
91.275 -13.547 93.135 -13.547 QT
95.213 -13.547 96.416 -12.172 QT
97.619 -10.797 97.572 -7.953 QT
91.385 -7.953 L
91.4 -6.859 91.971 -6.25 QT
92.541 -5.641 93.4 -5.641 QT
93.979 -5.641 94.377 -5.953 QT
94.775 -6.266 94.979 -6.969 QT
cp
95.119 -9.469 M
95.088 -10.547 94.557 -11.102 QT
94.025 -11.656 93.275 -11.656 QT
92.463 -11.656 91.947 -11.063 QT
91.416 -10.484 91.416 -9.469 QT
95.119 -9.469 L
cp
103.87 -8.766 M
103.87 -9.969 L
112.026 -9.969 L
112.026 -8.766 L
103.87 -8.766 L
cp
118.932 -4 M
118.932 -16.891 L
127.76 -16.891 L
127.76 -14.703 L
121.526 -14.703 L
121.526 -11.656 L
126.917 -11.656 L
126.917 -9.469 L
121.526 -9.469 L
121.526 -4 L
118.932 -4 L
cp
129.664 -16.891 M
134.82 -16.891 L
136.351 -16.891 137.101 -16.758 QT
137.851 -16.625 138.445 -16.227 QT
139.039 -15.828 139.437 -15.156 QT
139.835 -14.484 139.835 -13.641 QT
139.835 -12.734 139.343 -11.977 QT
138.851 -11.219 138.023 -10.844 QT
139.195 -10.5 139.828 -9.68 QT
140.46 -8.859 140.46 -7.734 QT
140.46 -6.859 140.054 -6.031 QT
139.648 -5.203 138.937 -4.703 QT
138.226 -4.203 137.195 -4.094 QT
136.539 -4.016 134.054 -4 QT
129.664 -4 L
129.664 -16.891 L
cp
132.273 -14.734 M
132.273 -11.766 L
133.976 -11.766 L
135.492 -11.766 135.867 -11.813 QT
136.539 -11.891 136.921 -12.273 QT
137.304 -12.656 137.304 -13.266 QT
137.304 -13.875 136.968 -14.25 QT
136.632 -14.625 135.992 -14.703 QT
135.601 -14.734 133.773 -14.734 QT
132.273 -14.734 L
cp
132.273 -9.609 M
132.273 -6.172 L
134.679 -6.172 L
136.085 -6.172 136.46 -6.25 QT
137.039 -6.359 137.406 -6.766 QT
137.773 -7.172 137.773 -7.859 QT
137.773 -8.438 137.492 -8.844 QT
137.21 -9.25 136.679 -9.43 QT
136.148 -9.609 134.367 -9.609 QT
132.273 -9.609 L
cp
f
GR
GS
[0.75 0 0 0.75 0 0] CT
0 0.447 0.741 RC
1 LJ
2 LW
N
278.293 206.444 M
279.238 203.269 L
280.293 198.237 L
281.444 195.557 L
282.935 191.147 L
284.234 188.03 L
284.913 182.439 L
285.845 179.519 L
286.718 174.34 L
287.799 171.109 L
289.091 166.506 L
289.804 163.466 L
290.783 158.575 L
291.364 156.364 L
291.902 153.218 L
292.745 150.177 L
293.827 147.346 L
294.778 143.108 L
295.643 139.719 L
296.597 134.986 L
297.164 132.292 L
297.824 128.285 L
298.526 125.864 L
299.947 123.225 L
301.414 120.193 L
302.651 117.131 L
303.209 114.586 L
304.311 111.31 L
305.909 108.801 L
307.748 105.691 L
309.35 102.269 L
310.322 100.27 L
312.268 97.313 L
314.07 94.55 L
315.474 92.833 L
316.691 90.124 L
318.586 86.46 L
320.859 84.407 L
322.487 80.378 L
324.893 77.486 L
327.612 74.893 L
329.329 71.313 L
332.146 68.946 L
334.026 65.302 L
335.326 63.511 L
337.75 62.078 L
340.093 60.75 L
343.231 57.586 L
346.301 54.499 L
349.48 52.513 L
352.492 48.998 L
355.002 46.298 L
358.037 44.64 L
359.279 42.901 L
361.23 41.242 L
364.385 40.035 L
367.613 39.016 L
371.039 38.025 L
375.306 36.929 L
377.958 35.602 L
382.089 33.829 L
383.937 32.277 L
386.623 32.526 L
388.547 32.317 L
390.922 32.691 L
394.688 32.545 L
398.67 32.705 L
401.97 32.578 L
406.406 32.122 L
409.638 31.632 L
413.209 31.478 L
415.452 31.775 L
418.631 32.184 L
420.4 33.743 L
423.832 36.18 L
426.359 38.113 L
431.023 39.93 L
434.756 42.306 L
438.118 44.668 L
441.632 46.518 L
443.734 48.232 L
445.817 50.174 L
447.299 52.315 L
449.218 54.03 L
450.966 56.24 L
454.943 60.256 L
457.728 63.439 L
461.415 68.012 L
463.785 71.184 L
466.483 74.488 L
467.595 77.832 L
467.673 79.984 L
467.934 84.439 L
468.663 87.759 L
470.738 93.763 L
473.003 97.368 L
474.455 102.279 L
475.899 105.747 L
476.49 109.574 L
476.889 112.423 L
476.824 116.847 L
477.554 120.113 L
478.813 125.091 L
480.157 128.361 L
481.249 133.746 L
482.705 137.383 L
483.257 141.708 L
483.04 144.578 L
481.738 149.47 L
480.819 152.636 L
480.358 157.772 L
480.373 161.088 L
480.971 165.892 L
482.036 169.003 L
483.244 173.712 L
484.336 176.381 L
484.177 180.762 L
483.536 183.341 L
482.299 187.767 L
481.439 191.506 L
481.117 196.726 L
480.658 199.89 L
480.556 205.525 L
480.568 208.844 L
480.381 213.891 L
480.142 217.19 L
479.852 221.724 L
478.923 224.292 L
477.722 229.26 L
476.148 232.754 L
475.168 237.709 L
474.334 241.014 L
473.823 245.823 L
473.051 249.358 L
472.285 254.014 L
471.207 257.705 L
469.437 262.333 L
468.793 265.882 L
467.908 270.296 L
466.256 273.639 L
464.839 278.026 L
463.299 280.181 L
462.379 283.664 L
460.952 286.588 L
458.423 290.234 L
456.652 294.545 L
455.293 298.441 L
453.061 302.587 L
450.772 305.621 L
449.933 309.977 L
448.896 312.256 L
447.902 315.777 L
445.748 317.847 L
443.875 318.793 L
440.763 321.089 L
437.715 325.175 L
435.377 327.61 L
432.457 331.08 L
430.705 334.295 L
427.936 336.417 L
426.42 339.082 L
424.986 341.703 L
422.765 343.315 L
420.433 345.397 L
419.523 347.644 L
418.046 349.094 L
414.66 350.106 L
413.008 351.188 L
410.141 352.264 L
407.382 354.534 L
404.723 356.994 L
401.801 358.435 L
400.654 359.578 L
398.985 361.162 L
396.75 363.504 L
395.332 365.467 L
394.147 365.868 L
391.35 365.095 L
389.049 364.873 L
387.184 364.122 L
384.541 363.852 L
382.727 364.017 L
380.679 363.901 L
377.736 363.348 L
376.739 362.527 L
376.115 360.983 L
373.981 359.532 L
371.439 358.239 L
369.906 357.244 L
367.47 354.706 L
364.793 351.597 L
363.112 349.643 L
360.208 346.827 L
358.493 343.353 L
357.248 341.706 L
356.027 340.034 L
355.575 337.007 L
353.836 334.69 L
352.777 332.042 L
351.685 327.367 L
349.848 324.676 L
347.446 320.604 L
345.861 317.769 L
344.145 315.143 L
342.658 312.581 L
342.412 310.73 L
341.967 309.349 L
341.099 306.016 L
339.947 302.145 L
338.501 299.462 L
337.041 295.493 L
335.052 292.97 L
334.473 290.618 L
334.095 288.677 L
333.942 286.769 L
333.664 284.913 L
332.877 279.643 L
332.638 276.596 L
331.593 271.662 L
330.307 268.411 L
329.344 265.063 L
328.23 262.72 L
327.679 261.567 L
327.177 260.403 L
326.306 258.291 L
325.79 255.518 L
325.065 253.305 L
323.757 249.786 L
322.312 245.94 L
321.711 242.533 L
320.89 238.256 L
319.848 235.357 L
319.217 233.036 L
318.62 231.651 L
316.608 229.497 L
315.792 227.104 L
314.88 222.577 L
313.582 219.879 L
311.868 215.338 L
310.73 212.397 L
309.844 209.073 L
308.878 206.108 L
307.536 203.978 L
305.467 200.144 L
303.687 196.837 L
302.202 192.634 L
300.138 189.049 L
298.42 184.782 L
296.96 181.122 L
296.059 177.887 L
294.679 174.364 L
292.719 171.957 L
291.038 168.101 L
289.921 164.996 L
287.161 161.621 L
284.954 157.614 L
282.908 154.693 L
280.179 150.403 L
278.387 148.363 L
276.156 144.653 L
273.578 141.607 L
272.123 139.729 L
269.748 136.771 L
267.408 133.759 L
265.201 131.189 L
262.894 128.088 L
261.305 125.285 L
260.09 122.84 L
257.766 118.837 L
255.081 116.394 L
253.732 113.217 L
251.149 110.222 L
248.666 108.361 L
246.99 105.064 L
245.117 102.565 L
242.045 99.689 L
242.045 99.689 L
239.376 97.117 L
234.274 92.439 L
231.589 89.651 L
229.928 85.992 L
229.928 85.992 L
225.961 82.003 L
224.527 81.571 L
223.265 80.988 L
220.458 79.885 L
220.458 79.885 L
214.472 76.531 L
211.742 75.064 L
208.823 72.266 L
205.861 69.765 L
205.861 69.765 L
201.944 67.74 L
199.724 67.106 L
197.38 66.509 L
194.1 65.768 L
194.1 65.768 L
188.693 63.757 L
186.718 63 L
183.728 62.051 L
181.183 61.511 L
181.183 61.511 L
175.289 61.283 L
172.742 61.321 L
169.271 61.346 L
169.271 61.346 L
166.295 61.32 L
163.205 61.64 L
161.233 62.659 L
159.179 63.196 L
156.685 64.893 L
153.773 65.912 L
147.66 67.475 L
144.389 68.001 L
140.788 68.834 L
138.237 70.697 L
138.237 70.697 L
133.945 76.063 L
132.848 78.937 L
131.103 82.584 L
128.234 84.462 L
128.234 84.462 L
123.671 88.623 L
121.065 91.099 L
119.382 93.911 L
117.001 98.179 L
117.001 98.179 L
114.314 102.651 L
113.77 105.101 L
113.275 108.022 L
111.731 112.562 L
111.731 112.562 L
108.472 121.342 L
107.595 124.447 L
106.524 128.902 L
105.552 131.519 L
105.552 131.519 L
104.07 137.777 L
103.555 140.36 L
102.555 145.546 L
102.092 147.992 L
102.092 147.992 L
102.13 154.529 L
102.234 157.507 L
102.028 162.729 L
102.028 162.729 L
102.143 166.14 L
101.929 170.929 L
101.959 174.223 L
101.651 179.018 L
101.655 182.245 L
101.588 186.981 L
102.128 192.862 L
102.527 195.785 L
104.191 199.945 L
105.68 203.496 L
105.68 203.496 L
107.25 210.547 L
107.363 213.104 L
107.427 218.087 L
107.556 221.144 L
107.556 221.144 L
108.323 228.12 L
109.176 230.101 L
110.772 234.092 L
112.574 237.224 L
112.574 237.224 L
113.641 241.71 L
115.392 246.965 L
115.993 250.495 L
116.424 253.271 L
116.424 253.271 L
117.536 260.387 L
117.896 262.697 L
118.931 267.001 L
119.402 269.209 L
119.402 269.209 L
121.091 276.175 L
122.58 278.771 L
123.976 282.873 L
125.087 285.195 L
125.087 285.195 L
126.896 292.091 L
127.452 294.755 L
128.05 299.312 L
129.146 302.052 L
129.146 302.052 L
130.334 305.64 L
131.829 308.254 L
133.683 310.27 L
135.883 313.629 L
137.467 316.364 L
139.461 323.702 L
141.197 325.688 L
142.537 328.932 L
143.79 332.324 L
143.79 332.324 L
147.349 336.995 L
149.045 340.142 L
150.087 342.094 L
151.66 346.092 L
153.478 348.651 L
155.038 349.882 L
157.106 350.496 L
160.969 351.8 L
162.916 354.587 L
165.514 356.758 L
167.551 358.4 L
169.232 360.648 L
170.576 362.047 L
172.09 362.668 L
174.255 363.589 L
176.747 364.51 L
180.227 365.176 L
182.754 365.94 L
185.857 366.68 L
188.084 366.758 L
190.92 366.536 L
192.95 366.022 L
195.278 365.477 L
198.167 364.882 L
199.804 364.204 L
202.967 363.786 L
205.185 363.561 L
207.549 363.119 L
210.275 362.715 L
210.275 362.715 L
212.389 361.577 L
215.104 359.233 L
217.191 357.782 L
218.961 356.607 L
221.18 354.986 L
222.901 352 L
226.714 347.828 L
228.085 345.752 L
229.308 342.983 L
230.249 341.507 L
231.741 339.533 L
233.829 335.822 L
235.39 333.491 L
236.889 330.212 L
237.931 327.078 L
238.562 325.132 L
239.446 321.621 L
240.617 317.625 L
241.174 313.496 L
242.024 310.391 L
242.736 307.728 L
244.085 304.692 L
245.533 302.054 L
246.326 299.693 L
247.55 295.206 L
248.335 292.536 L
249.163 288.152 L
249.59 285.874 L
249.68 284.583 L
250.5 281.792 L
252.376 278.136 L
253.504 274.517 L
254.519 270.029 L
255.414 266.876 L
256.443 262.719 L
258.165 259.779 L
259.446 256.167 L
260.389 252.921 L
261.367 249.841 L
262.807 245.676 L
262.807 245.676 L
264.426 242.204 L
265.859 237.457 L
266.92 233.421 L
268.104 228.806 L
270.159 224.471 L
272.476 214.807 L
273.268 211.803 L
274.588 206.642 L
276.463 203.497 L
277.584 198.857 L
278.578 196.284 L
278.989 193.036 L
279.606 188.807 L
281.008 183.575 L
282.354 179.81 L
283.401 175.072 L
284.488 172.072 L
284.996 167.42 L
285.256 164.624 L
286.001 160.615 L
286.663 157.14 L
287.643 154.523 L
288.369 151.337 L
289.488 148.974 L
290.385 145.656 L
290.885 141.889 L
291.599 138.56 L
292.017 134.191 L
293.023 131.672 L
294.743 127.437 L
295.761 125.138 L
296.768 122.695 L
297.538 118.616 L
S
GR
GS
[0.75 0 0 0.75 0 0] CT
0.851 0.325 0.098 RC
[8 8] 0 setdash
2 LJ
2 LW
N
290.3 199.395 M
291.433 195.929 L
292.566 192.463 L
293.699 188.997 L
294.831 185.532 L
295.964 182.066 L
297.097 178.6 L
298.23 175.134 L
299.363 171.668 L
300.496 168.202 L
300.833 167.171 L
302.144 163.813 L
303.454 160.455 L
304.765 157.097 L
306.076 153.739 L
307.386 150.381 L
308.697 147.022 L
310.007 143.664 L
311.318 140.306 L
312.628 136.948 L
313.939 133.59 L
315.249 130.232 L
315.833 128.736 L
317.756 125.921 L
319.678 123.106 L
321.601 120.291 L
323.523 117.476 L
325.446 114.661 L
327.368 111.846 L
329.291 109.031 L
330.833 106.773 L
332.844 104.063 L
334.854 101.354 L
336.864 98.645 L
338.874 95.936 L
340.884 93.227 L
342.894 90.518 L
344.904 87.808 L
346.915 85.099 L
348.925 82.39 L
349.167 82.064 L
351.612 80.05 L
354.057 78.037 L
356.502 76.023 L
358.947 74.009 L
361.392 71.995 L
363.837 69.981 L
366.282 67.967 L
368.727 65.954 L
369.167 65.592 L
372.014 64.922 L
374.861 64.252 L
377.708 63.582 L
380.555 62.912 L
383.403 62.242 L
386.25 61.572 L
389.097 60.902 L
391.944 60.232 L
392.5 60.101 L
395.393 60.101 L
398.287 60.101 L
401.18 60.101 L
404.073 60.101 L
406.967 60.101 L
409.86 60.101 L
412.753 60.101 L
415.647 60.101 L
418.54 60.101 L
420.833 60.101 L
423.377 61.897 L
425.92 63.692 L
428.464 65.488 L
431.007 67.283 L
433.551 69.079 L
436.094 70.874 L
438.637 72.67 L
441.181 74.465 L
443.724 76.261 L
444.167 76.573 L
446.229 79.215 L
448.291 81.857 L
450.353 84.5 L
452.415 87.142 L
454.478 89.784 L
456.54 92.426 L
458.602 95.068 L
459.167 95.791 L
460.515 99.123 L
461.864 102.456 L
463.213 105.788 L
464.561 109.121 L
465.91 112.453 L
467.259 115.786 L
468.608 119.118 L
469.167 120.5 L
470.039 124.091 L
470.911 127.682 L
471.783 131.274 L
472.655 134.865 L
473.527 138.457 L
474.399 142.048 L
475.272 145.64 L
475.833 147.953 L
476.211 151.688 L
476.589 155.422 L
476.967 159.157 L
477.345 162.891 L
477.723 166.625 L
478.1 170.36 L
478.478 174.094 L
478.856 177.829 L
479.167 180.898 L
479.451 184.646 L
479.736 188.395 L
480.02 192.143 L
480.304 195.892 L
480.589 199.64 L
480.873 203.388 L
481.158 207.137 L
481.442 210.885 L
481.727 214.634 L
482.011 218.382 L
482.296 222.131 L
482.5 224.824 L
482 228.534 L
481.499 232.244 L
480.999 235.954 L
480.498 239.664 L
479.998 243.374 L
479.497 247.083 L
478.997 250.793 L
478.496 254.503 L
477.996 258.213 L
477.495 261.923 L
476.995 265.633 L
476.494 269.343 L
475.994 273.053 L
475.833 274.241 L
474.622 277.662 L
473.411 281.082 L
472.199 284.503 L
470.988 287.924 L
469.777 291.344 L
468.565 294.765 L
467.354 298.186 L
466.142 301.606 L
464.931 305.027 L
464.167 307.186 L
461.984 309.658 L
459.801 312.13 L
457.618 314.602 L
455.435 317.074 L
453.252 319.546 L
451.069 322.018 L
448.886 324.491 L
446.703 326.963 L
444.52 329.435 L
442.337 331.907 L
440.154 334.379 L
437.971 336.851 L
437.5 337.385 L
435.055 339.399 L
432.61 341.412 L
430.165 343.426 L
427.72 345.44 L
425.275 347.454 L
422.829 349.468 L
420.384 351.482 L
417.939 353.495 L
415.494 355.509 L
413.049 357.523 L
410.833 359.348 L
407.94 359.348 L
405.047 359.348 L
402.153 359.348 L
399.26 359.348 L
396.367 359.348 L
393.473 359.348 L
390.58 359.348 L
387.687 359.348 L
387.5 359.348 L
385.009 357.433 L
382.517 355.518 L
380.026 353.602 L
377.534 351.687 L
375.043 349.772 L
372.551 347.857 L
370.06 345.942 L
367.569 344.027 L
365.077 342.111 L
362.586 340.196 L
362.5 340.13 L
360.49 337.421 L
358.48 334.712 L
356.47 332.003 L
354.459 329.294 L
352.449 326.584 L
350.439 323.875 L
348.429 321.166 L
346.419 318.457 L
344.409 315.748 L
344.167 315.422 L
342.104 312.78 L
340.042 310.138 L
337.98 307.496 L
335.918 304.854 L
333.856 302.212 L
331.793 299.57 L
329.731 296.927 L
329.167 296.204 L
327.818 292.872 L
326.469 289.539 L
325.121 286.207 L
323.772 282.874 L
322.423 279.542 L
321.074 276.21 L
319.726 272.877 L
318.377 269.545 L
317.028 266.212 L
315.833 263.259 L
314.17 260.177 L
312.507 257.095 L
310.844 254.013 L
309.181 250.931 L
307.517 247.849 L
305.854 244.767 L
304.191 241.685 L
302.528 238.602 L
302.5 238.551 L
301.151 235.219 L
299.803 231.886 L
298.454 228.554 L
297.105 225.221 L
295.757 221.889 L
294.408 218.557 L
293.059 215.224 L
291.71 211.892 L
290.362 208.559 L
289.167 205.606 L
287.744 202.326 L
286.322 199.046 L
284.9 195.766 L
283.477 192.486 L
282.055 189.206 L
280.633 185.926 L
279.21 182.646 L
277.788 179.366 L
276.366 176.085 L
274.943 172.805 L
273.521 169.525 L
272.5 167.171 L
270.706 164.216 L
268.912 161.261 L
267.118 158.306 L
265.324 155.35 L
263.53 152.395 L
261.736 149.44 L
259.942 146.485 L
258.148 143.53 L
256.354 140.574 L
254.56 137.619 L
254.167 136.972 L
252.955 133.551 L
251.744 130.131 L
250.533 126.71 L
249.321 123.289 L
248.11 119.869 L
246.899 116.448 L
245.687 113.027 L
244.476 109.607 L
243.264 106.186 L
242.5 104.027 L
240.246 101.665 L
237.993 99.303 L
235.739 96.94 L
233.486 94.578 L
231.232 92.216 L
228.978 89.853 L
226.725 87.491 L
224.471 85.129 L
224.167 84.81 L
221.607 83.053 L
219.048 81.296 L
216.488 79.54 L
213.929 77.783 L
211.37 76.026 L
208.81 74.27 L
206.251 72.513 L
204.167 71.083 L
201.538 69.508 L
198.91 67.934 L
196.281 66.359 L
193.653 64.785 L
191.024 63.21 L
188.396 61.636 L
185.833 60.101 L
182.94 60.101 L
180.047 60.101 L
177.153 60.101 L
174.26 60.101 L
171.367 60.101 L
168.473 60.101 L
165.58 60.101 L
162.687 60.101 L
162.5 60.101 L
159.863 61.652 L
157.227 63.203 L
154.59 64.754 L
151.954 66.306 L
149.317 67.857 L
146.68 69.408 L
144.044 70.959 L
141.407 72.51 L
139.167 73.828 L
137.176 76.561 L
135.185 79.294 L
133.194 82.027 L
131.203 84.76 L
129.212 87.493 L
127.221 90.226 L
125.23 92.959 L
123.239 95.692 L
121.248 98.425 L
119.257 101.158 L
119.167 101.282 L
117.927 104.685 L
116.687 108.089 L
115.448 111.492 L
114.208 114.895 L
112.968 118.299 L
111.729 121.702 L
110.489 125.106 L
109.249 128.509 L
108.01 131.913 L
106.77 135.316 L
105.53 138.719 L
104.29 142.123 L
104.167 142.463 L
103.529 146.137 L
102.892 149.811 L
102.255 153.485 L
101.618 157.159 L
100.98 160.833 L
100.343 164.508 L
99.706 168.182 L
99.068 171.856 L
98.431 175.53 L
97.794 179.204 L
97.5 180.898 L
97.663 184.659 L
97.826 188.419 L
97.989 192.18 L
98.152 195.941 L
98.315 199.701 L
98.478 203.462 L
98.642 207.223 L
98.805 210.983 L
98.968 214.744 L
99.131 218.505 L
99.167 219.333 L
99.451 223.082 L
99.736 226.83 L
100.02 230.579 L
100.304 234.327 L
100.589 238.075 L
100.873 241.824 L
101.158 245.572 L
101.442 249.321 L
101.727 253.069 L
102.011 256.818 L
102.296 260.566 L
102.5 263.259 L
103.341 266.863 L
104.183 270.467 L
105.024 274.071 L
105.866 277.675 L
106.707 281.279 L
107.549 284.883 L
108.39 288.486 L
109.232 292.09 L
110.073 295.694 L
110.833 298.949 L
112.756 301.764 L
114.678 304.579 L
116.601 307.394 L
118.523 310.209 L
120.446 313.024 L
122.368 315.839 L
124.291 318.654 L
125.833 320.913 L
127.627 323.868 L
129.421 326.823 L
131.215 329.778 L
133.009 332.733 L
134.803 335.688 L
136.597 338.644 L
138.392 341.599 L
140.186 344.554 L
140.833 345.621 L
143.592 346.757 L
146.351 347.893 L
149.109 349.029 L
151.868 350.165 L
154.626 351.301 L
157.385 352.437 L
160.144 353.573 L
160.833 353.857 L
163.727 353.857 L
166.62 353.857 L
169.513 353.857 L
172.407 353.857 L
175.3 353.857 L
178.193 353.857 L
181.087 353.857 L
183.98 353.857 L
186.873 353.857 L
189.167 353.857 L
191.982 352.988 L
194.797 352.118 L
197.612 351.249 L
200.427 350.379 L
203.243 349.51 L
206.058 348.64 L
208.873 347.771 L
211.688 346.901 L
214.503 346.032 L
215.833 345.621 L
218.045 343.192 L
220.257 340.764 L
222.468 338.335 L
224.68 335.906 L
226.891 333.478 L
229.103 331.049 L
231.314 328.62 L
233.526 326.192 L
235.738 323.763 L
237.949 321.334 L
240.161 318.906 L
240.833 318.167 L
242.36 314.967 L
243.886 311.767 L
245.412 308.567 L
246.939 305.367 L
248.465 302.168 L
249.991 298.968 L
251.518 295.768 L
253.044 292.568 L
254.57 289.368 L
256.097 286.168 L
257.623 282.968 L
259.149 279.768 L
259.167 279.732 L
260.555 276.427 L
261.944 273.123 L
263.333 269.819 L
264.722 266.514 L
266.111 263.21 L
267.499 259.905 L
268.888 256.601 L
270.277 253.297 L
271.666 249.992 L
273.055 246.688 L
274.167 244.042 L
275.406 240.638 L
276.646 237.235 L
277.886 233.832 L
279.125 230.428 L
280.365 227.025 L
281.605 223.621 L
282.844 220.218 L
284.084 216.815 L
285.324 213.411 L
286.564 210.008 L
287.803 206.604 L
289.043 203.201 L
289.167 202.861 L
290.3 199.395 L
291.433 195.929 L
292.566 192.463 L
293.699 188.997 L
294.831 185.532 L
295.964 182.066 L
297.097 178.6 L
298.23 175.134 L
299.363 171.668 L
300.496 168.202 L
300.833 167.171 L
302.144 163.813 L
303.454 160.455 L
304.765 157.097 L
306.076 153.739 L
307.386 150.381 L
308.697 147.022 L
310.007 143.664 L
311.318 140.306 L
312.628 136.948 L
313.939 133.59 L
315.249 130.232 L
315.833 128.736 L
317.756 125.921 L
319.678 123.106 L
S
GR
GS
[0.75 0 0 0.75 0 0] CT
1 GC
N
302 60 M
302 37 L
79 37 L
79 60 L
cp
f
GR
GS
[0.75 0 0 0.75 94.5 36.375] CT
/Helvetica 14.667 F
GS
[1 0 0 1 0 0] CT
0 5.5 moveto 
1 -1 scale
(Position) t 
GR
GR
GS
[0.75 0 0 0.75 0 0] CT
0 0.447 0.741 RC
1 LJ
2 LW
N
83 48.5 M
123 48.5 L
S
GR
GS
[0.75 0 0 0.75 172.5 36.375] CT
/Helvetica 14.667 F
GS
[1 0 0 1 0 0] CT
0 5.5 moveto 
1 -1 scale
(Reference) t 
GR
GR
GS
[0.75 0 0 0.75 0 0] CT
0.851 0.325 0.098 RC
[8 8] 0 setdash
2 LJ
2 LW
N
187 48.5 M
227 48.5 L
S
GR
GS
[0.75 0 0 0.75 0 0] CT
0.149 GC
10.0 ML
0.667 LW
N
79 60 M
79 37 L
302 37 L
302 60 L
cp
S
GR
%%Trailer
%%Pages: 1
%%EOF
