%!PS-Adobe-3.0 EPSF-3.0
%%Creator: (MATLAB, The Mathworks, Inc. Version 9.3.0.713579 \(R2017b\). Operating System: Windows 7)
%%Title: D:/CVUT/Ultrasonic/IFAC_article/figures/eight.eps
%%CreationDate: 2019-01-27T17:35:00
%%Pages: (atend)
%%BoundingBox: 0 0 371 247
%%LanguageLevel: 3
%%EndComments
%%BeginProlog
%%BeginResource: procset (Apache XML Graphics Std ProcSet) 1.2 0
%%Version: 1.2 0
%%Copyright: (Copyright 2001-2003,2010 The Apache Software Foundation. License terms: http://www.apache.org/licenses/LICENSE-2.0)
/bd{bind def}bind def
/ld{load def}bd
/GR/grestore ld
/GS/gsave ld
/RM/rmoveto ld
/C/curveto ld
/t/show ld
/L/lineto ld
/ML/setmiterlimit ld
/CT/concat ld
/f/fill ld
/N/newpath ld
/S/stroke ld
/CC/setcmykcolor ld
/A/ashow ld
/cp/closepath ld
/RC/setrgbcolor ld
/LJ/setlinejoin ld
/GC/setgray ld
/LW/setlinewidth ld
/M/moveto ld
/re {4 2 roll M
1 index 0 rlineto
0 exch rlineto
neg 0 rlineto
cp } bd
/_ctm matrix def
/_tm matrix def
/BT { _ctm currentmatrix pop matrix _tm copy pop 0 0 moveto } bd
/ET { _ctm setmatrix } bd
/iTm { _ctm setmatrix _tm concat } bd
/Tm { _tm astore pop iTm 0 0 moveto } bd
/ux 0.0 def
/uy 0.0 def
/F {
  /Tp exch def
  /Tf exch def
  Tf findfont Tp scalefont setfont
  /cf Tf def  /cs Tp def
} bd
/ULS {currentpoint /uy exch def /ux exch def} bd
/ULE {
  /Tcx currentpoint pop def
  gsave
  newpath
  cf findfont cs scalefont dup
  /FontMatrix get 0 get /Ts exch def /FontInfo get dup
  /UnderlinePosition get Ts mul /To exch def
  /UnderlineThickness get Ts mul /Tt exch def
  ux uy To add moveto  Tcx uy To add lineto
  Tt setlinewidth stroke
  grestore
} bd
/OLE {
  /Tcx currentpoint pop def
  gsave
  newpath
  cf findfont cs scalefont dup
  /FontMatrix get 0 get /Ts exch def /FontInfo get dup
  /UnderlinePosition get Ts mul /To exch def
  /UnderlineThickness get Ts mul /Tt exch def
  ux uy To add cs add moveto Tcx uy To add cs add lineto
  Tt setlinewidth stroke
  grestore
} bd
/SOE {
  /Tcx currentpoint pop def
  gsave
  newpath
  cf findfont cs scalefont dup
  /FontMatrix get 0 get /Ts exch def /FontInfo get dup
  /UnderlinePosition get Ts mul /To exch def
  /UnderlineThickness get Ts mul /Tt exch def
  ux uy To add cs 10 mul 26 idiv add moveto Tcx uy To add cs 10 mul 26 idiv add lineto
  Tt setlinewidth stroke
  grestore
} bd
/QT {
/Y22 exch store
/X22 exch store
/Y21 exch store
/X21 exch store
currentpoint
/Y21 load 2 mul add 3 div exch
/X21 load 2 mul add 3 div exch
/X21 load 2 mul /X22 load add 3 div
/Y21 load 2 mul /Y22 load add 3 div
/X22 load /Y22 load curveto
} bd
/SSPD {
dup length /d exch dict def
{
/v exch def
/k exch def
currentpagedevice k known {
/cpdv currentpagedevice k get def
v cpdv ne {
/upd false def
/nullv v type /nulltype eq def
/nullcpdv cpdv type /nulltype eq def
nullv nullcpdv or
{
/upd true def
} {
/sametype v type cpdv type eq def
sametype {
v type /arraytype eq {
/vlen v length def
/cpdvlen cpdv length def
vlen cpdvlen eq {
0 1 vlen 1 sub {
/i exch def
/obj v i get def
/cpdobj cpdv i get def
obj cpdobj ne {
/upd true def
exit
} if
} for
} {
/upd true def
} ifelse
} {
v type /dicttype eq {
v {
/dv exch def
/dk exch def
/cpddv cpdv dk get def
dv cpddv ne {
/upd true def
exit
} if
} forall
} {
/upd true def
} ifelse
} ifelse
} if
} ifelse
upd true eq {
d k v put
} if
} if
} if
} forall
d length 0 gt {
d setpagedevice
} if
} bd
/RE { % /NewFontName [NewEncodingArray] /FontName RE -
  findfont dup length dict begin
  {
    1 index /FID ne
    {def} {pop pop} ifelse
  } forall
  /Encoding exch def
  /FontName 1 index def
  currentdict definefont pop
  end
} bind def
%%EndResource
%%BeginResource: procset (Apache XML Graphics EPS ProcSet) 1.0 0
%%Version: 1.0 0
%%Copyright: (Copyright 2002-2003 The Apache Software Foundation. License terms: http://www.apache.org/licenses/LICENSE-2.0)
/BeginEPSF { %def
/b4_Inc_state save def         % Save state for cleanup
/dict_count countdictstack def % Count objects on dict stack
/op_count count 1 sub def      % Count objects on operand stack
userdict begin                 % Push userdict on dict stack
/showpage { } def              % Redefine showpage, { } = null proc
0 setgray 0 setlinecap         % Prepare graphics state
1 setlinewidth 0 setlinejoin
10 setmiterlimit [ ] 0 setdash newpath
/languagelevel where           % If level not equal to 1 then
{pop languagelevel             % set strokeadjust and
1 ne                           % overprint to their defaults.
{false setstrokeadjust false setoverprint
} if
} if
} bd
/EndEPSF { %def
count op_count sub {pop} repeat            % Clean up stacks
countdictstack dict_count sub {end} repeat
b4_Inc_state restore
} bd
%%EndResource
%FOPBeginFontDict
%%IncludeResource: font Courier-Oblique
%%IncludeResource: font Courier-BoldOblique
%%IncludeResource: font Courier-Bold
%%IncludeResource: font ZapfDingbats
%%IncludeResource: font Symbol
%%IncludeResource: font Helvetica
%%IncludeResource: font Helvetica-Oblique
%%IncludeResource: font Helvetica-Bold
%%IncludeResource: font Helvetica-BoldOblique
%%IncludeResource: font Times-Roman
%%IncludeResource: font Times-Italic
%%IncludeResource: font Times-Bold
%%IncludeResource: font Times-BoldItalic
%%IncludeResource: font Courier
%FOPEndFontDict
%%BeginResource: encoding WinAnsiEncoding
/WinAnsiEncoding [
/.notdef /.notdef /.notdef /.notdef /.notdef
/.notdef /.notdef /.notdef /.notdef /.notdef
/.notdef /.notdef /.notdef /.notdef /.notdef
/.notdef /.notdef /.notdef /.notdef /.notdef
/.notdef /.notdef /.notdef /.notdef /.notdef
/.notdef /.notdef /.notdef /.notdef /.notdef
/.notdef /.notdef /space /exclam /quotedbl
/numbersign /dollar /percent /ampersand /quotesingle
/parenleft /parenright /asterisk /plus /comma
/hyphen /period /slash /zero /one
/two /three /four /five /six
/seven /eight /nine /colon /semicolon
/less /equal /greater /question /at
/A /B /C /D /E
/F /G /H /I /J
/K /L /M /N /O
/P /Q /R /S /T
/U /V /W /X /Y
/Z /bracketleft /backslash /bracketright /asciicircum
/underscore /quoteleft /a /b /c
/d /e /f /g /h
/i /j /k /l /m
/n /o /p /q /r
/s /t /u /v /w
/x /y /z /braceleft /bar
/braceright /asciitilde /bullet /Euro /bullet
/quotesinglbase /florin /quotedblbase /ellipsis /dagger
/daggerdbl /circumflex /perthousand /Scaron /guilsinglleft
/OE /bullet /Zcaron /bullet /bullet
/quoteleft /quoteright /quotedblleft /quotedblright /bullet
/endash /emdash /asciitilde /trademark /scaron
/guilsinglright /oe /bullet /zcaron /Ydieresis
/space /exclamdown /cent /sterling /currency
/yen /brokenbar /section /dieresis /copyright
/ordfeminine /guillemotleft /logicalnot /sfthyphen /registered
/macron /degree /plusminus /twosuperior /threesuperior
/acute /mu /paragraph /middot /cedilla
/onesuperior /ordmasculine /guillemotright /onequarter /onehalf
/threequarters /questiondown /Agrave /Aacute /Acircumflex
/Atilde /Adieresis /Aring /AE /Ccedilla
/Egrave /Eacute /Ecircumflex /Edieresis /Igrave
/Iacute /Icircumflex /Idieresis /Eth /Ntilde
/Ograve /Oacute /Ocircumflex /Otilde /Odieresis
/multiply /Oslash /Ugrave /Uacute /Ucircumflex
/Udieresis /Yacute /Thorn /germandbls /agrave
/aacute /acircumflex /atilde /adieresis /aring
/ae /ccedilla /egrave /eacute /ecircumflex
/edieresis /igrave /iacute /icircumflex /idieresis
/eth /ntilde /ograve /oacute /ocircumflex
/otilde /odieresis /divide /oslash /ugrave
/uacute /ucircumflex /udieresis /yacute /thorn
/ydieresis
] def
%%EndResource
%FOPBeginFontReencode
/Courier-Oblique findfont
dup length dict begin
  {1 index /FID ne {def} {pop pop} ifelse} forall
  /Encoding WinAnsiEncoding def
  currentdict
end
/Courier-Oblique exch definefont pop
/Courier-BoldOblique findfont
dup length dict begin
  {1 index /FID ne {def} {pop pop} ifelse} forall
  /Encoding WinAnsiEncoding def
  currentdict
end
/Courier-BoldOblique exch definefont pop
/Courier-Bold findfont
dup length dict begin
  {1 index /FID ne {def} {pop pop} ifelse} forall
  /Encoding WinAnsiEncoding def
  currentdict
end
/Courier-Bold exch definefont pop
/Helvetica findfont
dup length dict begin
  {1 index /FID ne {def} {pop pop} ifelse} forall
  /Encoding WinAnsiEncoding def
  currentdict
end
/Helvetica exch definefont pop
/Helvetica-Oblique findfont
dup length dict begin
  {1 index /FID ne {def} {pop pop} ifelse} forall
  /Encoding WinAnsiEncoding def
  currentdict
end
/Helvetica-Oblique exch definefont pop
/Helvetica-Bold findfont
dup length dict begin
  {1 index /FID ne {def} {pop pop} ifelse} forall
  /Encoding WinAnsiEncoding def
  currentdict
end
/Helvetica-Bold exch definefont pop
/Helvetica-BoldOblique findfont
dup length dict begin
  {1 index /FID ne {def} {pop pop} ifelse} forall
  /Encoding WinAnsiEncoding def
  currentdict
end
/Helvetica-BoldOblique exch definefont pop
/Times-Roman findfont
dup length dict begin
  {1 index /FID ne {def} {pop pop} ifelse} forall
  /Encoding WinAnsiEncoding def
  currentdict
end
/Times-Roman exch definefont pop
/Times-Italic findfont
dup length dict begin
  {1 index /FID ne {def} {pop pop} ifelse} forall
  /Encoding WinAnsiEncoding def
  currentdict
end
/Times-Italic exch definefont pop
/Times-Bold findfont
dup length dict begin
  {1 index /FID ne {def} {pop pop} ifelse} forall
  /Encoding WinAnsiEncoding def
  currentdict
end
/Times-Bold exch definefont pop
/Times-BoldItalic findfont
dup length dict begin
  {1 index /FID ne {def} {pop pop} ifelse} forall
  /Encoding WinAnsiEncoding def
  currentdict
end
/Times-BoldItalic exch definefont pop
/Courier findfont
dup length dict begin
  {1 index /FID ne {def} {pop pop} ifelse} forall
  /Encoding WinAnsiEncoding def
  currentdict
end
/Courier exch definefont pop
%FOPEndFontReencode
%%EndProlog
%%Page: 1 1
%%PageBoundingBox: 0 0 371 247
%%BeginPageSetup
[1 0 0 -1 0 247] CT
%%EndPageSetup
GS
[0.75 0 0 0.75 0 0.25] CT
1 GC
N
0 0 495 329 re
f
GR
GS
[0.75 0 0 0.75 0 0.25] CT
1 GC
N
0 0 495 329 re
f
GR
GS
[0.75 0 0 0.75 0 0.25] CT
1 GC
N
64 286 M
448 286 L
448 25 L
64 25 L
cp
f
GR
GS
[0.75 0 0 0.75 0 0.25] CT
0.149 GC
2 setlinecap
1 LJ
0.667 LW
N
64 286 M
448 286 L
S
GR
GS
[0.75 0 0 0.75 0 0.25] CT
0.149 GC
2 setlinecap
1 LJ
0.667 LW
N
64 25 M
448 25 L
S
GR
GS
[0.75 0 0 0.75 0 0.25] CT
0.149 GC
2 setlinecap
1 LJ
0.667 LW
N
64 286 M
64 282.16 L
S
GR
GS
[0.75 0 0 0.75 0 0.25] CT
0.149 GC
2 setlinecap
1 LJ
0.667 LW
N
128 286 M
128 282.16 L
S
GR
GS
[0.75 0 0 0.75 0 0.25] CT
0.149 GC
2 setlinecap
1 LJ
0.667 LW
N
192 286 M
192 282.16 L
S
GR
GS
[0.75 0 0 0.75 0 0.25] CT
0.149 GC
2 setlinecap
1 LJ
0.667 LW
N
256 286 M
256 282.16 L
S
GR
GS
[0.75 0 0 0.75 0 0.25] CT
0.149 GC
2 setlinecap
1 LJ
0.667 LW
N
320 286 M
320 282.16 L
S
GR
GS
[0.75 0 0 0.75 0 0.25] CT
0.149 GC
2 setlinecap
1 LJ
0.667 LW
N
384 286 M
384 282.16 L
S
GR
GS
[0.75 0 0 0.75 0 0.25] CT
0.149 GC
2 setlinecap
1 LJ
0.667 LW
N
448 286 M
448 282.16 L
S
GR
GS
[0.75 0 0 0.75 0 0.25] CT
0.149 GC
2 setlinecap
1 LJ
0.667 LW
N
64 25 M
64 28.84 L
S
GR
GS
[0.75 0 0 0.75 0 0.25] CT
0.149 GC
2 setlinecap
1 LJ
0.667 LW
N
128 25 M
128 28.84 L
S
GR
GS
[0.75 0 0 0.75 0 0.25] CT
0.149 GC
2 setlinecap
1 LJ
0.667 LW
N
192 25 M
192 28.84 L
S
GR
GS
[0.75 0 0 0.75 0 0.25] CT
0.149 GC
2 setlinecap
1 LJ
0.667 LW
N
256 25 M
256 28.84 L
S
GR
GS
[0.75 0 0 0.75 0 0.25] CT
0.149 GC
2 setlinecap
1 LJ
0.667 LW
N
320 25 M
320 28.84 L
S
GR
GS
[0.75 0 0 0.75 0 0.25] CT
0.149 GC
2 setlinecap
1 LJ
0.667 LW
N
384 25 M
384 28.84 L
S
GR
GS
[0.75 0 0 0.75 0 0.25] CT
0.149 GC
2 setlinecap
1 LJ
0.667 LW
N
448 25 M
448 28.84 L
S
GR
GS
[0.75 0 0 0.75 48 218.75001] CT
0.149 GC
/Helvetica 13.333 F
GS
[1 0 0 1 0 0] CT
-10 14 moveto 
1 -1 scale
(-15) t 
GR
GR
GS
[0.75 0 0 0.75 96 218.75001] CT
0.149 GC
/Helvetica 13.333 F
GS
[1 0 0 1 0 0] CT
-10 14 moveto 
1 -1 scale
(-10) t 
GR
GR
GS
[0.75 0 0 0.75 144 218.75001] CT
0.149 GC
/Helvetica 13.333 F
GS
[1 0 0 1 0 0] CT
-6 14 moveto 
1 -1 scale
(-5) t 
GR
GR
GS
[0.75 0 0 0.75 192 218.75001] CT
0.149 GC
/Helvetica 13.333 F
GS
[1 0 0 1 0 0] CT
-4 14 moveto 
1 -1 scale
(0) t 
GR
GR
GS
[0.75 0 0 0.75 240 218.75001] CT
0.149 GC
/Helvetica 13.333 F
GS
[1 0 0 1 0 0] CT
-4 14 moveto 
1 -1 scale
(5) t 
GR
GR
GS
[0.75 0 0 0.75 288 218.75001] CT
0.149 GC
/Helvetica 13.333 F
GS
[1 0 0 1 0 0] CT
-7.5 14 moveto 
1 -1 scale
(10) t 
GR
GR
GS
[0.75 0 0 0.75 336 218.75001] CT
0.149 GC
/Helvetica 13.333 F
GS
[1 0 0 1 0 0] CT
-7.5 14 moveto 
1 -1 scale
(15) t 
GR
GR
GS
[0.75 0 0 0.75 192.00014 232.49999] CT
0.149 GC
/Helvetica 14.667 F
GS
[1 0 0 1 0 0] CT
-59 15 moveto 
1 -1 scale
(x-coordinate [mm]) t 
GR
GR
GS
[0.75 0 0 0.75 0 0.25] CT
0.149 GC
2 setlinecap
1 LJ
0.667 LW
N
64 286 M
64 25 L
S
GR
GS
[0.75 0 0 0.75 0 0.25] CT
0.149 GC
2 setlinecap
1 LJ
0.667 LW
N
448 286 M
448 25 L
S
GR
GS
[0.75 0 0 0.75 0 0.25] CT
0.149 GC
2 setlinecap
1 LJ
0.667 LW
N
64 286 M
67.84 286 L
S
GR
GS
[0.75 0 0 0.75 0 0.25] CT
0.149 GC
2 setlinecap
1 LJ
0.667 LW
N
64 220.75 M
67.84 220.75 L
S
GR
GS
[0.75 0 0 0.75 0 0.25] CT
0.149 GC
2 setlinecap
1 LJ
0.667 LW
N
64 155.5 M
67.84 155.5 L
S
GR
GS
[0.75 0 0 0.75 0 0.25] CT
0.149 GC
2 setlinecap
1 LJ
0.667 LW
N
64 90.25 M
67.84 90.25 L
S
GR
GS
[0.75 0 0 0.75 0 0.25] CT
0.149 GC
2 setlinecap
1 LJ
0.667 LW
N
64 25 M
67.84 25 L
S
GR
GS
[0.75 0 0 0.75 0 0.25] CT
0.149 GC
2 setlinecap
1 LJ
0.667 LW
N
448 286 M
444.16 286 L
S
GR
GS
[0.75 0 0 0.75 0 0.25] CT
0.149 GC
2 setlinecap
1 LJ
0.667 LW
N
448 220.75 M
444.16 220.75 L
S
GR
GS
[0.75 0 0 0.75 0 0.25] CT
0.149 GC
2 setlinecap
1 LJ
0.667 LW
N
448 155.5 M
444.16 155.5 L
S
GR
GS
[0.75 0 0 0.75 0 0.25] CT
0.149 GC
2 setlinecap
1 LJ
0.667 LW
N
448 90.25 M
444.16 90.25 L
S
GR
GS
[0.75 0 0 0.75 0 0.25] CT
0.149 GC
2 setlinecap
1 LJ
0.667 LW
N
448 25 M
444.16 25 L
S
GR
GS
[0.75 0 0 0.75 44 214.75] CT
0.149 GC
/Helvetica 13.333 F
GS
[1 0 0 1 0 0] CT
-20 5.5 moveto 
1 -1 scale
(-10) t 
GR
GR
GS
[0.75 0 0 0.75 44 165.8125] CT
0.149 GC
/Helvetica 13.333 F
GS
[1 0 0 1 0 0] CT
-12 5.5 moveto 
1 -1 scale
(-5) t 
GR
GR
GS
[0.75 0 0 0.75 44 116.875] CT
0.149 GC
/Helvetica 13.333 F
GS
[1 0 0 1 0 0] CT
-8 5.5 moveto 
1 -1 scale
(0) t 
GR
GR
GS
[0.75 0 0 0.75 44 67.9375] CT
0.149 GC
/Helvetica 13.333 F
GS
[1 0 0 1 0 0] CT
-8 5.5 moveto 
1 -1 scale
(5) t 
GR
GR
GS
[0.75 0 0 0.75 44 19] CT
0.149 GC
/Helvetica 13.333 F
GS
[1 0 0 1 0 0] CT
-15 5.5 moveto 
1 -1 scale
(10) t 
GR
GR
GS
[0 -0.75 0.75 0 26.00001 116.87491] CT
0.149 GC
/Helvetica 14.667 F
GS
[1 0 0 1 0 0] CT
-59 -4 moveto 
1 -1 scale
(y-coordinate [mm]) t 
GR
GR
GS
[0.75 0 0 0.75 192.00018 16.9375] CT
/Helvetica-Bold 14.667 F
GS
[1 0 0 1 0 0] CT
-100 -4 moveto 
1 -1 scale
(Tracking a moving reference) t 
GR
GR
GS
[0.75 0 0 0.75 0 0.25] CT
0 0.447 0.741 RC
1 LJ
1.333 LW
N
245.641 146.569 M
246.478 144.369 L
247.411 140.882 L
248.43 139.025 L
249.749 135.969 L
250.899 133.809 L
251.499 129.935 L
252.323 127.912 L
253.096 124.323 L
254.053 122.084 L
255.196 118.895 L
255.827 116.788 L
256.693 113.4 L
257.207 111.867 L
257.682 109.687 L
258.429 107.58 L
259.386 105.618 L
260.228 102.682 L
260.993 100.334 L
261.837 97.054 L
262.339 95.187 L
262.922 92.41 L
263.544 90.734 L
264.801 88.904 L
266.099 86.804 L
267.194 84.682 L
267.688 82.918 L
268.662 80.649 L
270.076 78.91 L
271.703 76.755 L
273.12 74.383 L
273.98 72.998 L
275.703 70.95 L
277.297 69.035 L
278.539 67.845 L
279.616 65.968 L
281.293 63.429 L
283.304 62.007 L
284.745 59.215 L
286.873 57.211 L
289.279 55.414 L
290.798 52.934 L
293.29 51.294 L
294.954 48.769 L
296.104 47.527 L
298.249 46.535 L
300.322 45.615 L
303.098 43.422 L
305.815 41.283 L
308.627 39.907 L
311.292 37.471 L
313.513 35.6 L
316.199 34.452 L
317.297 33.246 L
319.024 32.097 L
321.815 31.261 L
324.672 30.554 L
327.703 29.867 L
331.478 29.108 L
333.824 28.189 L
337.48 26.96 L
339.115 25.885 L
341.491 26.058 L
343.193 25.912 L
345.295 26.172 L
348.628 26.07 L
352.15 26.181 L
355.07 26.093 L
358.995 25.778 L
361.855 25.438 L
365.015 25.331 L
366.999 25.537 L
369.812 25.82 L
371.377 26.9 L
374.413 28.589 L
376.649 29.929 L
380.776 31.187 L
384.079 32.834 L
387.054 34.471 L
390.163 35.753 L
392.023 36.941 L
393.866 38.286 L
395.177 39.769 L
396.875 40.958 L
398.422 42.489 L
401.94 45.272 L
404.404 47.478 L
407.667 50.646 L
409.764 52.844 L
412.151 55.133 L
413.135 57.451 L
413.204 58.942 L
413.435 62.029 L
414.079 64.33 L
415.915 68.49 L
417.92 70.988 L
419.205 74.391 L
420.482 76.793 L
421.005 79.445 L
421.358 81.419 L
421.3 84.485 L
421.947 86.748 L
423.06 90.198 L
424.249 92.463 L
425.216 96.195 L
426.504 98.715 L
426.993 101.712 L
426.801 103.701 L
425.648 107.09 L
424.835 109.284 L
424.428 112.843 L
424.441 115.141 L
424.97 118.469 L
425.912 120.625 L
426.981 123.888 L
427.947 125.737 L
427.806 128.773 L
427.239 130.56 L
426.145 133.627 L
425.384 136.218 L
425.099 139.835 L
424.693 142.027 L
424.602 145.932 L
424.613 148.232 L
424.448 151.729 L
424.236 154.015 L
423.979 157.156 L
423.158 158.936 L
422.095 162.378 L
420.703 164.799 L
419.835 168.233 L
419.097 170.523 L
418.645 173.855 L
417.962 176.305 L
417.284 179.531 L
416.331 182.088 L
414.765 185.295 L
414.195 187.755 L
413.412 190.813 L
411.95 193.13 L
410.696 196.169 L
409.334 197.663 L
408.52 200.076 L
407.257 202.102 L
405.02 204.628 L
403.452 207.616 L
402.25 210.315 L
400.276 213.188 L
398.25 215.291 L
397.507 218.309 L
396.59 219.888 L
395.711 222.328 L
393.805 223.762 L
392.147 224.418 L
389.394 226.008 L
386.697 228.84 L
384.629 230.527 L
382.045 232.931 L
380.495 235.159 L
378.044 236.63 L
376.703 238.476 L
375.435 240.292 L
373.47 241.409 L
371.406 242.852 L
370.601 244.409 L
369.294 245.414 L
366.298 246.115 L
364.836 246.865 L
362.3 247.61 L
359.858 249.183 L
357.506 250.888 L
354.92 251.886 L
353.906 252.679 L
352.429 253.776 L
350.452 255.399 L
349.197 256.759 L
348.149 257.037 L
345.674 256.501 L
343.638 256.347 L
341.987 255.827 L
339.649 255.64 L
338.044 255.754 L
336.232 255.674 L
333.628 255.29 L
332.746 254.722 L
332.194 253.652 L
330.305 252.646 L
328.057 251.751 L
326.7 251.061 L
324.545 249.303 L
322.177 247.148 L
320.689 245.794 L
318.12 243.843 L
316.602 241.436 L
315.5 240.294 L
314.421 239.136 L
314.02 237.038 L
312.481 235.433 L
311.544 233.598 L
310.578 230.359 L
308.953 228.494 L
306.828 225.673 L
305.425 223.708 L
303.907 221.888 L
302.592 220.114 L
302.374 218.831 L
301.98 217.874 L
301.212 215.564 L
300.193 212.882 L
298.913 211.023 L
297.621 208.272 L
295.862 206.524 L
295.349 204.895 L
295.015 203.549 L
294.879 202.228 L
294.634 200.942 L
293.937 197.29 L
293.725 195.179 L
292.801 191.76 L
291.664 189.507 L
290.811 187.187 L
289.826 185.563 L
289.338 184.765 L
288.894 183.958 L
288.123 182.495 L
287.667 180.573 L
287.025 179.039 L
285.868 176.601 L
284.589 173.936 L
284.058 171.576 L
283.331 168.612 L
282.409 166.603 L
281.851 164.995 L
281.323 164.035 L
279.542 162.542 L
278.82 160.884 L
278.013 157.748 L
276.865 155.878 L
275.349 152.732 L
274.342 150.693 L
273.558 148.39 L
272.704 146.336 L
271.515 144.86 L
269.686 142.203 L
268.11 139.912 L
266.796 137 L
264.97 134.515 L
263.45 131.559 L
262.158 129.022 L
261.361 126.781 L
260.14 124.34 L
258.406 122.672 L
256.918 120 L
255.93 117.848 L
253.488 115.51 L
251.535 112.733 L
249.725 110.709 L
247.311 107.737 L
245.725 106.323 L
243.751 103.753 L
241.47 101.642 L
240.182 100.34 L
238.081 98.291 L
236.011 96.204 L
234.058 94.423 L
232.017 92.274 L
230.611 90.332 L
229.536 88.638 L
227.479 85.864 L
225.104 84.171 L
223.91 81.97 L
221.625 79.894 L
219.428 78.605 L
217.945 76.32 L
216.288 74.589 L
213.57 72.596 L
213.57 72.596 L
211.208 70.814 L
206.694 67.572 L
204.319 65.64 L
202.849 63.105 L
202.849 63.105 L
199.339 60.341 L
198.07 60.042 L
196.953 59.638 L
194.469 58.873 L
194.469 58.873 L
189.173 56.549 L
186.758 55.533 L
184.175 53.594 L
181.554 51.861 L
181.554 51.861 L
178.089 50.458 L
176.124 50.019 L
174.051 49.605 L
171.149 49.091 L
171.149 49.091 L
166.364 47.698 L
164.617 47.174 L
161.972 46.516 L
159.72 46.142 L
159.72 46.142 L
154.505 45.983 L
152.251 46.01 L
149.18 46.028 L
149.18 46.028 L
146.546 46.009 L
143.813 46.231 L
142.068 46.937 L
140.25 47.309 L
138.044 48.485 L
135.468 49.191 L
130.059 50.274 L
127.165 50.638 L
123.979 51.216 L
121.721 52.507 L
121.721 52.507 L
117.924 56.225 L
116.953 58.216 L
115.409 60.743 L
112.87 62.045 L
112.87 62.045 L
108.834 64.928 L
106.528 66.644 L
105.039 68.592 L
102.932 71.549 L
102.932 71.549 L
100.554 74.648 L
100.073 76.346 L
99.635 78.37 L
98.269 81.516 L
98.269 81.516 L
95.386 87.6 L
94.609 89.751 L
93.662 92.838 L
92.802 94.651 L
92.802 94.651 L
91.49 98.988 L
91.035 100.778 L
90.15 104.371 L
89.74 106.066 L
89.74 106.066 L
89.774 110.596 L
89.866 112.659 L
89.684 116.278 L
89.684 116.278 L
89.785 118.641 L
89.596 121.96 L
89.623 124.242 L
89.35 127.565 L
89.354 129.801 L
89.294 133.082 L
89.772 137.157 L
90.125 139.183 L
91.597 142.065 L
92.915 144.526 L
92.915 144.526 L
94.304 149.412 L
94.405 151.184 L
94.461 154.636 L
94.575 156.755 L
94.575 156.755 L
95.253 161.589 L
96.008 162.961 L
97.42 165.727 L
99.015 167.896 L
99.015 167.896 L
99.959 171.006 L
101.508 174.647 L
102.04 177.093 L
102.421 179.016 L
102.421 179.016 L
103.405 183.947 L
103.724 185.548 L
104.639 188.53 L
105.056 190.06 L
105.056 190.06 L
106.551 194.887 L
107.868 196.686 L
109.103 199.528 L
110.086 201.137 L
110.086 201.137 L
111.687 205.915 L
112.179 207.761 L
112.708 210.919 L
113.677 212.817 L
113.677 212.817 L
114.729 215.304 L
116.052 217.115 L
117.692 218.512 L
119.638 220.839 L
121.04 222.735 L
122.804 227.819 L
124.34 229.195 L
125.526 231.443 L
126.635 233.794 L
126.635 233.794 L
129.784 237.03 L
131.284 239.211 L
132.206 240.564 L
133.598 243.334 L
135.207 245.107 L
136.587 245.96 L
138.416 246.385 L
141.834 247.289 L
143.557 249.22 L
145.856 250.724 L
147.658 251.862 L
149.145 253.42 L
150.335 254.389 L
151.674 254.82 L
153.59 255.458 L
155.795 256.096 L
158.874 256.557 L
161.11 257.086 L
163.855 257.6 L
165.826 257.653 L
168.335 257.5 L
170.131 257.144 L
172.191 256.766 L
174.747 256.354 L
176.195 255.884 L
178.993 255.595 L
180.956 255.438 L
183.048 255.132 L
185.46 254.852 L
185.46 254.852 L
187.33 254.064 L
189.733 252.439 L
191.58 251.434 L
193.145 250.62 L
195.109 249.496 L
196.632 247.428 L
200.005 244.537 L
201.218 243.098 L
202.3 241.179 L
203.132 240.157 L
204.453 238.789 L
206.3 236.217 L
207.682 234.602 L
209.008 232.33 L
209.93 230.158 L
210.488 228.81 L
211.27 226.377 L
212.307 223.608 L
212.799 220.748 L
213.551 218.595 L
214.181 216.75 L
215.375 214.647 L
216.656 212.819 L
217.357 211.183 L
218.44 208.073 L
219.135 206.223 L
219.868 203.186 L
220.245 201.608 L
220.325 200.713 L
221.051 198.779 L
222.711 196.245 L
223.708 193.738 L
224.607 190.628 L
225.399 188.443 L
226.309 185.563 L
227.832 183.526 L
228.966 181.023 L
229.8 178.773 L
230.666 176.639 L
231.939 173.754 L
231.939 173.754 L
233.372 171.347 L
234.641 168.059 L
235.579 165.262 L
236.627 162.064 L
238.444 159.06 L
240.495 152.364 L
241.196 150.282 L
242.364 146.706 L
244.023 144.527 L
245.015 141.311 L
245.894 139.529 L
246.258 137.278 L
246.804 134.348 L
248.044 130.723 L
249.234 128.114 L
250.162 124.83 L
251.123 122.752 L
251.573 119.528 L
251.803 117.59 L
252.462 114.813 L
253.047 112.405 L
253.914 110.591 L
254.557 108.384 L
255.547 106.746 L
256.341 104.447 L
256.783 101.837 L
257.415 99.531 L
257.785 96.503 L
258.675 94.758 L
260.196 91.823 L
261.097 90.23 L
261.989 88.537 L
262.669 85.711 L
S
GR
GS
[0.75 0 0 0.75 0 0.25] CT
0.851 0.325 0.098 RC
[10 6] 0 setdash
2 LJ
1.333 LW
N
256.265 141.684 M
257.268 139.283 L
258.27 136.881 L
259.272 134.48 L
260.275 132.078 L
261.277 129.677 L
262.28 127.275 L
263.282 124.873 L
264.285 122.472 L
265.287 120.07 L
265.585 119.356 L
266.745 117.029 L
267.904 114.702 L
269.064 112.375 L
270.224 110.048 L
271.383 107.721 L
272.543 105.394 L
273.702 103.067 L
274.862 100.74 L
276.021 98.414 L
277.181 96.087 L
278.341 93.76 L
278.857 92.723 L
280.558 90.773 L
282.259 88.822 L
283.96 86.871 L
285.661 84.921 L
287.362 82.97 L
289.063 81.02 L
290.764 79.069 L
292.129 77.504 L
293.908 75.627 L
295.686 73.75 L
297.465 71.873 L
299.243 69.995 L
301.022 68.118 L
302.8 66.241 L
304.579 64.364 L
306.358 62.487 L
308.136 60.609 L
308.35 60.383 L
310.514 58.988 L
312.677 57.593 L
314.84 56.197 L
317.004 54.802 L
319.167 53.406 L
321.331 52.011 L
323.494 50.615 L
325.657 49.22 L
326.046 48.969 L
328.565 48.505 L
331.084 48.041 L
333.604 47.577 L
336.123 47.112 L
338.642 46.648 L
341.161 46.184 L
343.68 45.72 L
346.199 45.255 L
346.691 45.165 L
349.251 45.165 L
351.811 45.165 L
354.371 45.165 L
356.931 45.165 L
359.491 45.165 L
362.051 45.165 L
364.611 45.165 L
367.171 45.165 L
369.731 45.165 L
371.76 45.165 L
374.011 46.409 L
376.261 47.653 L
378.512 48.897 L
380.762 50.141 L
383.012 51.386 L
385.263 52.63 L
387.513 53.874 L
389.764 55.118 L
392.014 56.362 L
392.406 56.579 L
394.23 58.409 L
396.055 60.24 L
397.879 62.071 L
399.704 63.902 L
401.529 65.732 L
403.353 67.563 L
405.178 69.394 L
405.677 69.895 L
406.871 72.204 L
408.064 74.513 L
409.257 76.822 L
410.451 79.131 L
411.644 81.441 L
412.837 83.75 L
414.031 86.059 L
414.525 87.016 L
415.297 89.505 L
416.069 91.993 L
416.84 94.482 L
417.612 96.97 L
418.384 99.459 L
419.155 101.948 L
419.927 104.436 L
420.424 106.039 L
420.758 108.627 L
421.093 111.215 L
421.427 113.802 L
421.761 116.39 L
422.096 118.978 L
422.43 121.565 L
422.764 124.153 L
423.099 126.741 L
423.373 128.867 L
423.625 131.465 L
423.877 134.062 L
424.128 136.659 L
424.38 139.257 L
424.632 141.854 L
424.883 144.451 L
425.135 147.049 L
425.387 149.646 L
425.638 152.244 L
425.89 154.841 L
426.142 157.438 L
426.323 159.305 L
425.88 161.875 L
425.437 164.446 L
424.994 167.017 L
424.551 169.587 L
424.108 172.158 L
423.666 174.729 L
423.223 177.299 L
422.78 179.87 L
422.337 182.441 L
421.894 185.011 L
421.451 187.582 L
421.009 190.153 L
420.566 192.723 L
420.424 193.547 L
419.352 195.917 L
418.28 198.287 L
417.209 200.657 L
416.137 203.028 L
415.065 205.398 L
413.993 207.768 L
412.921 210.138 L
411.85 212.509 L
410.778 214.879 L
410.101 216.375 L
408.17 218.088 L
406.238 219.801 L
404.307 221.514 L
402.375 223.227 L
400.444 224.94 L
398.513 226.653 L
396.581 228.366 L
394.65 230.079 L
392.718 231.792 L
390.787 233.505 L
388.855 235.218 L
386.924 236.931 L
386.507 237.3 L
384.344 238.696 L
382.18 240.091 L
380.017 241.487 L
377.853 242.882 L
375.69 244.277 L
373.526 245.673 L
371.363 247.068 L
369.2 248.464 L
367.036 249.859 L
364.873 251.254 L
362.912 252.519 L
360.352 252.519 L
357.792 252.519 L
355.232 252.519 L
352.672 252.519 L
350.112 252.519 L
347.552 252.519 L
344.992 252.519 L
342.432 252.519 L
342.267 252.519 L
340.063 251.192 L
337.858 249.865 L
335.654 248.538 L
333.45 247.211 L
331.245 245.884 L
329.041 244.557 L
326.837 243.23 L
324.632 241.902 L
322.428 240.575 L
320.223 239.248 L
320.147 239.203 L
318.369 237.325 L
316.59 235.448 L
314.812 233.571 L
313.033 231.694 L
311.255 229.816 L
309.476 227.939 L
307.697 226.062 L
305.919 224.185 L
304.14 222.308 L
303.926 222.082 L
302.102 220.251 L
300.277 218.42 L
298.452 216.589 L
296.628 214.759 L
294.803 212.928 L
292.979 211.097 L
291.154 209.267 L
290.654 208.765 L
289.461 206.456 L
288.268 204.147 L
287.074 201.838 L
285.881 199.529 L
284.688 197.22 L
283.495 194.911 L
282.301 192.602 L
281.108 190.293 L
279.915 187.983 L
278.857 185.937 L
277.386 183.802 L
275.914 181.666 L
274.442 179.53 L
272.971 177.395 L
271.499 175.259 L
270.028 173.123 L
268.556 170.988 L
267.084 168.852 L
267.06 168.816 L
265.867 166.507 L
264.673 164.198 L
263.48 161.889 L
262.287 159.58 L
261.093 157.271 L
259.9 154.962 L
258.707 152.653 L
257.513 150.344 L
256.32 148.034 L
255.263 145.988 L
254.004 143.715 L
252.746 141.443 L
251.487 139.17 L
250.229 136.897 L
248.97 134.624 L
247.712 132.351 L
246.453 130.078 L
245.195 127.806 L
243.936 125.533 L
242.678 123.26 L
241.419 120.987 L
240.516 119.356 L
238.929 117.308 L
237.341 115.26 L
235.754 113.213 L
234.167 111.165 L
232.579 109.117 L
230.992 107.069 L
229.405 105.022 L
227.817 102.974 L
226.23 100.926 L
224.643 98.879 L
224.295 98.43 L
223.223 96.06 L
222.151 93.69 L
221.08 91.319 L
220.008 88.949 L
218.936 86.579 L
217.864 84.209 L
216.792 81.838 L
215.721 79.468 L
214.649 77.098 L
213.972 75.602 L
211.978 73.965 L
209.984 72.328 L
207.99 70.691 L
205.997 69.054 L
204.003 67.418 L
202.009 65.781 L
200.015 64.144 L
198.021 62.507 L
197.751 62.286 L
195.487 61.069 L
193.222 59.851 L
190.957 58.634 L
188.693 57.417 L
186.428 56.2 L
184.164 54.982 L
181.899 53.765 L
180.055 52.774 L
177.73 51.683 L
175.404 50.592 L
173.078 49.501 L
170.753 48.41 L
168.427 47.319 L
166.101 46.228 L
163.834 45.165 L
161.274 45.165 L
158.714 45.165 L
156.154 45.165 L
153.594 45.165 L
151.034 45.165 L
148.474 45.165 L
145.914 45.165 L
143.354 45.165 L
143.189 45.165 L
140.856 46.24 L
138.523 47.314 L
136.19 48.389 L
133.857 49.464 L
131.525 50.539 L
129.192 51.614 L
126.859 52.688 L
124.526 53.763 L
122.544 54.676 L
120.782 56.57 L
119.021 58.464 L
117.259 60.358 L
115.497 62.251 L
113.736 64.145 L
111.974 66.039 L
110.212 67.933 L
108.451 69.827 L
106.689 71.72 L
104.928 73.614 L
104.848 73.7 L
103.751 76.058 L
102.654 78.416 L
101.557 80.775 L
100.46 83.133 L
99.364 85.491 L
98.267 87.849 L
97.17 90.208 L
96.073 92.566 L
94.976 94.924 L
93.879 97.283 L
92.782 99.641 L
91.686 101.999 L
91.576 102.235 L
91.012 104.781 L
90.448 107.326 L
89.884 109.872 L
89.321 112.418 L
88.757 114.964 L
88.193 117.51 L
87.629 120.056 L
87.065 122.602 L
86.501 125.148 L
85.937 127.694 L
85.677 128.867 L
85.822 131.473 L
85.966 134.079 L
86.11 136.685 L
86.255 139.291 L
86.399 141.897 L
86.543 144.502 L
86.687 147.108 L
86.832 149.714 L
86.976 152.32 L
87.12 154.926 L
87.152 155.5 L
87.404 158.097 L
87.655 160.695 L
87.907 163.292 L
88.159 165.889 L
88.41 168.487 L
88.662 171.084 L
88.914 173.681 L
89.166 176.279 L
89.417 178.876 L
89.669 181.474 L
89.921 184.071 L
90.101 185.937 L
90.846 188.434 L
91.59 190.932 L
92.335 193.429 L
93.079 195.926 L
93.824 198.423 L
94.569 200.92 L
95.313 203.418 L
96.058 205.915 L
96.802 208.412 L
97.475 210.668 L
99.176 212.618 L
100.877 214.569 L
102.578 216.519 L
104.279 218.47 L
105.98 220.42 L
107.681 222.371 L
109.382 224.321 L
110.747 225.886 L
112.334 227.934 L
113.921 229.982 L
115.509 232.029 L
117.096 234.077 L
118.683 236.125 L
120.271 238.172 L
121.858 240.22 L
123.445 242.268 L
124.018 243.007 L
126.459 243.794 L
128.9 244.582 L
131.341 245.369 L
133.782 246.156 L
136.222 246.943 L
138.663 247.73 L
141.104 248.517 L
141.714 248.714 L
144.274 248.714 L
146.834 248.714 L
149.394 248.714 L
151.954 248.714 L
154.514 248.714 L
157.074 248.714 L
159.634 248.714 L
162.194 248.714 L
164.754 248.714 L
166.783 248.714 L
169.274 248.112 L
171.765 247.509 L
174.256 246.907 L
176.747 246.304 L
179.238 245.702 L
181.729 245.099 L
184.219 244.497 L
186.71 243.894 L
189.201 243.292 L
190.378 243.007 L
192.335 241.324 L
194.291 239.642 L
196.248 237.959 L
198.205 236.276 L
200.162 234.593 L
202.119 232.91 L
204.075 231.227 L
206.032 229.544 L
207.989 227.861 L
209.946 226.179 L
211.903 224.496 L
212.498 223.984 L
213.848 221.767 L
215.199 219.549 L
216.549 217.332 L
217.9 215.115 L
219.25 212.898 L
220.601 210.68 L
221.951 208.463 L
223.302 206.246 L
224.652 204.028 L
226.003 201.811 L
227.353 199.594 L
228.704 197.377 L
228.719 197.351 L
229.948 195.062 L
231.176 192.772 L
232.405 190.482 L
233.634 188.193 L
234.863 185.903 L
236.092 183.613 L
237.32 181.324 L
238.549 179.034 L
239.778 176.744 L
241.007 174.455 L
241.991 172.621 L
243.088 170.263 L
244.185 167.904 L
245.281 165.546 L
246.378 163.188 L
247.475 160.83 L
248.572 158.471 L
249.669 156.113 L
250.766 153.755 L
251.863 151.396 L
252.959 149.038 L
254.056 146.68 L
255.153 144.322 L
255.263 144.086 L
256.265 141.684 L
257.268 139.283 L
258.27 136.881 L
259.272 134.48 L
260.275 132.078 L
261.277 129.677 L
262.28 127.275 L
263.282 124.873 L
264.285 122.472 L
265.287 120.07 L
265.585 119.356 L
266.745 117.029 L
267.904 114.702 L
269.064 112.375 L
270.224 110.048 L
271.383 107.721 L
272.543 105.394 L
273.702 103.067 L
274.862 100.74 L
276.021 98.414 L
277.181 96.087 L
278.341 93.76 L
278.857 92.723 L
280.558 90.773 L
282.259 88.822 L
S
GR
GS
[0.75 0 0 0.75 0 0.25] CT
1 GC
N
435 75 M
435 38 L
304 38 L
304 75 L
cp
f
GR
GS
[0.75 0 0 0.75 263.25 36.35274] CT
/Helvetica 12 F
GS
[1 0 0 1 0 0] CT
0 5 moveto 
1 -1 scale
(Object position) t 
GR
GR
GS
[0.75 0 0 0.75 0 0.25] CT
0 0.447 0.741 RC
1 LJ
1.333 LW
N
308 48.137 M
348 48.137 L
S
GR
GS
[0.75 0 0 0.75 263.25 48.89726] CT
/Helvetica 12 F
GS
[1 0 0 1 0 0] CT
0 5 moveto 
1 -1 scale
(Reference) t 
GR
GR
GS
[0.75 0 0 0.75 0 0.25] CT
0.851 0.325 0.098 RC
[10 6] 0 setdash
2 LJ
1.333 LW
N
308 64.863 M
348 64.863 L
S
GR
GS
[0.75 0 0 0.75 0 0.25] CT
0.149 GC
10.0 ML
0.667 LW
N
304 75 M
304 38 L
435 38 L
435 75 L
cp
S
GR
%%Trailer
%%Pages: 1
%%EOF
