%!PS-Adobe-3.0 EPSF-3.0
%%Creator: (MATLAB, The Mathworks, Inc. Version 9.5.0.944444 \(R2018b\). Operating System: Windows 10)
%%Title: D:/LAB/UltrasonicManipulation/IFAC_article/figures/FBv2.eps
%%CreationDate: 2019-01-31T14:22:28
%%Pages: (atend)
%%BoundingBox: 0 0 318 602
%%LanguageLevel: 3
%%EndComments
%%BeginProlog
%%BeginResource: procset (Apache XML Graphics Std ProcSet) 1.2 0
%%Version: 1.2 0
%%Copyright: (Copyright 2001-2003,2010 The Apache Software Foundation. License terms: http://www.apache.org/licenses/LICENSE-2.0)
/bd{bind def}bind def
/ld{load def}bd
/GR/grestore ld
/GS/gsave ld
/RM/rmoveto ld
/C/curveto ld
/t/show ld
/L/lineto ld
/ML/setmiterlimit ld
/CT/concat ld
/f/fill ld
/N/newpath ld
/S/stroke ld
/CC/setcmykcolor ld
/A/ashow ld
/cp/closepath ld
/RC/setrgbcolor ld
/LJ/setlinejoin ld
/GC/setgray ld
/LW/setlinewidth ld
/M/moveto ld
/re {4 2 roll M
1 index 0 rlineto
0 exch rlineto
neg 0 rlineto
cp } bd
/_ctm matrix def
/_tm matrix def
/BT { _ctm currentmatrix pop matrix _tm copy pop 0 0 moveto } bd
/ET { _ctm setmatrix } bd
/iTm { _ctm setmatrix _tm concat } bd
/Tm { _tm astore pop iTm 0 0 moveto } bd
/ux 0.0 def
/uy 0.0 def
/F {
  /Tp exch def
  /Tf exch def
  Tf findfont Tp scalefont setfont
  /cf Tf def  /cs Tp def
} bd
/ULS {currentpoint /uy exch def /ux exch def} bd
/ULE {
  /Tcx currentpoint pop def
  gsave
  newpath
  cf findfont cs scalefont dup
  /FontMatrix get 0 get /Ts exch def /FontInfo get dup
  /UnderlinePosition get Ts mul /To exch def
  /UnderlineThickness get Ts mul /Tt exch def
  ux uy To add moveto  Tcx uy To add lineto
  Tt setlinewidth stroke
  grestore
} bd
/OLE {
  /Tcx currentpoint pop def
  gsave
  newpath
  cf findfont cs scalefont dup
  /FontMatrix get 0 get /Ts exch def /FontInfo get dup
  /UnderlinePosition get Ts mul /To exch def
  /UnderlineThickness get Ts mul /Tt exch def
  ux uy To add cs add moveto Tcx uy To add cs add lineto
  Tt setlinewidth stroke
  grestore
} bd
/SOE {
  /Tcx currentpoint pop def
  gsave
  newpath
  cf findfont cs scalefont dup
  /FontMatrix get 0 get /Ts exch def /FontInfo get dup
  /UnderlinePosition get Ts mul /To exch def
  /UnderlineThickness get Ts mul /Tt exch def
  ux uy To add cs 10 mul 26 idiv add moveto Tcx uy To add cs 10 mul 26 idiv add lineto
  Tt setlinewidth stroke
  grestore
} bd
/QT {
/Y22 exch store
/X22 exch store
/Y21 exch store
/X21 exch store
currentpoint
/Y21 load 2 mul add 3 div exch
/X21 load 2 mul add 3 div exch
/X21 load 2 mul /X22 load add 3 div
/Y21 load 2 mul /Y22 load add 3 div
/X22 load /Y22 load curveto
} bd
/SSPD {
dup length /d exch dict def
{
/v exch def
/k exch def
currentpagedevice k known {
/cpdv currentpagedevice k get def
v cpdv ne {
/upd false def
/nullv v type /nulltype eq def
/nullcpdv cpdv type /nulltype eq def
nullv nullcpdv or
{
/upd true def
} {
/sametype v type cpdv type eq def
sametype {
v type /arraytype eq {
/vlen v length def
/cpdvlen cpdv length def
vlen cpdvlen eq {
0 1 vlen 1 sub {
/i exch def
/obj v i get def
/cpdobj cpdv i get def
obj cpdobj ne {
/upd true def
exit
} if
} for
} {
/upd true def
} ifelse
} {
v type /dicttype eq {
v {
/dv exch def
/dk exch def
/cpddv cpdv dk get def
dv cpddv ne {
/upd true def
exit
} if
} forall
} {
/upd true def
} ifelse
} ifelse
} if
} ifelse
upd true eq {
d k v put
} if
} if
} if
} forall
d length 0 gt {
d setpagedevice
} if
} bd
/RE { % /NewFontName [NewEncodingArray] /FontName RE -
  findfont dup length dict begin
  {
    1 index /FID ne
    {def} {pop pop} ifelse
  } forall
  /Encoding exch def
  /FontName 1 index def
  currentdict definefont pop
  end
} bind def
%%EndResource
%%BeginResource: procset (Apache XML Graphics EPS ProcSet) 1.0 0
%%Version: 1.0 0
%%Copyright: (Copyright 2002-2003 The Apache Software Foundation. License terms: http://www.apache.org/licenses/LICENSE-2.0)
/BeginEPSF { %def
/b4_Inc_state save def         % Save state for cleanup
/dict_count countdictstack def % Count objects on dict stack
/op_count count 1 sub def      % Count objects on operand stack
userdict begin                 % Push userdict on dict stack
/showpage { } def              % Redefine showpage, { } = null proc
0 setgray 0 setlinecap         % Prepare graphics state
1 setlinewidth 0 setlinejoin
10 setmiterlimit [ ] 0 setdash newpath
/languagelevel where           % If level not equal to 1 then
{pop languagelevel             % set strokeadjust and
1 ne                           % overprint to their defaults.
{false setstrokeadjust false setoverprint
} if
} if
} bd
/EndEPSF { %def
count op_count sub {pop} repeat            % Clean up stacks
countdictstack dict_count sub {end} repeat
b4_Inc_state restore
} bd
%%EndResource
%FOPBeginFontDict
%%IncludeResource: font Courier-Oblique
%%IncludeResource: font Courier-BoldOblique
%%IncludeResource: font Courier-Bold
%%IncludeResource: font ZapfDingbats
%%IncludeResource: font Symbol
%%IncludeResource: font Helvetica
%%IncludeResource: font Helvetica-Oblique
%%IncludeResource: font Helvetica-Bold
%%IncludeResource: font Helvetica-BoldOblique
%%IncludeResource: font Times-Roman
%%IncludeResource: font Times-Italic
%%IncludeResource: font Times-Bold
%%IncludeResource: font Times-BoldItalic
%%IncludeResource: font Courier
%FOPEndFontDict
%%BeginResource: encoding WinAnsiEncoding
/WinAnsiEncoding [
/.notdef /.notdef /.notdef /.notdef /.notdef
/.notdef /.notdef /.notdef /.notdef /.notdef
/.notdef /.notdef /.notdef /.notdef /.notdef
/.notdef /.notdef /.notdef /.notdef /.notdef
/.notdef /.notdef /.notdef /.notdef /.notdef
/.notdef /.notdef /.notdef /.notdef /.notdef
/.notdef /.notdef /space /exclam /quotedbl
/numbersign /dollar /percent /ampersand /quotesingle
/parenleft /parenright /asterisk /plus /comma
/hyphen /period /slash /zero /one
/two /three /four /five /six
/seven /eight /nine /colon /semicolon
/less /equal /greater /question /at
/A /B /C /D /E
/F /G /H /I /J
/K /L /M /N /O
/P /Q /R /S /T
/U /V /W /X /Y
/Z /bracketleft /backslash /bracketright /asciicircum
/underscore /quoteleft /a /b /c
/d /e /f /g /h
/i /j /k /l /m
/n /o /p /q /r
/s /t /u /v /w
/x /y /z /braceleft /bar
/braceright /asciitilde /bullet /Euro /bullet
/quotesinglbase /florin /quotedblbase /ellipsis /dagger
/daggerdbl /circumflex /perthousand /Scaron /guilsinglleft
/OE /bullet /Zcaron /bullet /bullet
/quoteleft /quoteright /quotedblleft /quotedblright /bullet
/endash /emdash /asciitilde /trademark /scaron
/guilsinglright /oe /bullet /zcaron /Ydieresis
/space /exclamdown /cent /sterling /currency
/yen /brokenbar /section /dieresis /copyright
/ordfeminine /guillemotleft /logicalnot /sfthyphen /registered
/macron /degree /plusminus /twosuperior /threesuperior
/acute /mu /paragraph /middot /cedilla
/onesuperior /ordmasculine /guillemotright /onequarter /onehalf
/threequarters /questiondown /Agrave /Aacute /Acircumflex
/Atilde /Adieresis /Aring /AE /Ccedilla
/Egrave /Eacute /Ecircumflex /Edieresis /Igrave
/Iacute /Icircumflex /Idieresis /Eth /Ntilde
/Ograve /Oacute /Ocircumflex /Otilde /Odieresis
/multiply /Oslash /Ugrave /Uacute /Ucircumflex
/Udieresis /Yacute /Thorn /germandbls /agrave
/aacute /acircumflex /atilde /adieresis /aring
/ae /ccedilla /egrave /eacute /ecircumflex
/edieresis /igrave /iacute /icircumflex /idieresis
/eth /ntilde /ograve /oacute /ocircumflex
/otilde /odieresis /divide /oslash /ugrave
/uacute /ucircumflex /udieresis /yacute /thorn
/ydieresis
] def
%%EndResource
%FOPBeginFontReencode
/Courier-Oblique findfont
dup length dict begin
  {1 index /FID ne {def} {pop pop} ifelse} forall
  /Encoding WinAnsiEncoding def
  currentdict
end
/Courier-Oblique exch definefont pop
/Courier-BoldOblique findfont
dup length dict begin
  {1 index /FID ne {def} {pop pop} ifelse} forall
  /Encoding WinAnsiEncoding def
  currentdict
end
/Courier-BoldOblique exch definefont pop
/Courier-Bold findfont
dup length dict begin
  {1 index /FID ne {def} {pop pop} ifelse} forall
  /Encoding WinAnsiEncoding def
  currentdict
end
/Courier-Bold exch definefont pop
/Helvetica findfont
dup length dict begin
  {1 index /FID ne {def} {pop pop} ifelse} forall
  /Encoding WinAnsiEncoding def
  currentdict
end
/Helvetica exch definefont pop
/Helvetica-Oblique findfont
dup length dict begin
  {1 index /FID ne {def} {pop pop} ifelse} forall
  /Encoding WinAnsiEncoding def
  currentdict
end
/Helvetica-Oblique exch definefont pop
/Helvetica-Bold findfont
dup length dict begin
  {1 index /FID ne {def} {pop pop} ifelse} forall
  /Encoding WinAnsiEncoding def
  currentdict
end
/Helvetica-Bold exch definefont pop
/Helvetica-BoldOblique findfont
dup length dict begin
  {1 index /FID ne {def} {pop pop} ifelse} forall
  /Encoding WinAnsiEncoding def
  currentdict
end
/Helvetica-BoldOblique exch definefont pop
/Times-Roman findfont
dup length dict begin
  {1 index /FID ne {def} {pop pop} ifelse} forall
  /Encoding WinAnsiEncoding def
  currentdict
end
/Times-Roman exch definefont pop
/Times-Italic findfont
dup length dict begin
  {1 index /FID ne {def} {pop pop} ifelse} forall
  /Encoding WinAnsiEncoding def
  currentdict
end
/Times-Italic exch definefont pop
/Times-Bold findfont
dup length dict begin
  {1 index /FID ne {def} {pop pop} ifelse} forall
  /Encoding WinAnsiEncoding def
  currentdict
end
/Times-Bold exch definefont pop
/Times-BoldItalic findfont
dup length dict begin
  {1 index /FID ne {def} {pop pop} ifelse} forall
  /Encoding WinAnsiEncoding def
  currentdict
end
/Times-BoldItalic exch definefont pop
/Courier findfont
dup length dict begin
  {1 index /FID ne {def} {pop pop} ifelse} forall
  /Encoding WinAnsiEncoding def
  currentdict
end
/Courier exch definefont pop
%FOPEndFontReencode
%%EndProlog
%%Page: 1 1
%%PageBoundingBox: 0 0 318 602
%%BeginPageSetup
[1 0 0 -1 0 602] CT
%%EndPageSetup
GS
[0.75 0 0 0.75 0 -0.25] CT
1 GC
N
0 0 424 803 re
f
GR
GS
[0.75 0 0 0.75 0 -0.25] CT
1 GC
N
0 0 424 803 re
f
GR
GS
[0.75 0 0 0.75 0 -0.25] CT
1 GC
N
55 715 M
384 715 L
384 435 L
55 435 L
cp
f
GR
GS
[0.75 0 0 0.75 0 -0.25] CT
0.873 GC
1 LJ
0.667 LW
N
55 715 M
55 435 L
S
GR
GS
[0.75 0 0 0.75 0 -0.25] CT
0.873 GC
1 LJ
0.667 LW
N
120.8 715 M
120.8 435 L
S
GR
GS
[0.75 0 0 0.75 0 -0.25] CT
0.873 GC
1 LJ
0.667 LW
N
186.6 715 M
186.6 435 L
S
GR
GS
[0.75 0 0 0.75 0 -0.25] CT
0.873 GC
1 LJ
0.667 LW
N
252.4 715 M
252.4 435 L
S
GR
GS
[0.75 0 0 0.75 0 -0.25] CT
0.873 GC
1 LJ
0.667 LW
N
318.2 715 M
318.2 435 L
S
GR
GS
[0.75 0 0 0.75 0 -0.25] CT
0.873 GC
1 LJ
0.667 LW
N
384 715 M
384 435 L
S
GR
GS
[0.75 0 0 0.75 0 -0.25] CT
0.873 GC
1 LJ
0.667 LW
N
384 715 M
55 715 L
S
GR
GS
[0.75 0 0 0.75 0 -0.25] CT
0.873 GC
1 LJ
0.667 LW
N
384 668.333 M
55 668.333 L
S
GR
GS
[0.75 0 0 0.75 0 -0.25] CT
0.873 GC
1 LJ
0.667 LW
N
384 621.667 M
55 621.667 L
S
GR
GS
[0.75 0 0 0.75 0 -0.25] CT
0.873 GC
1 LJ
0.667 LW
N
384 575 M
55 575 L
S
GR
GS
[0.75 0 0 0.75 0 -0.25] CT
0.873 GC
1 LJ
0.667 LW
N
384 528.333 M
55 528.333 L
S
GR
GS
[0.75 0 0 0.75 0 -0.25] CT
0.873 GC
1 LJ
0.667 LW
N
384 481.667 M
55 481.667 L
S
GR
GS
[0.75 0 0 0.75 0 -0.25] CT
0.873 GC
1 LJ
0.667 LW
N
384 435 M
55 435 L
S
GR
GS
[0.75 0 0 0.75 0 -0.25] CT
0.149 GC
2 setlinecap
1 LJ
0.667 LW
N
55 715 M
384 715 L
S
GR
GS
[0.75 0 0 0.75 0 -0.25] CT
0.149 GC
2 setlinecap
1 LJ
0.667 LW
N
55 435 M
384 435 L
S
GR
GS
[0.75 0 0 0.75 0 -0.25] CT
0.149 GC
2 setlinecap
1 LJ
0.667 LW
N
55 715 M
55 711.71 L
S
GR
GS
[0.75 0 0 0.75 0 -0.25] CT
0.149 GC
2 setlinecap
1 LJ
0.667 LW
N
120.8 715 M
120.8 711.71 L
S
GR
GS
[0.75 0 0 0.75 0 -0.25] CT
0.149 GC
2 setlinecap
1 LJ
0.667 LW
N
186.6 715 M
186.6 711.71 L
S
GR
GS
[0.75 0 0 0.75 0 -0.25] CT
0.149 GC
2 setlinecap
1 LJ
0.667 LW
N
252.4 715 M
252.4 711.71 L
S
GR
GS
[0.75 0 0 0.75 0 -0.25] CT
0.149 GC
2 setlinecap
1 LJ
0.667 LW
N
318.2 715 M
318.2 711.71 L
S
GR
GS
[0.75 0 0 0.75 0 -0.25] CT
0.149 GC
2 setlinecap
1 LJ
0.667 LW
N
384 715 M
384 711.71 L
S
GR
GS
[0.75 0 0 0.75 0 -0.25] CT
0.149 GC
2 setlinecap
1 LJ
0.667 LW
N
55 435 M
55 438.29 L
S
GR
GS
[0.75 0 0 0.75 0 -0.25] CT
0.149 GC
2 setlinecap
1 LJ
0.667 LW
N
120.8 435 M
120.8 438.29 L
S
GR
GS
[0.75 0 0 0.75 0 -0.25] CT
0.149 GC
2 setlinecap
1 LJ
0.667 LW
N
186.6 435 M
186.6 438.29 L
S
GR
GS
[0.75 0 0 0.75 0 -0.25] CT
0.149 GC
2 setlinecap
1 LJ
0.667 LW
N
252.4 435 M
252.4 438.29 L
S
GR
GS
[0.75 0 0 0.75 0 -0.25] CT
0.149 GC
2 setlinecap
1 LJ
0.667 LW
N
318.2 435 M
318.2 438.29 L
S
GR
GS
[0.75 0 0 0.75 0 -0.25] CT
0.149 GC
2 setlinecap
1 LJ
0.667 LW
N
384 435 M
384 438.29 L
S
GR
GS
[0.75 0 0 0.75 41.25 540.39998] CT
0.149 GC
/Helvetica 16 F
GS
[1 0 0 1 0 0] CT
-4.5 17 moveto 
1 -1 scale
(0) t 
GR
GR
GS
[0.75 0 0 0.75 90.6 540.39998] CT
0.149 GC
/Helvetica 16 F
GS
[1 0 0 1 0 0] CT
-4.5 17 moveto 
1 -1 scale
(2) t 
GR
GR
GS
[0.75 0 0 0.75 139.95 540.39998] CT
0.149 GC
/Helvetica 16 F
GS
[1 0 0 1 0 0] CT
-4.5 17 moveto 
1 -1 scale
(4) t 
GR
GR
GS
[0.75 0 0 0.75 189.3 540.39998] CT
0.149 GC
/Helvetica 16 F
GS
[1 0 0 1 0 0] CT
-4.5 17 moveto 
1 -1 scale
(6) t 
GR
GR
GS
[0.75 0 0 0.75 238.65001 540.39998] CT
0.149 GC
/Helvetica 16 F
GS
[1 0 0 1 0 0] CT
-4.5 17 moveto 
1 -1 scale
(8) t 
GR
GR
GS
[0.75 0 0 0.75 288 540.39998] CT
0.149 GC
/Helvetica 16 F
GS
[1 0 0 1 0 0] CT
-9 17 moveto 
1 -1 scale
(10) t 
GR
GR
GS
[0.75 0 0 0.75 164.62511 557.15001] CT
0.149 GC
/Helvetica 17.6 F
GS
[1 0 0 1 0 0] CT
-14.5 18 moveto 
1 -1 scale
(t [s]) t 
GR
GR
GS
[0.75 0 0 0.75 0 -0.25] CT
0.149 GC
2 setlinecap
1 LJ
0.667 LW
N
55 715 M
55 435 L
S
GR
GS
[0.75 0 0 0.75 0 -0.25] CT
0.149 GC
2 setlinecap
1 LJ
0.667 LW
N
384 715 M
384 435 L
S
GR
GS
[0.75 0 0 0.75 0 -0.25] CT
0.149 GC
2 setlinecap
1 LJ
0.667 LW
N
55 715 M
58.29 715 L
S
GR
GS
[0.75 0 0 0.75 0 -0.25] CT
0.149 GC
2 setlinecap
1 LJ
0.667 LW
N
55 668.333 M
58.29 668.333 L
S
GR
GS
[0.75 0 0 0.75 0 -0.25] CT
0.149 GC
2 setlinecap
1 LJ
0.667 LW
N
55 621.667 M
58.29 621.667 L
S
GR
GS
[0.75 0 0 0.75 0 -0.25] CT
0.149 GC
2 setlinecap
1 LJ
0.667 LW
N
55 575 M
58.29 575 L
S
GR
GS
[0.75 0 0 0.75 0 -0.25] CT
0.149 GC
2 setlinecap
1 LJ
0.667 LW
N
55 528.333 M
58.29 528.333 L
S
GR
GS
[0.75 0 0 0.75 0 -0.25] CT
0.149 GC
2 setlinecap
1 LJ
0.667 LW
N
55 481.667 M
58.29 481.667 L
S
GR
GS
[0.75 0 0 0.75 0 -0.25] CT
0.149 GC
2 setlinecap
1 LJ
0.667 LW
N
55 435 M
58.29 435 L
S
GR
GS
[0.75 0 0 0.75 0 -0.25] CT
0.149 GC
2 setlinecap
1 LJ
0.667 LW
N
384 715 M
380.71 715 L
S
GR
GS
[0.75 0 0 0.75 0 -0.25] CT
0.149 GC
2 setlinecap
1 LJ
0.667 LW
N
384 668.333 M
380.71 668.333 L
S
GR
GS
[0.75 0 0 0.75 0 -0.25] CT
0.149 GC
2 setlinecap
1 LJ
0.667 LW
N
384 621.667 M
380.71 621.667 L
S
GR
GS
[0.75 0 0 0.75 0 -0.25] CT
0.149 GC
2 setlinecap
1 LJ
0.667 LW
N
384 575 M
380.71 575 L
S
GR
GS
[0.75 0 0 0.75 0 -0.25] CT
0.149 GC
2 setlinecap
1 LJ
0.667 LW
N
384 528.333 M
380.71 528.333 L
S
GR
GS
[0.75 0 0 0.75 0 -0.25] CT
0.149 GC
2 setlinecap
1 LJ
0.667 LW
N
384 481.667 M
380.71 481.667 L
S
GR
GS
[0.75 0 0 0.75 0 -0.25] CT
0.149 GC
2 setlinecap
1 LJ
0.667 LW
N
384 435 M
380.71 435 L
S
GR
GS
[0.75 0 0 0.75 36.85 536] CT
0.149 GC
/Helvetica 16 F
GS
[1 0 0 1 0 0] CT
-24 6.5 moveto 
1 -1 scale
(-15) t 
GR
GR
GS
[0.75 0 0 0.75 36.85 500.99998] CT
0.149 GC
/Helvetica 16 F
GS
[1 0 0 1 0 0] CT
-24 6.5 moveto 
1 -1 scale
(-10) t 
GR
GR
GS
[0.75 0 0 0.75 36.85 466.00002] CT
0.149 GC
/Helvetica 16 F
GS
[1 0 0 1 0 0] CT
-15 6.5 moveto 
1 -1 scale
(-5) t 
GR
GR
GS
[0.75 0 0 0.75 36.85 431] CT
0.149 GC
/Helvetica 16 F
GS
[1 0 0 1 0 0] CT
-9 6.5 moveto 
1 -1 scale
(0) t 
GR
GR
GS
[0.75 0 0 0.75 36.85 395.99998] CT
0.149 GC
/Helvetica 16 F
GS
[1 0 0 1 0 0] CT
-9 6.5 moveto 
1 -1 scale
(5) t 
GR
GR
GS
[0.75 0 0 0.75 36.85 360.99999] CT
0.149 GC
/Helvetica 16 F
GS
[1 0 0 1 0 0] CT
-18 6.5 moveto 
1 -1 scale
(10) t 
GR
GR
GS
[0.75 0 0 0.75 36.85 326] CT
0.149 GC
/Helvetica 16 F
GS
[1 0 0 1 0 0] CT
-18 6.5 moveto 
1 -1 scale
(15) t 
GR
GR
GS
[0 -0.75 0.75 0 15.85 430.99991] CT
0.149 GC
/Helvetica 17.6 F
GS
[1 0 0 1 0 0] CT
-45 -4 moveto 
1 -1 scale
(position [m]) t 
GR
GR
GS
[0.75 0 0 0.75 0 -0.25] CT
0 0.447 0.741 RC
1 LJ
2 LW
N
55 582.553 M
55.658 581.943 L
56.316 581.263 L
56.974 580.52 L
57.632 579.558 L
58.29 578.72 L
58.948 578.282 L
59.606 577.681 L
60.264 577.118 L
60.922 576.42 L
61.58 575.586 L
62.238 575.126 L
62.896 574.495 L
63.554 574.12 L
64.212 573.773 L
64.87 573.229 L
65.528 572.531 L
66.186 571.917 L
66.844 571.359 L
67.502 570.744 L
68.16 570.378 L
68.818 569.953 L
69.476 569.499 L
70.134 568.582 L
70.792 567.636 L
71.45 566.838 L
72.108 566.478 L
72.766 565.767 L
73.424 564.736 L
74.082 563.55 L
74.74 562.516 L
75.398 561.889 L
76.056 560.633 L
76.714 559.471 L
77.372 558.565 L
78.03 557.78 L
78.688 556.557 L
79.346 555.091 L
80.004 554.04 L
80.662 552.488 L
81.32 550.734 L
81.978 549.626 L
82.636 547.809 L
83.294 546.596 L
83.952 545.757 L
84.61 544.194 L
85.268 542.682 L
85.926 540.657 L
86.584 538.677 L
87.242 536.626 L
87.9 534.683 L
88.558 533.063 L
89.216 531.105 L
89.874 530.304 L
90.532 529.045 L
91.19 527.01 L
91.848 524.927 L
92.506 522.717 L
93.164 519.964 L
93.822 518.253 L
94.48 515.588 L
95.138 514.395 L
95.796 512.663 L
96.454 511.421 L
97.112 509.889 L
97.77 507.459 L
98.428 504.891 L
99.086 502.761 L
99.744 499.9 L
100.402 497.814 L
101.06 495.51 L
101.718 494.063 L
102.376 492.012 L
103.034 490.871 L
103.692 488.657 L
104.35 487.026 L
105.008 484.018 L
105.666 481.609 L
106.324 479.44 L
106.982 477.173 L
107.64 475.816 L
108.298 474.473 L
108.956 473.516 L
109.614 472.279 L
110.272 471.151 L
110.93 468.585 L
111.588 466.788 L
112.246 464.41 L
112.904 462.881 L
113.562 461.14 L
114.22 460.423 L
114.878 460.372 L
115.536 460.204 L
116.194 459.734 L
116.852 458.395 L
117.51 456.934 L
118.168 455.997 L
118.826 455.065 L
119.484 454.684 L
120.142 454.426 L
120.8 454.469 L
121.458 453.997 L
122.116 453.185 L
122.774 452.318 L
123.432 451.614 L
124.09 450.674 L
124.748 450.318 L
125.406 450.458 L
126.064 451.298 L
126.722 451.891 L
127.38 452.188 L
128.038 452.179 L
128.696 451.793 L
129.354 451.106 L
130.012 450.326 L
130.67 449.622 L
131.328 449.724 L
131.986 450.138 L
132.644 450.936 L
133.302 451.491 L
133.96 451.699 L
134.618 451.995 L
135.276 452.061 L
135.934 452.053 L
136.592 452.173 L
137.25 452.328 L
137.908 452.515 L
138.566 453.114 L
139.224 453.889 L
139.882 454.904 L
140.54 455.537 L
141.198 456.075 L
141.856 456.404 L
142.514 456.903 L
143.172 457.397 L
143.83 458.092 L
144.488 459.234 L
145.146 459.649 L
145.804 460.221 L
146.462 461.286 L
147.12 462.201 L
147.778 463.194 L
148.436 463.787 L
149.094 464.708 L
149.752 466.34 L
150.41 467.483 L
151.068 468.359 L
151.726 469.799 L
152.384 471.276 L
153.042 471.818 L
153.7 472.487 L
154.358 473.128 L
155.016 474.517 L
155.674 475.726 L
156.332 477.734 L
156.99 479.7 L
157.648 481.208 L
158.306 483.092 L
158.964 484.222 L
159.622 486.009 L
160.28 486.987 L
160.938 487.912 L
161.596 489.345 L
162.254 490.85 L
162.912 491.437 L
163.57 492.39 L
164.228 494.574 L
164.886 495.64 L
165.544 497.49 L
166.202 499.27 L
166.86 500.985 L
167.518 502.871 L
168.176 503.61 L
168.834 504.687 L
169.492 506.129 L
170.15 507.044 L
170.808 507.808 L
171.466 509.613 L
172.124 511.097 L
172.782 512.301 L
173.44 514.006 L
174.098 515.176 L
174.756 516.498 L
175.414 518.396 L
176.072 519.039 L
176.73 519.442 L
177.388 520.819 L
178.046 522.459 L
178.704 523.448 L
179.362 525.019 L
180.02 526.746 L
180.678 527.831 L
181.336 529.704 L
181.994 530.811 L
182.652 531.614 L
183.31 532.402 L
183.968 532.694 L
184.626 533.816 L
185.284 534.499 L
185.942 535.203 L
186.6 536.389 L
187.258 537.938 L
187.916 538.961 L
188.574 540.068 L
189.232 541.027 L
189.89 541.186 L
190.548 541.473 L
191.206 542.033 L
191.864 542.776 L
192.522 543.709 L
193.18 544.651 L
193.838 545.934 L
194.496 546.308 L
195.154 546.552 L
195.812 546.65 L
196.47 546.83 L
197.128 547.337 L
197.786 547.492 L
198.444 548.166 L
199.102 548.995 L
199.76 549.617 L
200.418 550.335 L
201.076 550.691 L
201.734 551.015 L
202.392 551.577 L
203.05 551.91 L
203.708 552.378 L
204.366 553.221 L
205.024 554.154 L
205.682 554.541 L
206.34 555.071 L
206.998 555.743 L
207.656 556.15 L
208.314 556.535 L
208.972 557.834 L
209.63 558.36 L
210.288 558.948 L
210.946 559.786 L
211.604 560.892 L
212.262 561.626 L
212.92 562.197 L
213.578 562.82 L
214.236 563.687 L
214.894 565.021 L
215.552 566.169 L
216.21 567.128 L
216.868 568.46 L
217.526 569.568 L
218.184 570.51 L
218.842 571.091 L
219.5 571.981 L
220.158 573.246 L
220.816 574.33 L
221.474 575.051 L
222.132 576.832 L
222.79 578.255 L
223.448 579.575 L
224.106 581.336 L
224.764 582.492 L
225.422 583.932 L
226.08 585.595 L
226.738 586.534 L
227.396 588.066 L
228.054 589.576 L
228.712 590.999 L
229.37 592.488 L
230.028 593.513 L
230.686 594.297 L
231.344 595.796 L
232.002 597.528 L
232.66 598.399 L
233.318 600.065 L
233.976 601.667 L
234.634 602.749 L
235.292 603.957 L
235.95 605.939 L
236.608 605.939 L
237.266 607.661 L
237.924 610.952 L
238.582 612.684 L
239.24 613.756 L
239.898 613.756 L
240.556 616.315 L
241.214 617.24 L
241.872 618.055 L
242.53 619.866 L
243.188 619.866 L
243.846 623.728 L
244.504 625.489 L
245.162 627.372 L
245.82 629.283 L
246.478 629.283 L
247.136 631.81 L
247.794 633.243 L
248.452 634.755 L
249.11 636.871 L
249.768 636.871 L
250.426 640.359 L
251.084 641.634 L
251.742 643.562 L
252.4 645.204 L
253.058 645.204 L
253.716 649.007 L
254.374 650.65 L
255.032 652.889 L
255.69 652.889 L
256.348 654.81 L
257.006 656.803 L
257.664 658.076 L
258.322 659.401 L
258.98 661.009 L
259.638 662.888 L
260.296 666.832 L
260.954 668.942 L
261.612 671.266 L
262.27 672.911 L
262.928 672.911 L
263.586 675.681 L
264.244 676.388 L
264.902 677.514 L
265.56 679.365 L
266.218 679.365 L
266.876 682.309 L
267.534 683.99 L
268.192 685.076 L
268.85 686.612 L
269.508 686.612 L
270.166 688.346 L
270.824 688.697 L
271.482 689.016 L
272.14 690.012 L
272.798 690.012 L
273.456 692.115 L
274.114 692.681 L
274.772 693.372 L
275.43 693.999 L
276.088 693.999 L
276.746 694.955 L
277.404 695.287 L
278.062 695.933 L
278.72 696.231 L
279.378 696.231 L
280.036 696.207 L
280.694 696.14 L
281.352 696.272 L
282.01 696.272 L
282.668 696.198 L
283.326 696.336 L
283.984 696.316 L
284.642 696.516 L
285.3 696.513 L
285.958 696.556 L
286.616 696.208 L
287.274 695.951 L
287.932 694.877 L
288.59 693.916 L
289.248 693.916 L
289.906 692.903 L
290.564 692.83 L
291.222 692.789 L
291.88 692.706 L
292.538 692.706 L
293.196 692.211 L
293.854 691.661 L
294.512 690.631 L
295.17 689.468 L
295.828 689.468 L
296.486 688.78 L
297.144 687.65 L
297.802 687.262 L
298.46 686.984 L
299.118 686.984 L
299.776 686.267 L
300.434 686.035 L
301.092 685.367 L
301.75 685.063 L
302.408 685.063 L
303.066 683.974 L
303.724 683.013 L
304.382 682.112 L
305.04 681.395 L
305.698 681.395 L
306.356 680.229 L
307.014 679.869 L
307.672 679.484 L
308.33 678.777 L
308.988 678.777 L
309.646 678.01 L
310.304 677.046 L
310.962 675.849 L
311.62 674.431 L
312.278 673.408 L
312.936 672.122 L
313.594 671.002 L
314.252 670.137 L
314.91 669.329 L
315.568 669.329 L
316.226 667.033 L
316.884 665.939 L
317.542 665.266 L
318.2 664.252 L
318.858 663.078 L
319.516 662.072 L
320.174 660.738 L
320.832 658.246 L
321.49 656.989 L
322.148 655.313 L
322.806 653.999 L
323.464 652.915 L
324.122 652.048 L
324.78 651.071 L
325.438 649.674 L
326.096 648.066 L
326.754 645.821 L
327.412 644.191 L
328.07 642.189 L
328.728 640.752 L
329.386 638.922 L
330.044 637.613 L
330.702 636.111 L
331.36 634.247 L
332.018 633.191 L
332.676 631.151 L
333.334 629.719 L
333.992 628.194 L
334.65 626.435 L
335.308 626.435 L
335.966 625.072 L
336.624 623.32 L
337.282 621.973 L
337.94 620.832 L
338.598 619.4 L
339.256 618.289 L
339.914 615.83 L
340.572 614.945 L
341.23 614.156 L
341.888 613.549 L
342.546 612.586 L
343.204 611.24 L
343.862 610.232 L
344.52 609.265 L
345.178 608.593 L
345.836 608.186 L
346.494 607.616 L
347.152 606.86 L
347.81 606.501 L
348.468 605.952 L
349.126 605.493 L
349.784 604.622 L
350.442 603.688 L
351.1 603.177 L
351.758 602.387 L
352.416 601.881 L
353.074 601.347 L
353.732 601.071 L
354.39 601.013 L
355.048 600.484 L
355.706 599.273 L
356.364 598.546 L
357.022 597.891 L
357.68 597.313 L
358.338 596.65 L
358.996 595.539 L
359.654 594.712 L
360.312 594.104 L
360.97 593.473 L
361.628 592.544 L
362.286 592.544 L
362.944 591.499 L
363.602 590.575 L
364.26 589.891 L
364.918 589.126 L
365.576 587.801 L
366.234 586.306 L
366.892 585.795 L
367.55 584.943 L
368.208 583.733 L
368.866 583.01 L
369.524 582.369 L
370.182 582.104 L
370.84 581.706 L
371.498 580.801 L
372.156 579.933 L
372.814 579.257 L
373.472 578.556 L
374.13 578.228 L
374.788 578.061 L
375.446 577.58 L
376.104 577.153 L
376.762 576.521 L
377.42 576.052 L
378.078 575.331 L
378.736 574.752 L
379.394 574.429 L
380.052 573.968 L
380.71 573.699 L
381.368 573.05 L
382.026 571.94 L
382.684 571.283 L
383.342 570.633 L
384 570.137 L
S
GR
GS
[0.75 0 0 0.75 0 -0.25] CT
0.851 0.325 0.098 RC
[8 2 4 2] 0 setdash
2 LJ
2 LW
N
55 574.807 M
55.658 574.076 L
56.316 573.345 L
56.974 572.614 L
57.632 571.883 L
58.29 571.152 L
58.948 570.421 L
59.606 569.69 L
60.264 568.959 L
60.922 568.228 L
61.58 568.011 L
62.238 567.165 L
62.896 566.32 L
63.554 565.474 L
64.212 564.629 L
64.87 563.783 L
65.528 562.938 L
66.186 562.092 L
66.844 561.247 L
67.502 560.401 L
68.16 559.556 L
68.818 558.71 L
69.476 558.333 L
70.134 557.093 L
70.792 555.853 L
71.45 554.612 L
72.108 553.372 L
72.766 552.132 L
73.424 550.891 L
74.082 549.651 L
74.74 548.656 L
75.398 547.359 L
76.056 546.062 L
76.714 544.765 L
77.372 543.468 L
78.03 542.172 L
78.688 540.875 L
79.346 539.578 L
80.004 538.281 L
80.662 536.984 L
81.32 536.828 L
81.978 535.25 L
82.636 533.673 L
83.294 532.096 L
83.952 530.518 L
84.61 528.941 L
85.268 527.363 L
85.926 525.786 L
86.584 524.208 L
87.242 523.925 L
87.9 522.088 L
88.558 520.251 L
89.216 518.414 L
89.874 516.577 L
90.532 514.74 L
91.19 512.903 L
91.848 511.066 L
92.506 509.23 L
93.164 508.871 L
93.822 507.004 L
94.48 505.138 L
95.138 503.271 L
95.796 501.404 L
96.454 499.538 L
97.112 497.671 L
97.77 495.804 L
98.428 493.938 L
99.086 492.071 L
99.744 490.591 L
100.402 488.95 L
101.06 487.31 L
101.718 485.669 L
102.376 484.028 L
103.034 482.387 L
103.692 480.746 L
104.35 479.105 L
105.008 477.464 L
105.666 475.823 L
106.324 475.538 L
106.982 474.207 L
107.64 472.877 L
108.298 471.546 L
108.956 470.216 L
109.614 468.885 L
110.272 467.555 L
110.93 466.224 L
111.588 465.86 L
112.246 464.99 L
112.904 464.12 L
113.562 463.25 L
114.22 462.38 L
114.878 461.51 L
115.536 460.639 L
116.194 459.769 L
116.852 459.409 L
117.51 458.846 L
118.168 458.283 L
118.826 457.721 L
119.484 457.158 L
120.142 456.595 L
120.8 456.033 L
121.458 455.47 L
122.116 455.108 L
122.774 454.864 L
123.432 454.62 L
124.09 454.376 L
124.748 454.132 L
125.406 453.889 L
126.064 453.645 L
126.722 453.401 L
127.38 453.157 L
128.038 452.957 L
128.696 452.773 L
129.354 452.59 L
130.012 452.406 L
130.67 452.223 L
131.328 452.039 L
131.986 451.856 L
132.644 451.672 L
133.302 451.489 L
133.96 451.305 L
134.618 451.122 L
135.276 450.938 L
135.934 450.806 L
136.592 451.129 L
137.25 451.452 L
137.908 451.775 L
138.566 452.098 L
139.224 452.421 L
139.882 452.744 L
140.54 453.067 L
141.198 453.39 L
141.856 453.712 L
142.514 454.035 L
143.172 454.358 L
143.83 454.681 L
144.488 455.004 L
145.146 455.108 L
145.804 455.889 L
146.462 456.671 L
147.12 457.452 L
147.778 458.234 L
148.436 459.015 L
149.094 459.797 L
149.752 460.578 L
150.41 461.36 L
151.068 462.141 L
151.726 462.634 L
152.384 464.043 L
153.042 465.451 L
153.7 466.859 L
154.358 468.268 L
155.016 469.676 L
155.674 471.085 L
156.332 472.493 L
156.99 473.901 L
157.648 475.31 L
158.306 476.718 L
158.964 478.126 L
159.622 479.535 L
160.28 479.839 L
160.938 481.416 L
161.596 482.994 L
162.254 484.571 L
162.912 486.149 L
163.57 487.726 L
164.228 489.304 L
164.886 490.881 L
165.544 492.459 L
166.202 494.036 L
166.86 495.614 L
167.518 497.043 L
168.176 498.91 L
168.834 500.776 L
169.492 502.643 L
170.15 504.51 L
170.808 506.376 L
171.466 508.243 L
172.124 510.11 L
172.782 511.976 L
173.44 512.097 L
174.098 513.704 L
174.756 515.312 L
175.414 516.919 L
176.072 518.526 L
176.73 520.134 L
177.388 521.741 L
178.046 523.348 L
178.704 524.956 L
179.362 526.563 L
180.02 528.17 L
180.678 528.226 L
181.336 529.523 L
181.994 530.82 L
182.652 532.116 L
183.31 533.413 L
183.968 534.71 L
184.626 536.007 L
185.284 537.304 L
185.942 538.601 L
186.6 539.898 L
187.258 540.054 L
187.916 541.384 L
188.574 542.715 L
189.232 544.045 L
189.89 545.376 L
190.548 546.706 L
191.206 548.036 L
191.864 549.367 L
192.522 549.731 L
193.18 550.601 L
193.838 551.471 L
194.496 552.342 L
195.154 553.212 L
195.812 554.082 L
196.47 554.952 L
197.128 555.822 L
197.786 556.692 L
198.444 557.562 L
199.102 558.333 L
199.76 559.406 L
200.418 560.479 L
201.076 561.552 L
201.734 562.625 L
202.392 563.698 L
203.05 564.772 L
203.708 565.845 L
204.366 566.918 L
205.024 566.935 L
205.682 567.806 L
206.34 568.676 L
206.998 569.546 L
207.656 570.416 L
208.314 571.286 L
208.972 572.156 L
209.63 573.026 L
210.288 573.896 L
210.946 574.767 L
211.604 575.538 L
212.262 576.455 L
212.92 577.373 L
213.578 578.291 L
214.236 579.208 L
214.894 580.126 L
215.552 581.044 L
216.21 581.961 L
216.868 582.879 L
217.526 583.796 L
218.184 584.714 L
218.842 585.632 L
219.5 586.29 L
220.158 587.448 L
220.816 588.605 L
221.474 589.763 L
222.132 590.92 L
222.79 592.078 L
223.448 593.235 L
224.106 594.392 L
224.764 595.55 L
225.422 596.707 L
226.08 597.865 L
226.738 598.118 L
227.396 598.9 L
228.054 599.681 L
228.712 600.463 L
229.37 601.244 L
230.028 602.026 L
230.686 602.807 L
231.344 603.589 L
232.002 604.37 L
232.66 605.152 L
233.318 605.645 L
233.976 607.099 L
234.634 608.553 L
235.292 610.007 L
235.95 611.461 L
236.608 612.915 L
237.266 614.369 L
237.924 615.823 L
238.582 617.277 L
239.24 617.473 L
239.898 619.124 L
240.556 620.776 L
241.214 622.427 L
241.872 624.078 L
242.53 625.729 L
243.188 627.381 L
243.846 629.032 L
244.504 630.376 L
245.162 632.072 L
245.82 633.768 L
246.478 635.464 L
247.136 637.159 L
247.794 638.855 L
248.452 640.551 L
249.11 642.204 L
249.768 644.071 L
250.426 645.938 L
251.084 647.804 L
251.742 649.671 L
252.4 651.538 L
253.058 653.404 L
253.716 655.271 L
254.374 657.138 L
255.032 657.258 L
255.69 658.959 L
256.348 660.66 L
257.006 662.361 L
257.664 664.062 L
258.322 665.763 L
258.98 667.464 L
259.638 669.165 L
260.296 670.866 L
260.954 672.312 L
261.612 673.596 L
262.27 674.881 L
262.928 676.165 L
263.586 677.45 L
264.244 678.734 L
264.902 680.019 L
265.56 681.303 L
266.218 682.588 L
266.876 683.872 L
267.534 685.157 L
268.192 685.215 L
268.85 686.015 L
269.508 686.815 L
270.166 687.614 L
270.824 688.414 L
271.482 689.214 L
272.14 690.014 L
272.798 690.814 L
273.456 691.613 L
274.114 692.413 L
274.772 693.213 L
275.43 694.013 L
276.088 694.813 L
276.746 694.892 L
277.404 695.304 L
278.062 695.715 L
278.72 696.126 L
279.378 696.537 L
280.036 696.948 L
280.694 697.359 L
281.352 697.771 L
282.01 698.182 L
282.668 698.593 L
283.326 699.004 L
283.984 699.194 L
284.642 699.088 L
285.3 698.983 L
285.958 698.878 L
286.616 698.773 L
287.274 698.667 L
287.932 698.562 L
288.59 698.457 L
289.248 698.352 L
289.906 698.247 L
290.564 698.141 L
291.222 698.118 L
291.88 697.935 L
292.538 697.751 L
293.196 697.568 L
293.854 697.384 L
294.512 697.201 L
295.17 697.017 L
295.828 696.834 L
296.486 696.65 L
297.144 696.467 L
297.802 696.283 L
298.46 696.1 L
299.118 695.968 L
299.776 695.425 L
300.434 694.882 L
301.092 694.339 L
301.75 693.796 L
302.408 693.253 L
303.066 692.71 L
303.724 692.168 L
304.382 691.625 L
305.04 691.082 L
305.698 690.591 L
306.356 689.351 L
307.014 688.111 L
307.672 686.87 L
308.33 685.63 L
308.988 684.39 L
309.646 683.149 L
310.304 681.909 L
310.962 680.914 L
311.62 679.757 L
312.278 678.599 L
312.936 677.442 L
313.594 676.284 L
314.252 675.127 L
314.91 673.969 L
315.568 672.812 L
316.226 671.654 L
316.884 671.237 L
317.542 669.457 L
318.2 667.677 L
318.858 665.897 L
319.516 664.118 L
320.174 662.338 L
320.832 660.558 L
321.49 658.778 L
322.148 658.333 L
322.806 656.467 L
323.464 654.6 L
324.122 652.733 L
324.78 650.867 L
325.438 649 L
326.096 647.133 L
326.754 645.267 L
327.412 643.4 L
328.07 641.533 L
328.728 640.054 L
329.386 638.237 L
330.044 636.421 L
330.702 634.605 L
331.36 632.789 L
332.018 630.972 L
332.676 629.156 L
333.334 627.34 L
333.992 625.524 L
334.65 623.708 L
335.308 622.849 L
335.966 621.423 L
336.624 619.996 L
337.282 618.569 L
337.94 617.142 L
338.598 615.715 L
339.256 614.289 L
339.914 612.862 L
340.572 611.435 L
341.23 610.008 L
341.888 608.581 L
342.546 607.154 L
343.204 606.72 L
343.862 605.736 L
344.52 604.751 L
345.178 603.766 L
345.836 602.781 L
346.494 601.797 L
347.152 600.812 L
347.81 599.827 L
348.468 598.843 L
349.126 597.858 L
349.784 596.873 L
350.442 595.888 L
351.1 594.904 L
351.758 594.892 L
352.416 593.996 L
353.074 593.1 L
353.732 592.204 L
354.39 591.309 L
355.048 590.413 L
355.706 589.517 L
356.364 588.621 L
357.022 587.725 L
357.68 586.829 L
358.338 585.933 L
358.996 585.215 L
359.654 584.415 L
360.312 583.615 L
360.97 582.816 L
361.628 582.016 L
362.286 581.216 L
362.944 580.416 L
363.602 579.616 L
364.26 578.817 L
364.918 578.017 L
365.576 577.217 L
366.234 576.417 L
366.892 575.617 L
367.55 575.538 L
368.208 574.807 L
368.866 574.076 L
369.524 573.345 L
370.182 572.614 L
370.84 571.883 L
371.498 571.152 L
372.156 570.421 L
372.814 569.69 L
373.472 568.959 L
374.13 568.228 L
374.788 568.011 L
375.446 567.165 L
376.104 566.32 L
376.762 565.474 L
377.42 564.629 L
378.078 563.783 L
378.736 562.938 L
379.394 562.092 L
380.052 561.247 L
380.71 560.401 L
381.368 559.556 L
382.026 558.71 L
382.684 558.333 L
383.342 557.093 L
384 555.853 L
S
GR
GS
[0.75 0 0 0.75 0 -0.25] CT
0.929 0.694 0.125 RC
1 LJ
2 LW
N
55 568.612 M
55.658 567.039 L
56.316 564.545 L
56.974 563.217 L
57.632 561.032 L
58.29 559.487 L
58.948 556.716 L
59.606 555.269 L
60.264 552.702 L
60.922 551.101 L
61.58 548.82 L
62.238 547.314 L
62.896 544.89 L
63.554 543.794 L
64.212 542.235 L
64.87 540.728 L
65.528 539.325 L
66.186 537.224 L
66.844 535.545 L
67.502 533.2 L
68.16 531.864 L
68.818 529.878 L
69.476 528.679 L
70.134 527.371 L
70.792 525.869 L
71.45 524.351 L
72.108 523.09 L
72.766 521.466 L
73.424 520.223 L
74.082 518.682 L
74.74 516.986 L
75.398 515.995 L
76.056 514.53 L
76.714 513.161 L
77.372 512.309 L
78.03 510.967 L
78.688 509.151 L
79.346 508.134 L
80.004 506.137 L
80.662 504.704 L
81.32 503.419 L
81.978 501.645 L
82.636 500.472 L
83.294 498.666 L
83.952 497.778 L
84.61 497.068 L
85.268 496.41 L
85.926 494.842 L
86.584 493.312 L
87.242 492.328 L
87.9 490.586 L
88.558 489.248 L
89.216 488.426 L
89.874 487.564 L
90.532 486.743 L
91.19 486.144 L
91.848 485.639 L
92.506 485.148 L
93.164 484.605 L
93.822 483.947 L
94.48 483.068 L
95.138 482.3 L
95.796 482.423 L
96.454 482.319 L
97.112 482.505 L
97.77 482.432 L
98.428 482.511 L
99.086 482.449 L
99.744 482.223 L
100.402 481.98 L
101.06 481.903 L
101.718 482.051 L
102.376 482.253 L
103.034 483.026 L
103.692 484.234 L
104.35 485.192 L
105.008 486.092 L
105.666 487.27 L
106.324 488.44 L
106.982 489.357 L
107.64 490.207 L
108.298 491.169 L
108.956 492.23 L
109.614 493.08 L
110.272 494.175 L
110.93 496.165 L
111.588 497.743 L
112.246 500.009 L
112.904 501.581 L
113.562 503.218 L
114.22 504.875 L
114.878 505.942 L
115.536 508.15 L
116.194 509.795 L
116.852 512.771 L
117.51 514.557 L
118.168 516.991 L
118.826 518.709 L
119.484 520.606 L
120.142 522.018 L
120.8 524.21 L
121.458 525.829 L
122.116 528.296 L
122.774 529.916 L
123.432 532.585 L
124.09 534.387 L
124.748 536.531 L
125.406 537.953 L
126.064 540.377 L
126.722 541.946 L
127.38 544.492 L
128.038 546.135 L
128.696 548.516 L
129.354 550.058 L
130.012 552.391 L
130.67 553.714 L
131.328 555.885 L
131.986 557.163 L
132.644 559.357 L
133.302 561.209 L
133.96 563.797 L
134.618 565.364 L
135.276 568.157 L
135.934 569.802 L
136.592 572.303 L
137.25 573.938 L
137.908 576.185 L
138.566 577.458 L
139.224 579.919 L
139.882 581.651 L
140.54 584.107 L
141.198 585.744 L
141.856 588.128 L
142.514 589.879 L
143.172 592.187 L
143.83 594.016 L
144.488 596.31 L
145.146 598.068 L
145.804 600.256 L
146.462 601.913 L
147.12 604.087 L
147.778 605.155 L
148.436 606.88 L
149.094 608.33 L
149.752 610.136 L
150.41 612.273 L
151.068 614.204 L
151.726 616.258 L
152.384 617.762 L
153.042 619.921 L
153.7 621.05 L
154.358 622.795 L
155.016 623.821 L
155.674 624.29 L
156.332 625.428 L
156.99 627.453 L
157.648 628.659 L
158.306 630.379 L
158.964 631.972 L
159.622 633.024 L
160.28 634.345 L
160.938 635.643 L
161.596 636.442 L
162.254 637.474 L
162.912 638.587 L
163.57 639.306 L
164.228 639.808 L
164.886 640.344 L
165.544 640.877 L
166.202 642.002 L
166.86 643.221 L
167.518 643.935 L
168.176 644.502 L
168.834 645.287 L
169.492 646.447 L
170.15 647.42 L
170.808 647.619 L
171.466 647.236 L
172.124 647.126 L
172.782 646.754 L
173.44 646.62 L
174.098 646.701 L
174.756 646.644 L
175.414 646.37 L
176.072 645.963 L
176.73 645.198 L
177.388 644.479 L
178.046 643.838 L
178.704 643.345 L
179.362 642.087 L
180.02 640.547 L
180.678 639.578 L
181.336 638.183 L
181.994 636.461 L
182.652 635.645 L
183.31 634.816 L
183.968 633.316 L
184.626 632.168 L
185.284 630.856 L
185.942 628.539 L
186.6 627.205 L
187.258 625.188 L
187.916 623.782 L
188.574 622.481 L
189.232 621.211 L
189.89 620.294 L
190.548 619.61 L
191.206 617.958 L
191.864 616.04 L
192.522 614.71 L
193.18 612.743 L
193.838 611.492 L
194.496 610.327 L
195.154 609.365 L
195.812 608.419 L
196.47 607.5 L
197.128 604.888 L
197.786 603.378 L
198.444 600.933 L
199.102 599.322 L
199.76 597.663 L
200.418 596.501 L
201.076 595.93 L
201.734 595.353 L
202.392 594.306 L
203.05 592.932 L
203.708 591.835 L
204.366 590.092 L
205.024 588.186 L
205.682 586.497 L
206.34 584.378 L
206.998 582.941 L
207.656 581.791 L
208.314 581.104 L
208.972 580.037 L
209.63 578.851 L
210.288 576.608 L
210.946 575.27 L
211.604 573.02 L
212.262 571.562 L
212.92 569.915 L
213.578 568.446 L
214.236 567.39 L
214.894 565.49 L
215.552 563.851 L
216.21 561.768 L
216.868 559.992 L
217.526 557.877 L
218.184 556.063 L
218.842 554.46 L
219.5 552.714 L
220.158 551.522 L
220.816 549.611 L
221.474 548.072 L
222.132 546.399 L
222.79 544.413 L
223.448 542.966 L
224.106 540.84 L
224.764 539.829 L
225.422 537.99 L
226.08 536.481 L
226.738 535.55 L
227.396 534.084 L
228.054 532.591 L
228.712 531.318 L
229.37 529.781 L
230.028 528.392 L
230.686 527.18 L
231.344 525.196 L
232.002 523.986 L
232.66 522.411 L
233.318 520.927 L
233.976 520.005 L
234.634 518.371 L
235.292 517.133 L
235.95 515.707 L
236.608 515.707 L
237.266 514.432 L
237.924 512.114 L
238.582 510.733 L
239.24 508.92 L
239.898 508.92 L
240.556 506.942 L
241.214 506.728 L
241.872 506.44 L
242.53 505.893 L
243.188 505.893 L
243.846 504.231 L
244.504 503.504 L
245.162 502.117 L
245.82 500.878 L
246.478 500.878 L
247.136 499.874 L
247.794 499.56 L
248.452 499.264 L
249.11 498.897 L
249.768 498.897 L
250.426 497.9 L
251.084 497.525 L
251.742 497.055 L
252.4 496.787 L
253.058 496.787 L
253.716 496.674 L
254.374 496.693 L
255.032 496.706 L
255.69 496.706 L
256.348 496.693 L
257.006 496.851 L
257.664 497.356 L
258.322 497.622 L
258.98 498.463 L
259.638 498.968 L
260.296 499.743 L
260.954 500.003 L
261.612 500.417 L
262.27 501.34 L
262.928 501.34 L
263.586 503.999 L
264.244 505.423 L
264.902 507.23 L
265.56 508.161 L
266.218 508.161 L
266.876 510.223 L
267.534 511.45 L
268.192 512.844 L
268.85 514.959 L
269.508 514.959 L
270.166 517.175 L
270.824 518.39 L
271.482 519.837 L
272.14 522.087 L
272.798 522.087 L
273.456 526.438 L
274.114 527.977 L
274.772 530.184 L
275.43 531.481 L
276.088 531.481 L
276.746 534.583 L
277.404 535.863 L
278.062 538.433 L
278.72 539.645 L
279.378 539.645 L
280.036 542.885 L
280.694 544.36 L
281.352 546.948 L
282.01 546.948 L
282.668 548.639 L
283.326 551.012 L
283.984 552.644 L
284.642 555.021 L
285.3 556.62 L
285.958 558.967 L
286.616 561.881 L
287.274 563.33 L
287.932 565.392 L
288.59 567.152 L
289.248 567.152 L
289.906 570.646 L
290.564 571.913 L
291.222 574.382 L
291.88 575.898 L
292.538 575.898 L
293.196 579.354 L
293.854 580.336 L
294.512 582.314 L
295.17 583.866 L
295.828 583.866 L
296.486 586.09 L
297.144 588.694 L
297.802 590.443 L
298.46 591.819 L
299.118 591.819 L
299.776 595.345 L
300.434 596.49 L
301.092 598.623 L
301.75 599.717 L
302.408 599.717 L
303.066 603.169 L
303.724 604.456 L
304.382 606.489 L
305.04 607.639 L
305.698 607.639 L
306.356 611.057 L
307.014 612.377 L
307.672 614.636 L
308.33 615.993 L
308.988 615.993 L
309.646 617.772 L
310.304 619.067 L
310.962 620.066 L
311.62 621.731 L
312.278 623.086 L
312.936 626.723 L
313.594 627.707 L
314.252 629.315 L
314.91 630.996 L
315.568 630.996 L
316.226 633.31 L
316.884 634.87 L
317.542 635.837 L
318.2 637.818 L
318.858 639.087 L
319.516 639.697 L
320.174 640.001 L
320.832 640.647 L
321.49 642.029 L
322.148 643.104 L
322.806 643.918 L
323.464 645.032 L
324.122 645.725 L
324.78 646.033 L
325.438 646.49 L
326.096 646.946 L
326.754 647.276 L
327.412 647.654 L
328.07 648.022 L
328.728 648.06 L
329.386 647.95 L
330.044 647.695 L
330.702 647.425 L
331.36 647.13 L
332.018 646.794 L
332.676 646.587 L
333.334 646.476 L
333.992 646.257 L
334.65 646.056 L
335.308 646.056 L
335.966 645.493 L
336.624 644.331 L
337.282 643.612 L
337.94 643.03 L
338.598 642.226 L
339.256 640.747 L
339.914 638.679 L
340.572 637.65 L
341.23 636.278 L
341.888 635.546 L
342.546 634.568 L
343.204 632.729 L
343.862 631.573 L
344.52 629.949 L
345.178 628.396 L
345.836 627.431 L
346.494 625.691 L
347.152 623.711 L
347.81 621.665 L
348.468 620.126 L
349.126 618.806 L
349.784 617.302 L
350.442 615.994 L
351.1 614.824 L
351.758 612.6 L
352.416 611.277 L
353.074 609.105 L
353.732 607.976 L
354.39 607.336 L
355.048 605.953 L
355.706 604.141 L
356.364 602.348 L
357.022 600.123 L
357.68 598.561 L
358.338 596.501 L
358.996 595.044 L
359.654 593.254 L
360.312 591.645 L
360.97 590.119 L
361.628 588.055 L
362.286 588.055 L
362.944 586.334 L
363.602 583.982 L
364.26 581.981 L
364.918 579.694 L
365.576 577.546 L
366.234 572.757 L
366.892 571.268 L
367.55 568.711 L
368.208 567.152 L
368.866 564.852 L
369.524 563.577 L
370.182 561.968 L
370.84 559.872 L
371.498 557.279 L
372.156 555.413 L
372.814 553.065 L
373.472 551.579 L
374.13 549.273 L
374.788 547.887 L
375.446 545.901 L
376.104 544.179 L
376.762 542.882 L
377.42 541.303 L
378.078 540.131 L
378.736 538.487 L
379.394 536.621 L
380.052 534.971 L
380.71 532.806 L
381.368 531.557 L
382.026 529.458 L
382.684 528.319 L
383.342 527.108 L
384 525.087 L
S
GR
GS
[0.75 0 0 0.75 0 -0.25] CT
0 1 0 RC
[8 8] 0 setdash
2 LJ
2 LW
N
55 565.119 M
55.658 563.402 L
56.316 561.684 L
56.974 559.966 L
57.632 558.249 L
58.29 556.531 L
58.948 554.813 L
59.606 553.096 L
60.264 551.378 L
60.922 549.661 L
61.58 549.15 L
62.238 547.485 L
62.896 545.821 L
63.554 544.157 L
64.212 542.493 L
64.87 540.829 L
65.528 539.164 L
66.186 537.5 L
66.844 535.836 L
67.502 534.172 L
68.16 532.508 L
68.818 530.844 L
69.476 530.102 L
70.134 528.707 L
70.792 527.312 L
71.45 525.917 L
72.108 524.522 L
72.766 523.127 L
73.424 521.732 L
74.082 520.337 L
74.74 519.218 L
75.398 517.875 L
76.056 516.533 L
76.714 515.19 L
77.372 513.847 L
78.03 512.505 L
78.688 511.162 L
79.346 509.82 L
80.004 508.477 L
80.662 507.134 L
81.32 506.973 L
81.978 505.975 L
82.636 504.977 L
83.294 503.979 L
83.952 502.981 L
84.61 501.983 L
85.268 500.985 L
85.926 499.987 L
86.584 498.989 L
87.242 498.81 L
87.9 498.477 L
88.558 498.145 L
89.216 497.813 L
89.874 497.481 L
90.532 497.149 L
91.19 496.817 L
91.848 496.485 L
92.506 496.153 L
93.164 496.088 L
93.822 496.088 L
94.48 496.088 L
95.138 496.088 L
95.796 496.088 L
96.454 496.088 L
97.112 496.088 L
97.77 496.088 L
98.428 496.088 L
99.086 496.088 L
99.744 496.088 L
100.402 496.978 L
101.06 497.868 L
101.718 498.758 L
102.376 499.648 L
103.034 500.538 L
103.692 501.427 L
104.35 502.317 L
105.008 503.207 L
105.666 504.097 L
106.324 504.252 L
106.982 505.561 L
107.64 506.87 L
108.298 508.18 L
108.956 509.489 L
109.614 510.798 L
110.272 512.108 L
110.93 513.417 L
111.588 513.776 L
112.246 515.427 L
112.904 517.078 L
113.562 518.73 L
114.22 520.381 L
114.878 522.033 L
115.536 523.684 L
116.194 525.336 L
116.852 526.02 L
117.51 527.8 L
118.168 529.58 L
118.826 531.36 L
119.484 533.14 L
120.142 534.92 L
120.8 536.699 L
121.458 538.479 L
122.116 539.626 L
122.774 541.477 L
123.432 543.327 L
124.09 545.178 L
124.748 547.029 L
125.406 548.879 L
126.064 550.73 L
126.722 552.581 L
127.38 554.431 L
128.038 555.952 L
128.696 557.81 L
129.354 559.668 L
130.012 561.525 L
130.67 563.383 L
131.328 565.24 L
131.986 567.098 L
132.644 568.956 L
133.302 570.813 L
133.96 572.671 L
134.618 574.529 L
135.276 576.386 L
135.934 577.721 L
136.592 579.56 L
137.25 581.398 L
137.908 583.237 L
138.566 585.075 L
139.224 586.914 L
139.882 588.752 L
140.54 590.591 L
141.198 592.429 L
141.856 594.268 L
142.514 596.106 L
143.172 597.945 L
143.83 599.783 L
144.488 601.622 L
145.146 602.211 L
145.804 603.906 L
146.462 605.601 L
147.12 607.296 L
147.778 608.992 L
148.436 610.687 L
149.094 612.382 L
149.752 614.077 L
150.41 615.772 L
151.068 617.468 L
151.726 618.537 L
152.384 619.763 L
153.042 620.988 L
153.7 622.213 L
154.358 623.438 L
155.016 624.663 L
155.674 625.888 L
156.332 627.113 L
156.99 628.339 L
157.648 629.564 L
158.306 630.789 L
158.964 632.014 L
159.622 633.239 L
160.28 633.503 L
160.938 634.501 L
161.596 635.499 L
162.254 636.497 L
162.912 637.495 L
163.57 638.493 L
164.228 639.491 L
164.886 640.489 L
165.544 641.487 L
166.202 642.485 L
166.86 643.483 L
167.518 644.388 L
168.176 644.388 L
168.834 644.388 L
169.492 644.388 L
170.15 644.388 L
170.808 644.388 L
171.466 644.388 L
172.124 644.388 L
172.782 644.388 L
173.44 644.388 L
174.098 643.439 L
174.756 642.49 L
175.414 641.54 L
176.072 640.591 L
176.73 639.642 L
177.388 638.693 L
178.046 637.744 L
178.704 636.795 L
179.362 635.846 L
180.02 634.897 L
180.678 634.864 L
181.336 633.521 L
181.994 632.179 L
182.652 630.836 L
183.31 629.494 L
183.968 628.151 L
184.626 626.808 L
185.284 625.466 L
185.942 624.123 L
186.6 622.781 L
187.258 622.619 L
187.916 621.31 L
188.574 620 L
189.232 618.691 L
189.89 617.382 L
190.548 616.072 L
191.206 614.763 L
191.864 613.454 L
192.522 613.095 L
193.18 611.444 L
193.838 609.792 L
194.496 608.141 L
195.154 606.489 L
195.812 604.838 L
196.47 603.186 L
197.128 601.535 L
197.786 599.884 L
198.444 598.232 L
199.102 596.769 L
199.76 595.241 L
200.418 593.714 L
201.076 592.186 L
201.734 590.659 L
202.392 589.132 L
203.05 587.604 L
203.708 586.077 L
204.366 584.549 L
205.024 584.524 L
205.682 582.872 L
206.34 581.221 L
206.998 579.569 L
207.656 577.918 L
208.314 576.266 L
208.972 574.615 L
209.63 572.964 L
210.288 571.312 L
210.946 569.661 L
211.604 568.197 L
212.262 566.572 L
212.92 564.946 L
213.578 563.321 L
214.236 561.695 L
214.894 560.07 L
215.552 558.444 L
216.21 556.818 L
216.868 555.193 L
217.526 553.567 L
218.184 551.942 L
218.842 550.316 L
219.5 549.15 L
220.158 547.685 L
220.816 546.221 L
221.474 544.756 L
222.132 543.292 L
222.79 541.827 L
223.448 540.363 L
224.106 538.898 L
224.764 537.434 L
225.422 535.969 L
226.08 534.505 L
226.738 534.184 L
227.396 532.488 L
228.054 530.793 L
228.712 529.098 L
229.37 527.403 L
230.028 525.708 L
230.686 524.013 L
231.344 522.317 L
232.002 520.622 L
232.66 518.927 L
233.318 517.857 L
233.976 516.686 L
234.634 515.516 L
235.292 514.345 L
235.95 513.174 L
236.608 512.004 L
237.266 510.833 L
237.924 509.662 L
238.582 508.492 L
239.24 508.333 L
239.898 507.463 L
240.556 506.592 L
241.214 505.722 L
241.872 504.851 L
242.53 503.981 L
243.188 503.11 L
243.846 502.239 L
244.504 501.531 L
245.162 500.75 L
245.82 499.97 L
246.478 499.19 L
247.136 498.41 L
247.794 497.629 L
248.452 496.849 L
249.11 496.088 L
249.768 496.088 L
250.426 496.088 L
251.084 496.088 L
251.742 496.088 L
252.4 496.088 L
253.058 496.088 L
253.716 496.088 L
254.374 496.088 L
255.032 496.088 L
255.69 496.857 L
256.348 497.626 L
257.006 498.395 L
257.664 499.163 L
258.322 499.932 L
258.98 500.701 L
259.638 501.469 L
260.296 502.238 L
260.954 502.891 L
261.612 504.246 L
262.27 505.6 L
262.928 506.954 L
263.586 508.309 L
264.244 509.663 L
264.902 511.018 L
265.56 512.372 L
266.218 513.727 L
266.876 515.081 L
267.534 516.435 L
268.192 516.497 L
268.85 518.183 L
269.508 519.87 L
270.166 521.557 L
270.824 523.243 L
271.482 524.93 L
272.14 526.616 L
272.798 528.303 L
273.456 529.99 L
274.114 531.676 L
274.772 533.363 L
275.43 535.05 L
276.088 536.736 L
276.746 536.905 L
277.404 538.726 L
278.062 540.546 L
278.72 542.367 L
279.378 544.188 L
280.036 546.009 L
280.694 547.83 L
281.352 549.651 L
282.01 551.471 L
282.668 553.292 L
283.326 555.113 L
283.984 555.952 L
284.642 557.816 L
285.3 559.68 L
285.958 561.543 L
286.616 563.407 L
287.274 565.271 L
287.932 567.135 L
288.59 568.998 L
289.248 570.862 L
289.906 572.726 L
290.564 574.589 L
291.222 575 L
291.88 576.858 L
292.538 578.715 L
293.196 580.573 L
293.854 582.43 L
294.512 584.288 L
295.17 586.146 L
295.828 588.003 L
296.486 589.861 L
297.144 591.719 L
297.802 593.576 L
298.46 595.434 L
299.118 596.769 L
299.776 598.555 L
300.434 600.341 L
301.092 602.127 L
301.75 603.913 L
302.408 605.699 L
303.066 607.485 L
303.724 609.271 L
304.382 611.057 L
305.04 612.843 L
305.698 614.456 L
306.356 615.851 L
307.014 617.246 L
307.672 618.641 L
308.33 620.036 L
308.988 621.431 L
309.646 622.826 L
310.304 624.221 L
310.962 625.34 L
311.62 626.805 L
312.278 628.269 L
312.936 629.734 L
313.594 631.198 L
314.252 632.663 L
314.91 634.127 L
315.568 635.592 L
316.226 637.056 L
316.884 637.585 L
317.542 638.148 L
318.2 638.711 L
318.858 639.274 L
319.516 639.837 L
320.174 640.4 L
320.832 640.963 L
321.49 641.526 L
322.148 641.667 L
322.806 641.667 L
323.464 641.667 L
324.122 641.667 L
324.78 641.667 L
325.438 641.667 L
326.096 641.667 L
326.754 641.667 L
327.412 641.667 L
328.07 641.667 L
328.728 641.667 L
329.386 641.236 L
330.044 640.805 L
330.702 640.374 L
331.36 639.943 L
332.018 639.512 L
332.676 639.081 L
333.334 638.65 L
333.992 638.219 L
334.65 637.789 L
335.308 637.585 L
335.966 636.381 L
336.624 635.178 L
337.282 633.974 L
337.94 632.771 L
338.598 631.567 L
339.256 630.364 L
339.914 629.16 L
340.572 627.956 L
341.23 626.753 L
341.888 625.549 L
342.546 624.346 L
343.204 623.98 L
343.862 622.394 L
344.52 620.808 L
345.178 619.222 L
345.836 617.636 L
346.494 616.051 L
347.152 614.465 L
347.81 612.879 L
348.468 611.293 L
349.126 609.707 L
349.784 608.122 L
350.442 606.536 L
351.1 604.95 L
351.758 604.932 L
352.416 603.294 L
353.074 601.657 L
353.732 600.019 L
354.39 598.382 L
355.048 596.744 L
355.706 595.107 L
356.364 593.469 L
357.022 591.831 L
357.68 590.194 L
358.338 588.556 L
358.996 587.245 L
359.654 585.558 L
360.312 583.872 L
360.97 582.185 L
361.628 580.498 L
362.286 578.812 L
362.944 577.125 L
363.602 575.438 L
364.26 573.752 L
364.918 572.065 L
365.576 570.378 L
366.234 568.692 L
366.892 567.005 L
367.55 566.837 L
368.208 565.119 L
368.866 563.402 L
369.524 561.684 L
370.182 559.966 L
370.84 558.249 L
371.498 556.531 L
372.156 554.813 L
372.814 553.096 L
373.472 551.378 L
374.13 549.661 L
374.788 549.15 L
375.446 547.485 L
376.104 545.821 L
376.762 544.157 L
377.42 542.493 L
378.078 540.829 L
378.736 539.164 L
379.394 537.5 L
380.052 535.836 L
380.71 534.172 L
381.368 532.508 L
382.026 530.844 L
382.684 530.102 L
383.342 528.707 L
384 527.312 L
S
GR
GS
[0.75 0 0 0.75 0 -0.25] CT
1 GC
N
251 703 M
251 657 L
60 657 L
60 703 L
cp
f
GR
GS
[0.75 0 0 0.75 80.25 501.7742] CT
/Helvetica 16 F
GS
[1 0 0 1 0 0] CT
0 6.5 moveto 
1 -1 scale
(x) t 
GR
GR
GS
[0.75 0 0 0.75 0 -0.25] CT
0 0.447 0.741 RC
1 LJ
2 LW
N
64 669.366 M
104 669.366 L
S
GR
GS
[0.75 0 0 0.75 124.5 501.7742] CT
/Helvetica 16 F
GS
[1 0 0 1 0 0] CT
0 6.5 moveto 
1 -1 scale
(x-reference) t 
GR
GR
GS
[0.75 0 0 0.75 0 -0.25] CT
0.851 0.325 0.098 RC
[8 2 4 2] 0 setdash
2 LJ
2 LW
N
123 669.366 M
163 669.366 L
S
GR
GS
[0.75 0 0 0.75 80.25 517.7258] CT
/Helvetica 16 F
GS
[1 0 0 1 0 0] CT
0 6.5 moveto 
1 -1 scale
(y) t 
GR
GR
GS
[0.75 0 0 0.75 0 -0.25] CT
0.929 0.694 0.125 RC
1 LJ
2 LW
N
64 690.634 M
104 690.634 L
S
GR
GS
[0.75 0 0 0.75 124.5 517.7258] CT
/Helvetica 16 F
GS
[1 0 0 1 0 0] CT
0 6.5 moveto 
1 -1 scale
(y-reference) t 
GR
GR
GS
[0.75 0 0 0.75 0 -0.25] CT
0 1 0 RC
[8 8] 0 setdash
2 LJ
2 LW
N
123 690.634 M
163 690.634 L
S
GR
GS
[0.75 0 0 0.75 0 -0.25] CT
0.149 GC
10.0 ML
0.667 LW
N
60 703 M
60 657 L
251 657 L
251 703 L
cp
S
GR
GS
[0.75 0 0 0.75 0 -0.25] CT
1 GC
N
55 339 M
384 339 L
384 60 L
55 60 L
cp
f
GR
GS
[0.75 0 0 0.75 0 -0.25] CT
0.873 GC
1 LJ
0.667 LW
N
55 339 M
55 60 L
S
GR
GS
[0.75 0 0 0.75 0 -0.25] CT
0.873 GC
1 LJ
0.667 LW
N
109.833 339 M
109.833 60 L
S
GR
GS
[0.75 0 0 0.75 0 -0.25] CT
0.873 GC
1 LJ
0.667 LW
N
164.667 339 M
164.667 60 L
S
GR
GS
[0.75 0 0 0.75 0 -0.25] CT
0.873 GC
1 LJ
0.667 LW
N
219.5 339 M
219.5 60 L
S
GR
GS
[0.75 0 0 0.75 0 -0.25] CT
0.873 GC
1 LJ
0.667 LW
N
274.333 339 M
274.333 60 L
S
GR
GS
[0.75 0 0 0.75 0 -0.25] CT
0.873 GC
1 LJ
0.667 LW
N
329.167 339 M
329.167 60 L
S
GR
GS
[0.75 0 0 0.75 0 -0.25] CT
0.873 GC
1 LJ
0.667 LW
N
384 339 M
384 60 L
S
GR
GS
[0.75 0 0 0.75 0 -0.25] CT
0.873 GC
1 LJ
0.667 LW
N
384 339 M
55 339 L
S
GR
GS
[0.75 0 0 0.75 0 -0.25] CT
0.873 GC
1 LJ
0.667 LW
N
384 269.25 M
55 269.25 L
S
GR
GS
[0.75 0 0 0.75 0 -0.25] CT
0.873 GC
1 LJ
0.667 LW
N
384 199.5 M
55 199.5 L
S
GR
GS
[0.75 0 0 0.75 0 -0.25] CT
0.873 GC
1 LJ
0.667 LW
N
384 129.75 M
55 129.75 L
S
GR
GS
[0.75 0 0 0.75 0 -0.25] CT
0.873 GC
1 LJ
0.667 LW
N
384 60 M
55 60 L
S
GR
GS
[0.75 0 0 0.75 0 -0.25] CT
0.149 GC
2 setlinecap
1 LJ
0.667 LW
N
55 339 M
384 339 L
S
GR
GS
[0.75 0 0 0.75 0 -0.25] CT
0.149 GC
2 setlinecap
1 LJ
0.667 LW
N
55 60 M
384 60 L
S
GR
GS
[0.75 0 0 0.75 0 -0.25] CT
0.149 GC
2 setlinecap
1 LJ
0.667 LW
N
55 339 M
55 335.71 L
S
GR
GS
[0.75 0 0 0.75 0 -0.25] CT
0.149 GC
2 setlinecap
1 LJ
0.667 LW
N
109.833 339 M
109.833 335.71 L
S
GR
GS
[0.75 0 0 0.75 0 -0.25] CT
0.149 GC
2 setlinecap
1 LJ
0.667 LW
N
164.667 339 M
164.667 335.71 L
S
GR
GS
[0.75 0 0 0.75 0 -0.25] CT
0.149 GC
2 setlinecap
1 LJ
0.667 LW
N
219.5 339 M
219.5 335.71 L
S
GR
GS
[0.75 0 0 0.75 0 -0.25] CT
0.149 GC
2 setlinecap
1 LJ
0.667 LW
N
274.333 339 M
274.333 335.71 L
S
GR
GS
[0.75 0 0 0.75 0 -0.25] CT
0.149 GC
2 setlinecap
1 LJ
0.667 LW
N
329.167 339 M
329.167 335.71 L
S
GR
GS
[0.75 0 0 0.75 0 -0.25] CT
0.149 GC
2 setlinecap
1 LJ
0.667 LW
N
384 339 M
384 335.71 L
S
GR
GS
[0.75 0 0 0.75 0 -0.25] CT
0.149 GC
2 setlinecap
1 LJ
0.667 LW
N
55 60 M
55 63.29 L
S
GR
GS
[0.75 0 0 0.75 0 -0.25] CT
0.149 GC
2 setlinecap
1 LJ
0.667 LW
N
109.833 60 M
109.833 63.29 L
S
GR
GS
[0.75 0 0 0.75 0 -0.25] CT
0.149 GC
2 setlinecap
1 LJ
0.667 LW
N
164.667 60 M
164.667 63.29 L
S
GR
GS
[0.75 0 0 0.75 0 -0.25] CT
0.149 GC
2 setlinecap
1 LJ
0.667 LW
N
219.5 60 M
219.5 63.29 L
S
GR
GS
[0.75 0 0 0.75 0 -0.25] CT
0.149 GC
2 setlinecap
1 LJ
0.667 LW
N
274.333 60 M
274.333 63.29 L
S
GR
GS
[0.75 0 0 0.75 0 -0.25] CT
0.149 GC
2 setlinecap
1 LJ
0.667 LW
N
329.167 60 M
329.167 63.29 L
S
GR
GS
[0.75 0 0 0.75 0 -0.25] CT
0.149 GC
2 setlinecap
1 LJ
0.667 LW
N
384 60 M
384 63.29 L
S
GR
GS
[0.75 0 0 0.75 41.25 258.4] CT
0.149 GC
/Helvetica 16 F
GS
[1 0 0 1 0 0] CT
-12 17 moveto 
1 -1 scale
(-15) t 
GR
GR
GS
[0.75 0 0 0.75 82.375 258.4] CT
0.149 GC
/Helvetica 16 F
GS
[1 0 0 1 0 0] CT
-12 17 moveto 
1 -1 scale
(-10) t 
GR
GR
GS
[0.75 0 0 0.75 123.5 258.4] CT
0.149 GC
/Helvetica 16 F
GS
[1 0 0 1 0 0] CT
-7.5 17 moveto 
1 -1 scale
(-5) t 
GR
GR
GS
[0.75 0 0 0.75 164.625 258.4] CT
0.149 GC
/Helvetica 16 F
GS
[1 0 0 1 0 0] CT
-4.5 17 moveto 
1 -1 scale
(0) t 
GR
GR
GS
[0.75 0 0 0.75 205.75001 258.4] CT
0.149 GC
/Helvetica 16 F
GS
[1 0 0 1 0 0] CT
-4.5 17 moveto 
1 -1 scale
(5) t 
GR
GR
GS
[0.75 0 0 0.75 246.87499 258.4] CT
0.149 GC
/Helvetica 16 F
GS
[1 0 0 1 0 0] CT
-9 17 moveto 
1 -1 scale
(10) t 
GR
GR
GS
[0.75 0 0 0.75 288 258.4] CT
0.149 GC
/Helvetica 16 F
GS
[1 0 0 1 0 0] CT
-9 17 moveto 
1 -1 scale
(15) t 
GR
GR
GS
[0.75 0 0 0.75 164.62511 275.15001] CT
0.149 GC
/Helvetica 16 F
GS
[1 0 0 1 0 0] CT
-24 17 moveto 
1 -1 scale
(x [mm]) t 
GR
GR
GS
[0.75 0 0 0.75 0 -0.25] CT
0.149 GC
2 setlinecap
1 LJ
0.667 LW
N
55 339 M
55 60 L
S
GR
GS
[0.75 0 0 0.75 0 -0.25] CT
0.149 GC
2 setlinecap
1 LJ
0.667 LW
N
384 339 M
384 60 L
S
GR
GS
[0.75 0 0 0.75 0 -0.25] CT
0.149 GC
2 setlinecap
1 LJ
0.667 LW
N
55 339 M
58.29 339 L
S
GR
GS
[0.75 0 0 0.75 0 -0.25] CT
0.149 GC
2 setlinecap
1 LJ
0.667 LW
N
55 269.25 M
58.29 269.25 L
S
GR
GS
[0.75 0 0 0.75 0 -0.25] CT
0.149 GC
2 setlinecap
1 LJ
0.667 LW
N
55 199.5 M
58.29 199.5 L
S
GR
GS
[0.75 0 0 0.75 0 -0.25] CT
0.149 GC
2 setlinecap
1 LJ
0.667 LW
N
55 129.75 M
58.29 129.75 L
S
GR
GS
[0.75 0 0 0.75 0 -0.25] CT
0.149 GC
2 setlinecap
1 LJ
0.667 LW
N
55 60 M
58.29 60 L
S
GR
GS
[0.75 0 0 0.75 0 -0.25] CT
0.149 GC
2 setlinecap
1 LJ
0.667 LW
N
384 339 M
380.71 339 L
S
GR
GS
[0.75 0 0 0.75 0 -0.25] CT
0.149 GC
2 setlinecap
1 LJ
0.667 LW
N
384 269.25 M
380.71 269.25 L
S
GR
GS
[0.75 0 0 0.75 0 -0.25] CT
0.149 GC
2 setlinecap
1 LJ
0.667 LW
N
384 199.5 M
380.71 199.5 L
S
GR
GS
[0.75 0 0 0.75 0 -0.25] CT
0.149 GC
2 setlinecap
1 LJ
0.667 LW
N
384 129.75 M
380.71 129.75 L
S
GR
GS
[0.75 0 0 0.75 0 -0.25] CT
0.149 GC
2 setlinecap
1 LJ
0.667 LW
N
384 60 M
380.71 60 L
S
GR
GS
[0.75 0 0 0.75 36.85 254] CT
0.149 GC
/Helvetica 16 F
GS
[1 0 0 1 0 0] CT
-24 6.5 moveto 
1 -1 scale
(-10) t 
GR
GR
GS
[0.75 0 0 0.75 36.85 201.6875] CT
0.149 GC
/Helvetica 16 F
GS
[1 0 0 1 0 0] CT
-15 6.5 moveto 
1 -1 scale
(-5) t 
GR
GR
GS
[0.75 0 0 0.75 36.85 149.375] CT
0.149 GC
/Helvetica 16 F
GS
[1 0 0 1 0 0] CT
-9 6.5 moveto 
1 -1 scale
(0) t 
GR
GR
GS
[0.75 0 0 0.75 36.85 97.0625] CT
0.149 GC
/Helvetica 16 F
GS
[1 0 0 1 0 0] CT
-9 6.5 moveto 
1 -1 scale
(5) t 
GR
GR
GS
[0.75 0 0 0.75 36.85 44.75] CT
0.149 GC
/Helvetica 16 F
GS
[1 0 0 1 0 0] CT
-18 6.5 moveto 
1 -1 scale
(10) t 
GR
GR
GS
[0 -0.75 0.75 0 15.85 149.3749] CT
0.149 GC
/Helvetica 16 F
GS
[1 0 0 1 0 0] CT
-24 -4 moveto 
1 -1 scale
(y [mm]) t 
GR
GR
GS
[0.75 0 0 0.75 164.62516 42.5] CT
N
-124.75 -4 M
-124.75 -13.516 L
-128.156 -13.516 L
-128.156 -15.453 L
-119.047 -15.453 L
-119.047 -13.516 L
-122.438 -13.516 L
-122.438 -4 L
-124.75 -4 L
cp
-115.477 -4 M
-117.664 -4 L
-117.664 -12.297 L
-115.633 -12.297 L
-115.633 -11.125 L
-115.102 -11.953 -114.688 -12.219 QT
-114.273 -12.484 -113.742 -12.484 QT
-112.992 -12.484 -112.289 -12.078 QT
-112.977 -10.156 L
-113.523 -10.516 -114.008 -10.516 QT
-114.461 -10.516 -114.781 -10.266 QT
-115.102 -10.016 -115.289 -9.352 QT
-115.477 -8.688 -115.477 -6.563 QT
-115.477 -4 L
cp
-109.703 -9.766 M
-111.703 -10.125 L
-111.359 -11.328 -110.539 -11.906 QT
-109.719 -12.484 -108.109 -12.484 QT
-106.641 -12.484 -105.922 -12.141 QT
-105.203 -11.797 -104.906 -11.258 QT
-104.609 -10.719 -104.609 -9.297 QT
-104.641 -6.734 L
-104.641 -5.641 -104.531 -5.117 QT
-104.422 -4.594 -104.141 -4 QT
-106.313 -4 L
-106.391 -4.219 -106.516 -4.656 QT
-106.578 -4.844 -106.594 -4.906 QT
-107.156 -4.359 -107.797 -4.086 QT
-108.438 -3.813 -109.172 -3.813 QT
-110.453 -3.813 -111.188 -4.508 QT
-111.922 -5.203 -111.922 -6.266 QT
-111.922 -6.969 -111.586 -7.523 QT
-111.25 -8.078 -110.648 -8.367 QT
-110.047 -8.656 -108.906 -8.875 QT
-107.359 -9.172 -106.766 -9.422 QT
-106.766 -9.641 L
-106.766 -10.266 -107.078 -10.539 QT
-107.391 -10.813 -108.266 -10.813 QT
-108.844 -10.813 -109.172 -10.578 QT
-109.5 -10.344 -109.703 -9.766 QT
cp
-106.766 -7.984 M
-107.188 -7.844 -108.102 -7.648 QT
-109.016 -7.453 -109.297 -7.266 QT
-109.734 -6.969 -109.734 -6.5 QT
-109.734 -6.031 -109.391 -5.695 QT
-109.047 -5.359 -108.516 -5.359 QT
-107.922 -5.359 -107.375 -5.75 QT
-106.984 -6.047 -106.859 -6.484 QT
-106.766 -6.766 -106.766 -7.547 QT
-106.766 -7.984 L
cp
-95.211 -9.844 M
-97.383 -9.453 L
-97.492 -10.109 -97.875 -10.438 QT
-98.258 -10.766 -98.883 -10.766 QT
-99.695 -10.766 -100.188 -10.195 QT
-100.68 -9.625 -100.68 -8.297 QT
-100.68 -6.828 -100.18 -6.219 QT
-99.68 -5.609 -98.852 -5.609 QT
-98.227 -5.609 -97.828 -5.961 QT
-97.43 -6.313 -97.258 -7.188 QT
-95.102 -6.813 L
-95.445 -5.328 -96.398 -4.57 QT
-97.352 -3.813 -98.945 -3.813 QT
-100.773 -3.813 -101.852 -4.961 QT
-102.93 -6.109 -102.93 -8.141 QT
-102.93 -10.203 -101.844 -11.344 QT
-100.758 -12.484 -98.914 -12.484 QT
-97.398 -12.484 -96.5 -11.836 QT
-95.602 -11.188 -95.211 -9.844 QT
cp
-93.625 -4 M
-93.625 -15.453 L
-91.438 -15.453 L
-91.438 -9.375 L
-88.859 -12.297 L
-86.156 -12.297 L
-89 -9.266 L
-85.953 -4 L
-88.328 -4 L
-90.406 -7.734 L
-91.438 -6.656 L
-91.438 -4 L
-93.625 -4 L
cp
-84.648 -13.422 M
-84.648 -15.453 L
-82.461 -15.453 L
-82.461 -13.422 L
-84.648 -13.422 L
cp
-84.648 -4 M
-84.648 -12.297 L
-82.461 -12.297 L
-82.461 -4 L
-84.648 -4 L
cp
-72.656 -4 M
-74.859 -4 L
-74.859 -8.234 L
-74.859 -9.578 -75 -9.977 QT
-75.141 -10.375 -75.453 -10.594 QT
-75.766 -10.813 -76.219 -10.813 QT
-76.781 -10.813 -77.234 -10.5 QT
-77.688 -10.188 -77.859 -9.672 QT
-78.031 -9.156 -78.031 -7.766 QT
-78.031 -4 L
-80.219 -4 L
-80.219 -12.297 L
-78.188 -12.297 L
-78.188 -11.078 L
-77.094 -12.484 -75.453 -12.484 QT
-74.719 -12.484 -74.117 -12.227 QT
-73.516 -11.969 -73.211 -11.563 QT
-72.906 -11.156 -72.781 -10.641 QT
-72.656 -10.125 -72.656 -9.156 QT
-72.656 -4 L
cp
-70.633 -3.453 M
-68.133 -3.141 L
-68.07 -2.703 -67.836 -2.547 QT
-67.523 -2.313 -66.852 -2.313 QT
-65.992 -2.313 -65.57 -2.563 QT
-65.273 -2.734 -65.133 -3.125 QT
-65.023 -3.391 -65.023 -4.141 QT
-65.023 -5.344 L
-66.008 -4 -67.508 -4 QT
-69.18 -4 -70.164 -5.422 QT
-70.93 -6.531 -70.93 -8.203 QT
-70.93 -10.281 -69.922 -11.383 QT
-68.914 -12.484 -67.43 -12.484 QT
-65.883 -12.484 -64.883 -11.141 QT
-64.883 -12.297 L
-62.836 -12.297 L
-62.836 -4.859 L
-62.836 -3.375 -63.078 -2.648 QT
-63.32 -1.922 -63.758 -1.508 QT
-64.195 -1.094 -64.922 -0.859 QT
-65.648 -0.625 -66.773 -0.625 QT
-68.883 -0.625 -69.766 -1.352 QT
-70.648 -2.078 -70.648 -3.188 QT
-70.648 -3.297 -70.633 -3.453 QT
cp
-68.68 -8.328 M
-68.68 -7 -68.164 -6.391 QT
-67.648 -5.781 -66.898 -5.781 QT
-66.102 -5.781 -65.547 -6.406 QT
-64.992 -7.031 -64.992 -8.266 QT
-64.992 -9.563 -65.523 -10.188 QT
-66.055 -10.813 -66.867 -10.813 QT
-67.648 -10.813 -68.164 -10.195 QT
-68.68 -9.578 -68.68 -8.328 QT
cp
-54.57 -9.766 M
-56.57 -10.125 L
-56.227 -11.328 -55.406 -11.906 QT
-54.586 -12.484 -52.977 -12.484 QT
-51.508 -12.484 -50.789 -12.141 QT
-50.07 -11.797 -49.773 -11.258 QT
-49.477 -10.719 -49.477 -9.297 QT
-49.508 -6.734 L
-49.508 -5.641 -49.398 -5.117 QT
-49.289 -4.594 -49.008 -4 QT
-51.18 -4 L
-51.258 -4.219 -51.383 -4.656 QT
-51.445 -4.844 -51.461 -4.906 QT
-52.023 -4.359 -52.664 -4.086 QT
-53.305 -3.813 -54.039 -3.813 QT
-55.32 -3.813 -56.055 -4.508 QT
-56.789 -5.203 -56.789 -6.266 QT
-56.789 -6.969 -56.453 -7.523 QT
-56.117 -8.078 -55.516 -8.367 QT
-54.914 -8.656 -53.773 -8.875 QT
-52.227 -9.172 -51.633 -9.422 QT
-51.633 -9.641 L
-51.633 -10.266 -51.945 -10.539 QT
-52.258 -10.813 -53.133 -10.813 QT
-53.711 -10.813 -54.039 -10.578 QT
-54.367 -10.344 -54.57 -9.766 QT
cp
-51.633 -7.984 M
-52.055 -7.844 -52.969 -7.648 QT
-53.883 -7.453 -54.164 -7.266 QT
-54.602 -6.969 -54.602 -6.5 QT
-54.602 -6.031 -54.258 -5.695 QT
-53.914 -5.359 -53.383 -5.359 QT
-52.789 -5.359 -52.242 -5.75 QT
-51.852 -6.047 -51.727 -6.484 QT
-51.633 -6.766 -51.633 -7.547 QT
-51.633 -7.984 L
cp
-43.039 -12.297 M
-41.008 -12.297 L
-41.008 -11.172 L
-39.93 -12.484 -38.43 -12.484 QT
-37.633 -12.484 -37.047 -12.156 QT
-36.461 -11.828 -36.086 -11.172 QT
-35.539 -11.828 -34.906 -12.156 QT
-34.273 -12.484 -33.555 -12.484 QT
-32.633 -12.484 -32 -12.117 QT
-31.367 -11.75 -31.055 -11.031 QT
-30.836 -10.5 -30.836 -9.313 QT
-30.836 -4 L
-33.023 -4 L
-33.023 -8.75 L
-33.023 -9.984 -33.258 -10.344 QT
-33.555 -10.813 -34.195 -10.813 QT
-34.648 -10.813 -35.055 -10.531 QT
-35.461 -10.25 -35.641 -9.703 QT
-35.82 -9.156 -35.82 -7.984 QT
-35.82 -4 L
-38.023 -4 L
-38.023 -8.547 L
-38.023 -9.766 -38.141 -10.117 QT
-38.258 -10.469 -38.5 -10.641 QT
-38.742 -10.813 -39.164 -10.813 QT
-39.68 -10.813 -40.086 -10.539 QT
-40.492 -10.266 -40.664 -9.75 QT
-40.836 -9.234 -40.836 -8.031 QT
-40.836 -4 L
-43.039 -4 L
-43.039 -12.297 L
cp
-29.156 -8.266 M
-29.156 -9.359 -28.617 -10.383 QT
-28.078 -11.406 -27.086 -11.945 QT
-26.094 -12.484 -24.875 -12.484 QT
-23 -12.484 -21.797 -11.266 QT
-20.594 -10.047 -20.594 -8.172 QT
-20.594 -6.297 -21.805 -5.055 QT
-23.016 -3.813 -24.859 -3.813 QT
-26 -3.813 -27.039 -4.328 QT
-28.078 -4.844 -28.617 -5.844 QT
-29.156 -6.844 -29.156 -8.266 QT
cp
-26.906 -8.156 M
-26.906 -6.922 -26.32 -6.266 QT
-25.734 -5.609 -24.875 -5.609 QT
-24.016 -5.609 -23.43 -6.266 QT
-22.844 -6.922 -22.844 -8.172 QT
-22.844 -9.391 -23.43 -10.047 QT
-24.016 -10.703 -24.875 -10.703 QT
-25.734 -10.703 -26.32 -10.047 QT
-26.906 -9.391 -26.906 -8.156 QT
cp
-16.586 -4 M
-19.93 -12.297 L
-17.633 -12.297 L
-16.07 -8.063 L
-15.617 -6.656 L
-15.43 -7.188 -15.383 -7.359 QT
-15.273 -7.719 -15.148 -8.063 QT
-13.57 -12.297 L
-11.32 -12.297 L
-14.617 -4 L
-16.586 -4 L
cp
-9.969 -13.422 M
-9.969 -15.453 L
-7.781 -15.453 L
-7.781 -13.422 L
-9.969 -13.422 L
cp
-9.969 -4 M
-9.969 -12.297 L
-7.781 -12.297 L
-7.781 -4 L
-9.969 -4 L
cp
2.023 -4 M
-0.18 -4 L
-0.18 -8.234 L
-0.18 -9.578 -0.32 -9.977 QT
-0.461 -10.375 -0.773 -10.594 QT
-1.086 -10.813 -1.539 -10.813 QT
-2.102 -10.813 -2.555 -10.5 QT
-3.008 -10.188 -3.18 -9.672 QT
-3.352 -9.156 -3.352 -7.766 QT
-3.352 -4 L
-5.539 -4 L
-5.539 -12.297 L
-3.508 -12.297 L
-3.508 -11.078 L
-2.414 -12.484 -0.773 -12.484 QT
-0.039 -12.484 0.563 -12.227 QT
1.164 -11.969 1.469 -11.563 QT
1.773 -11.156 1.898 -10.641 QT
2.023 -10.125 2.023 -9.156 QT
2.023 -4 L
cp
4.047 -3.453 M
6.547 -3.141 L
6.609 -2.703 6.844 -2.547 QT
7.156 -2.313 7.828 -2.313 QT
8.688 -2.313 9.109 -2.563 QT
9.406 -2.734 9.547 -3.125 QT
9.656 -3.391 9.656 -4.141 QT
9.656 -5.344 L
8.672 -4 7.172 -4 QT
5.5 -4 4.516 -5.422 QT
3.75 -6.531 3.75 -8.203 QT
3.75 -10.281 4.758 -11.383 QT
5.766 -12.484 7.25 -12.484 QT
8.797 -12.484 9.797 -11.141 QT
9.797 -12.297 L
11.844 -12.297 L
11.844 -4.859 L
11.844 -3.375 11.602 -2.648 QT
11.359 -1.922 10.922 -1.508 QT
10.484 -1.094 9.758 -0.859 QT
9.031 -0.625 7.906 -0.625 QT
5.797 -0.625 4.914 -1.352 QT
4.031 -2.078 4.031 -3.188 QT
4.031 -3.297 4.047 -3.453 QT
cp
6 -8.328 M
6 -7 6.516 -6.391 QT
7.031 -5.781 7.781 -5.781 QT
8.578 -5.781 9.133 -6.406 QT
9.688 -7.031 9.688 -8.266 QT
9.688 -9.563 9.156 -10.188 QT
8.625 -10.813 7.813 -10.813 QT
7.031 -10.813 6.516 -10.195 QT
6 -9.578 6 -8.328 QT
cp
20.563 -4 M
18.375 -4 L
18.375 -12.297 L
20.406 -12.297 L
20.406 -11.125 L
20.938 -11.953 21.352 -12.219 QT
21.766 -12.484 22.297 -12.484 QT
23.047 -12.484 23.75 -12.078 QT
23.063 -10.156 L
22.516 -10.516 22.031 -10.516 QT
21.578 -10.516 21.258 -10.266 QT
20.938 -10.016 20.75 -9.352 QT
20.563 -8.688 20.563 -6.563 QT
20.563 -4 L
cp
29.492 -6.641 M
31.68 -6.281 L
31.258 -5.078 30.352 -4.445 QT
29.445 -3.813 28.07 -3.813 QT
25.914 -3.813 24.867 -5.234 QT
24.055 -6.359 24.055 -8.094 QT
24.055 -10.156 25.133 -11.32 QT
26.211 -12.484 27.852 -12.484 QT
29.711 -12.484 30.781 -11.266 QT
31.852 -10.047 31.805 -7.516 QT
26.305 -7.516 L
26.32 -6.547 26.828 -6 QT
27.336 -5.453 28.102 -5.453 QT
28.617 -5.453 28.969 -5.734 QT
29.32 -6.016 29.492 -6.641 QT
cp
29.617 -8.859 M
29.602 -9.813 29.133 -10.313 QT
28.664 -10.813 27.992 -10.813 QT
27.273 -10.813 26.805 -10.281 QT
26.336 -9.766 26.336 -8.859 QT
29.617 -8.859 L
cp
32.625 -12.297 M
33.844 -12.297 L
33.844 -12.922 L
33.844 -13.969 34.07 -14.484 QT
34.297 -15 34.891 -15.328 QT
35.484 -15.656 36.406 -15.656 QT
37.344 -15.656 38.234 -15.375 QT
37.938 -13.844 L
37.422 -13.969 36.938 -13.969 QT
36.453 -13.969 36.25 -13.742 QT
36.047 -13.516 36.047 -12.891 QT
36.047 -12.297 L
37.688 -12.297 L
37.688 -10.578 L
36.047 -10.578 L
36.047 -4 L
33.844 -4 L
33.844 -10.578 L
32.625 -10.578 L
32.625 -12.297 L
cp
43.719 -6.641 M
45.906 -6.281 L
45.484 -5.078 44.578 -4.445 QT
43.672 -3.813 42.297 -3.813 QT
40.141 -3.813 39.094 -5.234 QT
38.281 -6.359 38.281 -8.094 QT
38.281 -10.156 39.359 -11.32 QT
40.438 -12.484 42.078 -12.484 QT
43.938 -12.484 45.008 -11.266 QT
46.078 -10.047 46.031 -7.516 QT
40.531 -7.516 L
40.547 -6.547 41.055 -6 QT
41.563 -5.453 42.328 -5.453 QT
42.844 -5.453 43.195 -5.734 QT
43.547 -6.016 43.719 -6.641 QT
cp
43.844 -8.859 M
43.828 -9.813 43.359 -10.313 QT
42.891 -10.813 42.219 -10.813 QT
41.5 -10.813 41.031 -10.281 QT
40.563 -9.766 40.563 -8.859 QT
43.844 -8.859 L
cp
49.914 -4 M
47.727 -4 L
47.727 -12.297 L
49.758 -12.297 L
49.758 -11.125 L
50.289 -11.953 50.703 -12.219 QT
51.117 -12.484 51.648 -12.484 QT
52.398 -12.484 53.102 -12.078 QT
52.414 -10.156 L
51.867 -10.516 51.383 -10.516 QT
50.93 -10.516 50.609 -10.266 QT
50.289 -10.016 50.102 -9.352 QT
49.914 -8.688 49.914 -6.563 QT
49.914 -4 L
cp
58.844 -6.641 M
61.031 -6.281 L
60.609 -5.078 59.703 -4.445 QT
58.797 -3.813 57.422 -3.813 QT
55.266 -3.813 54.219 -5.234 QT
53.406 -6.359 53.406 -8.094 QT
53.406 -10.156 54.484 -11.32 QT
55.563 -12.484 57.203 -12.484 QT
59.063 -12.484 60.133 -11.266 QT
61.203 -10.047 61.156 -7.516 QT
55.656 -7.516 L
55.672 -6.547 56.18 -6 QT
56.688 -5.453 57.453 -5.453 QT
57.969 -5.453 58.32 -5.734 QT
58.672 -6.016 58.844 -6.641 QT
cp
58.969 -8.859 M
58.953 -9.813 58.484 -10.313 QT
58.016 -10.813 57.344 -10.813 QT
56.625 -10.813 56.156 -10.281 QT
55.688 -9.766 55.688 -8.859 QT
58.969 -8.859 L
cp
70.492 -4 M
68.289 -4 L
68.289 -8.234 L
68.289 -9.578 68.148 -9.977 QT
68.008 -10.375 67.695 -10.594 QT
67.383 -10.813 66.93 -10.813 QT
66.367 -10.813 65.914 -10.5 QT
65.461 -10.188 65.289 -9.672 QT
65.117 -9.156 65.117 -7.766 QT
65.117 -4 L
62.93 -4 L
62.93 -12.297 L
64.961 -12.297 L
64.961 -11.078 L
66.055 -12.484 67.695 -12.484 QT
68.43 -12.484 69.031 -12.227 QT
69.633 -11.969 69.938 -11.563 QT
70.242 -11.156 70.367 -10.641 QT
70.492 -10.125 70.492 -9.156 QT
70.492 -4 L
cp
79.953 -9.844 M
77.781 -9.453 L
77.672 -10.109 77.289 -10.438 QT
76.906 -10.766 76.281 -10.766 QT
75.469 -10.766 74.977 -10.195 QT
74.484 -9.625 74.484 -8.297 QT
74.484 -6.828 74.984 -6.219 QT
75.484 -5.609 76.313 -5.609 QT
76.938 -5.609 77.336 -5.961 QT
77.734 -6.313 77.906 -7.188 QT
80.063 -6.813 L
79.719 -5.328 78.766 -4.57 QT
77.813 -3.813 76.219 -3.813 QT
74.391 -3.813 73.313 -4.961 QT
72.234 -6.109 72.234 -8.141 QT
72.234 -10.203 73.32 -11.344 QT
74.406 -12.484 76.25 -12.484 QT
77.766 -12.484 78.664 -11.836 QT
79.563 -11.188 79.953 -9.844 QT
cp
86.414 -6.641 M
88.602 -6.281 L
88.18 -5.078 87.273 -4.445 QT
86.367 -3.813 84.992 -3.813 QT
82.836 -3.813 81.789 -5.234 QT
80.977 -6.359 80.977 -8.094 QT
80.977 -10.156 82.055 -11.32 QT
83.133 -12.484 84.773 -12.484 QT
86.633 -12.484 87.703 -11.266 QT
88.773 -10.047 88.727 -7.516 QT
83.227 -7.516 L
83.242 -6.547 83.75 -6 QT
84.258 -5.453 85.023 -5.453 QT
85.539 -5.453 85.891 -5.734 QT
86.242 -6.016 86.414 -6.641 QT
cp
86.539 -8.859 M
86.523 -9.813 86.055 -10.313 QT
85.586 -10.813 84.914 -10.813 QT
84.195 -10.813 83.727 -10.281 QT
83.258 -9.766 83.258 -8.859 QT
86.539 -8.859 L
cp
94.633 -8.25 M
94.633 -9.313 L
101.992 -9.313 L
101.992 -8.25 L
94.633 -8.25 L
cp
108.32 -4 M
108.32 -15.453 L
116.164 -15.453 L
116.164 -13.516 L
110.633 -13.516 L
110.633 -10.813 L
115.414 -10.813 L
115.414 -8.875 L
110.633 -8.875 L
110.633 -4 L
108.32 -4 L
cp
118.078 -15.453 M
122.656 -15.453 L
124.016 -15.453 124.688 -15.344 QT
125.359 -15.234 125.883 -14.875 QT
126.406 -14.516 126.758 -13.914 QT
127.109 -13.313 127.109 -12.578 QT
127.109 -11.766 126.68 -11.094 QT
126.25 -10.422 125.5 -10.094 QT
126.547 -9.781 127.109 -9.047 QT
127.672 -8.313 127.672 -7.328 QT
127.672 -6.547 127.313 -5.805 QT
126.953 -5.063 126.32 -4.625 QT
125.688 -4.188 124.766 -4.078 QT
124.188 -4.016 121.984 -4 QT
118.078 -4 L
118.078 -15.453 L
cp
120.391 -13.547 M
120.391 -10.906 L
121.906 -10.906 L
123.266 -10.906 123.594 -10.938 QT
124.188 -11.016 124.523 -11.352 QT
124.859 -11.688 124.859 -12.25 QT
124.859 -12.781 124.57 -13.109 QT
124.281 -13.438 123.703 -13.516 QT
123.359 -13.547 121.719 -13.547 QT
120.391 -13.547 L
cp
120.391 -9 M
120.391 -5.938 L
122.531 -5.938 L
123.781 -5.938 124.125 -6 QT
124.641 -6.094 124.961 -6.461 QT
125.281 -6.828 125.281 -7.438 QT
125.281 -7.953 125.031 -8.313 QT
124.781 -8.672 124.313 -8.836 QT
123.844 -9 122.266 -9 QT
120.391 -9 L
cp
f
GR
GS
[0.75 0 0 0.75 0 -0.25] CT
0 0.447 0.741 RC
1 LJ
2 LW
N
210.625 189.953 M
211.342 187.601 L
212.141 183.874 L
213.014 181.889 L
214.145 178.622 L
215.129 176.314 L
215.644 172.172 L
216.35 170.009 L
217.012 166.173 L
217.832 163.779 L
218.811 160.37 L
219.351 158.119 L
220.094 154.496 L
220.534 152.858 L
220.941 150.528 L
221.581 148.275 L
222.401 146.178 L
223.122 143.039 L
223.778 140.529 L
224.501 137.023 L
224.931 135.027 L
225.431 132.059 L
225.964 130.267 L
227.041 128.312 L
228.153 126.066 L
229.091 123.798 L
229.514 121.913 L
230.349 119.487 L
231.56 117.628 L
232.954 115.324 L
234.168 112.789 L
234.905 111.308 L
236.381 109.119 L
237.747 107.072 L
238.811 105.8 L
239.733 103.794 L
241.17 101.079 L
242.893 99.559 L
244.128 96.575 L
245.951 94.432 L
248.013 92.512 L
249.314 89.86 L
251.449 88.107 L
252.875 85.408 L
253.86 84.081 L
255.698 83.02 L
257.474 82.036 L
259.853 79.692 L
262.18 77.406 L
264.59 75.935 L
266.873 73.331 L
268.776 71.331 L
271.077 70.103 L
272.018 68.815 L
273.497 67.587 L
275.888 66.692 L
278.336 65.937 L
280.933 65.203 L
284.168 64.392 L
286.178 63.409 L
289.309 62.095 L
290.711 60.946 L
292.747 61.13 L
294.205 60.975 L
296.005 61.252 L
298.861 61.144 L
301.879 61.263 L
304.381 61.169 L
307.743 60.831 L
310.193 60.468 L
312.901 60.354 L
314.601 60.574 L
317.011 60.877 L
318.351 62.031 L
320.953 63.837 L
322.869 65.269 L
326.404 66.614 L
329.234 68.375 L
331.783 70.124 L
334.447 71.494 L
336.041 72.764 L
337.619 74.202 L
338.743 75.788 L
340.197 77.058 L
341.523 78.696 L
344.537 81.67 L
346.649 84.028 L
349.444 87.415 L
351.24 89.764 L
353.286 92.212 L
354.129 94.689 L
354.187 96.283 L
354.385 99.583 L
354.938 102.042 L
356.511 106.489 L
358.228 109.16 L
359.329 112.797 L
360.424 115.365 L
360.871 118.2 L
361.174 120.31 L
361.125 123.587 L
361.678 126.006 L
362.632 129.694 L
363.651 132.116 L
364.479 136.105 L
365.583 138.799 L
366.002 142.002 L
365.837 144.128 L
364.85 147.752 L
364.153 150.097 L
363.804 153.901 L
363.815 156.357 L
364.269 159.916 L
365.076 162.22 L
365.992 165.708 L
366.82 167.685 L
366.699 170.93 L
366.213 172.84 L
365.275 176.119 L
364.623 178.888 L
364.379 182.755 L
364.031 185.098 L
363.953 189.272 L
363.963 191.73 L
363.821 195.469 L
363.64 197.912 L
363.42 201.271 L
362.716 203.173 L
361.806 206.853 L
360.613 209.441 L
359.869 213.111 L
359.237 215.559 L
358.85 219.121 L
358.264 221.739 L
357.684 225.189 L
356.867 227.922 L
355.525 231.35 L
355.037 233.979 L
354.366 237.248 L
353.113 239.725 L
352.039 242.974 L
350.872 244.57 L
350.175 247.15 L
349.093 249.316 L
347.176 252.016 L
345.833 255.21 L
344.803 258.096 L
343.111 261.167 L
341.375 263.414 L
340.739 266.641 L
339.953 268.329 L
339.2 270.936 L
337.567 272.47 L
336.147 273.171 L
333.788 274.871 L
331.478 277.898 L
329.705 279.701 L
327.492 282.271 L
326.164 284.653 L
324.064 286.225 L
322.915 288.199 L
321.828 290.14 L
320.145 291.334 L
318.377 292.877 L
317.687 294.54 L
316.567 295.615 L
314 296.364 L
312.748 297.166 L
310.575 297.963 L
308.483 299.644 L
306.468 301.466 L
304.252 302.534 L
303.383 303.381 L
302.118 304.554 L
300.424 306.288 L
299.348 307.742 L
298.45 308.039 L
296.33 307.467 L
294.586 307.302 L
293.171 306.746 L
291.168 306.546 L
289.793 306.668 L
288.24 306.583 L
286.009 306.172 L
285.254 305.565 L
284.78 304.421 L
283.163 303.346 L
281.236 302.389 L
280.074 301.651 L
278.227 299.772 L
276.198 297.469 L
274.923 296.021 L
272.722 293.936 L
271.422 291.363 L
270.478 290.142 L
269.553 288.904 L
269.21 286.662 L
267.891 284.945 L
267.089 282.984 L
266.261 279.521 L
264.868 277.528 L
263.048 274.512 L
261.846 272.412 L
260.545 270.467 L
259.418 268.57 L
259.232 267.198 L
258.894 266.175 L
258.236 263.706 L
257.363 260.839 L
256.267 258.852 L
255.16 255.912 L
253.652 254.043 L
253.213 252.301 L
252.927 250.863 L
252.811 249.45 L
252.6 248.076 L
252.004 244.172 L
251.822 241.915 L
251.03 238.26 L
250.056 235.853 L
249.325 233.373 L
248.481 231.637 L
248.063 230.783 L
247.683 229.92 L
247.022 228.356 L
246.631 226.303 L
246.081 224.663 L
245.09 222.057 L
243.994 219.208 L
243.539 216.684 L
242.917 213.516 L
242.127 211.369 L
241.649 209.65 L
241.196 208.624 L
239.67 207.028 L
239.052 205.256 L
238.361 201.903 L
237.377 199.904 L
236.077 196.541 L
235.215 194.362 L
234.543 191.9 L
233.811 189.704 L
232.793 188.126 L
231.225 185.286 L
229.876 182.836 L
228.75 179.724 L
227.185 177.068 L
225.883 173.907 L
224.776 171.196 L
224.093 168.8 L
223.047 166.191 L
221.561 164.408 L
220.287 161.552 L
219.44 159.252 L
217.348 156.752 L
215.675 153.784 L
214.124 151.62 L
212.055 148.443 L
210.697 146.931 L
209.005 144.184 L
207.051 141.928 L
205.948 140.536 L
204.148 138.346 L
202.374 136.114 L
200.701 134.211 L
198.952 131.914 L
197.748 129.838 L
196.826 128.026 L
195.064 125.061 L
193.029 123.252 L
192.006 120.899 L
190.048 118.68 L
188.166 117.302 L
186.895 114.86 L
185.476 113.009 L
183.147 110.878 L
183.147 110.878 L
181.124 108.973 L
177.256 105.508 L
175.221 103.443 L
173.962 100.733 L
173.962 100.733 L
170.955 97.778 L
169.868 97.458 L
168.91 97.027 L
166.782 96.21 L
166.782 96.21 L
162.245 93.725 L
160.175 92.639 L
157.962 90.566 L
155.717 88.714 L
155.717 88.714 L
152.748 87.213 L
151.065 86.744 L
149.288 86.301 L
146.802 85.753 L
146.802 85.753 L
142.703 84.263 L
141.205 83.703 L
138.939 82.999 L
137.01 82.6 L
137.01 82.6 L
132.542 82.431 L
130.611 82.459 L
127.98 82.478 L
127.98 82.478 L
125.723 82.458 L
123.381 82.695 L
121.886 83.45 L
120.329 83.848 L
118.439 85.105 L
116.231 85.859 L
111.597 87.017 L
109.118 87.407 L
106.388 88.024 L
104.454 89.404 L
104.454 89.404 L
101.2 93.379 L
100.369 95.507 L
99.046 98.208 L
96.871 99.6 L
96.871 99.6 L
93.412 102.682 L
91.437 104.516 L
90.161 106.599 L
88.356 109.76 L
88.356 109.76 L
86.319 113.072 L
85.906 114.888 L
85.531 117.05 L
84.361 120.413 L
84.361 120.413 L
81.89 126.917 L
81.225 129.217 L
80.413 132.517 L
79.676 134.455 L
79.676 134.455 L
78.553 139.091 L
78.163 141.004 L
77.404 144.845 L
77.054 146.657 L
77.054 146.657 L
77.082 151.499 L
77.161 153.705 L
77.005 157.573 L
77.005 157.573 L
77.092 160.099 L
76.93 163.646 L
76.953 166.086 L
76.719 169.638 L
76.723 172.028 L
76.672 175.536 L
77.081 179.892 L
77.383 182.058 L
78.644 185.139 L
79.773 187.769 L
79.773 187.769 L
80.964 192.992 L
81.05 194.886 L
81.098 198.577 L
81.196 200.841 L
81.196 200.841 L
81.777 206.008 L
82.424 207.476 L
83.633 210.432 L
85 212.751 L
85 212.751 L
85.808 216.075 L
87.136 219.967 L
87.592 222.582 L
87.918 224.638 L
87.918 224.638 L
88.761 229.909 L
89.034 231.62 L
89.819 234.808 L
90.176 236.444 L
90.176 236.444 L
91.456 241.603 L
92.585 243.526 L
93.643 246.564 L
94.485 248.284 L
94.485 248.284 L
95.856 253.392 L
96.278 255.366 L
96.732 258.741 L
97.562 260.77 L
97.562 260.77 L
98.463 263.428 L
99.596 265.364 L
101.002 266.858 L
102.669 269.346 L
103.87 271.372 L
105.381 276.807 L
106.698 278.278 L
107.714 280.681 L
108.664 283.193 L
108.664 283.193 L
111.362 286.653 L
112.647 288.984 L
113.437 290.43 L
114.629 293.391 L
116.008 295.287 L
117.19 296.198 L
118.758 296.653 L
121.686 297.619 L
123.162 299.684 L
125.132 301.291 L
126.676 302.508 L
127.95 304.173 L
128.969 305.209 L
130.117 305.669 L
131.758 306.351 L
133.647 307.033 L
136.285 307.527 L
138.201 308.092 L
140.553 308.641 L
142.241 308.698 L
144.391 308.534 L
145.93 308.154 L
147.695 307.75 L
149.884 307.309 L
151.125 306.807 L
153.523 306.498 L
155.205 306.331 L
156.997 306.003 L
159.064 305.704 L
159.064 305.704 L
160.666 304.861 L
162.724 303.125 L
164.306 302.05 L
165.648 301.18 L
167.33 299.979 L
168.635 297.768 L
171.525 294.677 L
172.565 293.139 L
173.491 291.088 L
174.205 289.995 L
175.336 288.533 L
176.919 285.784 L
178.102 284.057 L
179.238 281.629 L
180.029 279.307 L
180.507 277.866 L
181.177 275.265 L
182.065 272.305 L
182.487 269.247 L
183.131 266.947 L
183.671 264.974 L
184.694 262.726 L
185.792 260.772 L
186.392 259.023 L
187.32 255.699 L
187.915 253.722 L
188.543 250.475 L
188.866 248.787 L
188.935 247.831 L
189.557 245.764 L
190.979 243.055 L
191.834 240.375 L
192.603 237.05 L
193.282 234.715 L
194.062 231.636 L
195.367 229.458 L
196.338 226.783 L
197.053 224.378 L
197.794 222.097 L
198.886 219.012 L
198.886 219.012 L
200.113 216.44 L
201.2 212.925 L
202.004 209.935 L
202.902 206.517 L
204.459 203.305 L
206.216 196.148 L
206.816 193.922 L
207.817 190.1 L
209.238 187.77 L
210.088 184.333 L
210.841 182.427 L
211.153 180.021 L
211.621 176.889 L
212.683 173.014 L
213.704 170.225 L
214.498 166.715 L
215.321 164.493 L
215.707 161.048 L
215.904 158.976 L
216.469 156.007 L
216.97 153.433 L
217.713 151.494 L
218.264 149.135 L
219.112 147.384 L
219.792 144.926 L
220.171 142.136 L
220.712 139.671 L
221.029 136.435 L
221.792 134.569 L
223.095 131.432 L
223.867 129.729 L
224.631 127.919 L
225.214 124.898 L
S
GR
GS
[0.75 0 0 0.75 0 -0.25] CT
0.851 0.325 0.098 RC
[8 8] 0 setdash
2 LJ
2 LW
N
219.727 184.732 M
220.586 182.164 L
221.445 179.597 L
222.304 177.03 L
223.163 174.463 L
224.021 171.896 L
224.88 169.328 L
225.739 166.761 L
226.598 164.194 L
227.457 161.627 L
227.712 160.863 L
228.706 158.376 L
229.699 155.888 L
230.693 153.401 L
231.686 150.913 L
232.68 148.426 L
233.673 145.939 L
234.667 143.451 L
235.66 140.964 L
236.654 138.477 L
237.647 135.989 L
238.641 133.502 L
239.083 132.394 L
240.541 130.309 L
241.998 128.224 L
243.455 126.138 L
244.913 124.053 L
246.37 121.968 L
247.828 119.883 L
249.285 117.798 L
250.454 116.125 L
251.978 114.119 L
253.502 112.112 L
255.026 110.105 L
256.55 108.099 L
258.073 106.092 L
259.597 104.085 L
261.121 102.078 L
262.645 100.072 L
264.169 98.065 L
264.352 97.824 L
266.206 96.332 L
268.059 94.84 L
269.913 93.349 L
271.766 91.857 L
273.62 90.365 L
275.473 88.874 L
277.327 87.382 L
279.18 85.89 L
279.513 85.622 L
281.672 85.126 L
283.83 84.63 L
285.988 84.134 L
288.147 83.637 L
290.305 83.141 L
292.464 82.645 L
294.622 82.149 L
296.78 81.652 L
297.202 81.555 L
299.395 81.555 L
301.588 81.555 L
303.782 81.555 L
305.975 81.555 L
308.168 81.555 L
310.362 81.555 L
312.555 81.555 L
314.748 81.555 L
316.942 81.555 L
318.68 81.555 L
320.608 82.885 L
322.536 84.215 L
324.464 85.545 L
326.392 86.875 L
328.321 88.205 L
330.249 89.535 L
332.177 90.865 L
334.105 92.195 L
336.033 93.525 L
336.368 93.757 L
337.932 95.714 L
339.495 97.671 L
341.058 99.628 L
342.621 101.584 L
344.185 103.541 L
345.748 105.498 L
347.311 107.455 L
347.739 107.991 L
348.762 110.46 L
349.784 112.928 L
350.806 115.396 L
351.829 117.865 L
352.851 120.333 L
353.874 122.801 L
354.896 125.27 L
355.32 126.293 L
355.981 128.953 L
356.642 131.613 L
357.303 134.274 L
357.964 136.934 L
358.626 139.594 L
359.287 142.254 L
359.948 144.915 L
360.374 146.628 L
360.66 149.394 L
360.947 152.16 L
361.233 154.927 L
361.519 157.693 L
361.806 160.459 L
362.092 163.225 L
362.379 165.991 L
362.665 168.757 L
362.901 171.031 L
363.116 173.807 L
363.332 176.584 L
363.547 179.36 L
363.763 182.137 L
363.979 184.913 L
364.194 187.69 L
364.41 190.466 L
364.626 193.242 L
364.841 196.019 L
365.057 198.795 L
365.272 201.572 L
365.427 203.567 L
365.048 206.315 L
364.669 209.063 L
364.289 211.811 L
363.91 214.559 L
363.53 217.307 L
363.151 220.055 L
362.772 222.803 L
362.392 225.551 L
362.013 228.299 L
361.633 231.046 L
361.254 233.794 L
360.875 236.542 L
360.495 239.29 L
360.374 240.171 L
359.455 242.704 L
358.537 245.238 L
357.619 247.772 L
356.701 250.305 L
355.782 252.839 L
354.864 255.373 L
353.946 257.906 L
353.027 260.44 L
352.109 262.974 L
351.53 264.573 L
349.875 266.404 L
348.22 268.235 L
346.565 270.066 L
344.91 271.897 L
343.255 273.729 L
341.601 275.56 L
339.946 277.391 L
338.291 279.222 L
336.636 281.053 L
334.981 282.884 L
333.326 284.715 L
331.672 286.547 L
331.315 286.942 L
329.461 288.433 L
327.607 289.925 L
325.754 291.417 L
323.9 292.908 L
322.047 294.4 L
320.193 295.892 L
318.34 297.383 L
316.486 298.875 L
314.633 300.367 L
312.779 301.858 L
311.099 303.21 L
308.906 303.21 L
306.713 303.21 L
304.519 303.21 L
302.326 303.21 L
300.133 303.21 L
297.939 303.21 L
295.746 303.21 L
293.553 303.21 L
293.411 303.21 L
291.523 301.791 L
289.634 300.373 L
287.745 298.954 L
285.857 297.536 L
283.968 296.117 L
282.079 294.698 L
280.191 293.28 L
278.302 291.861 L
276.413 290.443 L
274.525 289.024 L
274.46 288.975 L
272.936 286.969 L
271.412 284.962 L
269.888 282.955 L
268.364 280.948 L
266.841 278.942 L
265.317 276.935 L
263.793 274.928 L
262.269 272.922 L
260.745 270.915 L
260.562 270.673 L
258.999 268.716 L
257.435 266.759 L
255.872 264.803 L
254.309 262.846 L
252.745 260.889 L
251.182 258.932 L
249.619 256.975 L
249.191 256.439 L
248.168 253.97 L
247.146 251.502 L
246.124 249.034 L
245.101 246.565 L
244.079 244.097 L
243.056 241.629 L
242.034 239.16 L
241.012 236.692 L
239.989 234.224 L
239.083 232.036 L
237.823 229.753 L
236.562 227.471 L
235.301 225.188 L
234.04 222.905 L
232.779 220.622 L
231.518 218.339 L
230.258 216.056 L
228.997 213.773 L
228.976 213.735 L
227.953 211.266 L
226.931 208.798 L
225.909 206.33 L
224.886 203.861 L
223.864 201.393 L
222.841 198.925 L
221.819 196.456 L
220.797 193.988 L
219.774 191.52 L
218.868 189.332 L
217.79 186.903 L
216.712 184.473 L
215.634 182.044 L
214.555 179.614 L
213.477 177.184 L
212.399 174.755 L
211.321 172.325 L
210.242 169.896 L
209.164 167.466 L
208.086 165.036 L
207.008 162.607 L
206.234 160.863 L
204.874 158.674 L
203.514 156.485 L
202.154 154.296 L
200.794 152.107 L
199.434 149.918 L
198.074 147.729 L
196.714 145.541 L
195.354 143.352 L
193.994 141.163 L
192.634 138.974 L
192.336 138.494 L
191.418 135.96 L
190.499 133.427 L
189.581 130.893 L
188.663 128.359 L
187.745 125.826 L
186.826 123.292 L
185.908 120.758 L
184.99 118.225 L
184.071 115.691 L
183.492 114.092 L
181.784 112.342 L
180.075 110.592 L
178.367 108.843 L
176.658 107.093 L
174.95 105.343 L
173.242 103.593 L
171.533 101.843 L
169.825 100.094 L
169.594 99.857 L
167.654 98.556 L
165.714 97.255 L
163.773 95.954 L
161.833 94.652 L
159.893 93.351 L
157.953 92.05 L
156.013 90.749 L
154.433 89.689 L
152.44 88.523 L
150.448 87.357 L
148.455 86.191 L
146.463 85.025 L
144.47 83.859 L
142.478 82.692 L
140.535 81.555 L
138.342 81.555 L
136.148 81.555 L
133.955 81.555 L
131.762 81.555 L
129.568 81.555 L
127.375 81.555 L
125.182 81.555 L
122.988 81.555 L
122.847 81.555 L
120.848 82.704 L
118.849 83.853 L
116.851 85.002 L
114.852 86.151 L
112.853 87.3 L
110.854 88.449 L
108.856 89.598 L
106.857 90.747 L
105.159 91.723 L
103.649 93.747 L
102.14 95.772 L
100.631 97.796 L
99.121 99.821 L
97.612 101.845 L
96.103 103.869 L
94.593 105.894 L
93.084 107.918 L
91.575 109.942 L
90.066 111.967 L
89.997 112.058 L
89.058 114.579 L
88.118 117.1 L
87.178 119.621 L
86.238 122.142 L
85.299 124.663 L
84.359 127.184 L
83.419 129.705 L
82.479 132.226 L
81.539 134.747 L
80.6 137.268 L
79.66 139.789 L
78.72 142.309 L
78.626 142.561 L
78.143 145.283 L
77.66 148.004 L
77.177 150.726 L
76.694 153.447 L
76.211 156.169 L
75.728 158.89 L
75.245 161.612 L
74.762 164.333 L
74.278 167.055 L
73.795 169.776 L
73.573 171.031 L
73.696 173.816 L
73.82 176.602 L
73.943 179.387 L
74.067 182.173 L
74.191 184.958 L
74.314 187.744 L
74.438 190.53 L
74.562 193.315 L
74.685 196.101 L
74.809 198.886 L
74.836 199.5 L
75.052 202.276 L
75.267 205.053 L
75.483 207.829 L
75.699 210.606 L
75.914 213.382 L
76.13 216.159 L
76.345 218.935 L
76.561 221.712 L
76.777 224.488 L
76.992 227.265 L
77.208 230.041 L
77.363 232.036 L
78.001 234.706 L
78.639 237.375 L
79.277 240.045 L
79.914 242.714 L
80.552 245.383 L
81.19 248.053 L
81.828 250.722 L
82.466 253.392 L
83.104 256.061 L
83.68 258.472 L
85.137 260.557 L
86.595 262.642 L
88.052 264.727 L
89.51 266.812 L
90.967 268.897 L
92.424 270.983 L
93.882 273.068 L
95.051 274.741 L
96.411 276.929 L
97.771 279.118 L
99.131 281.307 L
100.491 283.496 L
101.851 285.685 L
103.211 287.874 L
104.571 290.063 L
105.931 292.252 L
106.422 293.042 L
108.513 293.884 L
110.604 294.725 L
112.696 295.567 L
114.787 296.408 L
116.878 297.25 L
118.969 298.091 L
121.06 298.932 L
121.583 299.143 L
123.777 299.143 L
125.97 299.143 L
128.163 299.143 L
130.357 299.143 L
132.55 299.143 L
134.743 299.143 L
136.937 299.143 L
139.13 299.143 L
141.323 299.143 L
143.062 299.143 L
145.196 298.499 L
147.33 297.855 L
149.464 297.211 L
151.598 296.567 L
153.732 295.923 L
155.866 295.279 L
158.001 294.635 L
160.135 293.991 L
162.269 293.347 L
163.277 293.042 L
164.953 291.243 L
166.63 289.444 L
168.306 287.646 L
169.983 285.847 L
171.659 284.048 L
173.336 282.249 L
175.013 280.45 L
176.689 278.651 L
178.366 276.852 L
180.042 275.053 L
181.719 273.254 L
182.229 272.707 L
183.386 270.337 L
184.543 267.967 L
185.7 265.596 L
186.857 263.226 L
188.014 260.856 L
189.171 258.486 L
190.328 256.116 L
191.485 253.745 L
192.642 251.375 L
193.799 249.005 L
194.956 246.635 L
196.113 244.265 L
196.126 244.238 L
197.179 241.79 L
198.232 239.342 L
199.285 236.895 L
200.338 234.447 L
201.39 232 L
202.443 229.552 L
203.496 227.105 L
204.549 224.657 L
205.601 222.209 L
206.654 219.762 L
207.497 217.802 L
208.437 215.281 L
209.377 212.76 L
210.317 210.239 L
211.256 207.718 L
212.196 205.197 L
213.136 202.676 L
214.076 200.155 L
215.015 197.634 L
215.955 195.113 L
216.895 192.592 L
217.835 190.072 L
218.774 187.551 L
218.868 187.299 L
219.727 184.732 L
220.586 182.164 L
221.445 179.597 L
222.304 177.03 L
223.163 174.463 L
224.021 171.896 L
224.88 169.328 L
225.739 166.761 L
226.598 164.194 L
227.457 161.627 L
227.712 160.863 L
228.706 158.376 L
229.699 155.888 L
230.693 153.401 L
231.686 150.913 L
232.68 148.426 L
233.673 145.939 L
234.667 143.451 L
235.66 140.964 L
236.654 138.477 L
237.647 135.989 L
238.641 133.502 L
239.083 132.394 L
240.541 130.309 L
241.998 128.224 L
S
GR
GS
[0.75 0 0 0.75 0 -0.25] CT
1 GC
N
378 333 M
378 310 L
155 310 L
155 333 L
cp
f
GR
GS
[0.75 0 0 0.75 151.5 240.875] CT
/Helvetica 14.667 F
GS
[1 0 0 1 0 0] CT
0 5.5 moveto 
1 -1 scale
(Position) t 
GR
GR
GS
[0.75 0 0 0.75 0 -0.25] CT
0 0.447 0.741 RC
1 LJ
2 LW
N
159 321.5 M
199 321.5 L
S
GR
GS
[0.75 0 0 0.75 229.5 240.875] CT
/Helvetica 14.667 F
GS
[1 0 0 1 0 0] CT
0 5.5 moveto 
1 -1 scale
(Reference) t 
GR
GR
GS
[0.75 0 0 0.75 0 -0.25] CT
0.851 0.325 0.098 RC
[8 8] 0 setdash
2 LJ
2 LW
N
263 321.5 M
303 321.5 L
S
GR
GS
[0.75 0 0 0.75 0 -0.25] CT
0.149 GC
10.0 ML
0.667 LW
N
155 333 M
155 310 L
378 310 L
378 333 L
cp
S
GR
%%Trailer
%%Pages: 1
%%EOF
