%!PS-Adobe-3.0 EPSF-3.0
%%Creator: (MATLAB, The Mathworks, Inc. Version 9.5.0.944444 \(R2018b\). Operating System: Windows 10)
%%Title: D:/LAB/UltrasonicManipulation/IFAC_article/figures/FBv3.eps
%%CreationDate: 2019-02-04T15:41:33
%%Pages: (atend)
%%BoundingBox: 0 0 860 266
%%LanguageLevel: 3
%%EndComments
%%BeginProlog
%%BeginResource: procset (Apache XML Graphics Std ProcSet) 1.2 0
%%Version: 1.2 0
%%Copyright: (Copyright 2001-2003,2010 The Apache Software Foundation. License terms: http://www.apache.org/licenses/LICENSE-2.0)
/bd{bind def}bind def
/ld{load def}bd
/GR/grestore ld
/GS/gsave ld
/RM/rmoveto ld
/C/curveto ld
/t/show ld
/L/lineto ld
/ML/setmiterlimit ld
/CT/concat ld
/f/fill ld
/N/newpath ld
/S/stroke ld
/CC/setcmykcolor ld
/A/ashow ld
/cp/closepath ld
/RC/setrgbcolor ld
/LJ/setlinejoin ld
/GC/setgray ld
/LW/setlinewidth ld
/M/moveto ld
/re {4 2 roll M
1 index 0 rlineto
0 exch rlineto
neg 0 rlineto
cp } bd
/_ctm matrix def
/_tm matrix def
/BT { _ctm currentmatrix pop matrix _tm copy pop 0 0 moveto } bd
/ET { _ctm setmatrix } bd
/iTm { _ctm setmatrix _tm concat } bd
/Tm { _tm astore pop iTm 0 0 moveto } bd
/ux 0.0 def
/uy 0.0 def
/F {
  /Tp exch def
  /Tf exch def
  Tf findfont Tp scalefont setfont
  /cf Tf def  /cs Tp def
} bd
/ULS {currentpoint /uy exch def /ux exch def} bd
/ULE {
  /Tcx currentpoint pop def
  gsave
  newpath
  cf findfont cs scalefont dup
  /FontMatrix get 0 get /Ts exch def /FontInfo get dup
  /UnderlinePosition get Ts mul /To exch def
  /UnderlineThickness get Ts mul /Tt exch def
  ux uy To add moveto  Tcx uy To add lineto
  Tt setlinewidth stroke
  grestore
} bd
/OLE {
  /Tcx currentpoint pop def
  gsave
  newpath
  cf findfont cs scalefont dup
  /FontMatrix get 0 get /Ts exch def /FontInfo get dup
  /UnderlinePosition get Ts mul /To exch def
  /UnderlineThickness get Ts mul /Tt exch def
  ux uy To add cs add moveto Tcx uy To add cs add lineto
  Tt setlinewidth stroke
  grestore
} bd
/SOE {
  /Tcx currentpoint pop def
  gsave
  newpath
  cf findfont cs scalefont dup
  /FontMatrix get 0 get /Ts exch def /FontInfo get dup
  /UnderlinePosition get Ts mul /To exch def
  /UnderlineThickness get Ts mul /Tt exch def
  ux uy To add cs 10 mul 26 idiv add moveto Tcx uy To add cs 10 mul 26 idiv add lineto
  Tt setlinewidth stroke
  grestore
} bd
/QT {
/Y22 exch store
/X22 exch store
/Y21 exch store
/X21 exch store
currentpoint
/Y21 load 2 mul add 3 div exch
/X21 load 2 mul add 3 div exch
/X21 load 2 mul /X22 load add 3 div
/Y21 load 2 mul /Y22 load add 3 div
/X22 load /Y22 load curveto
} bd
/SSPD {
dup length /d exch dict def
{
/v exch def
/k exch def
currentpagedevice k known {
/cpdv currentpagedevice k get def
v cpdv ne {
/upd false def
/nullv v type /nulltype eq def
/nullcpdv cpdv type /nulltype eq def
nullv nullcpdv or
{
/upd true def
} {
/sametype v type cpdv type eq def
sametype {
v type /arraytype eq {
/vlen v length def
/cpdvlen cpdv length def
vlen cpdvlen eq {
0 1 vlen 1 sub {
/i exch def
/obj v i get def
/cpdobj cpdv i get def
obj cpdobj ne {
/upd true def
exit
} if
} for
} {
/upd true def
} ifelse
} {
v type /dicttype eq {
v {
/dv exch def
/dk exch def
/cpddv cpdv dk get def
dv cpddv ne {
/upd true def
exit
} if
} forall
} {
/upd true def
} ifelse
} ifelse
} if
} ifelse
upd true eq {
d k v put
} if
} if
} if
} forall
d length 0 gt {
d setpagedevice
} if
} bd
/RE { % /NewFontName [NewEncodingArray] /FontName RE -
  findfont dup length dict begin
  {
    1 index /FID ne
    {def} {pop pop} ifelse
  } forall
  /Encoding exch def
  /FontName 1 index def
  currentdict definefont pop
  end
} bind def
%%EndResource
%%BeginResource: procset (Apache XML Graphics EPS ProcSet) 1.0 0
%%Version: 1.0 0
%%Copyright: (Copyright 2002-2003 The Apache Software Foundation. License terms: http://www.apache.org/licenses/LICENSE-2.0)
/BeginEPSF { %def
/b4_Inc_state save def         % Save state for cleanup
/dict_count countdictstack def % Count objects on dict stack
/op_count count 1 sub def      % Count objects on operand stack
userdict begin                 % Push userdict on dict stack
/showpage { } def              % Redefine showpage, { } = null proc
0 setgray 0 setlinecap         % Prepare graphics state
1 setlinewidth 0 setlinejoin
10 setmiterlimit [ ] 0 setdash newpath
/languagelevel where           % If level not equal to 1 then
{pop languagelevel             % set strokeadjust and
1 ne                           % overprint to their defaults.
{false setstrokeadjust false setoverprint
} if
} if
} bd
/EndEPSF { %def
count op_count sub {pop} repeat            % Clean up stacks
countdictstack dict_count sub {end} repeat
b4_Inc_state restore
} bd
%%EndResource
%FOPBeginFontDict
%%IncludeResource: font Courier-Oblique
%%IncludeResource: font Courier-BoldOblique
%%IncludeResource: font Courier-Bold
%%IncludeResource: font ZapfDingbats
%%IncludeResource: font Symbol
%%IncludeResource: font Helvetica
%%IncludeResource: font Helvetica-Oblique
%%IncludeResource: font Helvetica-Bold
%%IncludeResource: font Helvetica-BoldOblique
%%IncludeResource: font Times-Roman
%%IncludeResource: font Times-Italic
%%IncludeResource: font Times-Bold
%%IncludeResource: font Times-BoldItalic
%%IncludeResource: font Courier
%FOPEndFontDict
%%BeginResource: encoding WinAnsiEncoding
/WinAnsiEncoding [
/.notdef /.notdef /.notdef /.notdef /.notdef
/.notdef /.notdef /.notdef /.notdef /.notdef
/.notdef /.notdef /.notdef /.notdef /.notdef
/.notdef /.notdef /.notdef /.notdef /.notdef
/.notdef /.notdef /.notdef /.notdef /.notdef
/.notdef /.notdef /.notdef /.notdef /.notdef
/.notdef /.notdef /space /exclam /quotedbl
/numbersign /dollar /percent /ampersand /quotesingle
/parenleft /parenright /asterisk /plus /comma
/hyphen /period /slash /zero /one
/two /three /four /five /six
/seven /eight /nine /colon /semicolon
/less /equal /greater /question /at
/A /B /C /D /E
/F /G /H /I /J
/K /L /M /N /O
/P /Q /R /S /T
/U /V /W /X /Y
/Z /bracketleft /backslash /bracketright /asciicircum
/underscore /quoteleft /a /b /c
/d /e /f /g /h
/i /j /k /l /m
/n /o /p /q /r
/s /t /u /v /w
/x /y /z /braceleft /bar
/braceright /asciitilde /bullet /Euro /bullet
/quotesinglbase /florin /quotedblbase /ellipsis /dagger
/daggerdbl /circumflex /perthousand /Scaron /guilsinglleft
/OE /bullet /Zcaron /bullet /bullet
/quoteleft /quoteright /quotedblleft /quotedblright /bullet
/endash /emdash /asciitilde /trademark /scaron
/guilsinglright /oe /bullet /zcaron /Ydieresis
/space /exclamdown /cent /sterling /currency
/yen /brokenbar /section /dieresis /copyright
/ordfeminine /guillemotleft /logicalnot /sfthyphen /registered
/macron /degree /plusminus /twosuperior /threesuperior
/acute /mu /paragraph /middot /cedilla
/onesuperior /ordmasculine /guillemotright /onequarter /onehalf
/threequarters /questiondown /Agrave /Aacute /Acircumflex
/Atilde /Adieresis /Aring /AE /Ccedilla
/Egrave /Eacute /Ecircumflex /Edieresis /Igrave
/Iacute /Icircumflex /Idieresis /Eth /Ntilde
/Ograve /Oacute /Ocircumflex /Otilde /Odieresis
/multiply /Oslash /Ugrave /Uacute /Ucircumflex
/Udieresis /Yacute /Thorn /germandbls /agrave
/aacute /acircumflex /atilde /adieresis /aring
/ae /ccedilla /egrave /eacute /ecircumflex
/edieresis /igrave /iacute /icircumflex /idieresis
/eth /ntilde /ograve /oacute /ocircumflex
/otilde /odieresis /divide /oslash /ugrave
/uacute /ucircumflex /udieresis /yacute /thorn
/ydieresis
] def
%%EndResource
%FOPBeginFontReencode
/Courier-Oblique findfont
dup length dict begin
  {1 index /FID ne {def} {pop pop} ifelse} forall
  /Encoding WinAnsiEncoding def
  currentdict
end
/Courier-Oblique exch definefont pop
/Courier-BoldOblique findfont
dup length dict begin
  {1 index /FID ne {def} {pop pop} ifelse} forall
  /Encoding WinAnsiEncoding def
  currentdict
end
/Courier-BoldOblique exch definefont pop
/Courier-Bold findfont
dup length dict begin
  {1 index /FID ne {def} {pop pop} ifelse} forall
  /Encoding WinAnsiEncoding def
  currentdict
end
/Courier-Bold exch definefont pop
/Helvetica findfont
dup length dict begin
  {1 index /FID ne {def} {pop pop} ifelse} forall
  /Encoding WinAnsiEncoding def
  currentdict
end
/Helvetica exch definefont pop
/Helvetica-Oblique findfont
dup length dict begin
  {1 index /FID ne {def} {pop pop} ifelse} forall
  /Encoding WinAnsiEncoding def
  currentdict
end
/Helvetica-Oblique exch definefont pop
/Helvetica-Bold findfont
dup length dict begin
  {1 index /FID ne {def} {pop pop} ifelse} forall
  /Encoding WinAnsiEncoding def
  currentdict
end
/Helvetica-Bold exch definefont pop
/Helvetica-BoldOblique findfont
dup length dict begin
  {1 index /FID ne {def} {pop pop} ifelse} forall
  /Encoding WinAnsiEncoding def
  currentdict
end
/Helvetica-BoldOblique exch definefont pop
/Times-Roman findfont
dup length dict begin
  {1 index /FID ne {def} {pop pop} ifelse} forall
  /Encoding WinAnsiEncoding def
  currentdict
end
/Times-Roman exch definefont pop
/Times-Italic findfont
dup length dict begin
  {1 index /FID ne {def} {pop pop} ifelse} forall
  /Encoding WinAnsiEncoding def
  currentdict
end
/Times-Italic exch definefont pop
/Times-Bold findfont
dup length dict begin
  {1 index /FID ne {def} {pop pop} ifelse} forall
  /Encoding WinAnsiEncoding def
  currentdict
end
/Times-Bold exch definefont pop
/Times-BoldItalic findfont
dup length dict begin
  {1 index /FID ne {def} {pop pop} ifelse} forall
  /Encoding WinAnsiEncoding def
  currentdict
end
/Times-BoldItalic exch definefont pop
/Courier findfont
dup length dict begin
  {1 index /FID ne {def} {pop pop} ifelse} forall
  /Encoding WinAnsiEncoding def
  currentdict
end
/Courier exch definefont pop
%FOPEndFontReencode
%%EndProlog
%%Page: 1 1
%%PageBoundingBox: 0 0 860 266
%%BeginPageSetup
[1 0 0 -1 0 266] CT
%%EndPageSetup
GS
[0.75 0 0 0.75 0 0.5] CT
N
0 0 M
1146 0 L
1146 354 L
0 354 L
0 0 L
cp
clip
1 GC
N
0 0 1146 354 re
f
GR
GS
[0.75 0 0 0.75 0 0.5] CT
1 GC
N
0 0 1146 354 re
f
GR
GS
[0.75 0 0 0.75 0 0.5] CT
1 GC
N
604 285 M
1037 285 L
1037 27 L
604 27 L
cp
f
GR
GS
[0.75 0 0 0.75 0 0.5] CT
0.873 GC
1 LJ
0.667 LW
N
604 285 M
604 27 L
S
GR
GS
[0.75 0 0 0.75 0 0.5] CT
0.873 GC
1 LJ
0.667 LW
N
690.6 285 M
690.6 27 L
S
GR
GS
[0.75 0 0 0.75 0 0.5] CT
0.873 GC
1 LJ
0.667 LW
N
777.2 285 M
777.2 27 L
S
GR
GS
[0.75 0 0 0.75 0 0.5] CT
0.873 GC
1 LJ
0.667 LW
N
863.8 285 M
863.8 27 L
S
GR
GS
[0.75 0 0 0.75 0 0.5] CT
0.873 GC
1 LJ
0.667 LW
N
950.4 285 M
950.4 27 L
S
GR
GS
[0.75 0 0 0.75 0 0.5] CT
0.873 GC
1 LJ
0.667 LW
N
1037 285 M
1037 27 L
S
GR
GS
[0.75 0 0 0.75 0 0.5] CT
0.873 GC
1 LJ
0.667 LW
N
1037 285 M
604 285 L
S
GR
GS
[0.75 0 0 0.75 0 0.5] CT
0.873 GC
1 LJ
0.667 LW
N
1037 242 M
604 242 L
S
GR
GS
[0.75 0 0 0.75 0 0.5] CT
0.873 GC
1 LJ
0.667 LW
N
1037 199 M
604 199 L
S
GR
GS
[0.75 0 0 0.75 0 0.5] CT
0.873 GC
1 LJ
0.667 LW
N
1037 156 M
604 156 L
S
GR
GS
[0.75 0 0 0.75 0 0.5] CT
0.873 GC
1 LJ
0.667 LW
N
1037 113 M
604 113 L
S
GR
GS
[0.75 0 0 0.75 0 0.5] CT
0.873 GC
1 LJ
0.667 LW
N
1037 70 M
604 70 L
S
GR
GS
[0.75 0 0 0.75 0 0.5] CT
0.873 GC
1 LJ
0.667 LW
N
1037 27 M
604 27 L
S
GR
GS
[0.75 0 0 0.75 0 0.5] CT
0.149 GC
2 setlinecap
1 LJ
0.667 LW
N
604 285 M
1037 285 L
S
GR
GS
[0.75 0 0 0.75 0 0.5] CT
0.149 GC
2 setlinecap
1 LJ
0.667 LW
N
604 27 M
1037 27 L
S
GR
GS
[0.75 0 0 0.75 0 0.5] CT
0.149 GC
2 setlinecap
1 LJ
0.667 LW
N
604 285 M
604 280.67 L
S
GR
GS
[0.75 0 0 0.75 0 0.5] CT
0.149 GC
2 setlinecap
1 LJ
0.667 LW
N
690.6 285 M
690.6 280.67 L
S
GR
GS
[0.75 0 0 0.75 0 0.5] CT
0.149 GC
2 setlinecap
1 LJ
0.667 LW
N
777.2 285 M
777.2 280.67 L
S
GR
GS
[0.75 0 0 0.75 0 0.5] CT
0.149 GC
2 setlinecap
1 LJ
0.667 LW
N
863.8 285 M
863.8 280.67 L
S
GR
GS
[0.75 0 0 0.75 0 0.5] CT
0.149 GC
2 setlinecap
1 LJ
0.667 LW
N
950.4 285 M
950.4 280.67 L
S
GR
GS
[0.75 0 0 0.75 0 0.5] CT
0.149 GC
2 setlinecap
1 LJ
0.667 LW
N
1037 285 M
1037 280.67 L
S
GR
GS
[0.75 0 0 0.75 0 0.5] CT
0.149 GC
2 setlinecap
1 LJ
0.667 LW
N
604 27 M
604 31.33 L
S
GR
GS
[0.75 0 0 0.75 0 0.5] CT
0.149 GC
2 setlinecap
1 LJ
0.667 LW
N
690.6 27 M
690.6 31.33 L
S
GR
GS
[0.75 0 0 0.75 0 0.5] CT
0.149 GC
2 setlinecap
1 LJ
0.667 LW
N
777.2 27 M
777.2 31.33 L
S
GR
GS
[0.75 0 0 0.75 0 0.5] CT
0.149 GC
2 setlinecap
1 LJ
0.667 LW
N
863.8 27 M
863.8 31.33 L
S
GR
GS
[0.75 0 0 0.75 0 0.5] CT
0.149 GC
2 setlinecap
1 LJ
0.667 LW
N
950.4 27 M
950.4 31.33 L
S
GR
GS
[0.75 0 0 0.75 0 0.5] CT
0.149 GC
2 setlinecap
1 LJ
0.667 LW
N
1037 27 M
1037 31.33 L
S
GR
GS
[0.75 0 0 0.75 453 218.65] CT
0.149 GC
/Helvetica 16 F
GS
[1 0 0 1 0 0] CT
-4.5 17 moveto 
1 -1 scale
(0) t 
GR
GR
GS
[0.75 0 0 0.75 517.94998 218.65] CT
0.149 GC
/Helvetica 16 F
GS
[1 0 0 1 0 0] CT
-4.5 17 moveto 
1 -1 scale
(2) t 
GR
GR
GS
[0.75 0 0 0.75 582.90001 218.65] CT
0.149 GC
/Helvetica 16 F
GS
[1 0 0 1 0 0] CT
-4.5 17 moveto 
1 -1 scale
(4) t 
GR
GR
GS
[0.75 0 0 0.75 647.84999 218.65] CT
0.149 GC
/Helvetica 16 F
GS
[1 0 0 1 0 0] CT
-4.5 17 moveto 
1 -1 scale
(6) t 
GR
GR
GS
[0.75 0 0 0.75 712.80002 218.65] CT
0.149 GC
/Helvetica 16 F
GS
[1 0 0 1 0 0] CT
-4.5 17 moveto 
1 -1 scale
(8) t 
GR
GR
GS
[0.75 0 0 0.75 777.75 218.65] CT
0.149 GC
/Helvetica 16 F
GS
[1 0 0 1 0 0] CT
-9 17 moveto 
1 -1 scale
(10) t 
GR
GR
GS
[0.75 0 0 0.75 615.37514 235.40001] CT
0.149 GC
/Helvetica 17.6 F
GS
[1 0 0 1 0 0] CT
-31.5 18 moveto 
1 -1 scale
(Time [s]) t 
GR
GR
GS
[0.75 0 0 0.75 0 0.5] CT
0.149 GC
2 setlinecap
1 LJ
0.667 LW
N
604 285 M
604 27 L
S
GR
GS
[0.75 0 0 0.75 0 0.5] CT
0.149 GC
2 setlinecap
1 LJ
0.667 LW
N
1037 285 M
1037 27 L
S
GR
GS
[0.75 0 0 0.75 0 0.5] CT
0.149 GC
2 setlinecap
1 LJ
0.667 LW
N
604 285 M
608.33 285 L
S
GR
GS
[0.75 0 0 0.75 0 0.5] CT
0.149 GC
2 setlinecap
1 LJ
0.667 LW
N
604 242 M
608.33 242 L
S
GR
GS
[0.75 0 0 0.75 0 0.5] CT
0.149 GC
2 setlinecap
1 LJ
0.667 LW
N
604 199 M
608.33 199 L
S
GR
GS
[0.75 0 0 0.75 0 0.5] CT
0.149 GC
2 setlinecap
1 LJ
0.667 LW
N
604 156 M
608.33 156 L
S
GR
GS
[0.75 0 0 0.75 0 0.5] CT
0.149 GC
2 setlinecap
1 LJ
0.667 LW
N
604 113 M
608.33 113 L
S
GR
GS
[0.75 0 0 0.75 0 0.5] CT
0.149 GC
2 setlinecap
1 LJ
0.667 LW
N
604 70 M
608.33 70 L
S
GR
GS
[0.75 0 0 0.75 0 0.5] CT
0.149 GC
2 setlinecap
1 LJ
0.667 LW
N
604 27 M
608.33 27 L
S
GR
GS
[0.75 0 0 0.75 0 0.5] CT
0.149 GC
2 setlinecap
1 LJ
0.667 LW
N
1037 285 M
1032.67 285 L
S
GR
GS
[0.75 0 0 0.75 0 0.5] CT
0.149 GC
2 setlinecap
1 LJ
0.667 LW
N
1037 242 M
1032.67 242 L
S
GR
GS
[0.75 0 0 0.75 0 0.5] CT
0.149 GC
2 setlinecap
1 LJ
0.667 LW
N
1037 199 M
1032.67 199 L
S
GR
GS
[0.75 0 0 0.75 0 0.5] CT
0.149 GC
2 setlinecap
1 LJ
0.667 LW
N
1037 156 M
1032.67 156 L
S
GR
GS
[0.75 0 0 0.75 0 0.5] CT
0.149 GC
2 setlinecap
1 LJ
0.667 LW
N
1037 113 M
1032.67 113 L
S
GR
GS
[0.75 0 0 0.75 0 0.5] CT
0.149 GC
2 setlinecap
1 LJ
0.667 LW
N
1037 70 M
1032.67 70 L
S
GR
GS
[0.75 0 0 0.75 0 0.5] CT
0.149 GC
2 setlinecap
1 LJ
0.667 LW
N
1037 27 M
1032.67 27 L
S
GR
GS
[0.75 0 0 0.75 448.60002 214.25] CT
0.149 GC
/Helvetica 16 F
GS
[1 0 0 1 0 0] CT
-24 6.5 moveto 
1 -1 scale
(-15) t 
GR
GR
GS
[0.75 0 0 0.75 448.60002 182] CT
0.149 GC
/Helvetica 16 F
GS
[1 0 0 1 0 0] CT
-24 6.5 moveto 
1 -1 scale
(-10) t 
GR
GR
GS
[0.75 0 0 0.75 448.60002 149.75] CT
0.149 GC
/Helvetica 16 F
GS
[1 0 0 1 0 0] CT
-15 6.5 moveto 
1 -1 scale
(-5) t 
GR
GR
GS
[0.75 0 0 0.75 448.60002 117.5] CT
0.149 GC
/Helvetica 16 F
GS
[1 0 0 1 0 0] CT
-9 6.5 moveto 
1 -1 scale
(0) t 
GR
GR
GS
[0.75 0 0 0.75 448.60002 85.25] CT
0.149 GC
/Helvetica 16 F
GS
[1 0 0 1 0 0] CT
-9 6.5 moveto 
1 -1 scale
(5) t 
GR
GR
GS
[0.75 0 0 0.75 448.60002 53] CT
0.149 GC
/Helvetica 16 F
GS
[1 0 0 1 0 0] CT
-18 6.5 moveto 
1 -1 scale
(10) t 
GR
GR
GS
[0.75 0 0 0.75 448.60002 20.75] CT
0.149 GC
/Helvetica 16 F
GS
[1 0 0 1 0 0] CT
-18 6.5 moveto 
1 -1 scale
(15) t 
GR
GR
GS
[0 -0.75 0.75 0 427.60002 117.49991] CT
0.149 GC
/Helvetica 17.6 F
GS
[1 0 0 1 0 0] CT
-53.5 -4 moveto 
1 -1 scale
(Position [mm]) t 
GR
GR
GS
[0.75 0 0 0.75 0 0.5] CT
0 0.447 0.741 RC
1 LJ
2 LW
N
604 162.96 M
604.866 162.398 L
605.732 161.77 L
606.598 161.086 L
607.464 160.2 L
608.33 159.427 L
609.196 159.024 L
610.062 158.47 L
610.928 157.951 L
611.794 157.308 L
612.66 156.54 L
613.526 156.117 L
614.392 155.535 L
615.258 155.189 L
616.124 154.87 L
616.99 154.368 L
617.856 153.725 L
618.722 153.16 L
619.588 152.645 L
620.454 152.078 L
621.32 151.741 L
622.186 151.349 L
623.052 150.931 L
623.918 150.087 L
624.784 149.215 L
625.65 148.479 L
626.516 148.147 L
627.382 147.492 L
628.248 146.543 L
629.114 145.449 L
629.98 144.497 L
630.846 143.919 L
631.712 142.762 L
632.578 141.691 L
633.444 140.857 L
634.31 140.133 L
635.176 139.006 L
636.042 137.655 L
636.908 136.687 L
637.774 135.257 L
638.64 133.641 L
639.506 132.62 L
640.372 130.946 L
641.238 129.828 L
642.104 129.055 L
642.97 127.614 L
643.836 126.221 L
644.702 124.356 L
645.568 122.531 L
646.434 120.641 L
647.3 118.85 L
648.166 117.358 L
649.032 115.554 L
649.898 114.816 L
650.764 113.656 L
651.63 111.78 L
652.496 109.861 L
653.362 107.825 L
654.228 105.288 L
655.094 103.712 L
655.96 101.256 L
656.826 100.157 L
657.692 98.56 L
658.558 97.417 L
659.424 96.005 L
660.29 93.766 L
661.156 91.399 L
662.022 89.437 L
662.888 86.8 L
663.754 84.879 L
664.62 82.756 L
665.486 81.423 L
666.352 79.532 L
667.218 78.481 L
668.084 76.441 L
668.95 74.939 L
669.816 72.166 L
670.682 69.947 L
671.548 67.948 L
672.414 65.859 L
673.28 64.609 L
674.146 63.371 L
675.012 62.49 L
675.878 61.35 L
676.744 60.311 L
677.61 57.946 L
678.476 56.291 L
679.342 54.099 L
680.208 52.69 L
681.074 51.086 L
681.94 50.425 L
682.806 50.379 L
683.672 50.224 L
684.538 49.79 L
685.404 48.557 L
686.27 47.21 L
687.136 46.347 L
688.002 45.488 L
688.868 45.137 L
689.734 44.9 L
690.6 44.939 L
691.466 44.505 L
692.332 43.757 L
693.198 42.958 L
694.064 42.308 L
694.93 41.443 L
695.796 41.114 L
696.662 41.243 L
697.528 42.018 L
698.394 42.564 L
699.26 42.838 L
700.126 42.829 L
700.992 42.473 L
701.858 41.84 L
702.724 41.122 L
703.59 40.473 L
704.456 40.568 L
705.322 40.949 L
706.188 41.684 L
707.054 42.195 L
707.92 42.387 L
708.786 42.659 L
709.652 42.72 L
710.518 42.713 L
711.384 42.824 L
712.25 42.966 L
713.116 43.139 L
713.982 43.691 L
714.848 44.405 L
715.714 45.34 L
716.58 45.923 L
717.446 46.419 L
718.312 46.723 L
719.178 47.182 L
720.044 47.637 L
720.91 48.278 L
721.776 49.33 L
722.642 49.713 L
723.508 50.239 L
724.374 51.221 L
725.24 52.063 L
726.106 52.979 L
726.972 53.526 L
727.838 54.374 L
728.704 55.877 L
729.57 56.931 L
730.436 57.738 L
731.302 59.065 L
732.168 60.426 L
733.034 60.925 L
733.9 61.541 L
734.766 62.132 L
735.632 63.412 L
736.498 64.526 L
737.364 66.376 L
738.23 68.188 L
739.096 69.578 L
739.962 71.314 L
740.828 72.355 L
741.694 74.001 L
742.56 74.902 L
743.426 75.755 L
744.292 77.075 L
745.158 78.462 L
746.024 79.003 L
746.89 79.881 L
747.756 81.893 L
748.622 82.876 L
749.488 84.58 L
750.354 86.22 L
751.22 87.8 L
752.086 89.538 L
752.952 90.219 L
753.818 91.212 L
754.684 92.54 L
755.55 93.383 L
756.416 94.088 L
757.282 95.75 L
758.148 97.118 L
759.014 98.227 L
759.88 99.798 L
760.746 100.877 L
761.612 102.094 L
762.478 103.844 L
763.344 104.436 L
764.21 104.807 L
765.076 106.076 L
765.942 107.587 L
766.808 108.498 L
767.674 109.947 L
768.54 111.538 L
769.406 112.537 L
770.272 114.263 L
771.138 115.283 L
772.004 116.023 L
772.87 116.749 L
773.736 117.018 L
774.602 118.052 L
775.468 118.681 L
776.334 119.33 L
777.2 120.422 L
778.066 121.85 L
778.932 122.792 L
779.798 123.813 L
780.664 124.696 L
781.53 124.843 L
782.396 125.107 L
783.262 125.623 L
784.128 126.308 L
784.994 127.168 L
785.86 128.036 L
786.726 129.218 L
787.592 129.562 L
788.458 129.787 L
789.324 129.878 L
790.19 130.043 L
791.056 130.511 L
791.922 130.653 L
792.788 131.274 L
793.654 132.038 L
794.52 132.611 L
795.386 133.273 L
796.252 133.601 L
797.118 133.899 L
797.984 134.417 L
798.85 134.724 L
799.716 135.155 L
800.582 135.932 L
801.448 136.792 L
802.314 137.149 L
803.18 137.637 L
804.046 138.256 L
804.912 138.631 L
805.778 138.986 L
806.644 140.182 L
807.51 140.668 L
808.376 141.21 L
809.242 141.981 L
810.108 143 L
810.974 143.676 L
811.84 144.203 L
812.706 144.777 L
813.572 145.576 L
814.438 146.805 L
815.304 147.863 L
816.17 148.746 L
817.036 149.973 L
817.902 150.995 L
818.768 151.862 L
819.634 152.398 L
820.5 153.218 L
821.366 154.383 L
822.232 155.383 L
823.098 156.047 L
823.964 157.688 L
824.83 159 L
825.696 160.216 L
826.562 161.838 L
827.428 162.903 L
828.294 164.23 L
829.16 165.762 L
830.026 166.628 L
830.892 168.039 L
831.758 169.43 L
832.624 170.742 L
833.49 172.114 L
834.356 173.058 L
835.222 173.781 L
836.088 175.162 L
836.954 176.758 L
837.82 177.56 L
838.686 179.096 L
839.552 180.572 L
840.418 181.568 L
841.284 182.682 L
842.15 184.508 L
843.016 184.508 L
843.882 186.095 L
844.748 189.127 L
845.614 190.723 L
846.48 191.711 L
847.346 191.711 L
848.212 194.069 L
849.078 194.921 L
849.944 195.672 L
850.81 197.341 L
851.676 197.341 L
852.542 200.899 L
853.408 202.522 L
854.274 204.258 L
855.14 206.018 L
856.006 206.018 L
856.872 208.346 L
857.738 209.666 L
858.604 211.06 L
859.47 213.009 L
860.336 213.009 L
861.202 216.224 L
862.068 217.398 L
862.934 219.175 L
863.8 220.688 L
864.666 220.688 L
865.532 224.192 L
866.398 225.706 L
867.264 227.77 L
868.13 227.77 L
868.996 229.539 L
869.862 231.376 L
870.728 232.548 L
871.594 233.769 L
872.46 235.252 L
873.326 236.983 L
874.192 240.617 L
875.058 242.561 L
875.924 244.702 L
876.79 246.218 L
877.656 246.218 L
878.522 248.77 L
879.388 249.422 L
880.254 250.46 L
881.12 252.165 L
881.986 252.165 L
882.852 254.877 L
883.718 256.427 L
884.584 257.427 L
885.45 258.843 L
886.316 258.843 L
887.182 260.44 L
888.048 260.764 L
888.914 261.058 L
889.78 261.976 L
890.646 261.976 L
891.512 263.913 L
892.378 264.434 L
893.244 265.071 L
894.11 265.649 L
894.976 265.649 L
895.842 266.53 L
896.708 266.836 L
897.574 267.431 L
898.44 267.706 L
899.306 267.706 L
900.172 267.683 L
901.038 267.622 L
901.904 267.744 L
902.77 267.744 L
903.636 267.676 L
904.502 267.802 L
905.368 267.784 L
906.234 267.968 L
907.1 267.965 L
907.966 268.005 L
908.832 267.684 L
909.698 267.447 L
910.564 266.458 L
911.43 265.573 L
912.296 265.573 L
913.162 264.639 L
914.028 264.572 L
914.894 264.534 L
915.76 264.457 L
916.626 264.457 L
917.492 264.002 L
918.358 263.495 L
919.224 262.546 L
920.09 261.474 L
920.956 261.474 L
921.822 260.84 L
922.688 259.799 L
923.554 259.442 L
924.42 259.186 L
925.286 259.186 L
926.152 258.525 L
927.018 258.311 L
927.884 257.695 L
928.75 257.415 L
929.616 257.415 L
930.482 256.411 L
931.348 255.526 L
932.214 254.696 L
933.08 254.036 L
933.946 254.036 L
934.812 252.961 L
935.678 252.63 L
936.544 252.274 L
937.41 251.623 L
938.276 251.623 L
939.142 250.917 L
940.008 250.028 L
940.874 248.926 L
941.74 247.618 L
942.606 246.676 L
943.472 245.491 L
944.338 244.459 L
945.204 243.662 L
946.07 242.917 L
946.936 242.917 L
947.802 240.801 L
948.668 239.794 L
949.534 239.174 L
950.4 238.239 L
951.266 237.158 L
952.132 236.231 L
952.998 235.001 L
953.864 232.705 L
954.73 231.547 L
955.596 230.003 L
956.462 228.792 L
957.328 227.793 L
958.194 226.994 L
959.06 226.094 L
959.926 224.807 L
960.792 223.325 L
961.658 221.257 L
962.524 219.754 L
963.39 217.91 L
964.256 216.586 L
965.122 214.9 L
965.988 213.693 L
966.854 212.309 L
967.72 210.592 L
968.586 209.619 L
969.452 207.739 L
970.318 206.42 L
971.184 205.015 L
972.05 203.394 L
972.916 203.394 L
973.782 202.138 L
974.648 200.523 L
975.514 199.283 L
976.38 198.231 L
977.246 196.911 L
978.112 195.888 L
978.978 193.622 L
979.844 192.806 L
980.71 192.08 L
981.576 191.52 L
982.442 190.633 L
983.308 189.392 L
984.174 188.464 L
985.04 187.573 L
985.906 186.953 L
986.772 186.578 L
987.638 186.053 L
988.504 185.356 L
989.37 185.026 L
990.236 184.52 L
991.102 184.097 L
991.968 183.295 L
992.834 182.434 L
993.7 181.963 L
994.566 181.236 L
995.432 180.769 L
996.298 180.277 L
997.164 180.023 L
998.03 179.969 L
998.896 179.481 L
999.762 178.366 L
1000.628 177.696 L
1001.494 177.092 L
1002.36 176.56 L
1003.226 175.949 L
1004.092 174.925 L
1004.958 174.164 L
1005.824 173.603 L
1006.69 173.021 L
1007.556 172.166 L
1008.422 172.166 L
1009.288 171.203 L
1010.154 170.351 L
1011.02 169.721 L
1011.886 169.016 L
1012.752 167.795 L
1013.618 166.417 L
1014.484 165.946 L
1015.35 165.162 L
1016.216 164.047 L
1017.082 163.381 L
1017.948 162.79 L
1018.814 162.545 L
1019.68 162.179 L
1020.546 161.346 L
1021.412 160.546 L
1022.278 159.923 L
1023.144 159.277 L
1024.01 158.975 L
1024.876 158.82 L
1025.742 158.377 L
1026.608 157.984 L
1027.474 157.401 L
1028.34 156.969 L
1029.206 156.305 L
1030.072 155.771 L
1030.938 155.474 L
1031.804 155.049 L
1032.67 154.801 L
1033.536 154.203 L
1034.402 153.181 L
1035.268 152.575 L
1036.134 151.976 L
1037 151.519 L
S
GR
GS
[0.75 0 0 0.75 0 0.5] CT
0.851 0.325 0.098 RC
[8 2 4 2] 0 setdash
2 LJ
2 LW
N
604 155.822 M
604.866 155.148 L
605.732 154.475 L
606.598 153.801 L
607.464 153.128 L
608.33 152.454 L
609.196 151.781 L
610.062 151.107 L
610.928 150.434 L
611.794 149.76 L
612.66 149.56 L
613.526 148.781 L
614.392 148.002 L
615.258 147.223 L
616.124 146.444 L
616.99 145.664 L
617.856 144.885 L
618.722 144.106 L
619.588 143.327 L
620.454 142.548 L
621.32 141.769 L
622.186 140.99 L
623.052 140.643 L
623.918 139.5 L
624.784 138.357 L
625.65 137.214 L
626.516 136.071 L
627.382 134.929 L
628.248 133.786 L
629.114 132.643 L
629.98 131.726 L
630.846 130.531 L
631.712 129.336 L
632.578 128.141 L
633.444 126.946 L
634.31 125.751 L
635.176 124.556 L
636.042 123.361 L
636.908 122.166 L
637.774 120.971 L
638.64 120.827 L
639.506 119.374 L
640.372 117.92 L
641.238 116.467 L
642.104 115.013 L
642.97 113.56 L
643.836 112.106 L
644.702 110.652 L
645.568 109.199 L
646.434 108.938 L
647.3 107.245 L
648.166 105.553 L
649.032 103.86 L
649.898 102.168 L
650.764 100.475 L
651.63 98.782 L
652.496 97.09 L
653.362 95.397 L
654.228 95.067 L
655.094 93.347 L
655.96 91.627 L
656.826 89.907 L
657.692 88.187 L
658.558 86.467 L
659.424 84.747 L
660.29 83.027 L
661.156 81.307 L
662.022 79.587 L
662.888 78.224 L
663.754 76.712 L
664.62 75.2 L
665.486 73.688 L
666.352 72.176 L
667.218 70.664 L
668.084 69.152 L
668.95 67.64 L
669.816 66.128 L
670.682 64.616 L
671.548 64.353 L
672.414 63.127 L
673.28 61.901 L
674.146 60.675 L
675.012 59.449 L
675.878 58.223 L
676.744 56.997 L
677.61 55.771 L
678.476 55.435 L
679.342 54.634 L
680.208 53.832 L
681.074 53.03 L
681.94 52.228 L
682.806 51.427 L
683.672 50.625 L
684.538 49.823 L
685.404 49.491 L
686.27 48.972 L
687.136 48.454 L
688.002 47.935 L
688.868 47.417 L
689.734 46.899 L
690.6 46.38 L
691.466 45.862 L
692.332 45.528 L
693.198 45.303 L
694.064 45.078 L
694.93 44.854 L
695.796 44.629 L
696.662 44.405 L
697.528 44.18 L
698.394 43.955 L
699.26 43.731 L
700.126 43.546 L
700.992 43.377 L
701.858 43.208 L
702.724 43.039 L
703.59 42.87 L
704.456 42.701 L
705.322 42.532 L
706.188 42.362 L
707.054 42.193 L
707.92 42.024 L
708.786 41.855 L
709.652 41.686 L
710.518 41.565 L
711.384 41.862 L
712.25 42.16 L
713.116 42.457 L
713.982 42.755 L
714.848 43.052 L
715.714 43.35 L
716.58 43.647 L
717.446 43.945 L
718.312 44.242 L
719.178 44.54 L
720.044 44.837 L
720.91 45.135 L
721.776 45.432 L
722.642 45.528 L
723.508 46.248 L
724.374 46.968 L
725.24 47.688 L
726.106 48.408 L
726.972 49.128 L
727.838 49.848 L
728.704 50.568 L
729.57 51.289 L
730.436 52.009 L
731.302 52.463 L
732.168 53.761 L
733.034 55.059 L
733.9 56.356 L
734.766 57.654 L
735.632 58.952 L
736.498 60.249 L
737.364 61.547 L
738.23 62.845 L
739.096 64.143 L
739.962 65.44 L
740.828 66.738 L
741.694 68.036 L
742.56 68.316 L
743.426 69.769 L
744.292 71.223 L
745.158 72.676 L
746.024 74.13 L
746.89 75.583 L
747.756 77.037 L
748.622 78.49 L
749.488 79.944 L
750.354 81.397 L
751.22 82.851 L
752.086 84.168 L
752.952 85.888 L
753.818 87.608 L
754.684 89.328 L
755.55 91.048 L
756.416 92.768 L
757.282 94.488 L
758.148 96.208 L
759.014 97.928 L
759.88 98.039 L
760.746 99.52 L
761.612 101.001 L
762.478 102.482 L
763.344 103.963 L
764.21 105.445 L
765.076 106.926 L
765.942 108.407 L
766.808 109.888 L
767.674 111.369 L
768.54 112.85 L
769.406 112.901 L
770.272 114.096 L
771.138 115.291 L
772.004 116.486 L
772.87 117.681 L
773.736 118.876 L
774.602 120.071 L
775.468 121.266 L
776.334 122.461 L
777.2 123.656 L
778.066 123.8 L
778.932 125.025 L
779.798 126.251 L
780.664 127.477 L
781.53 128.703 L
782.396 129.929 L
783.262 131.155 L
784.128 132.381 L
784.994 132.717 L
785.86 133.518 L
786.726 134.32 L
787.592 135.122 L
788.458 135.924 L
789.324 136.725 L
790.19 137.527 L
791.056 138.329 L
791.922 139.131 L
792.788 139.932 L
793.654 140.643 L
794.52 141.632 L
795.386 142.62 L
796.252 143.609 L
797.118 144.598 L
797.984 145.586 L
798.85 146.575 L
799.716 147.564 L
800.582 148.553 L
801.448 148.569 L
802.314 149.371 L
803.18 150.173 L
804.046 150.974 L
804.912 151.776 L
805.778 152.578 L
806.644 153.38 L
807.51 154.181 L
808.376 154.983 L
809.242 155.785 L
810.108 156.495 L
810.974 157.341 L
811.84 158.186 L
812.706 159.032 L
813.572 159.878 L
814.438 160.723 L
815.304 161.569 L
816.17 162.414 L
817.036 163.26 L
817.902 164.105 L
818.768 164.951 L
819.634 165.796 L
820.5 166.403 L
821.366 167.47 L
822.232 168.536 L
823.098 169.603 L
823.964 170.669 L
824.83 171.736 L
825.696 172.802 L
826.562 173.869 L
827.428 174.935 L
828.294 176.002 L
829.16 177.068 L
830.026 177.302 L
830.892 178.022 L
831.758 178.742 L
832.624 179.462 L
833.49 180.182 L
834.356 180.902 L
835.222 181.623 L
836.088 182.343 L
836.954 183.063 L
837.82 183.783 L
838.686 184.237 L
839.552 185.577 L
840.418 186.917 L
841.284 188.256 L
842.15 189.596 L
843.016 190.936 L
843.882 192.275 L
844.748 193.615 L
845.614 194.955 L
846.48 195.136 L
847.346 196.657 L
848.212 198.179 L
849.078 199.7 L
849.944 201.222 L
850.81 202.743 L
851.676 204.265 L
852.542 205.786 L
853.408 207.025 L
854.274 208.588 L
855.14 210.15 L
856.006 211.713 L
856.872 213.275 L
857.738 214.838 L
858.604 216.401 L
859.47 217.924 L
860.336 219.644 L
861.202 221.364 L
862.068 223.084 L
862.934 224.804 L
863.8 226.524 L
864.666 228.244 L
865.532 229.964 L
866.398 231.684 L
867.264 231.795 L
868.13 233.362 L
868.996 234.93 L
869.862 236.497 L
870.728 238.064 L
871.594 239.632 L
872.46 241.199 L
873.326 242.767 L
874.192 244.334 L
875.058 245.666 L
875.924 246.849 L
876.79 248.033 L
877.656 249.217 L
878.522 250.4 L
879.388 251.584 L
880.254 252.767 L
881.12 253.951 L
881.986 255.135 L
882.852 256.318 L
883.718 257.502 L
884.584 257.555 L
885.45 258.292 L
886.316 259.029 L
887.182 259.766 L
888.048 260.503 L
888.914 261.24 L
889.78 261.977 L
890.646 262.714 L
891.512 263.451 L
892.378 264.188 L
893.244 264.925 L
894.11 265.662 L
894.976 266.399 L
895.842 266.472 L
896.708 266.851 L
897.574 267.23 L
898.44 267.609 L
899.306 267.988 L
900.172 268.367 L
901.038 268.745 L
901.904 269.124 L
902.77 269.503 L
903.636 269.882 L
904.502 270.261 L
905.368 270.435 L
906.234 270.339 L
907.1 270.242 L
907.966 270.145 L
908.832 270.048 L
909.698 269.951 L
910.564 269.854 L
911.43 269.757 L
912.296 269.66 L
913.162 269.563 L
914.028 269.466 L
914.894 269.445 L
915.76 269.276 L
916.626 269.107 L
917.492 268.937 L
918.358 268.768 L
919.224 268.599 L
920.09 268.43 L
920.956 268.261 L
921.822 268.092 L
922.688 267.923 L
923.554 267.754 L
924.42 267.585 L
925.286 267.463 L
926.152 266.963 L
927.018 266.463 L
927.884 265.962 L
928.75 265.462 L
929.616 264.962 L
930.482 264.462 L
931.348 263.962 L
932.214 263.461 L
933.08 262.961 L
933.946 262.509 L
934.812 261.366 L
935.678 260.223 L
936.544 259.081 L
937.41 257.938 L
938.276 256.795 L
939.142 255.652 L
940.008 254.509 L
940.874 253.592 L
941.74 252.526 L
942.606 251.459 L
943.472 250.393 L
944.338 249.326 L
945.204 248.26 L
946.07 247.193 L
946.936 246.127 L
947.802 245.06 L
948.668 244.675 L
949.534 243.035 L
950.4 241.395 L
951.266 239.755 L
952.132 238.115 L
952.998 236.476 L
953.864 234.836 L
954.73 233.196 L
955.596 232.786 L
956.462 231.066 L
957.328 229.346 L
958.194 227.626 L
959.06 225.906 L
959.926 224.186 L
960.792 222.466 L
961.658 220.746 L
962.524 219.026 L
963.39 217.306 L
964.256 215.942 L
965.122 214.269 L
965.988 212.595 L
966.854 210.922 L
967.72 209.248 L
968.586 207.575 L
969.452 205.901 L
970.318 204.228 L
971.184 202.554 L
972.05 200.88 L
972.916 200.09 L
973.782 198.775 L
974.648 197.46 L
975.514 196.146 L
976.38 194.831 L
977.246 193.516 L
978.112 192.202 L
978.978 190.887 L
979.844 189.572 L
980.71 188.257 L
981.576 186.943 L
982.442 185.628 L
983.308 185.228 L
984.174 184.321 L
985.04 183.413 L
985.906 182.506 L
986.772 181.599 L
987.638 180.691 L
988.504 179.784 L
989.37 178.877 L
990.236 177.969 L
991.102 177.062 L
991.968 176.155 L
992.834 175.247 L
993.7 174.34 L
994.566 174.329 L
995.432 173.504 L
996.298 172.678 L
997.164 171.853 L
998.03 171.027 L
998.896 170.202 L
999.762 169.376 L
1000.628 168.55 L
1001.494 167.725 L
1002.36 166.899 L
1003.226 166.074 L
1004.092 165.412 L
1004.958 164.675 L
1005.824 163.939 L
1006.69 163.202 L
1007.556 162.465 L
1008.422 161.728 L
1009.288 160.991 L
1010.154 160.254 L
1011.02 159.517 L
1011.886 158.78 L
1012.752 158.043 L
1013.618 157.306 L
1014.484 156.569 L
1015.35 156.495 L
1016.216 155.822 L
1017.082 155.148 L
1017.948 154.475 L
1018.814 153.801 L
1019.68 153.128 L
1020.546 152.454 L
1021.412 151.781 L
1022.278 151.107 L
1023.144 150.434 L
1024.01 149.76 L
1024.876 149.56 L
1025.742 148.781 L
1026.608 148.002 L
1027.474 147.223 L
1028.34 146.444 L
1029.206 145.664 L
1030.072 144.885 L
1030.938 144.106 L
1031.804 143.327 L
1032.67 142.548 L
1033.536 141.769 L
1034.402 140.99 L
1035.268 140.643 L
1036.134 139.5 L
1037 138.357 L
S
GR
GS
[0.75 0 0 0.75 0 0.5] CT
0.929 0.694 0.125 RC
1 LJ
2 LW
N
604 150.114 M
604.866 148.665 L
605.732 146.367 L
606.598 145.143 L
607.464 143.129 L
608.33 141.706 L
609.196 139.152 L
610.062 137.819 L
610.928 135.454 L
611.794 133.979 L
612.66 131.877 L
613.526 130.489 L
614.392 128.256 L
615.258 127.246 L
616.124 125.809 L
616.99 124.42 L
617.856 123.128 L
618.722 121.193 L
619.588 119.645 L
620.454 117.484 L
621.32 116.253 L
622.186 114.424 L
623.052 113.319 L
623.918 112.113 L
624.784 110.729 L
625.65 109.331 L
626.516 108.168 L
627.382 106.673 L
628.248 105.527 L
629.114 104.107 L
629.98 102.544 L
630.846 101.631 L
631.712 100.281 L
632.578 99.019 L
633.444 98.235 L
634.31 96.998 L
635.176 95.325 L
636.042 94.387 L
636.908 92.548 L
637.774 91.227 L
638.64 90.043 L
639.506 88.409 L
640.372 87.328 L
641.238 85.664 L
642.104 84.846 L
642.97 84.191 L
643.836 83.585 L
644.702 82.14 L
645.568 80.73 L
646.434 79.823 L
647.3 78.218 L
648.166 76.986 L
649.032 76.229 L
649.898 75.434 L
650.764 74.677 L
651.63 74.126 L
652.496 73.66 L
653.362 73.208 L
654.228 72.707 L
655.094 72.102 L
655.96 71.292 L
656.826 70.583 L
657.692 70.697 L
658.558 70.601 L
659.424 70.772 L
660.29 70.705 L
661.156 70.778 L
662.022 70.72 L
662.888 70.513 L
663.754 70.289 L
664.62 70.218 L
665.486 70.354 L
666.352 70.54 L
667.218 71.252 L
668.084 72.365 L
668.95 73.248 L
669.816 74.078 L
670.682 75.163 L
671.548 76.241 L
672.414 77.086 L
673.28 77.869 L
674.146 78.755 L
675.012 79.733 L
675.878 80.516 L
676.744 81.526 L
677.61 83.359 L
678.476 84.813 L
679.342 86.901 L
680.208 88.349 L
681.074 89.858 L
681.94 91.385 L
682.806 92.368 L
683.672 94.402 L
684.538 95.918 L
685.404 98.66 L
686.27 100.306 L
687.136 102.549 L
688.002 104.132 L
688.868 105.88 L
689.734 107.181 L
690.6 109.201 L
691.466 110.692 L
692.332 112.966 L
693.198 114.458 L
694.064 116.918 L
694.93 118.578 L
695.796 120.553 L
696.662 121.864 L
697.528 124.098 L
698.394 125.544 L
699.26 127.889 L
700.126 129.403 L
700.992 131.597 L
701.858 133.017 L
702.724 135.168 L
703.59 136.386 L
704.456 138.387 L
705.322 139.565 L
706.188 141.586 L
707.054 143.293 L
707.92 145.677 L
708.786 147.121 L
709.652 149.694 L
710.518 151.21 L
711.384 153.515 L
712.25 155.021 L
713.116 157.092 L
713.982 158.264 L
714.848 160.533 L
715.714 162.128 L
716.58 164.391 L
717.446 165.9 L
718.312 168.096 L
719.178 169.71 L
720.044 171.837 L
720.91 173.522 L
721.776 175.635 L
722.642 177.256 L
723.508 179.271 L
724.374 180.798 L
725.24 182.801 L
726.106 183.785 L
726.972 185.376 L
727.838 186.711 L
728.704 188.376 L
729.57 190.345 L
730.436 192.124 L
731.302 194.017 L
732.168 195.402 L
733.034 197.391 L
733.9 198.432 L
734.766 200.04 L
735.632 200.985 L
736.498 201.417 L
737.364 202.465 L
738.23 204.331 L
739.096 205.443 L
739.962 207.027 L
740.828 208.496 L
741.694 209.465 L
742.56 210.682 L
743.426 211.879 L
744.292 212.614 L
745.158 213.565 L
746.024 214.591 L
746.89 215.254 L
747.756 215.716 L
748.622 216.21 L
749.488 216.701 L
750.354 217.738 L
751.22 218.861 L
752.086 219.519 L
752.952 220.041 L
753.818 220.764 L
754.684 221.834 L
755.55 222.73 L
756.416 222.913 L
757.282 222.56 L
758.148 222.459 L
759.014 222.116 L
759.88 221.993 L
760.746 222.068 L
761.612 222.015 L
762.478 221.762 L
763.344 221.387 L
764.21 220.682 L
765.076 220.02 L
765.942 219.43 L
766.808 218.975 L
767.674 217.816 L
768.54 216.397 L
769.406 215.504 L
770.272 214.219 L
771.138 212.632 L
772.004 211.88 L
772.87 211.116 L
773.736 209.734 L
774.602 208.676 L
775.468 207.467 L
776.334 205.332 L
777.2 204.103 L
778.066 202.244 L
778.932 200.949 L
779.798 199.75 L
780.664 198.581 L
781.53 197.735 L
782.396 197.105 L
783.262 195.582 L
784.128 193.815 L
784.994 192.59 L
785.86 190.777 L
786.726 189.625 L
787.592 188.551 L
788.458 187.665 L
789.324 186.794 L
790.19 185.946 L
791.056 183.54 L
791.922 182.148 L
792.788 179.895 L
793.654 178.411 L
794.52 176.882 L
795.386 175.812 L
796.252 175.286 L
797.118 174.754 L
797.984 173.79 L
798.85 172.523 L
799.716 171.513 L
800.582 169.906 L
801.448 168.15 L
802.314 166.594 L
803.18 164.641 L
804.046 163.317 L
804.912 162.257 L
805.778 161.625 L
806.644 160.641 L
807.51 159.548 L
808.376 157.481 L
809.242 156.249 L
810.108 154.176 L
810.974 152.832 L
811.84 151.315 L
812.706 149.961 L
813.572 148.988 L
814.438 147.237 L
815.304 145.727 L
816.17 143.808 L
817.036 142.171 L
817.902 140.223 L
818.768 138.551 L
819.634 137.074 L
820.5 135.465 L
821.366 134.366 L
822.232 132.606 L
823.098 131.187 L
823.964 129.646 L
824.83 127.817 L
825.696 126.483 L
826.562 124.524 L
827.428 123.592 L
828.294 121.898 L
829.16 120.507 L
830.026 119.65 L
830.892 118.299 L
831.758 116.924 L
832.624 115.75 L
833.49 114.334 L
834.356 113.054 L
835.222 111.937 L
836.088 110.11 L
836.954 108.994 L
837.82 107.543 L
838.686 106.176 L
839.552 105.326 L
840.418 103.82 L
841.284 102.679 L
842.15 101.366 L
843.016 101.366 L
843.882 100.191 L
844.748 98.055 L
845.614 96.782 L
846.48 95.112 L
847.346 95.112 L
848.212 93.29 L
849.078 93.093 L
849.944 92.827 L
850.81 92.323 L
851.676 92.323 L
852.542 90.791 L
853.408 90.121 L
854.274 88.844 L
855.14 87.702 L
856.006 87.702 L
856.872 86.777 L
857.738 86.487 L
858.604 86.215 L
859.47 85.876 L
860.336 85.876 L
861.202 84.958 L
862.068 84.613 L
862.934 84.179 L
863.8 83.933 L
864.666 83.933 L
865.532 83.828 L
866.398 83.846 L
867.264 83.857 L
868.13 83.857 L
868.996 83.845 L
869.862 83.991 L
870.728 84.457 L
871.594 84.702 L
872.46 85.477 L
873.326 85.942 L
874.192 86.656 L
875.058 86.896 L
875.924 87.277 L
876.79 88.127 L
877.656 88.127 L
878.522 90.578 L
879.388 91.89 L
880.254 93.555 L
881.12 94.413 L
881.986 94.413 L
882.852 96.313 L
883.718 97.443 L
884.584 98.728 L
885.45 100.676 L
886.316 100.676 L
887.182 102.719 L
888.048 103.837 L
888.914 105.171 L
889.78 107.244 L
890.646 107.244 L
891.512 111.253 L
892.378 112.671 L
893.244 114.706 L
894.11 115.901 L
894.976 115.901 L
895.842 118.758 L
896.708 119.938 L
897.574 122.306 L
898.44 123.423 L
899.306 123.423 L
900.172 126.408 L
901.038 127.768 L
901.904 130.152 L
902.77 130.152 L
903.636 131.71 L
904.502 133.897 L
905.368 135.401 L
906.234 137.591 L
907.1 139.064 L
907.966 141.227 L
908.832 143.912 L
909.698 145.247 L
910.564 147.147 L
911.43 148.768 L
912.296 148.768 L
913.162 151.988 L
914.028 153.156 L
914.894 155.431 L
915.76 156.827 L
916.626 156.827 L
917.492 160.012 L
918.358 160.917 L
919.224 162.739 L
920.09 164.169 L
920.956 164.169 L
921.822 166.218 L
922.688 168.618 L
923.554 170.23 L
924.42 171.497 L
925.286 171.497 L
926.152 174.747 L
927.018 175.802 L
927.884 177.767 L
928.75 178.775 L
929.616 178.775 L
930.482 181.956 L
931.348 183.142 L
932.214 185.014 L
933.08 186.075 L
933.946 186.075 L
934.812 189.224 L
935.678 190.441 L
936.544 192.521 L
937.41 193.772 L
938.276 193.772 L
939.142 195.411 L
940.008 196.604 L
940.874 197.525 L
941.74 199.059 L
942.606 200.308 L
943.472 203.659 L
944.338 204.565 L
945.204 206.047 L
946.07 207.596 L
946.936 207.596 L
947.802 209.729 L
948.668 211.166 L
949.534 212.057 L
950.4 213.883 L
951.266 215.051 L
952.132 215.613 L
952.998 215.894 L
953.864 216.489 L
954.73 217.762 L
955.596 218.753 L
956.462 219.503 L
957.328 220.529 L
958.194 221.168 L
959.06 221.452 L
959.926 221.872 L
960.792 222.293 L
961.658 222.597 L
962.524 222.946 L
963.39 223.284 L
964.256 223.319 L
965.122 223.218 L
965.988 222.984 L
966.854 222.735 L
967.72 222.463 L
968.586 222.153 L
969.452 221.963 L
970.318 221.86 L
971.184 221.658 L
972.05 221.473 L
972.916 221.473 L
973.782 220.954 L
974.648 219.883 L
975.514 219.221 L
976.38 218.684 L
977.246 217.944 L
978.112 216.581 L
978.978 214.675 L
979.844 213.727 L
980.71 212.463 L
981.576 211.789 L
982.442 210.888 L
983.308 209.193 L
984.174 208.128 L
985.04 206.631 L
985.906 205.2 L
986.772 204.311 L
987.638 202.708 L
988.504 200.884 L
989.37 198.998 L
990.236 197.58 L
991.102 196.364 L
991.968 194.978 L
992.834 193.773 L
993.7 192.695 L
994.566 190.646 L
995.432 189.427 L
996.298 187.425 L
997.164 186.385 L
998.03 185.795 L
998.896 184.521 L
999.762 182.851 L
1000.628 181.199 L
1001.494 179.149 L
1002.36 177.71 L
1003.226 175.812 L
1004.092 174.469 L
1004.958 172.82 L
1005.824 171.337 L
1006.69 169.931 L
1007.556 168.029 L
1008.422 168.029 L
1009.288 166.443 L
1010.154 164.276 L
1011.02 162.433 L
1011.886 160.326 L
1012.752 158.346 L
1013.618 153.933 L
1014.484 152.561 L
1015.35 150.205 L
1016.216 148.769 L
1017.082 146.65 L
1017.948 145.475 L
1018.814 143.992 L
1019.68 142.061 L
1020.546 139.672 L
1021.412 137.952 L
1022.278 135.789 L
1023.144 134.419 L
1024.01 132.295 L
1024.876 131.017 L
1025.742 129.187 L
1026.608 127.6 L
1027.474 126.405 L
1028.34 124.951 L
1029.206 123.871 L
1030.072 122.356 L
1030.938 120.636 L
1031.804 119.116 L
1032.67 117.121 L
1033.536 115.971 L
1034.402 114.037 L
1035.268 112.987 L
1036.134 111.871 L
1037 110.009 L
S
GR
GS
[0.75 0 0 0.75 0 0.5] CT
0 1 0 RC
[8 8] 0 setdash
2 LJ
2 LW
N
604 146.895 M
604.866 145.313 L
605.732 143.73 L
606.598 142.148 L
607.464 140.565 L
608.33 138.982 L
609.196 137.4 L
610.062 135.817 L
610.928 134.234 L
611.794 132.652 L
612.66 132.181 L
613.526 130.647 L
614.392 129.114 L
615.258 127.58 L
616.124 126.047 L
616.99 124.514 L
617.856 122.98 L
618.722 121.447 L
619.588 119.913 L
620.454 118.38 L
621.32 116.846 L
622.186 115.313 L
623.052 114.63 L
623.918 113.344 L
624.784 112.059 L
625.65 110.774 L
626.516 109.488 L
627.382 108.203 L
628.248 106.917 L
629.114 105.632 L
629.98 104.601 L
630.846 103.363 L
631.712 102.126 L
632.578 100.889 L
633.444 99.652 L
634.31 98.415 L
635.176 97.178 L
636.042 95.941 L
636.908 94.704 L
637.774 93.467 L
638.64 93.318 L
639.506 92.398 L
640.372 91.479 L
641.238 90.559 L
642.104 89.639 L
642.97 88.72 L
643.836 87.8 L
644.702 86.881 L
645.568 85.961 L
646.434 85.796 L
647.3 85.49 L
648.166 85.184 L
649.032 84.878 L
649.898 84.572 L
650.764 84.266 L
651.63 83.96 L
652.496 83.654 L
653.362 83.348 L
654.228 83.289 L
655.094 83.289 L
655.96 83.289 L
656.826 83.289 L
657.692 83.289 L
658.558 83.289 L
659.424 83.289 L
660.29 83.289 L
661.156 83.289 L
662.022 83.289 L
662.888 83.289 L
663.754 84.109 L
664.62 84.928 L
665.486 85.748 L
666.352 86.568 L
667.218 87.388 L
668.084 88.208 L
668.95 89.028 L
669.816 89.848 L
670.682 90.668 L
671.548 90.81 L
672.414 92.017 L
673.28 93.223 L
674.146 94.43 L
675.012 95.636 L
675.878 96.843 L
676.744 98.049 L
677.61 99.256 L
678.476 99.586 L
679.342 101.108 L
680.208 102.629 L
681.074 104.151 L
681.94 105.673 L
682.806 107.195 L
683.672 108.716 L
684.538 110.238 L
685.404 110.869 L
686.27 112.509 L
687.136 114.149 L
688.002 115.789 L
688.868 117.429 L
689.734 119.069 L
690.6 120.709 L
691.466 122.349 L
692.332 123.405 L
693.198 125.111 L
694.064 126.816 L
694.93 128.521 L
695.796 130.226 L
696.662 131.932 L
697.528 133.637 L
698.394 135.342 L
699.26 137.047 L
700.126 138.449 L
700.992 140.161 L
701.858 141.872 L
702.724 143.584 L
703.59 145.296 L
704.456 147.007 L
705.322 148.719 L
706.188 150.431 L
707.054 152.142 L
707.92 153.854 L
708.786 155.566 L
709.652 157.277 L
710.518 158.507 L
711.384 160.201 L
712.25 161.895 L
713.116 163.59 L
713.982 165.284 L
714.848 166.978 L
715.714 168.672 L
716.58 170.366 L
717.446 172.06 L
718.312 173.754 L
719.178 175.448 L
720.044 177.142 L
720.91 178.836 L
721.776 180.53 L
722.642 181.073 L
723.508 182.635 L
724.374 184.197 L
725.24 185.759 L
726.106 187.321 L
726.972 188.883 L
727.838 190.445 L
728.704 192.007 L
729.57 193.569 L
730.436 195.131 L
731.302 196.117 L
732.168 197.245 L
733.034 198.374 L
733.9 199.503 L
734.766 200.632 L
735.632 201.761 L
736.498 202.89 L
737.364 204.019 L
738.23 205.148 L
739.096 206.276 L
739.962 207.405 L
740.828 208.534 L
741.694 209.663 L
742.56 209.907 L
743.426 210.826 L
744.292 211.746 L
745.158 212.665 L
746.024 213.585 L
746.89 214.505 L
747.756 215.424 L
748.622 216.344 L
749.488 217.263 L
750.354 218.183 L
751.22 219.103 L
752.086 219.936 L
752.952 219.936 L
753.818 219.936 L
754.684 219.936 L
755.55 219.936 L
756.416 219.936 L
757.282 219.936 L
758.148 219.936 L
759.014 219.936 L
759.88 219.936 L
760.746 219.061 L
761.612 218.187 L
762.478 217.312 L
763.344 216.438 L
764.21 215.563 L
765.076 214.689 L
765.942 213.814 L
766.808 212.94 L
767.674 212.065 L
768.54 211.19 L
769.406 211.16 L
770.272 209.923 L
771.138 208.686 L
772.004 207.449 L
772.87 206.212 L
773.736 204.975 L
774.602 203.738 L
775.468 202.501 L
776.334 201.264 L
777.2 200.026 L
778.066 199.878 L
778.932 198.671 L
779.798 197.465 L
780.664 196.258 L
781.53 195.052 L
782.396 193.845 L
783.262 192.639 L
784.128 191.432 L
784.994 191.102 L
785.86 189.58 L
786.726 188.059 L
787.592 186.537 L
788.458 185.015 L
789.324 183.494 L
790.19 181.972 L
791.056 180.45 L
791.922 178.928 L
792.788 177.407 L
793.654 176.058 L
794.52 174.651 L
795.386 173.243 L
796.252 171.836 L
797.118 170.429 L
797.984 169.021 L
798.85 167.614 L
799.716 166.206 L
800.582 164.799 L
801.448 164.776 L
802.314 163.254 L
803.18 161.732 L
804.046 160.21 L
804.912 158.689 L
805.778 157.167 L
806.644 155.645 L
807.51 154.124 L
808.376 152.602 L
809.242 151.08 L
810.108 149.732 L
810.974 148.234 L
811.84 146.736 L
812.706 145.238 L
813.572 143.741 L
814.438 142.243 L
815.304 140.745 L
816.17 139.247 L
817.036 137.749 L
817.902 136.251 L
818.768 134.754 L
819.634 133.256 L
820.5 132.181 L
821.366 130.831 L
822.232 129.482 L
823.098 128.132 L
823.964 126.783 L
824.83 125.434 L
825.696 124.084 L
826.562 122.735 L
827.428 121.385 L
828.294 120.036 L
829.16 118.686 L
830.026 118.391 L
830.892 116.829 L
831.758 115.267 L
832.624 113.705 L
833.49 112.143 L
834.356 110.581 L
835.222 109.019 L
836.088 107.457 L
836.954 105.895 L
837.82 104.333 L
838.686 103.347 L
839.552 102.268 L
840.418 101.19 L
841.284 100.111 L
842.15 99.032 L
843.016 97.953 L
843.882 96.875 L
844.748 95.796 L
845.614 94.717 L
846.48 94.571 L
847.346 93.769 L
848.212 92.967 L
849.078 92.165 L
849.944 91.363 L
850.81 90.561 L
851.676 89.759 L
852.542 88.956 L
853.408 88.303 L
854.274 87.584 L
855.14 86.865 L
856.006 86.146 L
856.872 85.427 L
857.738 84.709 L
858.604 83.99 L
859.47 83.289 L
860.336 83.289 L
861.202 83.289 L
862.068 83.289 L
862.934 83.289 L
863.8 83.289 L
864.666 83.289 L
865.532 83.289 L
866.398 83.289 L
867.264 83.289 L
868.13 83.997 L
868.996 84.705 L
869.862 85.414 L
870.728 86.122 L
871.594 86.83 L
872.46 87.538 L
873.326 88.247 L
874.192 88.955 L
875.058 89.557 L
875.924 90.805 L
876.79 92.053 L
877.656 93.301 L
878.522 94.549 L
879.388 95.797 L
880.254 97.045 L
881.12 98.293 L
881.986 99.541 L
882.852 100.789 L
883.718 102.037 L
884.584 102.093 L
885.45 103.647 L
886.316 105.202 L
887.182 106.756 L
888.048 108.31 L
888.914 109.864 L
889.78 111.418 L
890.646 112.972 L
891.512 114.526 L
892.378 116.08 L
893.244 117.635 L
894.11 119.189 L
894.976 120.743 L
895.842 120.898 L
896.708 122.576 L
897.574 124.253 L
898.44 125.931 L
899.306 127.609 L
900.172 129.287 L
901.038 130.965 L
901.904 132.642 L
902.77 134.32 L
903.636 135.998 L
904.502 137.676 L
905.368 138.449 L
906.234 140.166 L
907.1 141.884 L
907.966 143.601 L
908.832 145.318 L
909.698 147.035 L
910.564 148.753 L
911.43 150.47 L
912.296 152.187 L
913.162 153.904 L
914.028 155.622 L
914.894 156 L
915.76 157.712 L
916.626 159.423 L
917.492 161.135 L
918.358 162.847 L
919.224 164.558 L
920.09 166.27 L
920.956 167.982 L
921.822 169.693 L
922.688 171.405 L
923.554 173.117 L
924.42 174.828 L
925.286 176.058 L
926.152 177.704 L
927.018 179.35 L
927.884 180.995 L
928.75 182.641 L
929.616 184.287 L
930.482 185.932 L
931.348 187.578 L
932.214 189.224 L
933.08 190.869 L
933.946 192.356 L
934.812 193.641 L
935.678 194.926 L
936.544 196.212 L
937.41 197.497 L
938.276 198.783 L
939.142 200.068 L
940.008 201.354 L
940.874 202.385 L
941.74 203.734 L
942.606 205.084 L
943.472 206.433 L
944.338 207.783 L
945.204 209.132 L
946.07 210.481 L
946.936 211.831 L
947.802 213.18 L
948.668 213.668 L
949.534 214.186 L
950.4 214.705 L
951.266 215.224 L
952.132 215.743 L
952.998 216.261 L
953.864 216.78 L
954.73 217.299 L
955.596 217.429 L
956.462 217.429 L
957.328 217.429 L
958.194 217.429 L
959.06 217.429 L
959.926 217.429 L
960.792 217.429 L
961.658 217.429 L
962.524 217.429 L
963.39 217.429 L
964.256 217.429 L
965.122 217.032 L
965.988 216.634 L
966.854 216.237 L
967.72 215.84 L
968.586 215.443 L
969.452 215.046 L
970.318 214.649 L
971.184 214.252 L
972.05 213.855 L
972.916 213.668 L
973.782 212.559 L
974.648 211.45 L
975.514 210.341 L
976.38 209.232 L
977.246 208.123 L
978.112 207.014 L
978.978 205.905 L
979.844 204.796 L
980.71 203.687 L
981.576 202.577 L
982.442 201.468 L
983.308 201.131 L
984.174 199.67 L
985.04 198.209 L
985.906 196.748 L
986.772 195.286 L
987.638 193.825 L
988.504 192.364 L
989.37 190.903 L
990.236 189.442 L
991.102 187.98 L
991.968 186.519 L
992.834 185.058 L
993.7 183.597 L
994.566 183.58 L
995.432 182.071 L
996.298 180.562 L
997.164 179.053 L
998.03 177.545 L
998.896 176.036 L
999.762 174.527 L
1000.628 173.018 L
1001.494 171.509 L
1002.36 170 L
1003.226 168.491 L
1004.092 167.283 L
1004.958 165.729 L
1005.824 164.175 L
1006.69 162.62 L
1007.556 161.066 L
1008.422 159.512 L
1009.288 157.958 L
1010.154 156.404 L
1011.02 154.85 L
1011.886 153.296 L
1012.752 151.742 L
1013.618 150.187 L
1014.484 148.633 L
1015.35 148.478 L
1016.216 146.895 L
1017.082 145.313 L
1017.948 143.73 L
1018.814 142.148 L
1019.68 140.565 L
1020.546 138.982 L
1021.412 137.4 L
1022.278 135.817 L
1023.144 134.234 L
1024.01 132.652 L
1024.876 132.181 L
1025.742 130.647 L
1026.608 129.114 L
1027.474 127.58 L
1028.34 126.047 L
1029.206 124.514 L
1030.072 122.98 L
1030.938 121.447 L
1031.804 119.913 L
1032.67 118.38 L
1033.536 116.846 L
1034.402 115.313 L
1035.268 114.63 L
1036.134 113.344 L
1037 112.059 L
S
GR
GS
[0.75 0 0 0.75 0 0.5] CT
1 GC
N
808 276 M
808 230 L
617 230 L
617 276 L
cp
f
GR
GS
[0.75 0 0 0.75 498 182.27419] CT
/Helvetica 16 F
GS
[1 0 0 1 0 0] CT
0 6.5 moveto 
1 -1 scale
(x) t 
GR
GR
GS
[0.75 0 0 0.75 0 0.5] CT
0 0.447 0.741 RC
1 LJ
2 LW
N
621 242.366 M
661 242.366 L
S
GR
GS
[0.75 0 0 0.75 542.25 182.27419] CT
/Helvetica 16 F
GS
[1 0 0 1 0 0] CT
0 6.5 moveto 
1 -1 scale
(x-reference) t 
GR
GR
GS
[0.75 0 0 0.75 0 0.5] CT
0.851 0.325 0.098 RC
[8 2 4 2] 0 setdash
2 LJ
2 LW
N
680 242.366 M
720 242.366 L
S
GR
GS
[0.75 0 0 0.75 498 198.2258] CT
/Helvetica 16 F
GS
[1 0 0 1 0 0] CT
0 6.5 moveto 
1 -1 scale
(y) t 
GR
GR
GS
[0.75 0 0 0.75 0 0.5] CT
0.929 0.694 0.125 RC
1 LJ
2 LW
N
621 263.634 M
661 263.634 L
S
GR
GS
[0.75 0 0 0.75 542.25 198.2258] CT
/Helvetica 16 F
GS
[1 0 0 1 0 0] CT
0 6.5 moveto 
1 -1 scale
(y-reference) t 
GR
GR
GS
[0.75 0 0 0.75 0 0.5] CT
0 1 0 RC
[8 8] 0 setdash
2 LJ
2 LW
N
680 263.634 M
720 263.634 L
S
GR
GS
[0.75 0 0 0.75 0 0.5] CT
0.149 GC
10.0 ML
0.667 LW
N
617 276 M
617 230 L
808 230 L
808 276 L
cp
S
GR
GS
[0.75 0 0 0.75 0 0.5] CT
1 GC
N
149 285 M
491 285 L
491 27 L
149 27 L
cp
f
GR
GS
[0.75 0 0 0.75 0 0.5] CT
0.873 GC
1 LJ
0.667 LW
N
149 285 M
149 27 L
S
GR
GS
[0.75 0 0 0.75 0 0.5] CT
0.873 GC
1 LJ
0.667 LW
N
206 285 M
206 27 L
S
GR
GS
[0.75 0 0 0.75 0 0.5] CT
0.873 GC
1 LJ
0.667 LW
N
263 285 M
263 27 L
S
GR
GS
[0.75 0 0 0.75 0 0.5] CT
0.873 GC
1 LJ
0.667 LW
N
320 285 M
320 27 L
S
GR
GS
[0.75 0 0 0.75 0 0.5] CT
0.873 GC
1 LJ
0.667 LW
N
377 285 M
377 27 L
S
GR
GS
[0.75 0 0 0.75 0 0.5] CT
0.873 GC
1 LJ
0.667 LW
N
434 285 M
434 27 L
S
GR
GS
[0.75 0 0 0.75 0 0.5] CT
0.873 GC
1 LJ
0.667 LW
N
491 285 M
491 27 L
S
GR
GS
[0.75 0 0 0.75 0 0.5] CT
0.873 GC
1 LJ
0.667 LW
N
491 285 M
149 285 L
S
GR
GS
[0.75 0 0 0.75 0 0.5] CT
0.873 GC
1 LJ
0.667 LW
N
491 220.5 M
149 220.5 L
S
GR
GS
[0.75 0 0 0.75 0 0.5] CT
0.873 GC
1 LJ
0.667 LW
N
491 156 M
149 156 L
S
GR
GS
[0.75 0 0 0.75 0 0.5] CT
0.873 GC
1 LJ
0.667 LW
N
491 91.5 M
149 91.5 L
S
GR
GS
[0.75 0 0 0.75 0 0.5] CT
0.873 GC
1 LJ
0.667 LW
N
491 27 M
149 27 L
S
GR
GS
[0.75 0 0 0.75 0 0.5] CT
0.149 GC
2 setlinecap
1 LJ
0.667 LW
N
149 285 M
491 285 L
S
GR
GS
[0.75 0 0 0.75 0 0.5] CT
0.149 GC
2 setlinecap
1 LJ
0.667 LW
N
149 27 M
491 27 L
S
GR
GS
[0.75 0 0 0.75 0 0.5] CT
0.149 GC
2 setlinecap
1 LJ
0.667 LW
N
149 285 M
149 281.58 L
S
GR
GS
[0.75 0 0 0.75 0 0.5] CT
0.149 GC
2 setlinecap
1 LJ
0.667 LW
N
206 285 M
206 281.58 L
S
GR
GS
[0.75 0 0 0.75 0 0.5] CT
0.149 GC
2 setlinecap
1 LJ
0.667 LW
N
263 285 M
263 281.58 L
S
GR
GS
[0.75 0 0 0.75 0 0.5] CT
0.149 GC
2 setlinecap
1 LJ
0.667 LW
N
320 285 M
320 281.58 L
S
GR
GS
[0.75 0 0 0.75 0 0.5] CT
0.149 GC
2 setlinecap
1 LJ
0.667 LW
N
377 285 M
377 281.58 L
S
GR
GS
[0.75 0 0 0.75 0 0.5] CT
0.149 GC
2 setlinecap
1 LJ
0.667 LW
N
434 285 M
434 281.58 L
S
GR
GS
[0.75 0 0 0.75 0 0.5] CT
0.149 GC
2 setlinecap
1 LJ
0.667 LW
N
491 285 M
491 281.58 L
S
GR
GS
[0.75 0 0 0.75 0 0.5] CT
0.149 GC
2 setlinecap
1 LJ
0.667 LW
N
149 27 M
149 30.42 L
S
GR
GS
[0.75 0 0 0.75 0 0.5] CT
0.149 GC
2 setlinecap
1 LJ
0.667 LW
N
206 27 M
206 30.42 L
S
GR
GS
[0.75 0 0 0.75 0 0.5] CT
0.149 GC
2 setlinecap
1 LJ
0.667 LW
N
263 27 M
263 30.42 L
S
GR
GS
[0.75 0 0 0.75 0 0.5] CT
0.149 GC
2 setlinecap
1 LJ
0.667 LW
N
320 27 M
320 30.42 L
S
GR
GS
[0.75 0 0 0.75 0 0.5] CT
0.149 GC
2 setlinecap
1 LJ
0.667 LW
N
377 27 M
377 30.42 L
S
GR
GS
[0.75 0 0 0.75 0 0.5] CT
0.149 GC
2 setlinecap
1 LJ
0.667 LW
N
434 27 M
434 30.42 L
S
GR
GS
[0.75 0 0 0.75 0 0.5] CT
0.149 GC
2 setlinecap
1 LJ
0.667 LW
N
491 27 M
491 30.42 L
S
GR
GS
[0.75 0 0 0.75 111.75 218.65] CT
0.149 GC
/Helvetica 16 F
GS
[1 0 0 1 0 0] CT
-12 17 moveto 
1 -1 scale
(-15) t 
GR
GR
GS
[0.75 0 0 0.75 154.5 218.65] CT
0.149 GC
/Helvetica 16 F
GS
[1 0 0 1 0 0] CT
-12 17 moveto 
1 -1 scale
(-10) t 
GR
GR
GS
[0.75 0 0 0.75 197.25 218.65] CT
0.149 GC
/Helvetica 16 F
GS
[1 0 0 1 0 0] CT
-7.5 17 moveto 
1 -1 scale
(-5) t 
GR
GR
GS
[0.75 0 0 0.75 240 218.65] CT
0.149 GC
/Helvetica 16 F
GS
[1 0 0 1 0 0] CT
-4.5 17 moveto 
1 -1 scale
(0) t 
GR
GR
GS
[0.75 0 0 0.75 282.75 218.65] CT
0.149 GC
/Helvetica 16 F
GS
[1 0 0 1 0 0] CT
-4.5 17 moveto 
1 -1 scale
(5) t 
GR
GR
GS
[0.75 0 0 0.75 325.5 218.65] CT
0.149 GC
/Helvetica 16 F
GS
[1 0 0 1 0 0] CT
-9 17 moveto 
1 -1 scale
(10) t 
GR
GR
GS
[0.75 0 0 0.75 368.25 218.65] CT
0.149 GC
/Helvetica 16 F
GS
[1 0 0 1 0 0] CT
-9 17 moveto 
1 -1 scale
(15) t 
GR
GR
GS
[0.75 0 0 0.75 240.00011 235.40001] CT
0.149 GC
/Helvetica 17.6 F
GS
[1 0 0 1 0 0] CT
-26.5 18 moveto 
1 -1 scale
(x [mm]) t 
GR
GR
GS
[0.75 0 0 0.75 0 0.5] CT
0.149 GC
2 setlinecap
1 LJ
0.667 LW
N
149 285 M
149 27 L
S
GR
GS
[0.75 0 0 0.75 0 0.5] CT
0.149 GC
2 setlinecap
1 LJ
0.667 LW
N
491 285 M
491 27 L
S
GR
GS
[0.75 0 0 0.75 0 0.5] CT
0.149 GC
2 setlinecap
1 LJ
0.667 LW
N
149 285 M
152.42 285 L
S
GR
GS
[0.75 0 0 0.75 0 0.5] CT
0.149 GC
2 setlinecap
1 LJ
0.667 LW
N
149 220.5 M
152.42 220.5 L
S
GR
GS
[0.75 0 0 0.75 0 0.5] CT
0.149 GC
2 setlinecap
1 LJ
0.667 LW
N
149 156 M
152.42 156 L
S
GR
GS
[0.75 0 0 0.75 0 0.5] CT
0.149 GC
2 setlinecap
1 LJ
0.667 LW
N
149 91.5 M
152.42 91.5 L
S
GR
GS
[0.75 0 0 0.75 0 0.5] CT
0.149 GC
2 setlinecap
1 LJ
0.667 LW
N
149 27 M
152.42 27 L
S
GR
GS
[0.75 0 0 0.75 0 0.5] CT
0.149 GC
2 setlinecap
1 LJ
0.667 LW
N
491 285 M
487.58 285 L
S
GR
GS
[0.75 0 0 0.75 0 0.5] CT
0.149 GC
2 setlinecap
1 LJ
0.667 LW
N
491 220.5 M
487.58 220.5 L
S
GR
GS
[0.75 0 0 0.75 0 0.5] CT
0.149 GC
2 setlinecap
1 LJ
0.667 LW
N
491 156 M
487.58 156 L
S
GR
GS
[0.75 0 0 0.75 0 0.5] CT
0.149 GC
2 setlinecap
1 LJ
0.667 LW
N
491 91.5 M
487.58 91.5 L
S
GR
GS
[0.75 0 0 0.75 0 0.5] CT
0.149 GC
2 setlinecap
1 LJ
0.667 LW
N
491 27 M
487.58 27 L
S
GR
GS
[0.75 0 0 0.75 107.35 214.25] CT
0.149 GC
/Helvetica 16 F
GS
[1 0 0 1 0 0] CT
-24 6.5 moveto 
1 -1 scale
(-10) t 
GR
GR
GS
[0.75 0 0 0.75 107.35 165.875] CT
0.149 GC
/Helvetica 16 F
GS
[1 0 0 1 0 0] CT
-15 6.5 moveto 
1 -1 scale
(-5) t 
GR
GR
GS
[0.75 0 0 0.75 107.35 117.5] CT
0.149 GC
/Helvetica 16 F
GS
[1 0 0 1 0 0] CT
-9 6.5 moveto 
1 -1 scale
(0) t 
GR
GR
GS
[0.75 0 0 0.75 107.35 69.125] CT
0.149 GC
/Helvetica 16 F
GS
[1 0 0 1 0 0] CT
-9 6.5 moveto 
1 -1 scale
(5) t 
GR
GR
GS
[0.75 0 0 0.75 107.35 20.75] CT
0.149 GC
/Helvetica 16 F
GS
[1 0 0 1 0 0] CT
-18 6.5 moveto 
1 -1 scale
(10) t 
GR
GR
GS
[0 -0.75 0.75 0 86.35 117.49991] CT
0.149 GC
/Helvetica 17.6 F
GS
[1 0 0 1 0 0] CT
-26.5 -4 moveto 
1 -1 scale
(y [mm]) t 
GR
GR
GS
[0.75 0 0 0.75 0 0.5] CT
0 0.447 0.741 RC
1 LJ
2 LW
N
310.774 147.171 M
311.52 144.997 L
312.351 141.55 L
313.258 139.715 L
314.433 136.694 L
315.457 134.559 L
315.991 130.729 L
316.725 128.729 L
317.413 125.181 L
318.266 122.968 L
319.284 119.815 L
319.846 117.733 L
320.617 114.384 L
321.075 112.869 L
321.498 110.714 L
322.163 108.631 L
323.016 106.692 L
323.765 103.789 L
324.447 101.468 L
325.199 98.226 L
325.645 96.38 L
326.165 93.636 L
326.719 91.978 L
327.839 90.17 L
328.995 88.093 L
329.97 85.996 L
330.409 84.252 L
331.277 82.009 L
332.537 80.29 L
333.986 78.16 L
335.248 75.816 L
336.014 74.447 L
337.548 72.421 L
338.968 70.529 L
340.074 69.353 L
341.033 67.497 L
342.526 64.987 L
344.318 63.581 L
345.601 60.822 L
347.497 58.841 L
349.639 57.065 L
350.992 54.613 L
353.212 52.991 L
354.694 50.496 L
355.718 49.269 L
357.628 48.287 L
359.474 47.378 L
361.947 45.21 L
364.366 43.096 L
366.871 41.735 L
369.245 39.328 L
371.223 37.479 L
373.615 36.343 L
374.593 35.152 L
376.13 34.016 L
378.617 33.189 L
381.161 32.491 L
383.86 31.812 L
387.223 31.061 L
389.312 30.152 L
392.568 28.937 L
394.024 27.875 L
396.141 28.045 L
397.657 27.902 L
399.528 28.158 L
402.496 28.058 L
405.634 28.168 L
408.235 28.081 L
411.73 27.769 L
414.277 27.433 L
417.091 27.327 L
418.859 27.531 L
421.364 27.811 L
422.757 28.879 L
425.462 30.548 L
427.453 31.872 L
431.129 33.116 L
434.07 34.744 L
436.72 36.362 L
439.489 37.629 L
441.146 38.803 L
442.787 40.133 L
443.955 41.6 L
445.466 42.774 L
446.844 44.288 L
449.978 47.039 L
452.173 49.219 L
455.078 52.351 L
456.946 54.524 L
459.072 56.787 L
459.948 59.078 L
460.009 60.552 L
460.215 63.604 L
460.789 65.878 L
462.425 69.99 L
464.21 72.459 L
465.354 75.823 L
466.492 78.198 L
466.957 80.819 L
467.272 82.771 L
467.221 85.801 L
467.796 88.038 L
468.788 91.448 L
469.847 93.688 L
470.708 97.377 L
471.855 99.868 L
472.29 102.83 L
472.119 104.796 L
471.093 108.147 L
470.369 110.315 L
470.006 113.833 L
470.017 116.105 L
470.489 119.395 L
471.328 121.526 L
472.28 124.752 L
473.141 126.579 L
473.015 129.58 L
472.51 131.347 L
471.535 134.379 L
470.858 136.939 L
470.604 140.515 L
470.242 142.682 L
470.161 146.542 L
470.171 148.815 L
470.024 152.272 L
469.835 154.532 L
469.607 157.637 L
468.875 159.397 L
467.929 162.799 L
466.688 165.192 L
465.916 168.586 L
465.259 170.85 L
464.856 174.144 L
464.247 176.566 L
463.644 179.755 L
462.795 182.283 L
461.4 185.453 L
460.893 187.884 L
460.195 190.907 L
458.893 193.197 L
457.776 196.202 L
456.563 197.678 L
455.838 200.063 L
454.714 202.066 L
452.721 204.564 L
451.325 207.517 L
450.254 210.185 L
448.495 213.025 L
446.691 215.103 L
446.03 218.087 L
445.213 219.648 L
444.43 222.059 L
442.732 223.477 L
441.256 224.126 L
438.804 225.698 L
436.402 228.497 L
434.56 230.164 L
432.259 232.541 L
430.878 234.743 L
428.696 236.197 L
427.501 238.023 L
426.371 239.818 L
424.621 240.922 L
422.784 242.348 L
422.066 243.887 L
420.902 244.88 L
418.234 245.574 L
416.932 246.314 L
414.673 247.052 L
412.499 248.607 L
410.404 250.292 L
408.101 251.279 L
407.198 252.062 L
405.882 253.147 L
404.121 254.75 L
403.003 256.095 L
402.07 256.37 L
399.866 255.84 L
398.053 255.688 L
396.582 255.174 L
394.5 254.989 L
393.07 255.102 L
391.456 255.023 L
389.138 254.643 L
388.352 254.081 L
387.86 253.024 L
386.178 252.03 L
384.176 251.144 L
382.967 250.463 L
381.048 248.724 L
378.939 246.595 L
377.613 245.256 L
375.325 243.328 L
373.974 240.948 L
372.992 239.82 L
372.031 238.674 L
371.674 236.601 L
370.304 235.014 L
369.469 233.201 L
368.609 229.998 L
367.161 228.155 L
365.269 225.366 L
364.02 223.424 L
362.667 221.625 L
361.496 219.871 L
361.302 218.603 L
360.951 217.657 L
360.267 215.374 L
359.359 212.723 L
358.22 210.884 L
357.069 208.166 L
355.502 206.438 L
355.045 204.827 L
354.748 203.497 L
354.627 202.191 L
354.408 200.919 L
353.788 197.309 L
353.599 195.223 L
352.776 191.843 L
351.763 189.616 L
351.004 187.323 L
350.126 185.718 L
349.691 184.928 L
349.296 184.131 L
348.61 182.684 L
348.203 180.785 L
347.632 179.269 L
346.601 176.859 L
345.462 174.224 L
344.989 171.891 L
344.342 168.961 L
343.521 166.976 L
343.024 165.386 L
342.553 164.437 L
340.967 162.961 L
340.324 161.323 L
339.606 158.222 L
338.583 156.374 L
337.232 153.264 L
336.336 151.249 L
335.638 148.972 L
334.877 146.941 L
333.818 145.482 L
332.189 142.856 L
330.786 140.591 L
329.615 137.712 L
327.989 135.256 L
326.635 132.334 L
325.485 129.827 L
324.775 127.611 L
323.687 125.198 L
322.143 123.55 L
320.818 120.908 L
319.938 118.781 L
317.763 116.47 L
316.024 113.725 L
314.412 111.724 L
312.261 108.786 L
310.849 107.388 L
309.091 104.847 L
307.059 102.761 L
305.912 101.475 L
304.041 99.449 L
302.197 97.385 L
300.458 95.625 L
298.64 93.501 L
297.388 91.581 L
296.43 89.906 L
294.599 87.164 L
292.483 85.491 L
291.42 83.315 L
289.384 81.263 L
287.428 79.989 L
286.107 77.731 L
284.631 76.019 L
282.211 74.049 L
282.211 74.049 L
280.107 72.287 L
276.087 69.083 L
273.971 67.173 L
272.662 64.667 L
272.662 64.667 L
269.536 61.935 L
268.406 61.639 L
267.411 61.24 L
265.199 60.484 L
265.199 60.484 L
260.482 58.187 L
258.331 57.182 L
256.031 55.266 L
253.697 53.553 L
253.697 53.553 L
250.611 52.165 L
248.861 51.731 L
247.014 51.322 L
244.429 50.814 L
244.429 50.814 L
240.168 49.437 L
238.612 48.919 L
236.256 48.268 L
234.25 47.899 L
234.25 47.899 L
229.606 47.742 L
227.598 47.769 L
224.864 47.786 L
224.864 47.786 L
222.518 47.768 L
220.083 47.987 L
218.529 48.685 L
216.91 49.053 L
214.946 50.216 L
212.651 50.913 L
207.834 51.984 L
205.256 52.344 L
202.418 52.915 L
200.408 54.191 L
200.408 54.191 L
197.026 57.866 L
196.161 59.835 L
194.786 62.332 L
192.525 63.619 L
192.525 63.619 L
188.93 66.47 L
186.876 68.165 L
185.55 70.091 L
183.674 73.014 L
183.674 73.014 L
181.556 76.078 L
181.127 77.756 L
180.737 79.756 L
179.521 82.866 L
179.521 82.866 L
176.953 88.88 L
176.261 91.007 L
175.417 94.058 L
174.652 95.851 L
174.652 95.851 L
173.483 100.138 L
173.078 101.907 L
172.29 105.459 L
171.925 107.135 L
171.925 107.135 L
171.955 111.612 L
172.037 113.652 L
171.874 117.229 L
171.874 117.229 L
171.965 119.565 L
171.797 122.845 L
171.821 125.101 L
171.577 128.386 L
171.581 130.596 L
171.528 133.84 L
171.953 137.868 L
172.268 139.87 L
173.579 142.72 L
174.752 145.152 L
174.752 145.152 L
175.99 149.982 L
176.079 151.734 L
176.129 155.146 L
176.231 157.241 L
176.231 157.241 L
176.835 162.019 L
177.507 163.375 L
178.765 166.109 L
180.185 168.254 L
180.185 168.254 L
181.026 171.327 L
182.406 174.927 L
182.879 177.345 L
183.219 179.246 L
183.219 179.246 L
184.095 184.12 L
184.379 185.702 L
185.194 188.65 L
185.566 190.163 L
185.566 190.163 L
186.897 194.934 L
188.07 196.712 L
189.17 199.522 L
190.046 201.112 L
190.046 201.112 L
191.471 205.836 L
191.909 207.661 L
192.381 210.782 L
193.244 212.658 L
193.244 212.658 L
194.18 215.116 L
195.358 216.907 L
196.82 218.288 L
198.553 220.588 L
199.801 222.462 L
201.372 227.488 L
202.74 228.848 L
203.797 231.07 L
204.784 233.394 L
204.784 233.394 L
207.589 236.593 L
208.924 238.749 L
209.746 240.086 L
210.985 242.824 L
212.419 244.577 L
213.648 245.42 L
215.277 245.841 L
218.321 246.734 L
219.856 248.643 L
221.903 250.129 L
223.508 251.255 L
224.832 252.794 L
225.892 253.753 L
227.085 254.178 L
228.791 254.809 L
230.755 255.44 L
233.497 255.896 L
235.488 256.419 L
237.934 256.926 L
239.689 256.979 L
241.923 256.827 L
243.523 256.475 L
245.358 256.102 L
247.634 255.695 L
248.924 255.23 L
251.416 254.944 L
253.164 254.79 L
255.027 254.487 L
257.176 254.21 L
257.176 254.21 L
258.841 253.431 L
260.981 251.825 L
262.626 250.831 L
264.02 250.027 L
265.769 248.916 L
267.125 246.871 L
270.129 244.013 L
271.21 242.591 L
272.173 240.694 L
272.915 239.684 L
274.091 238.331 L
275.736 235.789 L
276.967 234.193 L
278.148 231.947 L
278.969 229.8 L
279.466 228.467 L
280.162 226.063 L
281.086 223.325 L
281.524 220.498 L
282.194 218.37 L
282.755 216.546 L
283.818 214.467 L
284.96 212.66 L
285.584 211.043 L
286.548 207.969 L
287.167 206.14 L
287.819 203.138 L
288.156 201.578 L
288.227 200.693 L
288.873 198.781 L
290.352 196.277 L
291.24 193.799 L
292.04 190.724 L
292.746 188.564 L
293.557 185.717 L
294.913 183.703 L
295.923 181.229 L
296.666 179.006 L
297.437 176.896 L
298.571 174.044 L
298.571 174.044 L
299.847 171.665 L
300.977 168.414 L
301.812 165.649 L
302.746 162.488 L
304.365 159.519 L
306.191 152.9 L
306.815 150.842 L
307.855 147.307 L
309.333 145.153 L
310.216 141.974 L
310.999 140.212 L
311.323 137.987 L
311.81 135.091 L
312.914 131.507 L
313.974 128.929 L
314.8 125.683 L
315.656 123.628 L
316.057 120.442 L
316.262 118.526 L
316.849 115.781 L
317.37 113.4 L
318.143 111.608 L
318.715 109.426 L
319.596 107.807 L
320.303 105.534 L
320.698 102.954 L
321.26 100.674 L
321.589 97.681 L
322.382 95.956 L
323.737 93.055 L
324.54 91.48 L
325.334 89.807 L
325.94 87.013 L
S
GR
GS
[0.75 0 0 0.75 0 0.5] CT
0.851 0.325 0.098 RC
[8 8] 0 setdash
2 LJ
2 LW
N
320.236 142.343 M
321.129 139.969 L
322.022 137.595 L
322.914 135.221 L
323.807 132.847 L
324.7 130.473 L
325.593 128.099 L
326.486 125.725 L
327.378 123.351 L
328.271 120.977 L
328.537 120.271 L
329.57 117.971 L
330.602 115.671 L
331.635 113.371 L
332.668 111.071 L
333.701 108.77 L
334.733 106.47 L
335.766 104.17 L
336.799 101.87 L
337.832 99.57 L
338.864 97.27 L
339.897 94.969 L
340.357 93.945 L
341.872 92.017 L
343.387 90.088 L
344.902 88.16 L
346.417 86.232 L
347.932 84.304 L
349.447 82.376 L
350.962 80.448 L
352.177 78.901 L
353.761 77.045 L
355.346 75.19 L
356.93 73.334 L
358.514 71.478 L
360.098 69.623 L
361.682 67.767 L
363.266 65.911 L
364.85 64.056 L
366.434 62.2 L
366.624 61.977 L
368.551 60.597 L
370.478 59.218 L
372.405 57.839 L
374.332 56.459 L
376.258 55.08 L
378.185 53.7 L
380.112 52.321 L
382.039 50.942 L
382.385 50.694 L
384.628 50.235 L
386.872 49.776 L
389.116 49.317 L
391.359 48.858 L
393.603 48.399 L
395.847 47.94 L
398.09 47.481 L
400.334 47.023 L
400.772 46.933 L
403.052 46.933 L
405.332 46.933 L
407.612 46.933 L
409.892 46.933 L
412.172 46.933 L
414.452 46.933 L
416.732 46.933 L
419.012 46.933 L
421.292 46.933 L
423.099 46.933 L
425.103 48.163 L
427.108 49.393 L
429.112 50.623 L
431.116 51.852 L
433.12 53.082 L
435.125 54.312 L
437.129 55.542 L
439.133 56.772 L
441.138 58.002 L
441.486 58.216 L
443.111 60.025 L
444.736 61.835 L
446.361 63.645 L
447.986 65.454 L
449.611 67.264 L
451.236 69.074 L
452.862 70.884 L
453.306 71.379 L
454.369 73.662 L
455.432 75.944 L
456.495 78.227 L
457.558 80.509 L
458.62 82.792 L
459.683 85.074 L
460.746 87.357 L
461.187 88.303 L
461.874 90.763 L
462.561 93.223 L
463.248 95.683 L
463.936 98.143 L
464.623 100.603 L
465.31 103.063 L
465.997 105.523 L
466.44 107.108 L
466.738 109.666 L
467.036 112.224 L
467.333 114.782 L
467.631 117.339 L
467.929 119.897 L
468.227 122.455 L
468.524 125.013 L
468.822 127.571 L
469.067 129.673 L
469.291 132.241 L
469.515 134.808 L
469.739 137.376 L
469.963 139.943 L
470.188 142.511 L
470.412 145.078 L
470.636 147.646 L
470.86 150.213 L
471.084 152.781 L
471.308 155.348 L
471.532 157.916 L
471.694 159.761 L
471.299 162.302 L
470.905 164.843 L
470.51 167.384 L
470.116 169.925 L
469.722 172.466 L
469.327 175.008 L
468.933 177.549 L
468.538 180.09 L
468.144 182.631 L
467.75 185.172 L
467.355 187.713 L
466.961 190.254 L
466.566 192.795 L
466.44 193.609 L
465.486 195.952 L
464.531 198.295 L
463.576 200.638 L
462.622 202.981 L
461.667 205.324 L
460.713 207.667 L
459.758 210.01 L
458.804 212.353 L
457.849 214.696 L
457.247 216.175 L
455.526 217.868 L
453.806 219.562 L
452.086 221.255 L
450.366 222.948 L
448.645 224.641 L
446.925 226.335 L
445.205 228.028 L
443.485 229.721 L
441.765 231.415 L
440.044 233.108 L
438.324 234.801 L
436.604 236.495 L
436.233 236.86 L
434.306 238.239 L
432.379 239.619 L
430.452 240.998 L
428.526 242.378 L
426.599 243.757 L
424.672 245.136 L
422.745 246.516 L
420.818 247.895 L
418.892 249.274 L
416.965 250.654 L
415.219 251.904 L
412.939 251.904 L
410.659 251.904 L
408.379 251.904 L
406.099 251.904 L
403.819 251.904 L
401.539 251.904 L
399.259 251.904 L
396.979 251.904 L
396.832 251.904 L
394.868 250.592 L
392.905 249.28 L
390.942 247.968 L
388.979 246.657 L
387.015 245.345 L
385.052 244.033 L
383.089 242.721 L
381.126 241.409 L
379.162 240.098 L
377.199 238.786 L
377.131 238.741 L
375.547 236.885 L
373.963 235.029 L
372.379 233.174 L
370.795 231.318 L
369.211 229.462 L
367.627 227.607 L
366.043 225.751 L
364.459 223.895 L
362.875 222.04 L
362.684 221.816 L
361.059 220.007 L
359.434 218.197 L
357.809 216.387 L
356.184 214.578 L
354.559 212.768 L
352.934 210.958 L
351.309 209.149 L
350.864 208.653 L
349.801 206.37 L
348.738 204.088 L
347.676 201.805 L
346.613 199.523 L
345.55 197.24 L
344.487 194.958 L
343.424 192.675 L
342.362 190.393 L
341.299 188.11 L
340.357 186.087 L
339.047 183.976 L
337.736 181.865 L
336.425 179.754 L
335.115 177.643 L
333.804 175.532 L
332.493 173.421 L
331.183 171.31 L
329.872 169.198 L
329.85 169.163 L
328.787 166.881 L
327.725 164.598 L
326.662 162.316 L
325.599 160.033 L
324.536 157.75 L
323.473 155.468 L
322.411 153.185 L
321.348 150.903 L
320.285 148.62 L
319.343 146.598 L
318.222 144.351 L
317.102 142.104 L
315.981 139.857 L
314.86 137.611 L
313.739 135.364 L
312.618 133.117 L
311.497 130.871 L
310.377 128.624 L
309.256 126.377 L
308.135 124.13 L
307.014 121.884 L
306.21 120.271 L
304.796 118.247 L
303.382 116.223 L
301.969 114.199 L
300.555 112.174 L
299.141 110.15 L
297.727 108.126 L
296.314 106.102 L
294.9 104.078 L
293.486 102.054 L
292.072 100.03 L
291.763 99.586 L
290.808 97.243 L
289.854 94.9 L
288.899 92.557 L
287.944 90.214 L
286.99 87.871 L
286.035 85.528 L
285.081 83.185 L
284.126 80.842 L
283.172 78.499 L
282.569 77.02 L
280.793 75.402 L
279.017 73.784 L
277.242 72.166 L
275.466 70.548 L
273.69 68.93 L
271.914 67.312 L
270.138 65.694 L
268.362 64.076 L
268.122 63.857 L
266.105 62.654 L
264.088 61.451 L
262.072 60.247 L
260.055 59.044 L
258.038 57.841 L
256.021 56.638 L
254.004 55.435 L
252.362 54.455 L
250.29 53.376 L
248.219 52.298 L
246.148 51.22 L
244.077 50.141 L
242.005 49.063 L
239.934 47.984 L
237.915 46.933 L
235.635 46.933 L
233.355 46.933 L
231.075 46.933 L
228.795 46.933 L
226.515 46.933 L
224.235 46.933 L
221.955 46.933 L
219.675 46.933 L
219.528 46.933 L
217.45 47.995 L
215.372 49.058 L
213.295 50.12 L
211.217 51.183 L
209.139 52.245 L
207.061 53.308 L
204.984 54.37 L
202.906 55.433 L
201.141 56.335 L
199.572 58.207 L
198.003 60.079 L
196.434 61.951 L
194.865 63.823 L
193.296 65.695 L
191.727 67.567 L
190.158 69.439 L
188.589 71.311 L
187.02 73.183 L
185.451 75.055 L
185.38 75.14 L
184.403 77.471 L
183.426 79.802 L
182.45 82.133 L
181.473 84.465 L
180.496 86.796 L
179.519 89.127 L
178.542 91.458 L
177.565 93.789 L
176.588 96.121 L
175.611 98.452 L
174.634 100.783 L
173.657 103.114 L
173.56 103.347 L
173.058 105.864 L
172.556 108.38 L
172.053 110.897 L
171.551 113.413 L
171.049 115.93 L
170.547 118.447 L
170.045 120.963 L
169.542 123.48 L
169.04 125.997 L
168.538 128.513 L
168.306 129.673 L
168.435 132.249 L
168.563 134.825 L
168.692 137.401 L
168.82 139.977 L
168.949 142.553 L
169.077 145.129 L
169.206 147.705 L
169.334 150.281 L
169.463 152.857 L
169.592 155.432 L
169.62 156 L
169.844 158.568 L
170.068 161.135 L
170.292 163.702 L
170.516 166.27 L
170.741 168.838 L
170.965 171.405 L
171.189 173.973 L
171.413 176.54 L
171.637 179.108 L
171.861 181.675 L
172.085 184.243 L
172.247 186.087 L
172.91 188.556 L
173.573 191.024 L
174.236 193.493 L
174.899 195.961 L
175.562 198.43 L
176.225 200.898 L
176.888 203.367 L
177.551 205.835 L
178.214 208.304 L
178.813 210.534 L
180.328 212.462 L
181.843 214.39 L
183.358 216.318 L
184.873 218.246 L
186.388 220.174 L
187.903 222.102 L
189.418 224.03 L
190.634 225.577 L
192.047 227.601 L
193.461 229.626 L
194.875 231.65 L
196.289 233.674 L
197.702 235.698 L
199.116 237.722 L
200.53 239.746 L
201.943 241.771 L
202.454 242.501 L
204.628 243.28 L
206.802 244.058 L
208.975 244.836 L
211.149 245.614 L
213.323 246.392 L
215.497 247.17 L
217.671 247.948 L
218.214 248.143 L
220.494 248.143 L
222.774 248.143 L
225.054 248.143 L
227.334 248.143 L
229.614 248.143 L
231.894 248.143 L
234.174 248.143 L
236.454 248.143 L
238.734 248.143 L
240.541 248.143 L
242.76 247.547 L
244.978 246.952 L
247.197 246.356 L
249.415 245.761 L
251.634 245.165 L
253.852 244.569 L
256.07 243.974 L
258.289 243.378 L
260.507 242.783 L
261.555 242.501 L
263.298 240.838 L
265.041 239.174 L
266.784 237.511 L
268.526 235.847 L
270.269 234.184 L
272.012 232.52 L
273.755 230.857 L
275.497 229.193 L
277.24 227.53 L
278.983 225.866 L
280.726 224.203 L
281.256 223.697 L
282.459 221.505 L
283.661 219.313 L
284.864 217.121 L
286.067 214.93 L
287.27 212.738 L
288.472 210.546 L
289.675 208.354 L
290.878 206.162 L
292.081 203.971 L
293.284 201.779 L
294.486 199.587 L
295.689 197.395 L
295.703 197.37 L
296.797 195.107 L
297.892 192.844 L
298.986 190.58 L
300.08 188.317 L
301.175 186.053 L
302.269 183.79 L
303.363 181.527 L
304.458 179.263 L
305.552 177 L
306.647 174.737 L
307.523 172.924 L
308.5 170.593 L
309.477 168.262 L
310.454 165.931 L
311.431 163.599 L
312.408 161.268 L
313.384 158.937 L
314.361 156.606 L
315.338 154.275 L
316.315 151.944 L
317.292 149.612 L
318.269 147.281 L
319.246 144.95 L
319.343 144.717 L
320.236 142.343 L
321.129 139.969 L
322.022 137.595 L
322.914 135.221 L
323.807 132.847 L
324.7 130.473 L
325.593 128.099 L
326.486 125.725 L
327.378 123.351 L
328.271 120.977 L
328.537 120.271 L
329.57 117.971 L
330.602 115.671 L
331.635 113.371 L
332.668 111.071 L
333.701 108.77 L
334.733 106.47 L
335.766 104.17 L
336.799 101.87 L
337.832 99.57 L
338.864 97.27 L
339.897 94.969 L
340.357 93.945 L
341.872 92.017 L
343.387 90.088 L
S
GR
GS
[0.75 0 0 0.75 0 0.5] CT
1 GC
N
486 281 M
486 258 L
263 258 L
263 281 L
cp
f
GR
GS
[0.75 0 0 0.75 232.5 202.625] CT
/Helvetica 14.667 F
GS
[1 0 0 1 0 0] CT
0 5.5 moveto 
1 -1 scale
(Position) t 
GR
GR
GS
[0.75 0 0 0.75 0 0.5] CT
0 0.447 0.741 RC
1 LJ
2 LW
N
267 269.5 M
307 269.5 L
S
GR
GS
[0.75 0 0 0.75 310.5 202.625] CT
/Helvetica 14.667 F
GS
[1 0 0 1 0 0] CT
0 5.5 moveto 
1 -1 scale
(Reference) t 
GR
GR
GS
[0.75 0 0 0.75 0 0.5] CT
0.851 0.325 0.098 RC
[8 8] 0 setdash
2 LJ
2 LW
N
371 269.5 M
411 269.5 L
S
GR
GS
[0.75 0 0 0.75 0 0.5] CT
0.149 GC
10.0 ML
0.667 LW
N
263 281 M
263 258 L
486 258 L
486 281 L
cp
S
GR
%%Trailer
%%Pages: 1
%%EOF
