%!PS-Adobe-3.0 EPSF-3.0
%%Creator: cairo 1.15.2 (http://cairographics.org)
%%CreationDate: Wed Jan 23 15:19:45 2019
%%Pages: 1
%%DocumentData: Clean7Bit
%%LanguageLevel: 2
%%BoundingBox: 0 -1 87 46
%%EndComments
%%BeginProlog
save
50 dict begin
/q { gsave } bind def
/Q { grestore } bind def
/cm { 6 array astore concat } bind def
/w { setlinewidth } bind def
/J { setlinecap } bind def
/j { setlinejoin } bind def
/M { setmiterlimit } bind def
/d { setdash } bind def
/m { moveto } bind def
/l { lineto } bind def
/c { curveto } bind def
/h { closepath } bind def
/re { exch dup neg 3 1 roll 5 3 roll moveto 0 rlineto
      0 exch rlineto 0 rlineto closepath } bind def
/S { stroke } bind def
/f { fill } bind def
/f* { eofill } bind def
/n { newpath } bind def
/W { clip } bind def
/W* { eoclip } bind def
/BT { } bind def
/ET { } bind def
/pdfmark where { pop globaldict /?pdfmark /exec load put }
    { globaldict begin /?pdfmark /pop load def /pdfmark
    /cleartomark load def end } ifelse
/BDC { mark 3 1 roll /BDC pdfmark } bind def
/EMC { mark /EMC pdfmark } bind def
/cairo_store_point { /cairo_point_y exch def /cairo_point_x exch def } def
/Tj { show currentpoint cairo_store_point } bind def
/TJ {
  {
    dup
    type /stringtype eq
    { show } { -0.001 mul 0 cairo_font_matrix dtransform rmoveto } ifelse
  } forall
  currentpoint cairo_store_point
} bind def
/cairo_selectfont { cairo_font_matrix aload pop pop pop 0 0 6 array astore
    cairo_font exch selectfont cairo_point_x cairo_point_y moveto } bind def
/Tf { pop /cairo_font exch def /cairo_font_matrix where
      { pop cairo_selectfont } if } bind def
/Td { matrix translate cairo_font_matrix matrix concatmatrix dup
      /cairo_font_matrix exch def dup 4 get exch 5 get cairo_store_point
      /cairo_font where { pop cairo_selectfont } if } bind def
/Tm { 2 copy 8 2 roll 6 array astore /cairo_font_matrix exch def
      cairo_store_point /cairo_font where { pop cairo_selectfont } if } bind def
/g { setgray } bind def
/rg { setrgbcolor } bind def
/d1 { setcachedevice } bind def
%%EndProlog
%%BeginSetup
%%EndSetup
%%Page: 1 1
%%BeginPageSetup
%%PageBoundingBox: 0 -1 87 46
%%EndPageSetup
q 0 -1 87 47 rectclip q
0 g
48.605 42.888 m 49.289 42.888 l 49.82 42.888 49.754 42.888 49.754 42.689
 c 49.754 42.634 49.754 42.556 49.699 42.345 c 49.688 42.302 49.68 42.279
 49.68 42.267 c 49.68 42.201 49.855 42.068 49.887 42.068 c 49.965 42.068
 50.086 42.201 50.121 42.322 c 50.508 43.861 l 50.531 43.939 50.531 43.951
 50.531 43.974 c 50.531 43.986 50.398 44.173 50.32 44.173 c 50.254 44.173
 50.121 44.017 50.086 43.908 c 49.945 43.353 49.91 43.341 49.301 43.341 
c 48.813 43.341 l 49.234 45.013 l 49.301 45.267 49.191 45.181 49.5 45.181
 c 50.43 45.181 l 51.293 45.181 51.34 45.06 51.34 44.517 c 51.34 44.349 
51.34 44.33 51.316 44.138 c 51.293 44.041 51.293 44.029 51.293 44.006 c 
51.293 43.974 51.449 43.806 51.516 43.806 c 51.594 43.806 51.715 43.963 
51.727 44.095 c 51.871 45.326 l 51.895 45.513 51.738 45.634 51.559 45.634
 c 48.094 45.634 l 47.961 45.634 47.762 45.513 47.762 45.369 c 47.762 45.291
 47.949 45.181 48.082 45.181 c 48.348 45.181 48.414 45.291 48.414 45.17 
c 48.414 45.134 48.414 45.127 48.383 44.994 c 47.453 41.259 l 47.375 40.982
 47.496 41.048 46.934 41.048 c 46.809 41.048 46.609 40.927 46.609 40.795
 c 46.609 40.709 46.82 40.595 46.844 40.595 c 47.043 40.595 47.574 40.619
 47.773 40.619 c 48.008 40.619 48.594 40.595 48.824 40.595 c 48.891 40.595
 49.09 40.709 49.09 40.841 c 49.09 40.896 49.059 40.916 49.059 41.006 c 
48.914 41.048 48.891 41.048 48.738 41.048 c 48.582 41.048 48.547 41.048 
48.371 41.06 c 48.16 41.084 48.262 40.994 48.262 41.084 c 48.262 41.095 
48.262 41.138 48.293 41.248 c 48.703 42.888 l h
48.605 42.888 m f
53.887 41.541 m 53.906 41.607 53.906 41.619 53.906 41.642 c 53.906 41.74
 53.699 41.939 53.609 41.939 c 53.555 41.939 53.363 41.873 53.309 41.775
 c 53.289 41.752 53.211 41.498 53.188 41.396 c 53.09 40.986 l 53.055 40.865
 52.898 40.244 52.922 40.334 c 53.023 40.334 52.801 39.904 52.426 39.904
 c 52.082 39.904 52.215 40.091 52.215 40.177 c 52.215 40.443 52.336 40.756
 52.48 41.131 c 52.535 41.287 52.559 41.353 52.559 41.431 c 52.559 41.673
 52.223 41.994 51.957 41.994 c 51.461 41.994 51.094 41.185 51.094 41.099
 c 51.094 41.033 51.305 40.9 51.328 40.9 c 51.395 40.9 51.527 41.052 51.551
 41.111 c 51.672 41.517 51.75 41.576 51.949 41.576 c 52.023 41.576 51.926
 41.662 51.926 41.541 c 51.926 41.431 51.883 41.318 51.859 41.252 c 51.625
 40.654 51.57 40.466 51.57 40.256 c 51.57 40.17 51.617 39.838 51.805 39.681
 c 51.957 39.548 52.27 39.494 52.402 39.494 c 52.602 39.494 52.867 39.603
 53.031 39.748 c 52.801 39.845 l 52.734 39.58 52.723 39.459 52.512 39.216
 c 52.379 39.06 52.281 38.939 52.016 38.939 c 51.98 38.939 51.848 38.896
 51.871 38.849 c 51.914 38.861 52.047 39.236 52.047 39.236 c 52.047 39.404
 51.77 39.572 51.727 39.572 c 51.605 39.572 51.293 39.326 51.293 39.103 
c 51.293 38.849 51.672 38.529 52.023 38.529 c 52.523 38.529 53.266 39.048
 53.422 39.67 c h
53.887 41.541 m f
1 0 0 rg
79.574 39.709 m 75.199 39.709 l 75.199 39.146 l 75.965 39.146 l 75.965 
35.236 l 75.199 35.236 l 75.199 34.662 l 75.566 34.693 76.285 34.693 76.598
 34.693 c 76.938 34.693 77.703 34.693 78.113 34.662 c 78.113 35.236 l 77.16
 35.236 l 77.16 36.908 l 77.414 36.908 l 78.102 36.908 78.059 36.72 78.059
 36.088 c 78.59 36.088 l 78.59 38.302 l 78.059 38.302 l 78.059 37.662 78.102
 37.474 77.414 37.474 c 77.16 37.474 l 77.16 39.146 l 78.059 39.146 l 79.188
 39.146 79.254 38.713 79.375 37.771 c 79.895 37.771 l 79.652 39.709 l h
79.574 39.709 m f
0 1 1 rg
72.281 20.525 m 72.281 10.888 64.473 3.08 54.84 3.08 c 45.203 3.08 37.395
 10.888 37.395 20.525 c 37.395 30.158 45.203 37.966 54.84 37.966 c 64.473
 37.966 72.281 30.158 72.281 20.525 c h
72.281 20.525 m f
1.502564 w
0 J
0 j
[] 0.0 d
4 M q 1 0 0 -1 0 45.634411 cm
72.281 25.109 m 72.281 34.746 64.473 42.555 54.84 42.555 c 45.203 42.555
 37.395 34.746 37.395 25.109 c 37.395 15.477 45.203 7.668 54.84 7.668 c 
64.473 7.668 72.281 15.477 72.281 25.109 c h
72.281 25.109 m S Q
0 g
77.809 16.431 m 78.496 16.431 l 79.027 16.431 78.961 16.431 78.961 16.232
 c 78.961 16.173 78.961 16.099 78.906 15.888 c 78.895 15.841 78.883 15.822
 78.883 15.81 c 78.883 15.744 79.059 15.611 79.094 15.611 c 79.172 15.611
 79.293 15.744 79.324 15.865 c 79.715 17.404 l 79.734 17.482 79.734 17.494
 79.734 17.513 c 79.734 17.525 79.602 17.713 79.523 17.713 c 79.457 17.713
 79.324 17.56 79.293 17.447 c 79.148 16.896 79.117 16.884 78.508 16.884 
c 78.02 16.884 l 78.441 18.556 l 78.508 18.81 78.395 18.72 78.707 18.72 
c 79.637 18.72 l 80.5 18.72 80.543 18.599 80.543 18.056 c 80.543 17.892 
80.543 17.869 80.523 17.681 c 80.5 17.58 80.5 17.572 80.5 17.548 c 80.5 
17.513 80.656 17.349 80.723 17.349 c 80.797 17.349 80.922 17.506 80.93 17.638
 c 81.074 18.865 l 81.098 19.052 80.941 19.177 80.766 19.177 c 77.301 19.177
 l 77.168 19.177 76.969 19.052 76.969 18.912 c 76.969 18.834 77.156 18.72
 77.289 18.72 c 77.555 18.72 77.621 18.834 77.621 18.709 c 77.621 18.677
 77.621 18.666 77.586 18.533 c 76.656 14.802 l 76.578 14.525 76.703 14.591
 76.137 14.591 c 76.016 14.591 75.816 14.47 75.816 14.338 c 75.816 14.248
 76.027 14.138 76.047 14.138 c 76.246 14.138 76.777 14.158 76.977 14.158
 c 77.211 14.158 77.797 14.138 78.031 14.138 c 78.098 14.138 78.297 14.248
 78.297 14.381 c 78.297 14.435 78.262 14.459 78.262 14.548 c 78.117 14.591
 78.098 14.591 77.941 14.591 c 77.785 14.591 77.754 14.591 77.574 14.603
 c 77.367 14.627 77.465 14.537 77.465 14.627 c 77.465 14.634 77.465 14.681
 77.5 14.791 c 77.91 16.431 l h
77.809 16.431 m f
81.309 13.744 m 81.254 13.576 81.23 13.443 80.977 13.443 c 80.965 13.443
 80.91 13.4 81.008 13.334 c 80.91 13.298 81.063 13.619 81.063 13.642 c 81.063
 13.752 80.844 13.963 80.73 13.963 c 80.586 13.963 80.313 13.709 80.313 
13.533 c 80.313 13.279 80.719 13.033 80.965 13.033 c 81.195 13.033 81.496
 13.213 81.508 13.244 c 81.496 13.256 81.906 13.033 82.105 13.033 c 82.68
 13.033 83.113 13.787 83.113 13.92 c 83.113 13.986 82.914 14.131 82.902 
14.131 c 82.824 14.131 82.68 13.963 82.668 13.896 c 82.559 13.564 82.402
 13.443 82.125 13.443 c 81.926 13.443 81.961 13.443 81.961 13.631 c 81.961
 13.752 82.082 14.209 82.215 14.752 c 82.316 15.138 82.402 15.115 82.57 
15.115 c 82.582 15.115 82.637 15.158 82.516 15.236 c 82.68 15.283 82.48 
15.006 82.48 14.916 c 82.48 14.806 82.703 14.595 82.813 14.595 c 82.926 
14.595 83.223 14.826 83.223 15.037 c 83.223 15.314 82.77 15.537 82.582 15.537
 c 82.328 15.537 82.039 15.326 82.039 15.326 c 82.07 15.248 81.707 15.537
 81.43 15.537 c 80.875 15.537 80.422 14.783 80.422 14.638 c 80.422 14.572
 80.633 14.439 80.645 14.439 c 80.711 14.439 80.855 14.595 80.875 14.662
 c 80.996 15.048 81.176 15.115 81.418 15.115 c 81.586 15.115 81.574 15.17
 81.574 14.927 c 81.574 14.826 81.52 14.584 81.473 14.42 c h
81.309 13.744 m f
0.75 w
q 1 0 0 -1 0 45.634411 cm
54.871 25.176 m 43.742 38.473 l S Q
47.652 9.006 m 43.113 6.396 l 44.879 11.33 l 45.195 10.041 46.316 9.107
 47.652 9.006 c h
47.652 9.006 m f*
0.215691 w
1 j
q 0.836825 1 1 -0.836825 0 45.634411 cm
1.91 46.054 m -1.859 44.669 l 1.912 43.279 l 1.31 44.099 1.312 45.218 1.91
 46.054 c h
1.91 46.054 m S Q
53.309 14.951 m 53.352 15.119 53.254 15.076 53.387 15.095 c 53.453 15.107
 53.676 15.107 53.816 15.107 c 54.316 15.107 54.98 15.216 54.98 14.521 c
 54.98 14.275 54.902 13.877 54.625 13.603 c 54.438 13.412 54.16 13.224 53.52
 13.224 c 52.875 13.224 l h
54.207 12.904 m 54.926 13.06 55.879 13.67 55.879 14.377 c 55.879 14.986
 55.125 15.56 54.195 15.56 c 52.191 15.56 l 52.047 15.56 51.859 15.439 51.859
 15.295 c 51.859 15.216 52.047 15.107 52.18 15.107 c 52.191 15.107 52.324
 15.107 52.445 15.095 c 52.578 15.076 52.512 15.185 52.512 15.095 c 52.512
 15.064 52.5 15.041 52.477 14.963 c 51.535 11.166 l 51.469 10.888 51.582
 10.955 51.016 10.955 c 50.895 10.955 50.707 10.834 50.707 10.689 c 50.707
 10.611 50.918 10.502 50.93 10.502 c 51.129 10.502 51.625 10.525 51.813 
10.525 c 52.012 10.525 52.523 10.502 52.723 10.502 c 52.777 10.502 52.977
 10.611 52.977 10.756 c 52.977 10.834 52.801 10.955 52.656 10.955 c 52.402
 10.955 52.324 10.834 52.324 10.955 c 52.324 10.998 52.336 11.033 52.344
 11.076 c 52.777 12.838 l 53.531 12.838 l 54.172 12.838 54.172 12.56 54.172
 12.306 c 54.172 12.205 54.117 11.986 54.074 11.818 c 54.027 11.619 53.961
 11.365 53.961 11.22 c 53.961 10.455 54.938 10.345 55.023 10.345 c 55.621
 10.345 56 11.177 56 11.275 c 56 11.353 55.801 11.474 55.789 11.474 c 55.723
 11.474 55.59 11.31 55.566 11.256 c 55.391 10.732 55.215 10.732 55.059 10.732
 c 54.824 10.732 54.891 10.767 54.891 11.045 c 54.891 11.263 54.938 11.619
 54.957 11.853 c 54.98 11.951 54.992 12.084 54.992 12.185 c 54.992 12.728
 54.395 13.068 54.207 13.134 c h
54.207 12.904 m f
1 0 0 rg
54.871 20.459 m 84.953 35.834 l f
0.566929 w
0 j
q 1 0 0 -1 0 45.634411 cm
54.871 25.176 m 84.953 9.801 l S Q
84.348 35.521 m 84.098 34.759 l 85.609 36.166 l 83.582 35.771 l h
84.348 35.521 m f*
0.134621 w
q -1 -0.511041 -0.511041 1 0 45.634411 cm
-62.783 -42.198 m -62.276 -42.701 l -64.044 -42.198 l -62.277 -41.689 l
 h
-62.783 -42.198 m S Q
0 g
0.566929 w
q 1 0 0 -1 0 45.634411 cm
54.871 25.176 m 85.41 25.176 l S Q
84.73 20.459 m 84.164 19.892 l 86.148 20.459 l 84.164 21.025 l h
84.73 20.459 m f*
0.151181 w
q -1 0 0 1 0 45.634411 cm
-84.73 -25.176 m -84.164 -25.742 l -86.148 -25.176 l -84.164 -24.609 l 
h
-84.73 -25.176 m S Q
0.566929 w
q 1 0 0 -1 0 45.634411 cm
54.871 25.176 m 54.871 8.285 l S Q
54.871 36.67 m 55.438 36.103 l 54.871 38.088 l 54.305 36.103 l h
54.871 36.67 m f*
0.151181 w
q 0 -1 -1 0 0 45.634411 cm
8.965 -54.871 m 9.531 -55.438 l 7.547 -54.871 l 9.531 -54.305 l h
8.965 -54.871 m S Q
53.801 19.33 m 56.051 21.58 l f
0.566929 w
q 1 0 0 -1 0 45.634411 cm
53.801 26.305 m 56.051 24.055 l S Q
56.051 19.33 m 53.801 21.58 l f
q 1 0 0 -1 0 45.634411 cm
56.051 26.305 m 53.801 24.055 l S Q
1 0 0 rg
41.059 12.115 m 41.059 10.517 39.762 9.22 38.164 9.22 c 36.566 9.22 35.27
 10.517 35.27 12.115 c 35.27 13.713 36.566 15.009 38.164 15.009 c 39.762
 15.009 41.059 13.713 41.059 12.115 c h
41.059 12.115 m f
63.047 20.459 m 63.047 20.459 63.715 21.595 61.641 23.806 c f
0.75 w
q 1 0 0 -1 0 45.634411 cm
63.047 25.176 m 63.047 25.176 63.715 24.039 61.641 21.828 c S Q
68.137 23.525 m 68.137 24.631 67.363 25.095 66.844 25.095 c 65.867 25.095
 64.816 23.966 64.816 22.97 c 64.816 22.318 65.359 21.662 66.09 21.662 c
 66.531 21.662 67.121 21.861 67.496 22.162 c 67.539 21.994 67.895 21.662
 68.215 21.662 c 68.594 21.662 68.938 22.162 68.938 22.271 c 68.938 22.33
 68.77 22.47 68.727 22.47 c 68.68 22.47 68.527 22.33 68.504 22.271 c 68.383
 21.927 68.25 22.052 68.238 22.052 c 68.016 22.052 68.137 22.482 68.137 
22.65 c 68.137 22.802 68.105 22.736 68.172 22.826 c 68.836 23.658 69.023
 24.552 69.023 24.564 c 69.023 24.576 68.891 24.752 68.813 24.752 c 68.746
 24.752 68.625 24.607 68.582 24.486 c 68.461 24.033 68.262 23.591 67.93 
23.17 c 68.137 23.08 l h
67.453 22.638 m 66.832 22.095 66.379 22.052 66.102 22.052 c 65.68 22.052
 65.582 22.252 65.582 22.705 c 65.582 23.048 65.734 23.736 65.957 24.088
 c 66.289 24.607 66.59 24.709 66.832 24.709 c 67.531 24.709 67.406 23.9 
67.406 23.345 c 67.406 23.08 67.406 22.67 67.406 22.603 c h
67.453 22.638 m f
1.805 0.427 m 1.805 0.451 l 1.797 0.459 l 1.797 0.466 l 1.781 0.482 l 1.781
 0.49 l 1.773 0.49 l 1.773 0.498 l 1.766 0.498 l 1.766 0.506 l 1.758 0.506
 l 1.758 0.509 l 1.727 0.541 l 1.727 0.548 l 1.723 0.548 l 1.715 0.556 l
 1.715 0.564 l 1.707 0.564 l 1.699 0.572 l 1.699 0.58 l 1.691 0.58 l 1.676
 0.595 l 0.746 1.533 0.508 2.943 0.508 4.08 c 0.508 5.381 0.789 6.67 1.707
 7.607 c 1.805 7.697 1.805 7.713 1.805 7.732 c 1.805 7.787 1.773 7.802 1.727
 7.802 c 1.652 7.802 0.984 7.298 0.543 6.353 c 0.16 5.537 0.07 4.705 0.07
 4.08 c 0.07 3.498 0.152 2.595 0.566 1.756 c 1.016 0.841 1.652 0.353 1.727
 0.353 c 1.773 0.353 1.805 0.377 1.805 0.427 c h
1.805 0.427 m f*
0.141732 w
10.433 M q 1 0 0 1 0 45.634411 cm
1.805 -45.207 m 1.805 -45.184 l 1.797 -45.176 l 1.797 -45.168 l 1.781 -45.152
 l 1.781 -45.145 l 1.773 -45.145 l 1.773 -45.137 l 1.766 -45.137 l 1.766
 -45.129 l 1.758 -45.129 l 1.758 -45.125 l 1.727 -45.094 l 1.727 -45.086
 l 1.723 -45.086 l 1.715 -45.078 l 1.715 -45.07 l 1.707 -45.07 l 1.699 -45.063
 l 1.699 -45.055 l 1.691 -45.055 l 1.676 -45.039 l 0.746 -44.102 0.508 -42.691
 0.508 -41.555 c 0.508 -40.254 0.789 -38.965 1.707 -38.027 c 1.805 -37.938
 1.805 -37.922 1.805 -37.902 c 1.805 -37.848 1.773 -37.832 1.727 -37.832
 c 1.652 -37.832 0.984 -38.336 0.543 -39.281 c 0.16 -40.098 0.07 -40.93 
0.07 -41.555 c 0.07 -42.137 0.152 -43.039 0.566 -43.879 c 1.016 -44.793 
1.652 -45.281 1.727 -45.281 c 1.773 -45.281 1.805 -45.258 1.805 -45.207 
c h
1.805 -45.207 m S Q
4.734 4.463 m 4.734 4.486 l 4.75 4.533 l 4.758 4.56 l 4.773 4.623 l 4.781
 4.65 l 4.797 4.689 l 4.805 4.72 l 4.82 4.756 l 4.832 4.795 l 4.848 4.83
 l 4.863 4.869 l 4.887 4.908 l 4.902 4.943 l 4.922 4.982 l 4.945 5.017 l
 4.969 5.048 l 5 5.088 l 5.02 5.115 l 5.051 5.154 l 5.109 5.213 l 5.141 
5.236 l 5.18 5.259 l 5.215 5.283 l 5.238 5.287 l 5.254 5.302 l 5.277 5.31
 l 5.289 5.318 l 5.313 5.326 l 5.336 5.326 l 5.383 5.341 l 5.426 5.341 l
 5.449 5.349 l 5.473 5.349 l 5.516 5.349 5.688 5.349 5.848 5.252 c 5.637
 5.213 5.492 5.025 5.492 4.845 c 5.492 4.724 5.574 4.584 5.77 4.584 c 5.938
 4.584 6.176 4.72 6.176 5.017 c 6.176 5.408 5.734 5.513 5.477 5.513 c 5.051
 5.513 4.789 5.115 4.699 4.943 c 4.512 5.439 4.105 5.513 3.887 5.513 c 3.109
 5.513 2.68 4.545 2.68 4.365 c 2.68 4.291 2.762 4.291 2.77 4.291 c 2.832
 4.291 2.852 4.306 2.867 4.373 c 3.125 5.162 3.617 5.349 3.875 5.349 c 4.016
 5.349 4.277 5.283 4.277 4.845 c 4.277 4.615 4.152 4.119 3.875 3.076 c 3.754
 2.611 3.492 2.295 3.16 2.295 c 3.117 2.295 2.945 2.295 2.785 2.392 c 2.973
 2.431 3.137 2.588 3.137 2.798 c 3.137 3.002 2.973 3.06 2.867 3.06 c 2.645
 3.06 2.457 2.865 2.457 2.627 c 2.457 2.283 2.832 2.138 3.152 2.138 c 3.648
 2.138 3.918 2.658 3.941 2.701 c 4.031 2.423 4.301 2.138 4.75 2.138 c 5.516
 2.138 5.945 3.099 5.945 3.287 c 5.945 3.361 5.875 3.361 5.852 3.361 c 5.785
 3.361 5.77 3.33 5.758 3.279 c 5.516 2.474 5.008 2.295 4.766 2.295 c 4.473
 2.295 4.352 2.537 4.352 2.791 c 4.352 2.955 4.398 3.123 4.48 3.443 c h
4.734 4.463 m f*
q 1 0 0 1 0 45.634411 cm
4.734 -41.172 m 4.734 -41.148 l 4.75 -41.102 l 4.758 -41.074 l 4.773 -41.012
 l 4.781 -40.984 l 4.797 -40.945 l 4.805 -40.914 l 4.82 -40.879 l 4.832 
-40.84 l 4.848 -40.805 l 4.863 -40.766 l 4.887 -40.727 l 4.902 -40.691 l
 4.922 -40.652 l 4.945 -40.617 l 4.969 -40.586 l 5 -40.547 l 5.02 -40.52
 l 5.051 -40.48 l 5.109 -40.422 l 5.141 -40.398 l 5.18 -40.375 l 5.215 -40.352
 l 5.238 -40.348 l 5.254 -40.332 l 5.277 -40.324 l 5.289 -40.316 l 5.313
 -40.309 l 5.336 -40.309 l 5.383 -40.293 l 5.426 -40.293 l 5.449 -40.285
 l 5.473 -40.285 l 5.516 -40.285 5.688 -40.285 5.848 -40.383 c 5.637 -40.422
 5.492 -40.609 5.492 -40.789 c 5.492 -40.91 5.574 -41.051 5.77 -41.051 c
 5.938 -41.051 6.176 -40.914 6.176 -40.617 c 6.176 -40.227 5.734 -40.121
 5.477 -40.121 c 5.051 -40.121 4.789 -40.52 4.699 -40.691 c 4.512 -40.195
 4.105 -40.121 3.887 -40.121 c 3.109 -40.121 2.68 -41.09 2.68 -41.27 c 2.68
 -41.344 2.762 -41.344 2.77 -41.344 c 2.832 -41.344 2.852 -41.328 2.867 
-41.262 c 3.125 -40.473 3.617 -40.285 3.875 -40.285 c 4.016 -40.285 4.277
 -40.352 4.277 -40.789 c 4.277 -41.02 4.152 -41.516 3.875 -42.559 c 3.754
 -43.023 3.492 -43.34 3.16 -43.34 c 3.117 -43.34 2.945 -43.34 2.785 -43.242
 c 2.973 -43.203 3.137 -43.047 3.137 -42.836 c 3.137 -42.633 2.973 -42.574
 2.867 -42.574 c 2.645 -42.574 2.457 -42.77 2.457 -43.008 c 2.457 -43.352
 2.832 -43.496 3.152 -43.496 c 3.648 -43.496 3.918 -42.977 3.941 -42.934
 c 4.031 -43.211 4.301 -43.496 4.75 -43.496 c 5.516 -43.496 5.945 -42.535
 5.945 -42.348 c 5.945 -42.273 5.875 -42.273 5.852 -42.273 c 5.785 -42.273
 5.77 -42.305 5.758 -42.355 c 5.516 -43.16 5.008 -43.34 4.766 -43.34 c 4.473
 -43.34 4.352 -43.098 4.352 -42.844 c 4.352 -42.68 4.398 -42.512 4.48 -42.191
 c h
4.734 -41.172 m S Q
7.969 0.271 m 7.789 0.271 l 7.781 0.279 l 7.707 0.279 l 7.691 0.287 l 7.676
 0.287 l 7.66 0.295 l 7.652 0.295 l 7.637 0.302 l 7.633 0.31 l 7.625 0.318
 l 7.617 0.318 l 7.609 0.33 l 7.586 0.353 l 7.586 0.369 l 7.578 0.377 l 
7.578 0.408 l 7.57 0.42 l 7.57 1.349 l 7.602 1.322 7.84 1.045 8.285 1.045
 c 8.254 1.193 l 7.789 1.193 7.586 1.591 7.57 1.623 c 7.57 2.838 l 7.727
 3.091 8.035 3.232 8.313 3.232 c 8.75 3.232 9.094 2.767 9.094 2.22 c 9.094
 1.631 8.695 1.193 8.254 1.193 c 8.285 1.045 l 8.973 1.045 9.566 1.56 9.566
 2.22 c 9.566 2.865 9.035 3.4 8.367 3.4 c 8.074 3.4 7.766 3.287 7.547 3.076
 c 7.547 3.4 l 6.762 3.338 l 6.762 3.15 l 7.129 3.15 7.16 3.131 7.16 2.904
 c 7.16 0.498 l 7.16 0.271 7.105 0.271 6.762 0.271 c 6.762 0.084 l 6.777
 0.084 7.145 0.107 7.359 0.107 c 7.555 0.107 7.914 0.091 7.969 0.084 c h
7.969 0.271 m f*
q 1 0 0 1 0 45.634411 cm
7.969 -45.363 m 7.789 -45.363 l 7.781 -45.355 l 7.707 -45.355 l 7.691 -45.348
 l 7.676 -45.348 l 7.66 -45.34 l 7.652 -45.34 l 7.637 -45.332 l 7.633 -45.324
 l 7.625 -45.316 l 7.617 -45.316 l 7.609 -45.305 l 7.586 -45.281 l 7.586
 -45.266 l 7.578 -45.258 l 7.578 -45.227 l 7.57 -45.215 l 7.57 -44.285 l
 7.602 -44.313 7.84 -44.59 8.285 -44.59 c 8.254 -44.441 l 7.789 -44.441 
7.586 -44.043 7.57 -44.012 c 7.57 -42.797 l 7.727 -42.543 8.035 -42.402 
8.313 -42.402 c 8.75 -42.402 9.094 -42.867 9.094 -43.414 c 9.094 -44.004
 8.695 -44.441 8.254 -44.441 c 8.285 -44.59 l 8.973 -44.59 9.566 -44.074
 9.566 -43.414 c 9.566 -42.77 9.035 -42.234 8.367 -42.234 c 8.074 -42.234
 7.766 -42.348 7.547 -42.559 c 7.547 -42.234 l 6.762 -42.297 l 6.762 -42.484
 l 7.129 -42.484 7.16 -42.504 7.16 -42.73 c 7.16 -45.137 l 7.16 -45.363 
7.105 -45.363 6.762 -45.363 c 6.762 -45.551 l 6.777 -45.551 7.145 -45.527
 7.359 -45.527 c 7.555 -45.527 7.914 -45.543 7.969 -45.551 c h
7.969 -45.363 m S Q
10.848 2.287 m 10.848 2.326 l 10.855 2.373 l 10.855 2.408 l 10.863 2.455
 l 10.863 2.498 l 10.871 2.537 l 10.879 2.58 l 10.895 2.619 l 10.902 2.662
 l 10.914 2.701 l 10.922 2.748 l 10.938 2.783 l 10.961 2.822 l 10.977 2.857
 l 11 2.896 l 11.012 2.935 l 11.035 2.963 l 11.059 3.002 l 11.09 3.033 l
 11.109 3.06 l 11.141 3.091 l 11.172 3.115 l 11.199 3.134 l 11.23 3.158 
l 11.27 3.181 l 11.305 3.197 l 11.344 3.213 l 11.383 3.224 l 11.418 3.24
 l 11.465 3.24 l 11.508 3.248 l 11.555 3.248 l 11.508 3.213 11.465 3.142
 11.465 3.06 c 11.465 2.888 11.598 2.822 11.703 2.822 c 11.824 2.822 11.945
 2.904 11.945 3.06 c 11.945 3.24 11.77 3.4 11.531 3.4 c 11.27 3.4 10.977
 3.232 10.82 2.838 c 10.813 2.838 l 10.813 3.4 l 10.063 3.338 l 10.063 3.15
 l 10.414 3.15 10.457 3.115 10.457 2.857 c 10.457 1.509 l 10.457 1.283 10.406
 1.283 10.063 1.283 c 10.063 1.095 l 10.09 1.095 10.445 1.119 10.66 1.119
 c 10.887 1.119 11.117 1.111 11.344 1.095 c 11.344 1.283 l 11.238 1.283 
l 10.848 1.283 10.848 1.345 10.848 1.517 c h
10.848 2.287 m f*
q 1 0 0 1 0 45.634411 cm
10.848 -43.348 m 10.848 -43.309 l 10.855 -43.262 l 10.855 -43.227 l 10.863
 -43.18 l 10.863 -43.137 l 10.871 -43.098 l 10.879 -43.055 l 10.895 -43.016
 l 10.902 -42.973 l 10.914 -42.934 l 10.922 -42.887 l 10.938 -42.852 l 10.961
 -42.813 l 10.977 -42.777 l 11 -42.738 l 11.012 -42.699 l 11.035 -42.672
 l 11.059 -42.633 l 11.09 -42.602 l 11.109 -42.574 l 11.141 -42.543 l 11.172
 -42.52 l 11.199 -42.5 l 11.23 -42.477 l 11.27 -42.453 l 11.305 -42.438 
l 11.344 -42.422 l 11.383 -42.41 l 11.418 -42.395 l 11.465 -42.395 l 11.508
 -42.387 l 11.555 -42.387 l 11.508 -42.422 11.465 -42.492 11.465 -42.574
 c 11.465 -42.746 11.598 -42.813 11.703 -42.813 c 11.824 -42.813 11.945 
-42.73 11.945 -42.574 c 11.945 -42.395 11.77 -42.234 11.531 -42.234 c 11.27
 -42.234 10.977 -42.402 10.82 -42.797 c 10.813 -42.797 l 10.813 -42.234 
l 10.063 -42.297 l 10.063 -42.484 l 10.414 -42.484 10.457 -42.52 10.457 
-42.777 c 10.457 -44.125 l 10.457 -44.352 10.406 -44.352 10.063 -44.352 
c 10.063 -44.539 l 10.09 -44.539 10.445 -44.516 10.66 -44.516 c 10.887 -44.516
 11.117 -44.523 11.344 -44.539 c 11.344 -44.352 l 11.238 -44.352 l 10.848
 -44.352 10.848 -44.289 10.848 -44.117 c h
10.848 -43.348 m S Q
14.449 2.287 m 14.547 2.287 l 14.547 2.295 l 14.563 2.295 l 14.563 2.302
 l 14.57 2.302 l 14.574 2.31 l 14.582 2.318 l 14.582 2.326 l 14.59 2.334
 l 14.59 2.365 l 14.598 2.365 l 14.598 2.4 l 14.598 2.857 14.336 3.42 13.555
 3.42 c 12.875 3.42 12.348 2.881 12.348 2.236 c 12.348 1.576 12.926 1.045
 13.625 1.045 c 14.336 1.045 14.598 1.607 14.598 1.724 c 14.598 1.74 14.582
 1.795 14.508 1.795 c 14.441 1.795 14.426 1.763 14.41 1.713 c 14.246 1.291
 13.848 1.209 13.66 1.209 c 13.414 1.209 13.18 1.322 13.023 1.517 c 12.828
 1.763 12.82 2.08 12.82 2.287 c 12.828 2.423 l 12.887 3.158 13.359 3.279
 13.555 3.279 c 14.199 3.279 14.223 2.552 14.23 2.423 c 12.828 2.423 l 12.82
 2.287 l h
14.449 2.287 m f*
q 1 0 0 1 0 45.634411 cm
14.449 -43.348 m 14.547 -43.348 l 14.547 -43.34 l 14.563 -43.34 l 14.563
 -43.332 l 14.57 -43.332 l 14.574 -43.324 l 14.582 -43.316 l 14.582 -43.309
 l 14.59 -43.301 l 14.59 -43.27 l 14.598 -43.27 l 14.598 -43.234 l 14.598
 -42.777 14.336 -42.215 13.555 -42.215 c 12.875 -42.215 12.348 -42.754 12.348
 -43.398 c 12.348 -44.059 12.926 -44.59 13.625 -44.59 c 14.336 -44.59 14.598
 -44.027 14.598 -43.91 c 14.598 -43.895 14.582 -43.84 14.508 -43.84 c 14.441
 -43.84 14.426 -43.871 14.41 -43.922 c 14.246 -44.344 13.848 -44.426 13.66
 -44.426 c 13.414 -44.426 13.18 -44.313 13.023 -44.117 c 12.828 -43.871 
12.82 -43.555 12.82 -43.348 c 12.828 -43.211 l 12.887 -42.477 13.359 -42.355
 13.555 -42.355 c 14.199 -42.355 14.223 -43.082 14.23 -43.211 c 12.828 -43.211
 l 12.82 -43.348 l h
14.449 -43.348 m S Q
16.789 3.287 m 16.789 3.33 l 16.781 3.338 l 16.781 3.384 l 16.773 3.392
 l 16.773 3.4 l 16.766 3.408 l 16.758 3.408 l 16.758 3.412 l 16.75 3.412
 l 16.742 3.42 l 16.715 3.42 l 16.684 3.42 16.676 3.42 16.609 3.361 c 16.602
 3.353 16.539 3.31 16.512 3.287 c 16.352 3.392 16.16 3.42 15.965 3.42 c 
15.215 3.42 15.035 3.033 15.035 2.767 c 15.035 2.603 15.109 2.47 15.234 
2.365 c 15.43 2.193 15.633 2.154 15.957 2.099 c 16.219 2.056 16.645 1.982
 16.645 1.634 c 16.645 1.435 16.504 1.193 16 1.193 c 15.5 1.193 15.313 1.517
 15.223 1.877 c 15.207 1.943 15.199 1.966 15.125 1.966 c 15.035 1.966 15.035
 1.927 15.035 1.822 c 15.035 1.177 l 15.035 1.088 15.035 1.045 15.109 1.045
 c 15.152 1.045 15.258 1.158 15.363 1.267 c 15.59 1.052 15.875 1.045 16 
1.045 c 16.684 1.045 16.93 1.412 16.93 1.779 c 16.93 1.982 16.84 2.138 16.707
 2.259 c 16.512 2.439 16.262 2.482 16.082 2.513 c 15.664 2.588 15.324 2.65
 15.324 2.927 c 15.324 3.091 15.461 3.295 15.965 3.295 c 16.57 3.295 16.602
 2.873 16.609 2.724 c 16.617 2.662 16.676 2.662 16.699 2.662 c 16.789 2.662
 16.789 2.701 16.789 2.806 c h
16.789 3.287 m f*
q 1 0 0 1 0 45.634411 cm
16.789 -42.348 m 16.789 -42.305 l 16.781 -42.297 l 16.781 -42.25 l 16.773
 -42.242 l 16.773 -42.234 l 16.766 -42.227 l 16.758 -42.227 l 16.758 -42.223
 l 16.75 -42.223 l 16.742 -42.215 l 16.715 -42.215 l 16.684 -42.215 16.676
 -42.215 16.609 -42.273 c 16.602 -42.281 16.539 -42.324 16.512 -42.348 c
 16.352 -42.242 16.16 -42.215 15.965 -42.215 c 15.215 -42.215 15.035 -42.602
 15.035 -42.867 c 15.035 -43.031 15.109 -43.164 15.234 -43.27 c 15.43 -43.441
 15.633 -43.48 15.957 -43.535 c 16.219 -43.578 16.645 -43.652 16.645 -44
 c 16.645 -44.199 16.504 -44.441 16 -44.441 c 15.5 -44.441 15.313 -44.117
 15.223 -43.758 c 15.207 -43.691 15.199 -43.668 15.125 -43.668 c 15.035 
-43.668 15.035 -43.707 15.035 -43.813 c 15.035 -44.457 l 15.035 -44.547 
15.035 -44.59 15.109 -44.59 c 15.152 -44.59 15.258 -44.477 15.363 -44.367
 c 15.59 -44.582 15.875 -44.59 16 -44.59 c 16.684 -44.59 16.93 -44.223 16.93
 -43.855 c 16.93 -43.652 16.84 -43.496 16.707 -43.375 c 16.512 -43.195 16.262
 -43.152 16.082 -43.121 c 15.664 -43.047 15.324 -42.984 15.324 -42.707 c
 15.324 -42.543 15.461 -42.34 15.965 -42.34 c 16.57 -42.34 16.602 -42.762
 16.609 -42.91 c 16.617 -42.973 16.676 -42.973 16.699 -42.973 c 16.789 -42.973
 16.789 -42.934 16.789 -42.828 c h
16.789 -42.348 m S Q
19.152 3.287 m 19.152 3.377 l 19.145 3.377 l 19.145 3.4 l 19.137 3.4 l 
19.137 3.408 l 19.129 3.408 l 19.129 3.412 l 19.121 3.412 l 19.113 3.42 
l 19.074 3.42 l 19.055 3.42 19.047 3.42 18.973 3.361 c 18.965 3.353 18.91
 3.31 18.883 3.287 c 18.723 3.392 18.52 3.42 18.324 3.42 c 17.574 3.42 17.402
 3.033 17.402 2.767 c 17.402 2.603 17.473 2.47 17.598 2.365 c 17.801 2.193
 17.996 2.154 18.324 2.099 c 18.59 2.056 19.008 1.982 19.008 1.634 c 19.008
 1.435 18.867 1.193 18.363 1.193 c 17.859 1.193 17.68 1.517 17.582 1.877
 c 17.57 1.943 17.563 1.966 17.492 1.966 c 17.402 1.966 17.402 1.927 17.402
 1.822 c 17.402 1.177 l 17.402 1.088 17.402 1.045 17.473 1.045 c 17.523 
1.045 17.621 1.158 17.727 1.267 c 17.957 1.052 18.242 1.045 18.363 1.045
 c 19.047 1.045 19.301 1.412 19.301 1.779 c 19.301 1.982 19.211 2.138 19.074
 2.259 c 18.875 2.439 18.633 2.482 18.453 2.513 c 18.035 2.588 17.688 2.65
 17.688 2.927 c 17.688 3.091 17.832 3.295 18.324 3.295 c 18.941 3.295 18.965
 2.873 18.973 2.724 c 18.977 2.662 19.047 2.662 19.063 2.662 c 19.152 2.662
 19.152 2.701 19.152 2.806 c h
19.152 3.287 m f*
q 1 0 0 1 0 45.634411 cm
19.152 -42.348 m 19.152 -42.258 l 19.145 -42.258 l 19.145 -42.234 l 19.137
 -42.234 l 19.137 -42.227 l 19.129 -42.227 l 19.129 -42.223 l 19.121 -42.223
 l 19.113 -42.215 l 19.074 -42.215 l 19.055 -42.215 19.047 -42.215 18.973
 -42.273 c 18.965 -42.281 18.91 -42.324 18.883 -42.348 c 18.723 -42.242 
18.52 -42.215 18.324 -42.215 c 17.574 -42.215 17.402 -42.602 17.402 -42.867
 c 17.402 -43.031 17.473 -43.164 17.598 -43.27 c 17.801 -43.441 17.996 -43.48
 18.324 -43.535 c 18.59 -43.578 19.008 -43.652 19.008 -44 c 19.008 -44.199
 18.867 -44.441 18.363 -44.441 c 17.859 -44.441 17.68 -44.117 17.582 -43.758
 c 17.57 -43.691 17.563 -43.668 17.492 -43.668 c 17.402 -43.668 17.402 -43.707
 17.402 -43.813 c 17.402 -44.457 l 17.402 -44.547 17.402 -44.59 17.473 -44.59
 c 17.523 -44.59 17.621 -44.477 17.727 -44.367 c 17.957 -44.582 18.242 -44.59
 18.363 -44.59 c 19.047 -44.59 19.301 -44.223 19.301 -43.855 c 19.301 -43.652
 19.211 -43.496 19.074 -43.375 c 18.875 -43.195 18.633 -43.152 18.453 -43.121
 c 18.035 -43.047 17.688 -42.984 17.688 -42.707 c 17.688 -42.543 17.832 
-42.34 18.324 -42.34 c 18.941 -42.34 18.965 -42.762 18.973 -42.91 c 18.977
 -42.973 19.047 -42.973 19.063 -42.973 c 19.152 -42.973 19.152 -42.934 19.152
 -42.828 c h
19.152 -42.348 m S Q
21.422 2.22 m 21.422 2.31 l 21.414 2.357 l 21.414 2.4 l 21.41 2.439 l 21.41
 2.474 l 21.402 2.521 l 21.395 2.552 l 21.379 2.588 l 21.371 2.627 l 21.363
 2.658 l 21.348 2.685 l 21.34 2.716 l 21.324 2.748 l 21.313 2.775 l 21.297
 2.798 l 21.281 2.83 l 21.258 2.849 l 21.242 2.865 l 21.227 2.888 l 21.207
 2.912 l 21.184 2.927 l 21.168 2.943 l 21.145 2.955 l 21.125 2.963 l 21.102
 2.978 l 21.07 2.986 l 21.047 2.994 l 21.027 3.002 l 20.996 3.002 l 20.973
 3.009 l 20.945 3.009 l 20.695 3.009 20.555 2.822 20.555 2.611 c 20.555 
2.408 20.695 2.213 20.945 2.213 c 21.035 2.213 21.133 2.252 21.207 2.31 
c 21.227 2.326 21.234 2.334 21.242 2.334 c 21.25 2.334 21.258 2.326 21.258
 2.22 c 21.258 1.673 20.996 1.224 20.75 0.982 c 20.664 0.9 20.664 0.884 
20.664 0.865 c 20.664 0.81 20.703 0.783 20.742 0.783 c 20.824 0.783 21.422
 1.349 21.422 2.22 c h
21.422 2.22 m f*
q 1 0 0 1 0 45.634411 cm
21.422 -43.414 m 21.422 -43.324 l 21.414 -43.277 l 21.414 -43.234 l 21.41
 -43.195 l 21.41 -43.16 l 21.402 -43.113 l 21.395 -43.082 l 21.379 -43.047
 l 21.371 -43.008 l 21.363 -42.977 l 21.348 -42.949 l 21.34 -42.918 l 21.324
 -42.887 l 21.313 -42.859 l 21.297 -42.836 l 21.281 -42.805 l 21.258 -42.785
 l 21.242 -42.77 l 21.227 -42.746 l 21.207 -42.723 l 21.184 -42.707 l 21.168
 -42.691 l 21.145 -42.68 l 21.125 -42.672 l 21.102 -42.656 l 21.07 -42.648
 l 21.047 -42.641 l 21.027 -42.633 l 20.996 -42.633 l 20.973 -42.625 l 20.945
 -42.625 l 20.695 -42.625 20.555 -42.813 20.555 -43.023 c 20.555 -43.227
 20.695 -43.422 20.945 -43.422 c 21.035 -43.422 21.133 -43.383 21.207 -43.324
 c 21.227 -43.309 21.234 -43.301 21.242 -43.301 c 21.25 -43.301 21.258 -43.309
 21.258 -43.414 c 21.258 -43.961 20.996 -44.41 20.75 -44.652 c 20.664 -44.734
 20.664 -44.75 20.664 -44.77 c 20.664 -44.824 20.703 -44.852 20.742 -44.852
 c 20.824 -44.852 21.422 -44.285 21.422 -43.414 c h
21.422 -43.414 m S Q
26.867 5.056 m 26.867 5.072 l 26.875 5.088 l 26.875 5.107 l 26.883 5.115
 l 26.883 5.138 l 26.891 5.146 l 26.891 5.228 l 26.891 5.365 26.785 5.431
 26.68 5.431 c 26.605 5.431 26.484 5.384 26.418 5.275 c 26.402 5.236 26.344
 5.006 26.313 4.869 c 26.262 4.673 26.207 4.47 26.164 4.275 c 25.824 2.935
 l 25.797 2.822 25.473 2.295 24.977 2.295 c 24.598 2.295 24.512 2.627 24.512
 2.904 c 24.512 3.248 24.641 3.705 24.895 4.365 c 25.016 4.666 25.047 4.748
 25.047 4.9 c 25.047 5.236 24.805 5.513 24.43 5.513 c 23.727 5.513 23.449
 4.427 23.449 4.365 c 23.449 4.291 23.523 4.291 23.539 4.291 c 23.613 4.291
 23.621 4.306 23.66 4.42 c 23.859 5.123 24.16 5.349 24.41 5.349 c 24.469
 5.349 24.598 5.349 24.598 5.107 c 24.598 4.92 24.52 4.724 24.469 4.584 
c 24.176 3.795 24.035 3.377 24.035 3.025 c 24.035 2.357 24.508 2.138 24.949
 2.138 c 25.242 2.138 25.496 2.259 25.707 2.47 c 25.609 2.088 25.52 1.72
 25.219 1.322 c 25.023 1.072 24.738 0.857 24.395 0.857 c 24.289 0.857 23.957
 0.881 23.832 1.162 c 23.949 1.162 24.039 1.162 24.145 1.256 c 24.223 1.322
 24.297 1.42 24.297 1.56 c 24.297 1.795 24.102 1.822 24.02 1.822 c 23.852
 1.822 23.605 1.705 23.605 1.338 c 23.605 0.97 23.938 0.693 24.395 0.693
 c 25.164 0.693 25.938 1.365 26.148 2.205 c h
26.867 5.056 m f*
q 1 0 0 1 0 45.634411 cm
26.867 -40.578 m 26.867 -40.563 l 26.875 -40.547 l 26.875 -40.527 l 26.883
 -40.52 l 26.883 -40.496 l 26.891 -40.488 l 26.891 -40.406 l 26.891 -40.27
 26.785 -40.203 26.68 -40.203 c 26.605 -40.203 26.484 -40.25 26.418 -40.359
 c 26.402 -40.398 26.344 -40.629 26.313 -40.766 c 26.262 -40.961 26.207 
-41.164 26.164 -41.359 c 25.824 -42.699 l 25.797 -42.813 25.473 -43.34 24.977
 -43.34 c 24.598 -43.34 24.512 -43.008 24.512 -42.73 c 24.512 -42.387 24.641
 -41.93 24.895 -41.27 c 25.016 -40.969 25.047 -40.887 25.047 -40.734 c 25.047
 -40.398 24.805 -40.121 24.43 -40.121 c 23.727 -40.121 23.449 -41.207 23.449
 -41.27 c 23.449 -41.344 23.523 -41.344 23.539 -41.344 c 23.613 -41.344 
23.621 -41.328 23.66 -41.215 c 23.859 -40.512 24.16 -40.285 24.41 -40.285
 c 24.469 -40.285 24.598 -40.285 24.598 -40.527 c 24.598 -40.715 24.52 -40.91
 24.469 -41.051 c 24.176 -41.84 24.035 -42.258 24.035 -42.609 c 24.035 -43.277
 24.508 -43.496 24.949 -43.496 c 25.242 -43.496 25.496 -43.375 25.707 -43.164
 c 25.609 -43.547 25.52 -43.914 25.219 -44.313 c 25.023 -44.563 24.738 -44.777
 24.395 -44.777 c 24.289 -44.777 23.957 -44.754 23.832 -44.473 c 23.949 
-44.473 24.039 -44.473 24.145 -44.379 c 24.223 -44.313 24.297 -44.215 24.297
 -44.074 c 24.297 -43.84 24.102 -43.813 24.02 -43.813 c 23.852 -43.813 23.605
 -43.93 23.605 -44.297 c 23.605 -44.664 23.938 -44.941 24.395 -44.941 c 
25.164 -44.941 25.938 -44.27 26.148 -43.43 c h
26.867 -40.578 m S Q
28.348 0.271 m 28.172 0.271 l 28.164 0.279 l 28.09 0.279 l 28.074 0.287
 l 28.063 0.287 l 28.047 0.295 l 28.031 0.295 l 28.016 0.31 l 28 0.318 l
 27.992 0.318 l 27.984 0.33 l 27.984 0.338 l 27.977 0.345 l 27.973 0.353
 l 27.973 0.369 l 27.965 0.377 l 27.965 0.392 l 27.957 0.408 l 27.957 1.349
 l 27.977 1.322 28.227 1.045 28.668 1.045 c 28.637 1.193 l 28.172 1.193 
27.973 1.591 27.957 1.623 c 27.957 2.838 l 28.113 3.091 28.414 3.232 28.691
 3.232 c 29.133 3.232 29.477 2.767 29.477 2.22 c 29.477 1.631 29.082 1.193
 28.637 1.193 c 28.668 1.045 l 29.359 1.045 29.949 1.56 29.949 2.22 c 29.949
 2.865 29.418 3.4 28.75 3.4 c 28.449 3.4 28.152 3.287 27.934 3.076 c 27.934
 3.4 l 27.145 3.338 l 27.145 3.15 l 27.512 3.15 27.543 3.131 27.543 2.904
 c 27.543 0.498 l 27.543 0.271 27.492 0.271 27.145 0.271 c 27.145 0.084 
l 27.16 0.084 27.52 0.107 27.746 0.107 c 27.941 0.107 28.301 0.091 28.348
 0.084 c h
28.348 0.271 m f*
q 1 0 0 1 0 45.634411 cm
28.348 -45.363 m 28.172 -45.363 l 28.164 -45.355 l 28.09 -45.355 l 28.074
 -45.348 l 28.063 -45.348 l 28.047 -45.34 l 28.031 -45.34 l 28.016 -45.324
 l 28 -45.316 l 27.992 -45.316 l 27.984 -45.305 l 27.984 -45.297 l 27.977
 -45.289 l 27.973 -45.281 l 27.973 -45.266 l 27.965 -45.258 l 27.965 -45.242
 l 27.957 -45.227 l 27.957 -44.285 l 27.977 -44.313 28.227 -44.59 28.668
 -44.59 c 28.637 -44.441 l 28.172 -44.441 27.973 -44.043 27.957 -44.012 
c 27.957 -42.797 l 28.113 -42.543 28.414 -42.402 28.691 -42.402 c 29.133
 -42.402 29.477 -42.867 29.477 -43.414 c 29.477 -44.004 29.082 -44.441 28.637
 -44.441 c 28.668 -44.59 l 29.359 -44.59 29.949 -44.074 29.949 -43.414 c
 29.949 -42.77 29.418 -42.234 28.75 -42.234 c 28.449 -42.234 28.152 -42.348
 27.934 -42.559 c 27.934 -42.234 l 27.145 -42.297 l 27.145 -42.484 l 27.512
 -42.484 27.543 -42.504 27.543 -42.73 c 27.543 -45.137 l 27.543 -45.363 
27.492 -45.363 27.145 -45.363 c 27.145 -45.551 l 27.16 -45.551 27.52 -45.527
 27.746 -45.527 c 27.941 -45.527 28.301 -45.543 28.348 -45.551 c h
28.348 -45.363 m S Q
31.234 2.287 m 31.234 2.373 l 31.242 2.408 l 31.242 2.455 l 31.25 2.498
 l 31.258 2.537 l 31.262 2.58 l 31.27 2.619 l 31.285 2.662 l 31.293 2.701
 l 31.309 2.748 l 31.324 2.783 l 31.34 2.822 l 31.359 2.857 l 31.375 2.896
 l 31.398 2.935 l 31.422 2.963 l 31.445 3.002 l 31.465 3.033 l 31.496 3.06
 l 31.527 3.091 l 31.555 3.115 l 31.586 3.134 l 31.617 3.158 l 31.652 3.181
 l 31.684 3.197 l 31.723 3.213 l 31.766 3.224 l 31.805 3.24 l 31.848 3.24
 l 31.895 3.248 l 31.938 3.248 l 31.895 3.213 31.848 3.142 31.848 3.06 c
 31.848 2.888 31.984 2.822 32.082 2.822 c 32.207 2.822 32.328 2.904 32.328
 3.06 c 32.328 3.24 32.156 3.4 31.91 3.4 c 31.645 3.4 31.359 3.232 31.203
 2.838 c 31.195 2.838 l 31.195 3.4 l 30.445 3.338 l 30.445 3.15 l 30.797
 3.15 30.844 3.115 30.844 2.857 c 30.844 1.509 l 30.844 1.283 30.789 1.283
 30.445 1.283 c 30.445 1.095 l 30.477 1.095 30.828 1.119 31.047 1.119 c 
31.27 1.119 31.504 1.111 31.727 1.095 c 31.727 1.283 l 31.625 1.283 l 31.234
 1.283 31.234 1.345 31.234 1.517 c h
31.234 2.287 m f*
q 1 0 0 1 0 45.634411 cm
31.234 -43.348 m 31.234 -43.262 l 31.242 -43.227 l 31.242 -43.18 l 31.25
 -43.137 l 31.258 -43.098 l 31.262 -43.055 l 31.27 -43.016 l 31.285 -42.973
 l 31.293 -42.934 l 31.309 -42.887 l 31.324 -42.852 l 31.34 -42.813 l 31.359
 -42.777 l 31.375 -42.738 l 31.398 -42.699 l 31.422 -42.672 l 31.445 -42.633
 l 31.465 -42.602 l 31.496 -42.574 l 31.527 -42.543 l 31.555 -42.52 l 31.586
 -42.5 l 31.617 -42.477 l 31.652 -42.453 l 31.684 -42.438 l 31.723 -42.422
 l 31.766 -42.41 l 31.805 -42.395 l 31.848 -42.395 l 31.895 -42.387 l 31.938
 -42.387 l 31.895 -42.422 31.848 -42.492 31.848 -42.574 c 31.848 -42.746
 31.984 -42.813 32.082 -42.813 c 32.207 -42.813 32.328 -42.73 32.328 -42.574
 c 32.328 -42.395 32.156 -42.234 31.91 -42.234 c 31.645 -42.234 31.359 -42.402
 31.203 -42.797 c 31.195 -42.797 l 31.195 -42.234 l 30.445 -42.297 l 30.445
 -42.484 l 30.797 -42.484 30.844 -42.52 30.844 -42.777 c 30.844 -44.125 
l 30.844 -44.352 30.789 -44.352 30.445 -44.352 c 30.445 -44.539 l 30.477
 -44.539 30.828 -44.516 31.047 -44.516 c 31.27 -44.516 31.504 -44.523 31.727
 -44.539 c 31.727 -44.352 l 31.625 -44.352 l 31.234 -44.352 31.234 -44.289
 31.234 -44.117 c h
31.234 -43.348 m S Q
34.832 2.287 m 34.93 2.287 l 34.93 2.295 l 34.945 2.295 l 34.945 2.302 
l 34.953 2.302 l 34.969 2.318 l 34.969 2.334 l 34.977 2.334 l 34.977 2.4
 l 34.977 2.857 34.723 3.42 33.941 3.42 c 33.25 3.42 32.727 2.881 32.727
 2.236 c 32.727 1.576 33.313 1.045 34.008 1.045 c 34.723 1.045 34.977 1.607
 34.977 1.724 c 34.977 1.74 34.969 1.795 34.895 1.795 c 34.824 1.795 34.813
 1.763 34.797 1.713 c 34.633 1.291 34.234 1.209 34.047 1.209 c 33.797 1.209
 33.566 1.322 33.41 1.517 c 33.215 1.763 33.207 2.08 33.207 2.287 c 33.215
 2.423 l 33.266 3.158 33.746 3.279 33.941 3.279 c 34.586 3.279 34.609 2.552
 34.617 2.423 c 33.215 2.423 l 33.207 2.287 l h
34.832 2.287 m f*
q 1 0 0 1 0 45.634411 cm
34.832 -43.348 m 34.93 -43.348 l 34.93 -43.34 l 34.945 -43.34 l 34.945 
-43.332 l 34.953 -43.332 l 34.969 -43.316 l 34.969 -43.301 l 34.977 -43.301
 l 34.977 -43.234 l 34.977 -42.777 34.723 -42.215 33.941 -42.215 c 33.25
 -42.215 32.727 -42.754 32.727 -43.398 c 32.727 -44.059 33.313 -44.59 34.008
 -44.59 c 34.723 -44.59 34.977 -44.027 34.977 -43.91 c 34.977 -43.895 34.969
 -43.84 34.895 -43.84 c 34.824 -43.84 34.813 -43.871 34.797 -43.922 c 34.633
 -44.344 34.234 -44.426 34.047 -44.426 c 33.797 -44.426 33.566 -44.313 33.41
 -44.117 c 33.215 -43.871 33.207 -43.555 33.207 -43.348 c 33.215 -43.211
 l 33.266 -42.477 33.746 -42.355 33.941 -42.355 c 34.586 -42.355 34.609 
-43.082 34.617 -43.211 c 33.215 -43.211 l 33.207 -43.348 l h
34.832 -43.348 m S Q
37.164 3.287 m 37.164 3.377 l 37.16 3.384 l 37.16 3.4 l 37.152 3.4 l 37.152
 3.408 l 37.145 3.408 l 37.145 3.412 l 37.137 3.412 l 37.129 3.42 l 37.098
 3.42 l 37.07 3.42 37.063 3.42 36.992 3.361 c 36.977 3.353 36.926 3.31 36.895
 3.287 c 36.738 3.392 36.535 3.42 36.348 3.42 c 35.598 3.42 35.418 3.033
 35.418 2.767 c 35.418 2.603 35.492 2.47 35.621 2.365 c 35.816 2.193 36.02
 2.154 36.34 2.099 c 36.602 2.056 37.031 1.982 37.031 1.634 c 37.031 1.435
 36.887 1.193 36.387 1.193 c 35.875 1.193 35.695 1.517 35.598 1.877 c 35.582
 1.943 35.582 1.966 35.508 1.966 c 35.418 1.966 35.418 1.927 35.418 1.822
 c 35.418 1.177 l 35.418 1.088 35.418 1.045 35.492 1.045 c 35.539 1.045 
35.637 1.158 35.742 1.267 c 35.973 1.052 36.258 1.045 36.387 1.045 c 37.063
 1.045 37.316 1.412 37.316 1.779 c 37.316 1.982 37.227 2.138 37.09 2.259
 c 36.887 2.439 36.648 2.482 36.469 2.513 c 36.047 2.588 35.703 2.65 35.703
 2.927 c 35.703 3.091 35.848 3.295 36.348 3.295 c 36.957 3.295 36.977 2.873
 36.992 2.724 c 36.992 2.662 37.063 2.662 37.082 2.662 c 37.164 2.662 37.164
 2.701 37.164 2.806 c h
37.164 3.287 m f*
q 1 0 0 1 0 45.634411 cm
37.164 -42.348 m 37.164 -42.258 l 37.16 -42.25 l 37.16 -42.234 l 37.152
 -42.234 l 37.152 -42.227 l 37.145 -42.227 l 37.145 -42.223 l 37.137 -42.223
 l 37.129 -42.215 l 37.098 -42.215 l 37.07 -42.215 37.063 -42.215 36.992
 -42.273 c 36.977 -42.281 36.926 -42.324 36.895 -42.348 c 36.738 -42.242
 36.535 -42.215 36.348 -42.215 c 35.598 -42.215 35.418 -42.602 35.418 -42.867
 c 35.418 -43.031 35.492 -43.164 35.621 -43.27 c 35.816 -43.441 36.02 -43.48
 36.34 -43.535 c 36.602 -43.578 37.031 -43.652 37.031 -44 c 37.031 -44.199
 36.887 -44.441 36.387 -44.441 c 35.875 -44.441 35.695 -44.117 35.598 -43.758
 c 35.582 -43.691 35.582 -43.668 35.508 -43.668 c 35.418 -43.668 35.418 
-43.707 35.418 -43.813 c 35.418 -44.457 l 35.418 -44.547 35.418 -44.59 35.492
 -44.59 c 35.539 -44.59 35.637 -44.477 35.742 -44.367 c 35.973 -44.582 36.258
 -44.59 36.387 -44.59 c 37.063 -44.59 37.316 -44.223 37.316 -43.855 c 37.316
 -43.652 37.227 -43.496 37.09 -43.375 c 36.887 -43.195 36.648 -43.152 36.469
 -43.121 c 36.047 -43.047 35.703 -42.984 35.703 -42.707 c 35.703 -42.543
 35.848 -42.34 36.348 -42.34 c 36.957 -42.34 36.977 -42.762 36.992 -42.91
 c 36.992 -42.973 37.063 -42.973 37.082 -42.973 c 37.164 -42.973 37.164 
-42.934 37.164 -42.828 c h
37.164 -42.348 m S Q
39.535 3.287 m 39.535 3.369 l 39.527 3.377 l 39.527 3.392 l 39.52 3.4 l
 39.52 3.408 l 39.512 3.408 l 39.508 3.412 l 39.5 3.412 l 39.5 3.42 l 39.461
 3.42 l 39.438 3.42 39.422 3.42 39.355 3.361 c 39.348 3.353 39.297 3.31 
39.266 3.287 c 39.109 3.392 38.906 3.42 38.711 3.42 c 37.961 3.42 37.789
 3.033 37.789 2.767 c 37.789 2.603 37.855 2.47 37.984 2.365 c 38.188 2.193
 38.383 2.154 38.711 2.099 c 38.973 2.056 39.395 1.982 39.395 1.634 c 39.395
 1.435 39.25 1.193 38.75 1.193 c 38.246 1.193 38.066 1.517 37.969 1.877 
c 37.953 1.943 37.945 1.966 37.871 1.966 c 37.789 1.966 37.789 1.927 37.789
 1.822 c 37.789 1.177 l 37.789 1.088 37.789 1.045 37.855 1.045 c 37.91 1.045
 38.008 1.158 38.109 1.267 c 38.344 1.052 38.621 1.045 38.75 1.045 c 39.43
 1.045 39.688 1.412 39.688 1.779 c 39.688 1.982 39.598 2.138 39.461 2.259
 c 39.258 2.439 39.02 2.482 38.832 2.513 c 38.41 2.588 38.074 2.65 38.074
 2.927 c 38.074 3.091 38.215 3.295 38.711 3.295 c 39.32 3.295 39.348 2.873
 39.355 2.724 c 39.363 2.662 39.422 2.662 39.445 2.662 c 39.535 2.662 39.535
 2.701 39.535 2.806 c h
39.535 3.287 m f*
q 1 0 0 1 0 45.634411 cm
39.535 -42.348 m 39.535 -42.266 l 39.527 -42.258 l 39.527 -42.242 l 39.52
 -42.234 l 39.52 -42.227 l 39.512 -42.227 l 39.508 -42.223 l 39.5 -42.223
 l 39.5 -42.215 l 39.461 -42.215 l 39.438 -42.215 39.422 -42.215 39.355 
-42.273 c 39.348 -42.281 39.297 -42.324 39.266 -42.348 c 39.109 -42.242 
38.906 -42.215 38.711 -42.215 c 37.961 -42.215 37.789 -42.602 37.789 -42.867
 c 37.789 -43.031 37.855 -43.164 37.984 -43.27 c 38.188 -43.441 38.383 -43.48
 38.711 -43.535 c 38.973 -43.578 39.395 -43.652 39.395 -44 c 39.395 -44.199
 39.25 -44.441 38.75 -44.441 c 38.246 -44.441 38.066 -44.117 37.969 -43.758
 c 37.953 -43.691 37.945 -43.668 37.871 -43.668 c 37.789 -43.668 37.789 
-43.707 37.789 -43.813 c 37.789 -44.457 l 37.789 -44.547 37.789 -44.59 37.855
 -44.59 c 37.91 -44.59 38.008 -44.477 38.109 -44.367 c 38.344 -44.582 38.621
 -44.59 38.75 -44.59 c 39.43 -44.59 39.688 -44.223 39.688 -43.855 c 39.688
 -43.652 39.598 -43.496 39.461 -43.375 c 39.258 -43.195 39.02 -43.152 38.832
 -43.121 c 38.41 -43.047 38.074 -42.984 38.074 -42.707 c 38.074 -42.543 
38.215 -42.34 38.711 -42.34 c 39.32 -42.34 39.348 -42.762 39.355 -42.91 
c 39.363 -42.973 39.422 -42.973 39.445 -42.973 c 39.535 -42.973 39.535 -42.934
 39.535 -42.828 c h
39.535 -42.348 m S Q
42.453 4.08 m 42.453 4.193 l 42.445 4.256 l 42.445 4.314 l 42.438 4.443
 l 42.43 4.568 l 42.422 4.705 l 42.402 4.845 l 42.387 4.998 l 42.355 5.146
 l 42.332 5.295 l 42.297 5.455 l 42.258 5.611 l 42.207 5.767 l 42.152 5.927
 l 42.102 6.084 l 42.063 6.166 l 42.035 6.248 l 41.996 6.322 l 41.957 6.408
 l 41.508 7.322 40.863 7.802 40.789 7.802 c 40.742 7.802 40.715 7.779 40.715
 7.732 c 40.715 7.713 40.715 7.697 40.855 7.56 c 41.59 6.818 42.02 5.634
 42.02 4.08 c 42.02 2.806 41.742 1.494 40.813 0.556 c 40.715 0.466 40.715
 0.451 40.715 0.427 c 40.715 0.384 40.742 0.353 40.789 0.353 c 40.863 0.353
 41.539 0.865 41.98 1.81 c 42.363 2.627 42.453 3.451 42.453 4.08 c h
42.453 4.08 m f*
q 1 0 0 1 0 45.634411 cm
42.453 -41.555 m 42.453 -41.441 l 42.445 -41.379 l 42.445 -41.32 l 42.438
 -41.191 l 42.43 -41.066 l 42.422 -40.93 l 42.402 -40.789 l 42.387 -40.637
 l 42.355 -40.488 l 42.332 -40.34 l 42.297 -40.18 l 42.258 -40.023 l 42.207
 -39.867 l 42.152 -39.707 l 42.102 -39.551 l 42.063 -39.469 l 42.035 -39.387
 l 41.996 -39.313 l 41.957 -39.227 l 41.508 -38.313 40.863 -37.832 40.789
 -37.832 c 40.742 -37.832 40.715 -37.855 40.715 -37.902 c 40.715 -37.922
 40.715 -37.938 40.855 -38.074 c 41.59 -38.816 42.02 -40 42.02 -41.555 c
 42.02 -42.828 41.742 -44.141 40.813 -45.078 c 40.715 -45.168 40.715 -45.184
 40.715 -45.207 c 40.715 -45.25 40.742 -45.281 40.789 -45.281 c 40.863 -45.281
 41.539 -44.77 41.98 -43.824 c 42.363 -43.008 42.453 -42.184 42.453 -41.555
 c h
42.453 -41.555 m S Q
0 g
23.781 19.474 m 23.781 19.498 l 23.773 19.502 l 23.773 19.509 l 23.758 
19.525 l 23.758 19.533 l 23.75 19.533 l 23.75 19.541 l 23.742 19.541 l 23.742
 19.548 l 23.734 19.548 l 23.734 19.556 l 23.711 19.58 l 23.707 19.588 l
 23.707 19.595 l 23.699 19.595 l 23.691 19.599 l 23.691 19.607 l 23.684 
19.607 l 23.676 19.615 l 23.676 19.623 l 23.668 19.623 l 23.652 19.638 l
 22.723 20.576 22.484 21.986 22.484 23.127 c 22.484 24.423 22.77 25.713 
23.684 26.65 c 23.781 26.74 23.781 26.756 23.781 26.779 c 23.781 26.83 23.75
 26.845 23.707 26.845 c 23.629 26.845 22.961 26.345 22.52 25.4 c 22.137 
24.58 22.047 23.748 22.047 23.127 c 22.047 22.541 22.129 21.642 22.543 20.802
 c 22.992 19.884 23.629 19.4 23.707 19.4 c 23.75 19.4 23.781 19.42 23.781
 19.474 c h
23.781 19.474 m f*
q 1 0 0 1 0 45.634411 cm
23.781 -26.16 m 23.781 -26.137 l 23.773 -26.133 l 23.773 -26.125 l 23.758
 -26.109 l 23.758 -26.102 l 23.75 -26.102 l 23.75 -26.094 l 23.742 -26.094
 l 23.742 -26.086 l 23.734 -26.086 l 23.734 -26.078 l 23.711 -26.055 l 23.707
 -26.047 l 23.707 -26.039 l 23.699 -26.039 l 23.691 -26.035 l 23.691 -26.027
 l 23.684 -26.027 l 23.676 -26.02 l 23.676 -26.012 l 23.668 -26.012 l 23.652
 -25.996 l 22.723 -25.059 22.484 -23.648 22.484 -22.508 c 22.484 -21.211
 22.77 -19.922 23.684 -18.984 c 23.781 -18.895 23.781 -18.879 23.781 -18.855
 c 23.781 -18.805 23.75 -18.789 23.707 -18.789 c 23.629 -18.789 22.961 -19.289
 22.52 -20.234 c 22.137 -21.055 22.047 -21.887 22.047 -22.508 c 22.047 -23.094
 22.129 -23.992 22.543 -24.832 c 22.992 -25.75 23.629 -26.234 23.707 -26.234
 c 23.75 -26.234 23.781 -26.215 23.781 -26.16 c h
23.781 -26.16 m S Q
26.711 23.509 m 26.711 23.533 l 26.719 23.552 l 26.727 23.576 l 26.734 
23.607 l 26.742 23.634 l 26.758 23.697 l 26.773 23.732 l 26.781 23.763 l
 26.797 23.802 l 26.809 23.838 l 26.824 23.877 l 26.84 23.912 l 26.863 23.951
 l 26.879 23.99 l 26.898 24.025 l 26.922 24.064 l 26.945 24.095 l 26.977
 24.131 l 26.996 24.162 l 27.027 24.197 l 27.059 24.228 l 27.086 24.259 
l 27.117 24.283 l 27.156 24.302 l 27.191 24.326 l 27.215 24.334 l 27.23 
24.349 l 27.254 24.357 l 27.27 24.365 l 27.289 24.373 l 27.313 24.373 l 
27.336 24.377 l 27.359 24.384 l 27.402 24.384 l 27.426 24.392 l 27.449 24.392
 l 27.492 24.392 27.664 24.392 27.824 24.295 c 27.613 24.259 27.469 24.072
 27.469 23.892 c 27.469 23.771 27.551 23.627 27.746 23.627 c 27.914 23.627
 28.152 23.763 28.152 24.064 c 28.152 24.455 27.711 24.56 27.457 24.56 c
 27.027 24.56 26.766 24.162 26.676 23.99 c 26.488 24.482 26.082 24.56 25.863
 24.56 c 25.086 24.56 24.656 23.591 24.656 23.412 c 24.656 23.338 24.738
 23.338 24.746 23.338 c 24.809 23.338 24.832 23.349 24.844 23.42 c 25.102
 24.205 25.594 24.392 25.852 24.392 c 25.992 24.392 26.254 24.326 26.254
 23.892 c 26.254 23.658 26.129 23.162 25.852 22.123 c 25.73 21.658 25.469
 21.341 25.137 21.341 c 25.094 21.341 24.922 21.341 24.762 21.439 c 24.949
 21.474 25.113 21.634 25.113 21.845 c 25.113 22.045 24.949 22.107 24.844
 22.107 c 24.621 22.107 24.434 21.912 24.434 21.67 c 24.434 21.326 24.809
 21.185 25.129 21.185 c 25.625 21.185 25.895 21.701 25.918 21.748 c 26.008
 21.47 26.277 21.185 26.727 21.185 c 27.492 21.185 27.922 22.142 27.922 
22.33 c 27.922 22.408 27.852 22.408 27.832 22.408 c 27.762 22.408 27.746
 22.377 27.734 22.322 c 27.492 21.521 26.984 21.341 26.742 21.341 c 26.449
 21.341 26.332 21.58 26.332 21.838 c 26.332 22.002 26.375 22.166 26.457 
22.49 c h
26.711 23.509 m f*
q 1 0 0 1 0 45.634411 cm
26.711 -22.125 m 26.711 -22.102 l 26.719 -22.082 l 26.727 -22.059 l 26.734
 -22.027 l 26.742 -22 l 26.758 -21.938 l 26.773 -21.902 l 26.781 -21.871
 l 26.797 -21.832 l 26.809 -21.797 l 26.824 -21.758 l 26.84 -21.723 l 26.863
 -21.684 l 26.879 -21.645 l 26.898 -21.609 l 26.922 -21.57 l 26.945 -21.539
 l 26.977 -21.504 l 26.996 -21.473 l 27.027 -21.438 l 27.059 -21.406 l 27.086
 -21.375 l 27.117 -21.352 l 27.156 -21.332 l 27.191 -21.309 l 27.215 -21.301
 l 27.23 -21.285 l 27.254 -21.277 l 27.27 -21.27 l 27.289 -21.262 l 27.313
 -21.262 l 27.336 -21.258 l 27.359 -21.25 l 27.402 -21.25 l 27.426 -21.242
 l 27.449 -21.242 l 27.492 -21.242 27.664 -21.242 27.824 -21.34 c 27.613
 -21.375 27.469 -21.563 27.469 -21.742 c 27.469 -21.863 27.551 -22.008 27.746
 -22.008 c 27.914 -22.008 28.152 -21.871 28.152 -21.57 c 28.152 -21.18 27.711
 -21.074 27.457 -21.074 c 27.027 -21.074 26.766 -21.473 26.676 -21.645 c
 26.488 -21.152 26.082 -21.074 25.863 -21.074 c 25.086 -21.074 24.656 -22.043
 24.656 -22.223 c 24.656 -22.297 24.738 -22.297 24.746 -22.297 c 24.809 
-22.297 24.832 -22.285 24.844 -22.215 c 25.102 -21.43 25.594 -21.242 25.852
 -21.242 c 25.992 -21.242 26.254 -21.309 26.254 -21.742 c 26.254 -21.977
 26.129 -22.473 25.852 -23.512 c 25.73 -23.977 25.469 -24.293 25.137 -24.293
 c 25.094 -24.293 24.922 -24.293 24.762 -24.195 c 24.949 -24.16 25.113 -24
 25.113 -23.789 c 25.113 -23.59 24.949 -23.527 24.844 -23.527 c 24.621 -23.527
 24.434 -23.723 24.434 -23.965 c 24.434 -24.309 24.809 -24.449 25.129 -24.449
 c 25.625 -24.449 25.895 -23.934 25.918 -23.887 c 26.008 -24.164 26.277 
-24.449 26.727 -24.449 c 27.492 -24.449 27.922 -23.492 27.922 -23.305 c 
27.922 -23.227 27.852 -23.227 27.832 -23.227 c 27.762 -23.227 27.746 -23.258
 27.734 -23.313 c 27.492 -24.113 26.984 -24.293 26.742 -24.293 c 26.449 
-24.293 26.332 -24.055 26.332 -23.797 c 26.332 -23.633 26.375 -23.469 26.457
 -23.145 c h
26.711 -22.125 m S Q
30.793 21.334 m 30.883 21.334 l 30.891 21.341 l 30.898 21.341 l 30.906 
21.349 l 30.914 21.349 l 30.922 21.357 l 30.922 21.365 l 30.926 21.373 l
 30.926 21.377 l 30.934 21.384 l 30.934 21.447 l 30.934 21.904 30.68 22.466
 29.898 22.466 c 29.211 22.466 28.684 21.927 28.684 21.283 c 28.684 20.623
 29.27 20.088 29.969 20.088 c 30.672 20.088 30.934 20.65 30.934 20.771 c
 30.934 20.787 30.926 20.838 30.844 20.838 c 30.777 20.838 30.77 20.81 30.754
 20.756 c 30.59 20.338 30.191 20.252 30.004 20.252 c 29.758 20.252 29.52
 20.365 29.367 20.56 c 29.172 20.81 29.164 21.123 29.164 21.334 c 29.172
 21.47 l 29.227 22.205 29.699 22.322 29.898 22.322 c 30.547 22.322 30.566
 21.595 30.566 21.47 c 29.172 21.47 l 29.164 21.334 l h
30.793 21.334 m f*
q 1 0 0 1 0 45.634411 cm
30.793 -24.301 m 30.883 -24.301 l 30.891 -24.293 l 30.898 -24.293 l 30.906
 -24.285 l 30.914 -24.285 l 30.922 -24.277 l 30.922 -24.27 l 30.926 -24.262
 l 30.926 -24.258 l 30.934 -24.25 l 30.934 -24.188 l 30.934 -23.73 30.68
 -23.168 29.898 -23.168 c 29.211 -23.168 28.684 -23.707 28.684 -24.352 c
 28.684 -25.012 29.27 -25.547 29.969 -25.547 c 30.672 -25.547 30.934 -24.984
 30.934 -24.863 c 30.934 -24.848 30.926 -24.797 30.844 -24.797 c 30.777 
-24.797 30.77 -24.824 30.754 -24.879 c 30.59 -25.297 30.191 -25.383 30.004
 -25.383 c 29.758 -25.383 29.52 -25.27 29.367 -25.074 c 29.172 -24.824 29.164
 -24.512 29.164 -24.301 c 29.172 -24.164 l 29.227 -23.43 29.699 -23.313 
29.898 -23.313 c 30.547 -23.313 30.566 -24.039 30.566 -24.164 c 29.172 -24.164
 l 29.164 -24.301 l h
30.793 -24.301 m S Q
33.125 22.33 m 33.125 22.42 l 33.117 22.42 l 33.117 22.443 l 33.109 22.443
 l 33.109 22.451 l 33.102 22.451 l 33.102 22.459 l 33.094 22.459 l 33.086
 22.466 l 33.059 22.466 l 33.027 22.466 33.02 22.466 32.953 22.408 c 32.938
 22.4 32.887 22.353 32.855 22.33 c 32.699 22.435 32.496 22.466 32.309 22.466
 c 31.559 22.466 31.379 22.076 31.379 21.814 c 31.379 21.65 31.453 21.513
 31.574 21.408 c 31.773 21.236 31.969 21.197 32.301 21.146 c 32.563 21.099
 32.984 21.025 32.984 20.681 c 32.984 20.478 32.848 20.24 32.336 20.24 c
 31.836 20.24 31.656 20.56 31.559 20.92 c 31.543 20.99 31.535 21.009 31.469
 21.009 c 31.379 21.009 31.379 20.974 31.379 20.869 c 31.379 20.224 l 31.379
 20.134 31.379 20.088 31.453 20.088 c 31.496 20.088 31.594 20.201 31.699
 20.314 c 31.934 20.095 32.219 20.088 32.336 20.088 c 33.02 20.088 33.273
 20.455 33.273 20.822 c 33.273 21.025 33.184 21.185 33.051 21.302 c 32.848
 21.482 32.609 21.529 32.426 21.56 c 32.008 21.634 31.664 21.693 31.664 
21.97 c 31.664 22.134 31.805 22.338 32.309 22.338 c 32.914 22.338 32.938
 21.92 32.953 21.767 c 32.953 21.709 33.02 21.709 33.035 21.709 c 33.125
 21.709 33.125 21.748 33.125 21.849 c h
33.125 22.33 m f*
q 1 0 0 1 0 45.634411 cm
33.125 -23.305 m 33.125 -23.215 l 33.117 -23.215 l 33.117 -23.191 l 33.109
 -23.191 l 33.109 -23.184 l 33.102 -23.184 l 33.102 -23.176 l 33.094 -23.176
 l 33.086 -23.168 l 33.059 -23.168 l 33.027 -23.168 33.02 -23.168 32.953
 -23.227 c 32.938 -23.234 32.887 -23.281 32.855 -23.305 c 32.699 -23.199
 32.496 -23.168 32.309 -23.168 c 31.559 -23.168 31.379 -23.559 31.379 -23.82
 c 31.379 -23.984 31.453 -24.121 31.574 -24.227 c 31.773 -24.398 31.969 
-24.438 32.301 -24.488 c 32.563 -24.535 32.984 -24.609 32.984 -24.953 c 
32.984 -25.156 32.848 -25.395 32.336 -25.395 c 31.836 -25.395 31.656 -25.074
 31.559 -24.715 c 31.543 -24.645 31.535 -24.625 31.469 -24.625 c 31.379 
-24.625 31.379 -24.66 31.379 -24.766 c 31.379 -25.41 l 31.379 -25.5 31.379
 -25.547 31.453 -25.547 c 31.496 -25.547 31.594 -25.434 31.699 -25.32 c 
31.934 -25.539 32.219 -25.547 32.336 -25.547 c 33.02 -25.547 33.273 -25.18
 33.273 -24.813 c 33.273 -24.609 33.184 -24.449 33.051 -24.332 c 32.848 
-24.152 32.609 -24.105 32.426 -24.074 c 32.008 -24 31.664 -23.941 31.664
 -23.664 c 31.664 -23.5 31.805 -23.297 32.309 -23.297 c 32.914 -23.297 32.938
 -23.715 32.953 -23.867 c 32.953 -23.926 33.02 -23.926 33.035 -23.926 c 
33.125 -23.926 33.125 -23.887 33.125 -23.785 c h
33.125 -23.305 m S Q
34.559 22.205 m 35.383 22.205 l 35.383 22.392 l 34.559 22.392 l 34.559 
23.349 l 34.387 23.349 l 34.379 22.877 34.16 22.361 33.656 22.345 c 33.656
 22.205 l 34.145 22.205 l 34.145 20.795 l 34.145 20.209 34.586 20.088 34.879
 20.088 c 35.234 20.088 35.473 20.388 35.473 20.802 c 35.473 21.088 l 35.293
 21.088 l 35.293 20.802 l 35.293 20.447 35.129 20.252 34.926 20.252 c 34.559
 20.252 34.559 20.697 34.559 20.787 c h
34.559 22.205 m f*
q 1 0 0 1 0 45.634411 cm
34.559 -23.43 m 35.383 -23.43 l 35.383 -23.242 l 34.559 -23.242 l 34.559
 -22.285 l 34.387 -22.285 l 34.379 -22.758 34.16 -23.273 33.656 -23.289 
c 33.656 -23.43 l 34.145 -23.43 l 34.145 -24.84 l 34.145 -25.426 34.586 
-25.547 34.879 -25.547 c 35.234 -25.547 35.473 -25.246 35.473 -24.832 c 
35.473 -24.547 l 35.293 -24.547 l 35.293 -24.832 l 35.293 -25.188 35.129
 -25.383 34.926 -25.383 c 34.559 -25.383 34.559 -24.938 34.559 -24.848 c
 h
34.559 -23.43 m S Q
37.738 21.267 m 37.73 21.318 l 37.73 21.4 l 37.723 21.447 l 37.723 21.482
 l 37.715 21.521 l 37.707 21.564 l 37.699 21.595 l 37.691 21.634 l 37.684
 21.67 l 37.672 21.701 l 37.664 21.732 l 37.648 21.759 l 37.617 21.822 l
 37.602 21.845 l 37.586 21.873 l 37.574 21.896 l 37.551 21.912 l 37.535 
21.935 l 37.512 21.955 l 37.496 21.97 l 37.477 21.986 l 37.453 22.002 l 
37.43 22.009 l 37.406 22.025 l 37.387 22.033 l 37.363 22.037 l 37.332 22.045
 l 37.309 22.045 l 37.281 22.052 l 37.258 22.052 l 37.012 22.052 36.859 
21.865 36.859 21.658 c 36.859 21.455 37.012 21.259 37.258 21.259 c 37.348
 21.259 37.445 21.295 37.52 21.357 c 37.543 21.373 37.551 21.377 37.559 
21.377 c 37.566 21.377 37.574 21.373 37.574 21.267 c 37.574 20.72 37.309
 20.267 37.063 20.029 c 36.98 19.947 36.98 19.931 36.98 19.908 c 36.98 19.857
 37.02 19.826 37.055 19.826 c 37.137 19.826 37.738 20.396 37.738 21.267 
c h
37.738 21.267 m f*
q 1 0 0 1 0 45.634411 cm
37.738 -24.367 m 37.73 -24.316 l 37.73 -24.234 l 37.723 -24.188 l 37.723
 -24.152 l 37.715 -24.113 l 37.707 -24.07 l 37.699 -24.039 l 37.691 -24 
l 37.684 -23.965 l 37.672 -23.934 l 37.664 -23.902 l 37.648 -23.875 l 37.617
 -23.813 l 37.602 -23.789 l 37.586 -23.762 l 37.574 -23.738 l 37.551 -23.723
 l 37.535 -23.699 l 37.512 -23.68 l 37.496 -23.664 l 37.477 -23.648 l 37.453
 -23.633 l 37.43 -23.625 l 37.406 -23.609 l 37.387 -23.602 l 37.363 -23.598
 l 37.332 -23.59 l 37.309 -23.59 l 37.281 -23.582 l 37.258 -23.582 l 37.012
 -23.582 36.859 -23.77 36.859 -23.977 c 36.859 -24.18 37.012 -24.375 37.258
 -24.375 c 37.348 -24.375 37.445 -24.34 37.52 -24.277 c 37.543 -24.262 37.551
 -24.258 37.559 -24.258 c 37.566 -24.258 37.574 -24.262 37.574 -24.367 c
 37.574 -24.914 37.309 -25.367 37.063 -25.605 c 36.98 -25.688 36.98 -25.703
 36.98 -25.727 c 36.98 -25.777 37.02 -25.809 37.055 -25.809 c 37.137 -25.809
 37.738 -25.238 37.738 -24.367 c h
37.738 -24.367 m S Q
43.176 24.099 m 43.176 24.115 l 43.184 24.115 l 43.184 24.146 l 43.191 
24.154 l 43.191 24.17 l 43.199 24.177 l 43.199 24.213 l 43.207 24.213 l 
43.207 24.275 l 43.207 24.408 43.102 24.474 42.988 24.474 c 42.914 24.474
 42.793 24.431 42.727 24.318 c 42.711 24.283 42.648 24.048 42.621 23.912
 c 42.566 23.72 42.516 23.517 42.469 23.322 c 42.133 21.978 l 42.102 21.865
 41.781 21.341 41.293 21.341 c 40.91 21.341 40.828 21.67 40.828 21.947 c
 40.828 22.295 40.957 22.752 41.211 23.412 c 41.332 23.713 41.359 23.795
 41.359 23.943 c 41.359 24.283 41.121 24.56 40.746 24.56 c 40.031 24.56 
39.754 23.47 39.754 23.412 c 39.754 23.338 39.832 23.338 39.844 23.338 c
 39.922 23.338 39.926 23.349 39.965 23.463 c 40.168 24.17 40.469 24.392 
40.723 24.392 c 40.781 24.392 40.91 24.392 40.91 24.154 c 40.91 23.966 40.836
 23.771 40.781 23.627 c 40.484 22.841 40.348 22.42 40.348 22.068 c 40.348
 21.4 40.82 21.185 41.262 21.185 c 41.555 21.185 41.801 21.302 42.012 21.513
 c 41.914 21.131 41.824 20.763 41.531 20.365 c 41.336 20.119 41.051 19.9
 40.707 19.9 c 40.602 19.9 40.266 19.923 40.137 20.209 c 40.258 20.209 40.355
 20.209 40.461 20.298 c 40.535 20.365 40.609 20.463 40.609 20.607 c 40.609
 20.838 40.406 20.869 40.332 20.869 c 40.16 20.869 39.914 20.748 39.914 
20.381 c 39.914 20.013 40.242 19.736 40.707 19.736 c 41.473 19.736 42.246
 20.412 42.457 21.252 c h
43.176 24.099 m f*
q 1 0 0 1 0 45.634411 cm
43.176 -21.535 m 43.176 -21.52 l 43.184 -21.52 l 43.184 -21.488 l 43.191
 -21.48 l 43.191 -21.465 l 43.199 -21.457 l 43.199 -21.422 l 43.207 -21.422
 l 43.207 -21.359 l 43.207 -21.227 43.102 -21.16 42.988 -21.16 c 42.914 
-21.16 42.793 -21.203 42.727 -21.316 c 42.711 -21.352 42.648 -21.586 42.621
 -21.723 c 42.566 -21.914 42.516 -22.117 42.469 -22.313 c 42.133 -23.656
 l 42.102 -23.77 41.781 -24.293 41.293 -24.293 c 40.91 -24.293 40.828 -23.965
 40.828 -23.688 c 40.828 -23.34 40.957 -22.883 41.211 -22.223 c 41.332 -21.922
 41.359 -21.84 41.359 -21.691 c 41.359 -21.352 41.121 -21.074 40.746 -21.074
 c 40.031 -21.074 39.754 -22.164 39.754 -22.223 c 39.754 -22.297 39.832 
-22.297 39.844 -22.297 c 39.922 -22.297 39.926 -22.285 39.965 -22.172 c 
40.168 -21.465 40.469 -21.242 40.723 -21.242 c 40.781 -21.242 40.91 -21.242
 40.91 -21.48 c 40.91 -21.668 40.836 -21.863 40.781 -22.008 c 40.484 -22.793
 40.348 -23.215 40.348 -23.566 c 40.348 -24.234 40.82 -24.449 41.262 -24.449
 c 41.555 -24.449 41.801 -24.332 42.012 -24.121 c 41.914 -24.504 41.824 
-24.871 41.531 -25.27 c 41.336 -25.516 41.051 -25.734 40.707 -25.734 c 40.602
 -25.734 40.266 -25.711 40.137 -25.426 c 40.258 -25.426 40.355 -25.426 40.461
 -25.336 c 40.535 -25.27 40.609 -25.172 40.609 -25.027 c 40.609 -24.797 
40.406 -24.766 40.332 -24.766 c 40.16 -24.766 39.914 -24.887 39.914 -25.254
 c 39.914 -25.621 40.242 -25.898 40.707 -25.898 c 41.473 -25.898 42.246 
-25.223 42.457 -24.383 c h
43.176 -21.535 m S Q
45.508 21.334 m 45.605 21.334 l 45.605 21.341 l 45.621 21.341 l 45.621 
21.349 l 45.629 21.349 l 45.645 21.365 l 45.645 21.377 l 45.648 21.377 l
 45.648 21.439 l 45.656 21.447 l 45.656 21.904 45.395 22.466 44.613 22.466
 c 43.934 22.466 43.406 21.927 43.406 21.283 c 43.406 20.623 43.984 20.088
 44.684 20.088 c 45.395 20.088 45.656 20.65 45.656 20.771 c 45.656 20.787
 45.645 20.838 45.566 20.838 c 45.492 20.838 45.484 20.81 45.469 20.756 
c 45.305 20.338 44.906 20.252 44.719 20.252 c 44.473 20.252 44.238 20.365
 44.082 20.56 c 43.887 20.81 43.879 21.123 43.879 21.334 c 43.887 21.47 
l 43.949 22.205 44.414 22.322 44.613 22.322 c 45.262 22.322 45.281 21.595
 45.289 21.47 c 43.887 21.47 l 43.879 21.334 l h
45.508 21.334 m f*
q 1 0 0 1 0 45.634411 cm
45.508 -24.301 m 45.605 -24.301 l 45.605 -24.293 l 45.621 -24.293 l 45.621
 -24.285 l 45.629 -24.285 l 45.645 -24.27 l 45.645 -24.258 l 45.648 -24.258
 l 45.648 -24.195 l 45.656 -24.188 l 45.656 -23.73 45.395 -23.168 44.613
 -23.168 c 43.934 -23.168 43.406 -23.707 43.406 -24.352 c 43.406 -25.012
 43.984 -25.547 44.684 -25.547 c 45.395 -25.547 45.656 -24.984 45.656 -24.863
 c 45.656 -24.848 45.645 -24.797 45.566 -24.797 c 45.492 -24.797 45.484 
-24.824 45.469 -24.879 c 45.305 -25.297 44.906 -25.383 44.719 -25.383 c 
44.473 -25.383 44.238 -25.27 44.082 -25.074 c 43.887 -24.824 43.879 -24.512
 43.879 -24.301 c 43.887 -24.164 l 43.949 -23.43 44.414 -23.313 44.613 -23.313
 c 45.262 -23.313 45.281 -24.039 45.289 -24.164 c 43.887 -24.164 l 43.879
 -24.301 l h
45.508 -24.301 m S Q
47.848 22.33 m 47.84 22.338 l 47.84 22.42 l 47.832 22.427 l 47.832 22.443
 l 47.824 22.443 l 47.824 22.451 l 47.816 22.451 l 47.816 22.459 l 47.809
 22.459 l 47.801 22.466 l 47.773 22.466 l 47.742 22.466 47.734 22.466 47.668
 22.408 c 47.652 22.4 47.602 22.353 47.57 22.33 c 47.414 22.435 47.219 22.466
 47.023 22.466 c 46.273 22.466 46.094 22.076 46.094 21.814 c 46.094 21.65
 46.168 21.513 46.289 21.408 c 46.488 21.236 46.691 21.197 47.016 21.146
 c 47.277 21.099 47.707 21.025 47.707 20.681 c 47.707 20.478 47.563 20.24
 47.059 20.24 c 46.559 20.24 46.371 20.56 46.273 20.92 c 46.258 20.99 46.258
 21.009 46.184 21.009 c 46.094 21.009 46.094 20.974 46.094 20.869 c 46.094
 20.224 l 46.094 20.134 46.094 20.088 46.168 20.088 c 46.211 20.088 46.309
 20.201 46.414 20.314 c 46.648 20.095 46.934 20.088 47.059 20.088 c 47.742
 20.088 47.988 20.455 47.988 20.822 c 47.988 21.025 47.898 21.185 47.766
 21.302 c 47.563 21.482 47.324 21.529 47.145 21.56 c 46.723 21.634 46.379
 21.693 46.379 21.97 c 46.379 22.134 46.52 22.338 47.023 22.338 c 47.629
 22.338 47.652 21.92 47.668 21.767 c 47.668 21.709 47.734 21.709 47.758 
21.709 c 47.848 21.709 47.848 21.748 47.848 21.849 c h
47.848 22.33 m f*
q 1 0 0 1 0 45.634411 cm
47.848 -23.305 m 47.84 -23.297 l 47.84 -23.215 l 47.832 -23.207 l 47.832
 -23.191 l 47.824 -23.191 l 47.824 -23.184 l 47.816 -23.184 l 47.816 -23.176
 l 47.809 -23.176 l 47.801 -23.168 l 47.773 -23.168 l 47.742 -23.168 47.734
 -23.168 47.668 -23.227 c 47.652 -23.234 47.602 -23.281 47.57 -23.305 c 
47.414 -23.199 47.219 -23.168 47.023 -23.168 c 46.273 -23.168 46.094 -23.559
 46.094 -23.82 c 46.094 -23.984 46.168 -24.121 46.289 -24.227 c 46.488 -24.398
 46.691 -24.438 47.016 -24.488 c 47.277 -24.535 47.707 -24.609 47.707 -24.953
 c 47.707 -25.156 47.563 -25.395 47.059 -25.395 c 46.559 -25.395 46.371 
-25.074 46.273 -24.715 c 46.258 -24.645 46.258 -24.625 46.184 -24.625 c 
46.094 -24.625 46.094 -24.66 46.094 -24.766 c 46.094 -25.41 l 46.094 -25.5
 46.094 -25.547 46.168 -25.547 c 46.211 -25.547 46.309 -25.434 46.414 -25.32
 c 46.648 -25.539 46.934 -25.547 47.059 -25.547 c 47.742 -25.547 47.988 
-25.18 47.988 -24.813 c 47.988 -24.609 47.898 -24.449 47.766 -24.332 c 47.563
 -24.152 47.324 -24.105 47.145 -24.074 c 46.723 -24 46.379 -23.941 46.379
 -23.664 c 46.379 -23.5 46.52 -23.297 47.023 -23.297 c 47.629 -23.297 47.652
 -23.715 47.668 -23.867 c 47.668 -23.926 47.734 -23.926 47.758 -23.926 c
 47.848 -23.926 47.848 -23.887 47.848 -23.785 c h
47.848 -23.305 m S Q
49.281 22.205 m 50.098 22.205 l 50.098 22.392 l 49.281 22.392 l 49.281 
23.349 l 49.102 23.349 l 49.094 22.877 48.883 22.361 48.371 22.345 c 48.371
 22.205 l 48.859 22.205 l 48.859 20.795 l 48.859 20.209 49.301 20.088 49.594
 20.088 c 49.949 20.088 50.188 20.388 50.188 20.802 c 50.188 21.088 l 50.016
 21.088 l 50.016 20.802 l 50.016 20.447 49.844 20.252 49.641 20.252 c 49.281
 20.252 49.281 20.697 49.281 20.787 c h
49.281 22.205 m f*
q 1 0 0 1 0 45.634411 cm
49.281 -23.43 m 50.098 -23.43 l 50.098 -23.242 l 49.281 -23.242 l 49.281
 -22.285 l 49.102 -22.285 l 49.094 -22.758 48.883 -23.273 48.371 -23.289
 c 48.371 -23.43 l 48.859 -23.43 l 48.859 -24.84 l 48.859 -25.426 49.301
 -25.547 49.594 -25.547 c 49.949 -25.547 50.188 -25.246 50.188 -24.832 c
 50.188 -24.547 l 50.016 -24.547 l 50.016 -24.832 l 50.016 -25.188 49.844
 -25.383 49.641 -25.383 c 49.281 -25.383 49.281 -24.938 49.281 -24.848 c
 h
49.281 -23.43 m S Q
53.098 23.127 m 53.09 23.177 l 53.09 23.357 l 53.074 23.615 l 53.059 23.748
 l 53.047 23.892 l 53 24.189 l 52.969 24.341 l 52.941 24.498 l 52.895 24.658
 l 52.852 24.814 l 52.797 24.97 l 52.738 25.127 l 52.707 25.213 l 52.672
 25.295 l 52.641 25.369 l 52.602 25.451 l 52.152 26.365 51.508 26.845 51.434
 26.845 c 51.387 26.845 51.359 26.822 51.359 26.779 c 51.359 26.756 51.359
 26.74 51.5 26.607 c 52.234 25.865 52.664 24.677 52.664 23.127 c 52.664 
21.849 52.387 20.537 51.457 19.599 c 51.359 19.509 51.359 19.498 51.359 
19.474 c 51.359 19.427 51.387 19.4 51.434 19.4 c 51.508 19.4 52.184 19.908
 52.625 20.853 c 53.008 21.67 53.098 22.498 53.098 23.127 c h
53.098 23.127 m f*
q 1 0 0 1 0 45.634411 cm
53.098 -22.508 m 53.09 -22.457 l 53.09 -22.277 l 53.074 -22.02 l 53.059
 -21.887 l 53.047 -21.742 l 53 -21.445 l 52.969 -21.293 l 52.941 -21.137
 l 52.895 -20.977 l 52.852 -20.82 l 52.797 -20.664 l 52.738 -20.508 l 52.707
 -20.422 l 52.672 -20.34 l 52.641 -20.266 l 52.602 -20.184 l 52.152 -19.27
 51.508 -18.789 51.434 -18.789 c 51.387 -18.789 51.359 -18.813 51.359 -18.855
 c 51.359 -18.879 51.359 -18.895 51.5 -19.027 c 52.234 -19.77 52.664 -20.957
 52.664 -22.508 c 52.664 -23.785 52.387 -25.098 51.457 -26.035 c 51.359 
-26.125 51.359 -26.137 51.359 -26.16 c 51.359 -26.207 51.387 -26.234 51.434
 -26.234 c 51.508 -26.234 52.184 -25.727 52.625 -24.781 c 53.008 -23.965
 53.098 -23.137 53.098 -22.508 c h
53.098 -22.508 m S Q
1 0 0 rg
37.789 11.759 m 54.871 20.459 l f
0.566929 w
[ 0.566929 1.133858] 0 d
4 M q 1 0 0 -1 0 45.634411 cm
37.789 33.875 m 54.871 25.176 l S Q
Q Q
showpage
%%Trailer
end restore
%%EOF
