<?xml version="1.0" encoding="UTF-8" standalone="no"?>
<!-- Generator: Gravit.io -->

<svg
   xmlns:dc="http://purl.org/dc/elements/1.1/"
   xmlns:cc="http://creativecommons.org/ns#"
   xmlns:rdf="http://www.w3.org/1999/02/22-rdf-syntax-ns#"
   xmlns:svg="http://www.w3.org/2000/svg"
   xmlns="http://www.w3.org/2000/svg"
   xmlns:xlink="http://www.w3.org/1999/xlink"
   xmlns:sodipodi="http://sodipodi.sourceforge.net/DTD/sodipodi-0.dtd"
   xmlns:inkscape="http://www.inkscape.org/namespaces/inkscape"
   style="isolation:isolate"
   viewBox="30.995 20.245 323.954 108.403"
   width="323.954"
   height="108.403"
   version="1.1"
   id="svg155"
   sodipodi:docname="hwSysSignalDiagram.svg"
   inkscape:version="0.92.3 (2405546, 2018-03-11)"
   inkscape:export-filename="E:\Dropbox\projects\UltrasonicManipulation\IFAC_article\figures\hwSysSignalDiagram.png"
   inkscape:export-xdpi="400"
   inkscape:export-ydpi="400">
  <metadata
     id="metadata159">
    <rdf:RDF>
      <cc:Work
         rdf:about="">
        <dc:format>image/svg+xml</dc:format>
        <dc:type
           rdf:resource="http://purl.org/dc/dcmitype/StillImage" />
      </cc:Work>
    </rdf:RDF>
  </metadata>
  <sodipodi:namedview
     pagecolor="#ffffff"
     bordercolor="#666666"
     borderopacity="1"
     objecttolerance="10"
     gridtolerance="10"
     guidetolerance="10"
     inkscape:pageopacity="0"
     inkscape:pageshadow="2"
     inkscape:window-width="1920"
     inkscape:window-height="1145"
     id="namedview157"
     showgrid="false"
     showguides="true"
     inkscape:guide-bbox="true"
     inkscape:zoom="3.1606049"
     inkscape:cx="121.14842"
     inkscape:cy="3.6583168"
     inkscape:window-x="-8"
     inkscape:window-y="-8"
     inkscape:window-maximized="1"
     inkscape:current-layer="svg155">
    <sodipodi:guide
       position="246.15541,6.3279027"
       orientation="0,1"
       id="guide4753"
       inkscape:locked="false" />
    <sodipodi:guide
       position="267.03749,44.295319"
       orientation="0,1"
       id="guide4755"
       inkscape:locked="false" />
    <sodipodi:guide
       position="239.16217,37.138374"
       orientation="1,0"
       id="guide4757"
       inkscape:locked="false" />
    <sodipodi:guide
       position="317.46597,44.29532"
       orientation="1,0"
       id="guide4759"
       inkscape:locked="false" />
    <sodipodi:guide
       position="181.29441,75.618436"
       orientation="0,1"
       id="guide4771"
       inkscape:locked="false" />
    <sodipodi:guide
       position="279.37677,68.292101"
       orientation="0,1"
       id="guide4792"
       inkscape:locked="false" />
    <sodipodi:guide
       position="252.30603,64.432842"
       orientation="0,1"
       id="guide4851"
       inkscape:locked="false" />
    <sodipodi:guide
       position="305.1631,42.555146"
       orientation="0,1"
       id="guide4853"
       inkscape:locked="false" />
    <sodipodi:guide
       position="278.5378,37.529893"
       orientation="1,0"
       id="guide4855"
       inkscape:locked="false" />
    <sodipodi:guide
       position="213.56671,91.121799"
       orientation="0,1"
       id="guide4875"
       inkscape:locked="false" />
  </sodipodi:namedview>
  <defs
     id="defs5">
    <linearGradient
       id="linearGradient4779"
       inkscape:collect="always">
      <stop
         id="stop4787"
         offset="0"
         style="stop-color:#ffa2b4;stop-opacity:1" />
      <stop
         id="stop4789"
         offset="1"
         style="stop-color:#cd0027;stop-opacity:1" />
    </linearGradient>
    <clipPath
       id="_clipPath_40ZlXqHdEN5BKrIvR4S4sII70y0ZexHR">
      <rect
         x="30.995"
         y="20.245"
         width="323.954"
         height="108.403"
         id="rect2" />
    </clipPath>
    <defs
       id="defs38">
      <filter
         color-interpolation-filters="sRGB"
         filterUnits="objectBoundingBox"
         height="400%"
         width="400%"
         y="-200%"
         x="-200%"
         id="zYy5n40aeXITBh1ZkLo2DSqFeFd69PVZ">
        <feGaussianBlur
           id="feGaussianBlur27"
           stdDeviation="1.2880827188517086"
           in="SourceGraphic" />
        <feOffset
           id="feOffset29"
           result="pf_100_offsetBlur"
           dy="2"
           dx="2" />
        <feFlood
           id="feFlood31"
           flood-opacity="0.4"
           flood-color="#000000" />
        <feComposite
           id="feComposite33"
           result="pf_100_dropShadow"
           operator="in"
           in2="pf_100_offsetBlur" />
        <feBlend
           id="feBlend35"
           mode="normal"
           in2="pf_100_dropShadow"
           in="SourceGraphic" />
      </filter>
    </defs>
    <defs
       id="defs57">
      <filter
         color-interpolation-filters="sRGB"
         filterUnits="objectBoundingBox"
         height="400%"
         width="400%"
         y="-200%"
         x="-200%"
         id="FZGfIwdPlH8Pe20xJ9Wyc21KjAeFqWbn">
        <feGaussianBlur
           id="feGaussianBlur46"
           stdDeviation="1.2880827188517086"
           in="SourceGraphic" />
        <feOffset
           id="feOffset48"
           result="pf_100_offsetBlur"
           dy="2"
           dx="2" />
        <feFlood
           id="feFlood50"
           flood-opacity="0.4"
           flood-color="#000000" />
        <feComposite
           id="feComposite52"
           result="pf_100_dropShadow"
           operator="in"
           in2="pf_100_offsetBlur" />
        <feBlend
           id="feBlend54"
           mode="normal"
           in2="pf_100_dropShadow"
           in="SourceGraphic" />
      </filter>
    </defs>
    <defs
       id="defs82">
      <filter
         color-interpolation-filters="sRGB"
         filterUnits="objectBoundingBox"
         height="400%"
         width="400%"
         y="-200%"
         x="-200%"
         id="qUc5RSIAyPUuUX6bHwQfpgum1X3ppc9Y">
        <feGaussianBlur
           id="feGaussianBlur71"
           stdDeviation="1.2880827188517086"
           in="SourceGraphic" />
        <feOffset
           id="feOffset73"
           result="pf_100_offsetBlur"
           dy="2"
           dx="2" />
        <feFlood
           id="feFlood75"
           flood-opacity="0.4"
           flood-color="#000000" />
        <feComposite
           id="feComposite77"
           result="pf_100_dropShadow"
           operator="in"
           in2="pf_100_offsetBlur" />
        <feBlend
           id="feBlend79"
           mode="normal"
           in2="pf_100_dropShadow"
           in="SourceGraphic" />
      </filter>
    </defs>
    <defs
       id="defs111">
      <filter
         color-interpolation-filters="sRGB"
         filterUnits="objectBoundingBox"
         height="400%"
         width="400%"
         y="-200%"
         x="-200%"
         id="h1EGEJ8Ytw5MTpcLEACDrI92zvohAJ9o">
        <feGaussianBlur
           id="feGaussianBlur100"
           stdDeviation="1.2880827188517086"
           in="SourceGraphic" />
        <feOffset
           id="feOffset102"
           result="pf_100_offsetBlur"
           dy="2"
           dx="2" />
        <feFlood
           id="feFlood104"
           flood-opacity="0.4"
           flood-color="#000000" />
        <feComposite
           id="feComposite106"
           result="pf_100_dropShadow"
           operator="in"
           in2="pf_100_offsetBlur" />
        <feBlend
           id="feBlend108"
           mode="normal"
           in2="pf_100_dropShadow"
           in="SourceGraphic" />
      </filter>
    </defs>
    <radialGradient
       inkscape:collect="always"
       xlink:href="#linearGradient4779"
       id="radialGradient4785"
       cx="311.36932"
       cy="100.4302"
       fx="311.36932"
       fy="100.4302"
       r="5.8885016"
       gradientUnits="userSpaceOnUse"
       gradientTransform="matrix(-0.17078779,-0.84339961,0.72360827,-0.14653012,292.01922,378.98256)" />
  </defs>
  <path
     d="M 140.472,103.443 H 72.25 V 60.387"
     stroke-miterlimit="3"
     id="path7"
     inkscape:connector-curvature="0"
     style="isolation:isolate;vector-effect:non-scaling-stroke;fill:none;stroke:#000000;stroke-width:3;stroke-linecap:square;stroke-linejoin:miter;stroke-miterlimit:3;stroke-dasharray:none" />
  <path
     d="m 75.25,66.387 -3,-6 -3,6 z"
     id="path9"
     inkscape:connector-curvature="0"
     style="isolation:isolate;fill:#000000;stroke:none" />
  <line
     x1="111.25"
     y1="41.443001"
     x2="140.472"
     y2="41.443001"
     stroke-miterlimit="3"
     id="line11"
     style="isolation:isolate;vector-effect:non-scaling-stroke;stroke:#000000;stroke-width:3;stroke-linecap:square;stroke-linejoin:miter;stroke-miterlimit:3;stroke-dasharray:none" />
  <path
     d="m 134.472,44.443 6,-3 -6,-3 z"
     id="path13"
     inkscape:connector-curvature="0"
     style="isolation:isolate;fill:#000000;stroke:none" />
  <path
     d="m 213.375,36.422 h 13.184 v -5.815 h 7.838 v 5.815 h 7.732 v -5.815 h 7.732 v 5.815 h 7.603 v -5.815 h 7.732 v 5.815 h 8.179"
     stroke-miterlimit="3"
     id="path15"
     inkscape:connector-curvature="0"
     style="isolation:isolate;vector-effect:non-scaling-stroke;fill:none;stroke:#646464;stroke-width:3;stroke-linecap:square;stroke-linejoin:miter;stroke-miterlimit:3;stroke-dasharray:none" />
  <path
     d="m 210.781,50.258 h 13.184 v -5.815 h 7.839 v 5.815 h 7.731 v -5.815 h 7.732 v 5.815 h 7.604 v -5.815 h 7.731 v 5.815 h 8.179"
     stroke-miterlimit="3"
     id="path17"
     inkscape:connector-curvature="0"
     style="isolation:isolate;vector-effect:non-scaling-stroke;fill:none;stroke:#828282;stroke-width:3;stroke-linecap:square;stroke-linejoin:miter;stroke-miterlimit:3;stroke-dasharray:none" />
  <line
     x1="246.27901"
     y1="36.076"
     x2="237.979"
     y2="44.375"
     stroke-miterlimit="3"
     id="line19"
     style="isolation:isolate;vector-effect:non-scaling-stroke;stroke:#828282;stroke-width:4;stroke-linecap:square;stroke-linejoin:miter;stroke-miterlimit:3;stroke-dasharray:1.6,16;stroke-dashoffset:0" />
  <path
     d="m 275.9115,103.443 -57.4395,0"
     stroke-miterlimit="3"
     id="path21"
     inkscape:connector-curvature="0"
     style="isolation:isolate;vector-effect:non-scaling-stroke;fill:none;stroke:#828282;stroke-width:3;stroke-linecap:square;stroke-linejoin:miter;stroke-miterlimit:3;stroke-dasharray:9, 9;stroke-dashoffset:0"
     sodipodi:nodetypes="cc" />
  <path
     d="m 224.472,100.443 -6,3 6,3 z"
     id="path23"
     inkscape:connector-curvature="0"
     style="isolation:isolate;fill:#828282;stroke:none" />
  <g
     style="filter:url(#zYy5n40aeXITBh1ZkLo2DSqFeFd69PVZ)"
     id="g44">
    <path
       inkscape:connector-curvature="0"
       id="path40"
       style="fill:#ffffff;stroke:none;stroke-miterlimit:10"
       d="m 35.942,22.5 h 72.615 c 1.486,0 2.693,1.206 2.693,2.692 v 32.502 c 0,1.486 -1.207,2.693 -2.693,2.693 H 35.942 c -1.486,0 -2.692,-1.207 -2.692,-2.693 V 25.192 c 0,-1.486 1.206,-2.692 2.692,-2.692 z" />
    <path
       inkscape:connector-curvature="0"
       id="path42"
       style="fill:none;stroke:#000000;stroke-width:0.50999999;stroke-linecap:square;stroke-miterlimit:2"
       d="m 35.942,22.5 h 72.615 c 1.486,0 2.693,1.206 2.693,2.692 v 32.502 c 0,1.486 -1.207,2.693 -2.693,2.693 H 35.942 c -1.486,0 -2.692,-1.207 -2.692,-2.693 V 25.192 c 0,-1.486 1.206,-2.692 2.692,-2.692 z" />
  </g>
  <g
     style="filter:url(#FZGfIwdPlH8Pe20xJ9Wyc21KjAeFqWbn)"
     id="g63">
    <path
       inkscape:connector-curvature="0"
       id="path59"
       style="fill:#ffffff;stroke:none;stroke-linecap:square;stroke-miterlimit:2"
       d="m 143.164,22.5 h 72.616 c 1.485,0 2.692,1.206 2.692,2.692 v 32.502 c 0,1.486 -1.207,2.693 -2.692,2.693 h -72.616 c -1.486,0 -2.692,-1.207 -2.692,-2.693 V 25.192 c 0,-1.486 1.206,-2.692 2.692,-2.692 z" />
    <path
       inkscape:connector-curvature="0"
       id="path61"
       style="fill:none;stroke:#000000;stroke-width:0.50999999;stroke-linecap:square;stroke-miterlimit:2"
       d="m 143.164,22.5 h 72.616 c 1.485,0 2.692,1.206 2.692,2.692 v 32.502 c 0,1.486 -1.207,2.693 -2.692,2.693 h -72.616 c -1.486,0 -2.692,-1.207 -2.692,-2.693 V 25.192 c 0,-1.486 1.206,-2.692 2.692,-2.692 z" />
  </g>
  <text
     style="font-style:normal;font-weight:400;font-size:11.3237896px;font-family:'Open Sans';fill:#000000;stroke:none;stroke-width:0.94364917"
     id="text65"
     x="36.976372"
     y="37.414242">Raspberry</text>
  <text
     style="font-style:normal;font-weight:400;font-size:11.3237896px;font-family:'Open Sans';fill:#000000;stroke:none;stroke-width:0.94364917"
     id="text67"
     x="36.976372"
     y="52.835354">Pi Computer</text>
  <g
     style="filter:url(#qUc5RSIAyPUuUX6bHwQfpgum1X3ppc9Y)"
     id="g88">
    <path
       inkscape:connector-curvature="0"
       id="path84"
       style="fill:#ffffff;stroke:none;stroke-linecap:square;stroke-miterlimit:2"
       d="m 273.386,22.5 h 72.616 c 1.486,0 2.692,1.206 2.692,2.692 v 32.502 c 0,1.486 -1.206,2.693 -2.692,2.693 h -72.616 c -1.486,0 -2.692,-1.207 -2.692,-2.693 V 25.192 c 0,-1.486 1.206,-2.692 2.692,-2.692 z" />
    <path
       inkscape:connector-curvature="0"
       id="path86"
       style="fill:none;stroke:#000000;stroke-width:0.50999999;stroke-linecap:square;stroke-miterlimit:2"
       d="m 273.386,22.5 h 72.616 c 1.486,0 2.692,1.206 2.692,2.692 v 32.502 c 0,1.486 -1.206,2.693 -2.692,2.693 h -72.616 c -1.486,0 -2.692,-1.207 -2.692,-2.693 V 25.192 c 0,-1.486 1.206,-2.692 2.692,-2.692 z" />
  </g>
  <g
     id="g92"
     transform="matrix(0.94364916,0,0,0.94364916,278.41739,41.020608)">
    <text
       id="text90"
       style="font-style:normal;font-weight:400;font-size:12px;font-family:'Open Sans';fill:#000000;stroke:none"
       transform="translate(0.456,12.826)">Transducers</text>
  </g>
  <text
     y="37.414242"
     x="148.60757"
     style="font-style:normal;font-weight:400;font-size:11.3237896px;font-family:'Open Sans';fill:#000000;stroke:none;stroke-width:0.94364917"
     id="text94">FPGA Signal</text>
  <text
     style="font-style:normal;font-weight:400;font-size:11.3237896px;font-family:'Open Sans';fill:#000000;stroke:none;stroke-width:0.94364917"
     id="text96"
     x="152.4863"
     y="52.835354">Generator</text>
  <g
     style="filter:url(#h1EGEJ8Ytw5MTpcLEACDrI92zvohAJ9o)"
     id="g117">
    <path
       inkscape:connector-curvature="0"
       id="path113"
       style="fill:#ffffff;stroke:none;stroke-linecap:square;stroke-miterlimit:2"
       d="m 143.165,84.494 h 72.614 c 1.486,0 2.693,1.206 2.693,2.692 V 119.7 c 0,1.486 -1.207,2.693 -2.693,2.693 h -72.614 c -1.487,0 -2.693,-1.207 -2.693,-2.693 V 87.186 c 0,-1.486 1.206,-2.692 2.693,-2.692 z" />
    <path
       inkscape:connector-curvature="0"
       id="path115"
       style="fill:none;stroke:#000000;stroke-width:0.50999999;stroke-linecap:square;stroke-miterlimit:2"
       d="m 143.165,84.494 h 72.614 c 1.486,0 2.693,1.206 2.693,2.692 V 119.7 c 0,1.486 -1.207,2.693 -2.693,2.693 h -72.614 c -1.487,0 -2.693,-1.207 -2.693,-2.693 V 87.186 c 0,-1.486 1.206,-2.692 2.693,-2.692 z" />
  </g>
  <g
     id="g121"
     transform="matrix(0.94364916,0,0,0.94364916,159.68909,94.967544)">
    <text
       id="text119"
       style="font-style:normal;font-weight:400;font-size:12px;font-family:'Open Sans';fill:#000000;stroke:none"
       transform="translate(0.145,12.826)">Camera</text>
  </g>
  <g
     id="g151"
     transform="matrix(0.91230816,0,0,0.91230816,9.4182832,-14.45911)">
    <path
       style="fill:#000000"
       inkscape:connector-curvature="0"
       id="path123"
       d="m 100.996,43.568 c -0.073,0.003 -0.151,0.03 -0.241,0.1 -0.218,-0.084 -0.43,-0.113 -0.619,0.058 -0.292,-0.038 -0.387,0.04 -0.459,0.132 -0.064,-0.002 -0.481,-0.066 -0.671,0.218 -0.48,-0.056 -0.631,0.282 -0.46,0.598 -0.098,0.152 -0.199,0.302 0.03,0.591 -0.081,0.161 -0.031,0.335 0.16,0.547 -0.05,0.226 0.049,0.386 0.226,0.51 -0.033,0.31 0.284,0.49 0.379,0.554 0.036,0.18 0.112,0.351 0.474,0.445 0.06,0.269 0.278,0.315 0.489,0.372 -0.697,0.405 -1.295,0.938 -1.291,2.245 l -0.102,0.182 c -0.799,0.486 -1.518,2.048 -0.394,3.318 0.074,0.397 0.197,0.683 0.307,0.999 0.164,1.273 1.234,1.869 1.516,1.939 0.414,0.315 0.855,0.614 1.451,0.824 0.562,0.579 1.171,0.8 1.783,0.8 0.009,0 0.018,0 0.027,0 0.612,0 1.221,-0.221 1.783,-0.8 0.596,-0.21 1.037,-0.509 1.451,-0.824 0.282,-0.07 1.352,-0.666 1.516,-1.939 0.11,-0.316 0.233,-0.602 0.307,-0.999 1.124,-1.27 0.405,-2.832 -0.394,-3.318 l -0.102,-0.182 c 0.004,-1.307 -0.594,-1.84 -1.291,-2.245 0.211,-0.057 0.429,-0.103 0.489,-0.372 0.362,-0.094 0.438,-0.265 0.474,-0.445 0.095,-0.064 0.412,-0.244 0.379,-0.554 0.177,-0.124 0.276,-0.284 0.226,-0.51 0.191,-0.212 0.241,-0.386 0.16,-0.547 0.229,-0.289 0.128,-0.439 0.03,-0.591 0.171,-0.316 0.02,-0.654 -0.46,-0.598 -0.19,-0.284 -0.607,-0.22 -0.671,-0.218 -0.072,-0.092 -0.167,-0.17 -0.459,-0.132 -0.189,-0.171 -0.401,-0.142 -0.619,-0.058 -0.26,-0.205 -0.431,-0.041 -0.627,0.021 -0.314,-0.102 -0.386,0.038 -0.54,0.096 -0.343,-0.073 -0.447,0.085 -0.611,0.251 l -0.191,-0.004 c -0.516,0.305 -0.773,0.924 -0.864,1.243 -0.091,-0.319 -0.347,-0.938 -0.863,-1.243 l -0.191,0.004 c -0.164,-0.166 -0.268,-0.324 -0.611,-0.251 -0.154,-0.058 -0.226,-0.198 -0.54,-0.096 -0.128,-0.04 -0.247,-0.125 -0.386,-0.121 z" />
    <path
       style="fill:#75a928"
       inkscape:connector-curvature="0"
       id="path125"
       d="m 99.968,44.907 c 1.37,0.707 2.167,1.278 2.603,1.765 -0.223,0.895 -1.389,0.936 -1.815,0.911 0.087,-0.041 0.16,-0.089 0.185,-0.164 -0.106,-0.076 -0.486,-0.008 -0.75,-0.157 0.101,-0.021 0.149,-0.041 0.196,-0.116 -0.25,-0.08 -0.519,-0.149 -0.678,-0.281 0.086,10e-4 0.166,0.019 0.277,-0.058 -0.224,-0.121 -0.463,-0.217 -0.649,-0.401 0.116,-0.003 0.241,-0.002 0.278,-0.044 -0.206,-0.127 -0.379,-0.268 -0.522,-0.423 0.162,0.02 0.231,0.003 0.27,-0.026 -0.155,-0.158 -0.351,-0.292 -0.445,-0.488 0.121,0.041 0.231,0.057 0.31,-0.004 -0.053,-0.118 -0.278,-0.189 -0.408,-0.466 0.127,0.012 0.261,0.027 0.288,0 -0.059,-0.24 -0.16,-0.375 -0.259,-0.514 0.271,-0.004 0.682,10e-4 0.663,-0.022 l -0.167,-0.171 c 0.265,-0.072 0.536,0.011 0.733,0.072 0.088,-0.069 -0.002,-0.157 -0.11,-0.247 0.225,0.03 0.429,0.081 0.613,0.153 0.098,-0.089 -0.064,-0.178 -0.143,-0.266 0.348,0.065 0.496,0.158 0.642,0.251 0.106,-0.102 0.006,-0.188 -0.066,-0.277 0.263,0.097 0.398,0.223 0.54,0.346 0.048,-0.065 0.122,-0.112 0.033,-0.269 0.186,0.107 0.326,0.233 0.43,0.375 0.115,-0.073 0.069,-0.174 0.069,-0.266 0.194,0.157 0.316,0.325 0.467,0.488 0.03,-0.022 0.057,-0.096 0.08,-0.215 0.462,0.448 1.114,1.576 0.168,2.024 -0.805,-0.665 -1.767,-1.148 -2.833,-1.51 z" />
    <path
       style="fill:#75a928"
       inkscape:connector-curvature="0"
       id="path127"
       d="m 107.238,44.907 c -1.37,0.707 -2.167,1.278 -2.603,1.765 0.223,0.895 1.389,0.936 1.815,0.911 -0.087,-0.041 -0.16,-0.089 -0.186,-0.164 0.107,-0.076 0.487,-0.008 0.751,-0.157 -0.101,-0.021 -0.149,-0.041 -0.196,-0.116 0.25,-0.08 0.519,-0.149 0.678,-0.281 -0.086,10e-4 -0.166,0.019 -0.277,-0.058 0.224,-0.121 0.463,-0.217 0.648,-0.401 -0.115,-0.003 -0.24,-0.002 -0.277,-0.044 0.205,-0.127 0.379,-0.268 0.522,-0.423 -0.162,0.02 -0.231,0.003 -0.27,-0.026 0.155,-0.158 0.351,-0.292 0.445,-0.488 -0.121,0.041 -0.231,0.057 -0.31,-0.004 0.053,-0.118 0.278,-0.189 0.408,-0.466 -0.127,0.012 -0.261,0.027 -0.288,0 0.059,-0.24 0.16,-0.375 0.259,-0.514 -0.271,-0.004 -0.682,10e-4 -0.664,-0.022 l 0.168,-0.171 c -0.265,-0.072 -0.536,0.011 -0.733,0.072 -0.088,-0.069 0.002,-0.157 0.11,-0.247 -0.225,0.03 -0.429,0.081 -0.613,0.153 -0.098,-0.089 0.064,-0.178 0.143,-0.266 -0.348,0.065 -0.496,0.158 -0.642,0.251 -0.106,-0.102 -0.006,-0.188 0.066,-0.277 -0.263,0.097 -0.398,0.223 -0.54,0.346 -0.048,-0.065 -0.122,-0.112 -0.033,-0.269 -0.186,0.107 -0.326,0.233 -0.43,0.375 -0.115,-0.073 -0.069,-0.174 -0.069,-0.266 -0.194,0.157 -0.317,0.325 -0.467,0.488 -0.03,-0.022 -0.057,-0.096 -0.08,-0.215 -0.462,0.448 -1.114,1.576 -0.168,2.024 0.805,-0.665 1.767,-1.148 2.833,-1.51 z" />
    <path
       style="fill:#bc1142"
       inkscape:connector-curvature="0"
       id="path129"
       d="m 105.262,54.027 c 0,0.836 -0.735,1.514 -1.641,1.514 -0.906,0 -1.641,-0.678 -1.641,-1.514 0,-0.835 0.735,-1.513 1.641,-1.513 0.906,0 1.641,0.678 1.641,1.513 z" />
    <path
       style="fill:#bc1142"
       inkscape:connector-curvature="0"
       id="path131"
       d="m 102.671,49.704 c 0.68,0.446 0.803,1.456 0.274,2.256 -0.529,0.8 -1.509,1.088 -2.189,0.642 -0.68,-0.445 -0.802,-1.455 -0.273,-2.255 0.528,-0.801 1.508,-1.088 2.188,-0.643 z" />
    <path
       style="fill:#bc1142"
       inkscape:connector-curvature="0"
       id="path133"
       d="m 104.507,49.624 c -0.68,0.445 -0.803,1.455 -0.274,2.255 0.529,0.8 1.509,1.088 2.189,0.642 0.68,-0.445 0.802,-1.455 0.274,-2.255 -0.529,-0.8 -1.509,-1.088 -2.189,-0.642 z" />
    <path
       style="fill:#bc1142"
       inkscape:connector-curvature="0"
       id="path135"
       d="m 99.273,50.433 c 0.734,-0.197 0.248,3.037 -0.35,2.772 -0.657,-0.529 -0.868,-2.077 0.35,-2.772 z" />
    <path
       style="fill:#bc1142"
       inkscape:connector-curvature="0"
       id="path137"
       d="m 107.757,50.392 c -0.734,-0.196 -0.248,3.038 0.35,2.772 0.657,-0.528 0.868,-2.076 -0.35,-2.772 z" />
    <path
       style="fill:#bc1142"
       inkscape:connector-curvature="0"
       id="path139"
       d="m 105.263,47.984 c 1.267,-0.214 2.321,0.539 2.278,1.913 -0.041,0.527 -2.745,-1.834 -2.278,-1.913 z" />
    <path
       style="fill:#bc1142"
       inkscape:connector-curvature="0"
       id="path141"
       d="m 101.762,47.944 c -1.267,-0.214 -2.321,0.539 -2.279,1.913 0.042,0.526 2.746,-1.835 2.279,-1.913 z" />
    <path
       style="fill:#bc1142"
       inkscape:connector-curvature="0"
       id="path143"
       d="m 103.582,47.623 c -0.756,-0.019 -1.482,0.562 -1.484,0.899 -0.002,0.409 0.598,0.828 1.489,0.839 0.91,0.006 1.491,-0.336 1.494,-0.758 0.003,-0.479 -0.828,-0.987 -1.499,-0.98 z" />
    <path
       style="fill:#bc1142"
       inkscape:connector-curvature="0"
       id="path145"
       d="m 103.628,56.019 c 0.659,-0.029 1.544,0.212 1.546,0.532 0.011,0.311 -0.802,1.012 -1.59,0.999 -0.815,0.035 -1.614,-0.668 -1.604,-0.912 -0.012,-0.357 0.993,-0.636 1.648,-0.619 z" />
    <path
       style="fill:#bc1142"
       inkscape:connector-curvature="0"
       id="path147"
       d="m 101.193,54.123 c 0.469,0.566 0.683,1.559 0.292,1.852 -0.371,0.224 -1.271,0.131 -1.911,-0.787 -0.431,-0.772 -0.375,-1.556 -0.072,-1.787 0.452,-0.276 1.152,0.097 1.691,0.722 z" />
    <path
       style="fill:#bc1142"
       inkscape:connector-curvature="0"
       id="path149"
       d="m 105.969,53.944 c -0.507,0.595 -0.79,1.68 -0.42,2.029 0.355,0.272 1.305,0.234 2.008,-0.741 0.51,-0.655 0.339,-1.748 0.048,-2.038 -0.433,-0.335 -1.054,0.094 -1.636,0.75 z" />
  </g>
  <path
     style="fill:none;stroke:#000000;stroke-width:0.6;stroke-linecap:butt;stroke-linejoin:miter;stroke-opacity:1;stroke-miterlimit:4;stroke-dasharray:none"
     d="m 320.52404,118.42344 h -52.5352 l 30.12,-30.119999 h 45.41069 4.51451 2.48477 z"
     id="path4763"
     inkscape:connector-curvature="0"
     sodipodi:nodetypes="ccccccc" />
  <circle
     style="opacity:1;fill:url(#radialGradient4785);fill-opacity:1;stroke:#000000;stroke-width:0.60000002;stroke-miterlimit:4;stroke-dasharray:none;stroke-dashoffset:0;stroke-opacity:1"
     id="path4765"
     cx="309.694"
     cy="99.443001"
     r="5.5885015" />
  <g
     id="g4845"
     transform="translate(5.5385669)">
    <rect
       y="60.556725"
       x="305.37659"
       height="1.9457523"
       width="9.5951004"
       id="rect4794"
       style="opacity:1;fill:#000000;fill-opacity:1;stroke:#000000;stroke-width:0.54038125;stroke-miterlimit:4;stroke-dasharray:none;stroke-dashoffset:0;stroke-opacity:1" />
    <rect
       y="60.556725"
       x="317.6369"
       height="1.9457523"
       width="9.5951004"
       id="rect4794-4"
       style="opacity:1;isolation:isolate;fill:#000000;fill-opacity:1;stroke:#000000;stroke-width:0.54038125;stroke-miterlimit:4;stroke-dasharray:none;stroke-dashoffset:0;stroke-opacity:1" />
    <rect
       y="60.556725"
       x="293.1163"
       height="1.9457523"
       width="9.5951004"
       id="rect4794-4-6"
       style="opacity:1;isolation:isolate;fill:#000000;fill-opacity:1;stroke:#000000;stroke-width:0.54038125;stroke-miterlimit:4;stroke-dasharray:none;stroke-dashoffset:0;stroke-opacity:1" />
    <rect
       y="60.556725"
       x="280.85599"
       height="1.9457523"
       width="9.5951004"
       id="rect4794-4-6-7"
       style="opacity:1;isolation:isolate;fill:#000000;fill-opacity:1;stroke:#000000;stroke-width:0.54038125;stroke-miterlimit:4;stroke-dasharray:none;stroke-dashoffset:0;stroke-opacity:1" />
  </g>
  <path
     style="fill:none;stroke:#7a7a7a;stroke-width:1px;stroke-linecap:butt;stroke-linejoin:miter;stroke-opacity:1"
     d="m 292.13818,64.215157 12.5001,21.877696"
     id="path4847"
     inkscape:connector-curvature="0"
     sodipodi:nodetypes="cc" />
  <path
     style="fill:none;stroke:#7a7a7a;stroke-width:1px;stroke-linecap:butt;stroke-linejoin:miter;stroke-opacity:1"
     d="M 326.8715,64.215157 313.78358,86.092853"
     id="path4849"
     inkscape:connector-curvature="0"
     sodipodi:nodetypes="cc" />
  <g
     style="isolation:isolate"
     id="g92-6"
     transform="matrix(0.94364916,0,0,0.94364916,283.72542,25.206293)">
    <text
       id="text90-5"
       style="font-style:normal;font-weight:400;font-size:12px;font-family:'Open Sans';fill:#000000;stroke:none"
       transform="translate(0.456,12.826)">Ultrasonic</text>
  </g>
</svg>
