%!PS-Adobe-3.0 EPSF-3.0
%%Creator: (MATLAB, The Mathworks, Inc. Version 9.5.0.944444 \(R2018b\). Operating System: Windows 10)
%%Title: E:/Dropbox/projects/UltrasonicManipulation/IFAC_article/figures/pow.eps
%%CreationDate: 2019-01-30T19:19:33
%%Pages: (atend)
%%BoundingBox: 0 0 420 315
%%LanguageLevel: 3
%%EndComments
%%BeginProlog
%%BeginResource: procset (Apache XML Graphics Std ProcSet) 1.2 0
%%Version: 1.2 0
%%Copyright: (Copyright 2001-2003,2010 The Apache Software Foundation. License terms: http://www.apache.org/licenses/LICENSE-2.0)
/bd{bind def}bind def
/ld{load def}bd
/GR/grestore ld
/GS/gsave ld
/RM/rmoveto ld
/C/curveto ld
/t/show ld
/L/lineto ld
/ML/setmiterlimit ld
/CT/concat ld
/f/fill ld
/N/newpath ld
/S/stroke ld
/CC/setcmykcolor ld
/A/ashow ld
/cp/closepath ld
/RC/setrgbcolor ld
/LJ/setlinejoin ld
/GC/setgray ld
/LW/setlinewidth ld
/M/moveto ld
/re {4 2 roll M
1 index 0 rlineto
0 exch rlineto
neg 0 rlineto
cp } bd
/_ctm matrix def
/_tm matrix def
/BT { _ctm currentmatrix pop matrix _tm copy pop 0 0 moveto } bd
/ET { _ctm setmatrix } bd
/iTm { _ctm setmatrix _tm concat } bd
/Tm { _tm astore pop iTm 0 0 moveto } bd
/ux 0.0 def
/uy 0.0 def
/F {
  /Tp exch def
  /Tf exch def
  Tf findfont Tp scalefont setfont
  /cf Tf def  /cs Tp def
} bd
/ULS {currentpoint /uy exch def /ux exch def} bd
/ULE {
  /Tcx currentpoint pop def
  gsave
  newpath
  cf findfont cs scalefont dup
  /FontMatrix get 0 get /Ts exch def /FontInfo get dup
  /UnderlinePosition get Ts mul /To exch def
  /UnderlineThickness get Ts mul /Tt exch def
  ux uy To add moveto  Tcx uy To add lineto
  Tt setlinewidth stroke
  grestore
} bd
/OLE {
  /Tcx currentpoint pop def
  gsave
  newpath
  cf findfont cs scalefont dup
  /FontMatrix get 0 get /Ts exch def /FontInfo get dup
  /UnderlinePosition get Ts mul /To exch def
  /UnderlineThickness get Ts mul /Tt exch def
  ux uy To add cs add moveto Tcx uy To add cs add lineto
  Tt setlinewidth stroke
  grestore
} bd
/SOE {
  /Tcx currentpoint pop def
  gsave
  newpath
  cf findfont cs scalefont dup
  /FontMatrix get 0 get /Ts exch def /FontInfo get dup
  /UnderlinePosition get Ts mul /To exch def
  /UnderlineThickness get Ts mul /Tt exch def
  ux uy To add cs 10 mul 26 idiv add moveto Tcx uy To add cs 10 mul 26 idiv add lineto
  Tt setlinewidth stroke
  grestore
} bd
/QT {
/Y22 exch store
/X22 exch store
/Y21 exch store
/X21 exch store
currentpoint
/Y21 load 2 mul add 3 div exch
/X21 load 2 mul add 3 div exch
/X21 load 2 mul /X22 load add 3 div
/Y21 load 2 mul /Y22 load add 3 div
/X22 load /Y22 load curveto
} bd
/SSPD {
dup length /d exch dict def
{
/v exch def
/k exch def
currentpagedevice k known {
/cpdv currentpagedevice k get def
v cpdv ne {
/upd false def
/nullv v type /nulltype eq def
/nullcpdv cpdv type /nulltype eq def
nullv nullcpdv or
{
/upd true def
} {
/sametype v type cpdv type eq def
sametype {
v type /arraytype eq {
/vlen v length def
/cpdvlen cpdv length def
vlen cpdvlen eq {
0 1 vlen 1 sub {
/i exch def
/obj v i get def
/cpdobj cpdv i get def
obj cpdobj ne {
/upd true def
exit
} if
} for
} {
/upd true def
} ifelse
} {
v type /dicttype eq {
v {
/dv exch def
/dk exch def
/cpddv cpdv dk get def
dv cpddv ne {
/upd true def
exit
} if
} forall
} {
/upd true def
} ifelse
} ifelse
} if
} ifelse
upd true eq {
d k v put
} if
} if
} if
} forall
d length 0 gt {
d setpagedevice
} if
} bd
/RE { % /NewFontName [NewEncodingArray] /FontName RE -
  findfont dup length dict begin
  {
    1 index /FID ne
    {def} {pop pop} ifelse
  } forall
  /Encoding exch def
  /FontName 1 index def
  currentdict definefont pop
  end
} bind def
%%EndResource
%%BeginResource: procset (Apache XML Graphics EPS ProcSet) 1.0 0
%%Version: 1.0 0
%%Copyright: (Copyright 2002-2003 The Apache Software Foundation. License terms: http://www.apache.org/licenses/LICENSE-2.0)
/BeginEPSF { %def
/b4_Inc_state save def         % Save state for cleanup
/dict_count countdictstack def % Count objects on dict stack
/op_count count 1 sub def      % Count objects on operand stack
userdict begin                 % Push userdict on dict stack
/showpage { } def              % Redefine showpage, { } = null proc
0 setgray 0 setlinecap         % Prepare graphics state
1 setlinewidth 0 setlinejoin
10 setmiterlimit [ ] 0 setdash newpath
/languagelevel where           % If level not equal to 1 then
{pop languagelevel             % set strokeadjust and
1 ne                           % overprint to their defaults.
{false setstrokeadjust false setoverprint
} if
} if
} bd
/EndEPSF { %def
count op_count sub {pop} repeat            % Clean up stacks
countdictstack dict_count sub {end} repeat
b4_Inc_state restore
} bd
%%EndResource
%FOPBeginFontDict
%%IncludeResource: font Courier-Oblique
%%IncludeResource: font Courier-BoldOblique
%%IncludeResource: font Courier-Bold
%%IncludeResource: font ZapfDingbats
%%IncludeResource: font Symbol
%%IncludeResource: font Helvetica
%%IncludeResource: font Helvetica-Oblique
%%IncludeResource: font Helvetica-Bold
%%IncludeResource: font Helvetica-BoldOblique
%%IncludeResource: font Times-Roman
%%IncludeResource: font Times-Italic
%%IncludeResource: font Times-Bold
%%IncludeResource: font Times-BoldItalic
%%IncludeResource: font Courier
%FOPEndFontDict
%%BeginResource: encoding WinAnsiEncoding
/WinAnsiEncoding [
/.notdef /.notdef /.notdef /.notdef /.notdef
/.notdef /.notdef /.notdef /.notdef /.notdef
/.notdef /.notdef /.notdef /.notdef /.notdef
/.notdef /.notdef /.notdef /.notdef /.notdef
/.notdef /.notdef /.notdef /.notdef /.notdef
/.notdef /.notdef /.notdef /.notdef /.notdef
/.notdef /.notdef /space /exclam /quotedbl
/numbersign /dollar /percent /ampersand /quotesingle
/parenleft /parenright /asterisk /plus /comma
/hyphen /period /slash /zero /one
/two /three /four /five /six
/seven /eight /nine /colon /semicolon
/less /equal /greater /question /at
/A /B /C /D /E
/F /G /H /I /J
/K /L /M /N /O
/P /Q /R /S /T
/U /V /W /X /Y
/Z /bracketleft /backslash /bracketright /asciicircum
/underscore /quoteleft /a /b /c
/d /e /f /g /h
/i /j /k /l /m
/n /o /p /q /r
/s /t /u /v /w
/x /y /z /braceleft /bar
/braceright /asciitilde /bullet /Euro /bullet
/quotesinglbase /florin /quotedblbase /ellipsis /dagger
/daggerdbl /circumflex /perthousand /Scaron /guilsinglleft
/OE /bullet /Zcaron /bullet /bullet
/quoteleft /quoteright /quotedblleft /quotedblright /bullet
/endash /emdash /asciitilde /trademark /scaron
/guilsinglright /oe /bullet /zcaron /Ydieresis
/space /exclamdown /cent /sterling /currency
/yen /brokenbar /section /dieresis /copyright
/ordfeminine /guillemotleft /logicalnot /sfthyphen /registered
/macron /degree /plusminus /twosuperior /threesuperior
/acute /mu /paragraph /middot /cedilla
/onesuperior /ordmasculine /guillemotright /onequarter /onehalf
/threequarters /questiondown /Agrave /Aacute /Acircumflex
/Atilde /Adieresis /Aring /AE /Ccedilla
/Egrave /Eacute /Ecircumflex /Edieresis /Igrave
/Iacute /Icircumflex /Idieresis /Eth /Ntilde
/Ograve /Oacute /Ocircumflex /Otilde /Odieresis
/multiply /Oslash /Ugrave /Uacute /Ucircumflex
/Udieresis /Yacute /Thorn /germandbls /agrave
/aacute /acircumflex /atilde /adieresis /aring
/ae /ccedilla /egrave /eacute /ecircumflex
/edieresis /igrave /iacute /icircumflex /idieresis
/eth /ntilde /ograve /oacute /ocircumflex
/otilde /odieresis /divide /oslash /ugrave
/uacute /ucircumflex /udieresis /yacute /thorn
/ydieresis
] def
%%EndResource
%FOPBeginFontReencode
/Courier-Oblique findfont
dup length dict begin
  {1 index /FID ne {def} {pop pop} ifelse} forall
  /Encoding WinAnsiEncoding def
  currentdict
end
/Courier-Oblique exch definefont pop
/Courier-BoldOblique findfont
dup length dict begin
  {1 index /FID ne {def} {pop pop} ifelse} forall
  /Encoding WinAnsiEncoding def
  currentdict
end
/Courier-BoldOblique exch definefont pop
/Courier-Bold findfont
dup length dict begin
  {1 index /FID ne {def} {pop pop} ifelse} forall
  /Encoding WinAnsiEncoding def
  currentdict
end
/Courier-Bold exch definefont pop
/Helvetica findfont
dup length dict begin
  {1 index /FID ne {def} {pop pop} ifelse} forall
  /Encoding WinAnsiEncoding def
  currentdict
end
/Helvetica exch definefont pop
/Helvetica-Oblique findfont
dup length dict begin
  {1 index /FID ne {def} {pop pop} ifelse} forall
  /Encoding WinAnsiEncoding def
  currentdict
end
/Helvetica-Oblique exch definefont pop
/Helvetica-Bold findfont
dup length dict begin
  {1 index /FID ne {def} {pop pop} ifelse} forall
  /Encoding WinAnsiEncoding def
  currentdict
end
/Helvetica-Bold exch definefont pop
/Helvetica-BoldOblique findfont
dup length dict begin
  {1 index /FID ne {def} {pop pop} ifelse} forall
  /Encoding WinAnsiEncoding def
  currentdict
end
/Helvetica-BoldOblique exch definefont pop
/Times-Roman findfont
dup length dict begin
  {1 index /FID ne {def} {pop pop} ifelse} forall
  /Encoding WinAnsiEncoding def
  currentdict
end
/Times-Roman exch definefont pop
/Times-Italic findfont
dup length dict begin
  {1 index /FID ne {def} {pop pop} ifelse} forall
  /Encoding WinAnsiEncoding def
  currentdict
end
/Times-Italic exch definefont pop
/Times-Bold findfont
dup length dict begin
  {1 index /FID ne {def} {pop pop} ifelse} forall
  /Encoding WinAnsiEncoding def
  currentdict
end
/Times-Bold exch definefont pop
/Times-BoldItalic findfont
dup length dict begin
  {1 index /FID ne {def} {pop pop} ifelse} forall
  /Encoding WinAnsiEncoding def
  currentdict
end
/Times-BoldItalic exch definefont pop
/Courier findfont
dup length dict begin
  {1 index /FID ne {def} {pop pop} ifelse} forall
  /Encoding WinAnsiEncoding def
  currentdict
end
/Courier exch definefont pop
%FOPEndFontReencode
%%EndProlog
%%Page: 1 1
%%PageBoundingBox: 0 0 420 315
%%BeginPageSetup
[1 0 0 -1 0 315] CT
%%EndPageSetup
GS
[0.75 0 0 0.75 0 0] CT
1 GC
N
0 0 560 420 re
f
GR
GS
[0.75 0 0 0.75 0 0] CT
1 GC
N
0 0 560 420 re
f
GR
GS
[0.75 0 0 0.75 0 0] CT
1 GC
N
73 374 M
507 374 L
507 31 L
73 31 L
cp
f
GR
GS
[0.75 0 0 0.75 0 0] CT
0.873 GC
1 LJ
0.667 LW
N
73 374 M
73 31 L
S
GR
GS
[0.75 0 0 0.75 0 0] CT
0.873 GC
1 LJ
0.667 LW
N
116.4 374 M
116.4 31 L
S
GR
GS
[0.75 0 0 0.75 0 0] CT
0.873 GC
1 LJ
0.667 LW
N
159.8 374 M
159.8 31 L
S
GR
GS
[0.75 0 0 0.75 0 0] CT
0.873 GC
1 LJ
0.667 LW
N
203.2 374 M
203.2 31 L
S
GR
GS
[0.75 0 0 0.75 0 0] CT
0.873 GC
1 LJ
0.667 LW
N
246.6 374 M
246.6 31 L
S
GR
GS
[0.75 0 0 0.75 0 0] CT
0.873 GC
1 LJ
0.667 LW
N
290 374 M
290 31 L
S
GR
GS
[0.75 0 0 0.75 0 0] CT
0.873 GC
1 LJ
0.667 LW
N
333.4 374 M
333.4 31 L
S
GR
GS
[0.75 0 0 0.75 0 0] CT
0.873 GC
1 LJ
0.667 LW
N
376.8 374 M
376.8 31 L
S
GR
GS
[0.75 0 0 0.75 0 0] CT
0.873 GC
1 LJ
0.667 LW
N
420.2 374 M
420.2 31 L
S
GR
GS
[0.75 0 0 0.75 0 0] CT
0.873 GC
1 LJ
0.667 LW
N
463.6 374 M
463.6 31 L
S
GR
GS
[0.75 0 0 0.75 0 0] CT
0.873 GC
1 LJ
0.667 LW
N
507 374 M
507 31 L
S
GR
GS
[0.75 0 0 0.75 0 0] CT
0.873 GC
1 LJ
0.667 LW
N
507 374 M
73 374 L
S
GR
GS
[0.75 0 0 0.75 0 0] CT
0.873 GC
1 LJ
0.667 LW
N
507 331.125 M
73 331.125 L
S
GR
GS
[0.75 0 0 0.75 0 0] CT
0.873 GC
1 LJ
0.667 LW
N
507 288.25 M
73 288.25 L
S
GR
GS
[0.75 0 0 0.75 0 0] CT
0.873 GC
1 LJ
0.667 LW
N
507 245.375 M
73 245.375 L
S
GR
GS
[0.75 0 0 0.75 0 0] CT
0.873 GC
1 LJ
0.667 LW
N
507 202.5 M
73 202.5 L
S
GR
GS
[0.75 0 0 0.75 0 0] CT
0.873 GC
1 LJ
0.667 LW
N
507 159.625 M
73 159.625 L
S
GR
GS
[0.75 0 0 0.75 0 0] CT
0.873 GC
1 LJ
0.667 LW
N
507 116.75 M
73 116.75 L
S
GR
GS
[0.75 0 0 0.75 0 0] CT
0.873 GC
1 LJ
0.667 LW
N
507 73.875 M
73 73.875 L
S
GR
GS
[0.75 0 0 0.75 0 0] CT
0.873 GC
1 LJ
0.667 LW
N
507 31 M
73 31 L
S
GR
GS
[0.75 0 0 0.75 0 0] CT
0.149 GC
2 setlinecap
1 LJ
0.667 LW
N
73 374 M
507 374 L
S
GR
GS
[0.75 0 0 0.75 0 0] CT
0.149 GC
2 setlinecap
1 LJ
0.667 LW
N
73 31 M
507 31 L
S
GR
GS
[0.75 0 0 0.75 0 0] CT
0.149 GC
2 setlinecap
1 LJ
0.667 LW
N
73 374 M
73 369.66 L
S
GR
GS
[0.75 0 0 0.75 0 0] CT
0.149 GC
2 setlinecap
1 LJ
0.667 LW
N
116.4 374 M
116.4 369.66 L
S
GR
GS
[0.75 0 0 0.75 0 0] CT
0.149 GC
2 setlinecap
1 LJ
0.667 LW
N
159.8 374 M
159.8 369.66 L
S
GR
GS
[0.75 0 0 0.75 0 0] CT
0.149 GC
2 setlinecap
1 LJ
0.667 LW
N
203.2 374 M
203.2 369.66 L
S
GR
GS
[0.75 0 0 0.75 0 0] CT
0.149 GC
2 setlinecap
1 LJ
0.667 LW
N
246.6 374 M
246.6 369.66 L
S
GR
GS
[0.75 0 0 0.75 0 0] CT
0.149 GC
2 setlinecap
1 LJ
0.667 LW
N
290 374 M
290 369.66 L
S
GR
GS
[0.75 0 0 0.75 0 0] CT
0.149 GC
2 setlinecap
1 LJ
0.667 LW
N
333.4 374 M
333.4 369.66 L
S
GR
GS
[0.75 0 0 0.75 0 0] CT
0.149 GC
2 setlinecap
1 LJ
0.667 LW
N
376.8 374 M
376.8 369.66 L
S
GR
GS
[0.75 0 0 0.75 0 0] CT
0.149 GC
2 setlinecap
1 LJ
0.667 LW
N
420.2 374 M
420.2 369.66 L
S
GR
GS
[0.75 0 0 0.75 0 0] CT
0.149 GC
2 setlinecap
1 LJ
0.667 LW
N
463.6 374 M
463.6 369.66 L
S
GR
GS
[0.75 0 0 0.75 0 0] CT
0.149 GC
2 setlinecap
1 LJ
0.667 LW
N
507 374 M
507 369.66 L
S
GR
GS
[0.75 0 0 0.75 0 0] CT
0.149 GC
2 setlinecap
1 LJ
0.667 LW
N
73 31 M
73 35.34 L
S
GR
GS
[0.75 0 0 0.75 0 0] CT
0.149 GC
2 setlinecap
1 LJ
0.667 LW
N
116.4 31 M
116.4 35.34 L
S
GR
GS
[0.75 0 0 0.75 0 0] CT
0.149 GC
2 setlinecap
1 LJ
0.667 LW
N
159.8 31 M
159.8 35.34 L
S
GR
GS
[0.75 0 0 0.75 0 0] CT
0.149 GC
2 setlinecap
1 LJ
0.667 LW
N
203.2 31 M
203.2 35.34 L
S
GR
GS
[0.75 0 0 0.75 0 0] CT
0.149 GC
2 setlinecap
1 LJ
0.667 LW
N
246.6 31 M
246.6 35.34 L
S
GR
GS
[0.75 0 0 0.75 0 0] CT
0.149 GC
2 setlinecap
1 LJ
0.667 LW
N
290 31 M
290 35.34 L
S
GR
GS
[0.75 0 0 0.75 0 0] CT
0.149 GC
2 setlinecap
1 LJ
0.667 LW
N
333.4 31 M
333.4 35.34 L
S
GR
GS
[0.75 0 0 0.75 0 0] CT
0.149 GC
2 setlinecap
1 LJ
0.667 LW
N
376.8 31 M
376.8 35.34 L
S
GR
GS
[0.75 0 0 0.75 0 0] CT
0.149 GC
2 setlinecap
1 LJ
0.667 LW
N
420.2 31 M
420.2 35.34 L
S
GR
GS
[0.75 0 0 0.75 0 0] CT
0.149 GC
2 setlinecap
1 LJ
0.667 LW
N
463.6 31 M
463.6 35.34 L
S
GR
GS
[0.75 0 0 0.75 0 0] CT
0.149 GC
2 setlinecap
1 LJ
0.667 LW
N
507 31 M
507 35.34 L
S
GR
GS
[0.75 0 0 0.75 54.75 284.50001] CT
0.149 GC
/Helvetica 13.333 F
GS
[1 0 0 1 0 0] CT
-7.5 14 moveto 
1 -1 scale
(30) t 
GR
GR
GS
[0.75 0 0 0.75 87.3 284.50001] CT
0.149 GC
/Helvetica 13.333 F
GS
[1 0 0 1 0 0] CT
-7.5 14 moveto 
1 -1 scale
(35) t 
GR
GR
GS
[0.75 0 0 0.75 119.85 284.50001] CT
0.149 GC
/Helvetica 13.333 F
GS
[1 0 0 1 0 0] CT
-7.5 14 moveto 
1 -1 scale
(40) t 
GR
GR
GS
[0.75 0 0 0.75 152.4 284.50001] CT
0.149 GC
/Helvetica 13.333 F
GS
[1 0 0 1 0 0] CT
-7.5 14 moveto 
1 -1 scale
(45) t 
GR
GR
GS
[0.75 0 0 0.75 184.95 284.50001] CT
0.149 GC
/Helvetica 13.333 F
GS
[1 0 0 1 0 0] CT
-7.5 14 moveto 
1 -1 scale
(50) t 
GR
GR
GS
[0.75 0 0 0.75 217.5 284.50001] CT
0.149 GC
/Helvetica 13.333 F
GS
[1 0 0 1 0 0] CT
-7.5 14 moveto 
1 -1 scale
(55) t 
GR
GR
GS
[0.75 0 0 0.75 250.05 284.50001] CT
0.149 GC
/Helvetica 13.333 F
GS
[1 0 0 1 0 0] CT
-7.5 14 moveto 
1 -1 scale
(60) t 
GR
GR
GS
[0.75 0 0 0.75 282.59999 284.50001] CT
0.149 GC
/Helvetica 13.333 F
GS
[1 0 0 1 0 0] CT
-7.5 14 moveto 
1 -1 scale
(65) t 
GR
GR
GS
[0.75 0 0 0.75 315.15001 284.50001] CT
0.149 GC
/Helvetica 13.333 F
GS
[1 0 0 1 0 0] CT
-7.5 14 moveto 
1 -1 scale
(70) t 
GR
GR
GS
[0.75 0 0 0.75 347.7 284.50001] CT
0.149 GC
/Helvetica 13.333 F
GS
[1 0 0 1 0 0] CT
-7.5 14 moveto 
1 -1 scale
(75) t 
GR
GR
GS
[0.75 0 0 0.75 380.25 284.50001] CT
0.149 GC
/Helvetica 13.333 F
GS
[1 0 0 1 0 0] CT
-7.5 14 moveto 
1 -1 scale
(80) t 
GR
GR
GS
[0.75 0 0 0.75 217.50016 298.24999] CT
0.149 GC
/Helvetica 16 F
GS
[1 0 0 1 0 0] CT
-51.5 17 moveto 
1 -1 scale
(Distance [mm]) t 
GR
GR
GS
[0.75 0 0 0.75 0 0] CT
0.149 GC
2 setlinecap
1 LJ
0.667 LW
N
73 374 M
73 31 L
S
GR
GS
[0.75 0 0 0.75 0 0] CT
0.149 GC
2 setlinecap
1 LJ
0.667 LW
N
507 374 M
507 31 L
S
GR
GS
[0.75 0 0 0.75 0 0] CT
0.149 GC
2 setlinecap
1 LJ
0.667 LW
N
73 374 M
77.34 374 L
S
GR
GS
[0.75 0 0 0.75 0 0] CT
0.149 GC
2 setlinecap
1 LJ
0.667 LW
N
73 331.125 M
77.34 331.125 L
S
GR
GS
[0.75 0 0 0.75 0 0] CT
0.149 GC
2 setlinecap
1 LJ
0.667 LW
N
73 288.25 M
77.34 288.25 L
S
GR
GS
[0.75 0 0 0.75 0 0] CT
0.149 GC
2 setlinecap
1 LJ
0.667 LW
N
73 245.375 M
77.34 245.375 L
S
GR
GS
[0.75 0 0 0.75 0 0] CT
0.149 GC
2 setlinecap
1 LJ
0.667 LW
N
73 202.5 M
77.34 202.5 L
S
GR
GS
[0.75 0 0 0.75 0 0] CT
0.149 GC
2 setlinecap
1 LJ
0.667 LW
N
73 159.625 M
77.34 159.625 L
S
GR
GS
[0.75 0 0 0.75 0 0] CT
0.149 GC
2 setlinecap
1 LJ
0.667 LW
N
73 116.75 M
77.34 116.75 L
S
GR
GS
[0.75 0 0 0.75 0 0] CT
0.149 GC
2 setlinecap
1 LJ
0.667 LW
N
73 73.875 M
77.34 73.875 L
S
GR
GS
[0.75 0 0 0.75 0 0] CT
0.149 GC
2 setlinecap
1 LJ
0.667 LW
N
73 31 M
77.34 31 L
S
GR
GS
[0.75 0 0 0.75 0 0] CT
0.149 GC
2 setlinecap
1 LJ
0.667 LW
N
507 374 M
502.66 374 L
S
GR
GS
[0.75 0 0 0.75 0 0] CT
0.149 GC
2 setlinecap
1 LJ
0.667 LW
N
507 331.125 M
502.66 331.125 L
S
GR
GS
[0.75 0 0 0.75 0 0] CT
0.149 GC
2 setlinecap
1 LJ
0.667 LW
N
507 288.25 M
502.66 288.25 L
S
GR
GS
[0.75 0 0 0.75 0 0] CT
0.149 GC
2 setlinecap
1 LJ
0.667 LW
N
507 245.375 M
502.66 245.375 L
S
GR
GS
[0.75 0 0 0.75 0 0] CT
0.149 GC
2 setlinecap
1 LJ
0.667 LW
N
507 202.5 M
502.66 202.5 L
S
GR
GS
[0.75 0 0 0.75 0 0] CT
0.149 GC
2 setlinecap
1 LJ
0.667 LW
N
507 159.625 M
502.66 159.625 L
S
GR
GS
[0.75 0 0 0.75 0 0] CT
0.149 GC
2 setlinecap
1 LJ
0.667 LW
N
507 116.75 M
502.66 116.75 L
S
GR
GS
[0.75 0 0 0.75 0 0] CT
0.149 GC
2 setlinecap
1 LJ
0.667 LW
N
507 73.875 M
502.66 73.875 L
S
GR
GS
[0.75 0 0 0.75 0 0] CT
0.149 GC
2 setlinecap
1 LJ
0.667 LW
N
507 31 M
502.66 31 L
S
GR
GS
[0.75 0 0 0.75 50.75 280.5] CT
0.149 GC
/Helvetica 13.333 F
GS
[1 0 0 1 0 0] CT
-15 5.5 moveto 
1 -1 scale
(60) t 
GR
GR
GS
[0.75 0 0 0.75 50.75 248.34375] CT
0.149 GC
/Helvetica 13.333 F
GS
[1 0 0 1 0 0] CT
-15 5.5 moveto 
1 -1 scale
(80) t 
GR
GR
GS
[0.75 0 0 0.75 50.75 216.1875] CT
0.149 GC
/Helvetica 13.333 F
GS
[1 0 0 1 0 0] CT
-23 5.5 moveto 
1 -1 scale
(100) t 
GR
GR
GS
[0.75 0 0 0.75 50.75 184.03125] CT
0.149 GC
/Helvetica 13.333 F
GS
[1 0 0 1 0 0] CT
-23 5.5 moveto 
1 -1 scale
(120) t 
GR
GR
GS
[0.75 0 0 0.75 50.75 151.875] CT
0.149 GC
/Helvetica 13.333 F
GS
[1 0 0 1 0 0] CT
-23 5.5 moveto 
1 -1 scale
(140) t 
GR
GR
GS
[0.75 0 0 0.75 50.75 119.71875] CT
0.149 GC
/Helvetica 13.333 F
GS
[1 0 0 1 0 0] CT
-23 5.5 moveto 
1 -1 scale
(160) t 
GR
GR
GS
[0.75 0 0 0.75 50.75 87.5625] CT
0.149 GC
/Helvetica 13.333 F
GS
[1 0 0 1 0 0] CT
-23 5.5 moveto 
1 -1 scale
(180) t 
GR
GR
GS
[0.75 0 0 0.75 50.75 55.40625] CT
0.149 GC
/Helvetica 13.333 F
GS
[1 0 0 1 0 0] CT
-23 5.5 moveto 
1 -1 scale
(200) t 
GR
GR
GS
[0.75 0 0 0.75 50.75 23.25] CT
0.149 GC
/Helvetica 13.333 F
GS
[1 0 0 1 0 0] CT
-23 5.5 moveto 
1 -1 scale
(220) t 
GR
GR
GS
[0 -0.75 0.75 0 30.5 151.87487] CT
0.149 GC
/Helvetica 16 F
GS
[1 0 0 1 0 0] CT
-48.5 -4 moveto 
1 -1 scale
(Pressure [Pa]) t 
GR
GR
GS
[0.75 0 0 0.75 217.50021 21] CT
/Helvetica-Bold 16 F
GS
[1 0 0 1 0 0] CT
-69.5 -4 moveto 
1 -1 scale
(Transducer power) t 
GR
GR
GS
[0.75 0 0 0.75 54.75 27.8917] CT
0 0.447 0.741 RC
N
1.778 0 M
1.778 0.982 0.982 1.778 0 1.778 C
-0.982 1.778 -1.778 0.982 -1.778 0 C
-1.778 -0.982 -0.982 -1.778 0 -1.778 C
0.982 -1.778 1.778 -0.982 1.778 0 C
cp
f
GR
GS
[0.75 0 0 0.75 58.005 41.85015] CT
0 0.447 0.741 RC
N
/f-1290764029{1.778 0 M
1.778 0.982 0.982 1.778 0 1.778 C
-0.982 1.778 -1.778 0.982 -1.778 0 C
-1.778 -0.982 -0.982 -1.778 0 -1.778 C
0.982 -1.778 1.778 -0.982 1.778 0 C
cp}def
f-1290764029
f
GR
GS
[0.75 0 0 0.75 61.26 40.40558] CT
0 0.447 0.741 RC
N
f-1290764029
f
GR
GS
[0.75 0 0 0.75 64.515 41.11883] CT
0 0.447 0.741 RC
N
f-1290764029
f
GR
GS
[0.75 0 0 0.75 67.77 50.79613] CT
0 0.447 0.741 RC
N
f-1290764029
f
GR
GS
[0.75 0 0 0.75 71.025 53.82535] CT
0 0.447 0.741 RC
N
f-1290764029
f
GR
GS
[0.75 0 0 0.75 74.28 62.62102] CT
0 0.447 0.741 RC
N
f-1290764029
f
GR
GS
[0.75 0 0 0.75 77.535 66.45552] CT
0 0.447 0.741 RC
N
f-1290764029
f
GR
GS
[0.75 0 0 0.75 80.79 69.90875] CT
0 0.447 0.741 RC
N
f-1290764029
f
GR
GS
[0.75 0 0 0.75 84.045 78.39218] CT
0 0.447 0.741 RC
N
f-1290764029
f
GR
GS
[0.75 0 0 0.75 87.3 76.55192] CT
0 0.447 0.741 RC
N
f-1290764029
f
GR
GS
[0.75 0 0 0.75 90.555 71.74887] CT
0 0.447 0.741 RC
N
f-1290764029
f
GR
GS
[0.75 0 0 0.75 93.81 73.17283] CT
0 0.447 0.741 RC
N
f-1290764029
f
GR
GS
[0.75 0 0 0.75 97.065 64.08499] CT
0 0.447 0.741 RC
N
f-1290764029
f
GR
GS
[0.75 0 0 0.75 100.32 62.01556] CT
0 0.447 0.741 RC
N
f-1290764029
f
GR
GS
[0.75 0 0 0.75 103.575 67.52159] CT
0 0.447 0.741 RC
N
f-1290764029
f
GR
GS
[0.75 0 0 0.75 106.83 74.88944] CT
0 0.447 0.741 RC
N
f-1290764029
f
GR
GS
[0.75 0 0 0.75 110.085 97.27782] CT
0 0.447 0.741 RC
N
f-1290764029
f
GR
GS
[0.75 0 0 0.75 113.34 99.69138] CT
0 0.447 0.741 RC
N
f-1290764029
f
GR
GS
[0.75 0 0 0.75 116.59501 103.97065] CT
0 0.447 0.741 RC
N
f-1290764029
f
GR
GS
[0.75 0 0 0.75 119.85 106.09127] CT
0 0.447 0.741 RC
N
f-1290764029
f
GR
GS
[0.75 0 0 0.75 123.105 103.18688] CT
0 0.447 0.741 RC
N
f-1290764029
f
GR
GS
[0.75 0 0 0.75 126.36 99.07243] CT
0 0.447 0.741 RC
N
f-1290764029
f
GR
GS
[0.75 0 0 0.75 129.61501 115.80851] CT
0 0.447 0.741 RC
N
f-1290764029
f
GR
GS
[0.75 0 0 0.75 132.87 131.08168] CT
0 0.447 0.741 RC
N
f-1290764029
f
GR
GS
[0.75 0 0 0.75 136.125 131.84508] CT
0 0.447 0.741 RC
N
f-1290764029
f
GR
GS
[0.75 0 0 0.75 139.38 140.96262] CT
0 0.447 0.741 RC
N
f-1290764029
f
GR
GS
[0.75 0 0 0.75 142.63499 144.34554] CT
0 0.447 0.741 RC
N
f-1290764029
f
GR
GS
[0.75 0 0 0.75 145.89 155.43819] CT
0 0.447 0.741 RC
N
f-1290764029
f
GR
GS
[0.75 0 0 0.75 149.145 152.07976] CT
0 0.447 0.741 RC
N
f-1290764029
f
GR
GS
[0.75 0 0 0.75 152.4 160.80065] CT
0 0.447 0.741 RC
N
f-1290764029
f
GR
GS
[0.75 0 0 0.75 155.65499 161.12188] CT
0 0.447 0.741 RC
N
f-1290764029
f
GR
GS
[0.75 0 0 0.75 158.91 152.35035] CT
0 0.447 0.741 RC
N
f-1290764029
f
GR
GS
[0.75 0 0 0.75 162.165 150.49728] CT
0 0.447 0.741 RC
N
f-1290764029
f
GR
GS
[0.75 0 0 0.75 165.42 163.12012] CT
0 0.447 0.741 RC
N
f-1290764029
f
GR
GS
[0.75 0 0 0.75 168.675 156.59277] CT
0 0.447 0.741 RC
N
f-1290764029
f
GR
GS
[0.75 0 0 0.75 171.93 163.50914] CT
0 0.447 0.741 RC
N
f-1290764029
f
GR
GS
[0.75 0 0 0.75 175.185 167.63886] CT
0 0.447 0.741 RC
N
f-1290764029
f
GR
GS
[0.75 0 0 0.75 178.44 169.61886] CT
0 0.447 0.741 RC
N
f-1290764029
f
GR
GS
[0.75 0 0 0.75 181.695 184.05675] CT
0 0.447 0.741 RC
N
f-1290764029
f
GR
GS
[0.75 0 0 0.75 184.95 177.54248] CT
0 0.447 0.741 RC
N
f-1290764029
f
GR
GS
[0.75 0 0 0.75 188.205 186.83152] CT
0 0.447 0.741 RC
N
f-1290764029
f
GR
GS
[0.75 0 0 0.75 191.46 191.93081] CT
0 0.447 0.741 RC
N
f-1290764029
f
GR
GS
[0.75 0 0 0.75 194.715 208.36668] CT
0 0.447 0.741 RC
N
f-1290764029
f
GR
GS
[0.75 0 0 0.75 197.96999 199.96912] CT
0 0.447 0.741 RC
N
f-1290764029
f
GR
GS
[0.75 0 0 0.75 201.22499 207.71928] CT
0 0.447 0.741 RC
N
f-1290764029
f
GR
GS
[0.75 0 0 0.75 204.48001 206.22778] CT
0 0.447 0.741 RC
N
f-1290764029
f
GR
GS
[0.75 0 0 0.75 207.73501 211.55191] CT
0 0.447 0.741 RC
N
f-1290764029
f
GR
GS
[0.75 0 0 0.75 210.99001 204.214] CT
0 0.447 0.741 RC
N
f-1290764029
f
GR
GS
[0.75 0 0 0.75 214.245 200.70804] CT
0 0.447 0.741 RC
N
f-1290764029
f
GR
GS
[0.75 0 0 0.75 217.5 209.02274] CT
0 0.447 0.741 RC
N
f-1290764029
f
GR
GS
[0.75 0 0 0.75 220.755 209.04453] CT
0 0.447 0.741 RC
N
f-1290764029
f
GR
GS
[0.75 0 0 0.75 224.00999 210.834] CT
0 0.447 0.741 RC
N
f-1290764029
f
GR
GS
[0.75 0 0 0.75 227.26499 212.26433] CT
0 0.447 0.741 RC
N
f-1290764029
f
GR
GS
[0.75 0 0 0.75 230.51999 212.42711] CT
0 0.447 0.741 RC
N
f-1290764029
f
GR
GS
[0.75 0 0 0.75 233.77501 208.03262] CT
0 0.447 0.741 RC
N
f-1290764029
f
GR
GS
[0.75 0 0 0.75 237.03001 217.37757] CT
0 0.447 0.741 RC
N
f-1290764029
f
GR
GS
[0.75 0 0 0.75 240.285 218.16598] CT
0 0.447 0.741 RC
N
f-1290764029
f
GR
GS
[0.75 0 0 0.75 243.54 216.71592] CT
0 0.447 0.741 RC
N
f-1290764029
f
GR
GS
[0.75 0 0 0.75 246.795 225.25699] CT
0 0.447 0.741 RC
N
f-1290764029
f
GR
GS
[0.75 0 0 0.75 250.05 235.28712] CT
0 0.447 0.741 RC
N
f-1290764029
f
GR
GS
[0.75 0 0 0.75 253.30499 237.02259] CT
0 0.447 0.741 RC
N
f-1290764029
f
GR
GS
[0.75 0 0 0.75 256.55999 245.74935] CT
0 0.447 0.741 RC
N
f-1290764029
f
GR
GS
[0.75 0 0 0.75 259.81501 229.37979] CT
0 0.447 0.741 RC
N
f-1290764029
f
GR
GS
[0.75 0 0 0.75 263.07001 237.59784] CT
0 0.447 0.741 RC
N
f-1290764029
f
GR
GS
[0.75 0 0 0.75 266.325 239.03719] CT
0 0.447 0.741 RC
N
f-1290764029
f
GR
GS
[0.75 0 0 0.75 269.58 248.20068] CT
0 0.447 0.741 RC
N
f-1290764029
f
GR
GS
[0.75 0 0 0.75 272.835 237.79001] CT
0 0.447 0.741 RC
N
f-1290764029
f
GR
GS
[0.75 0 0 0.75 276.09 253.14349] CT
0 0.447 0.741 RC
N
f-1290764029
f
GR
GS
[0.75 0 0 0.75 279.34499 252.26456] CT
0 0.447 0.741 RC
N
f-1290764029
f
GR
GS
[0.75 0 0 0.75 282.59999 238.89015] CT
0 0.447 0.741 RC
N
f-1290764029
f
GR
GS
[0.75 0 0 0.75 285.85501 233.81406] CT
0 0.447 0.741 RC
N
f-1290764029
f
GR
GS
[0.75 0 0 0.75 289.11001 231.12383] CT
0 0.447 0.741 RC
N
f-1290764029
f
GR
GS
[0.75 0 0 0.75 292.36501 217.1017] CT
0 0.447 0.741 RC
N
f-1290764029
f
GR
GS
[0.75 0 0 0.75 295.62 233.15897] CT
0 0.447 0.741 RC
N
f-1290764029
f
GR
GS
[0.75 0 0 0.75 298.875 227.94475] CT
0 0.447 0.741 RC
N
f-1290764029
f
GR
GS
[0.75 0 0 0.75 302.13 221.59813] CT
0 0.447 0.741 RC
N
f-1290764029
f
GR
GS
[0.75 0 0 0.75 305.38499 210.84286] CT
0 0.447 0.741 RC
N
f-1290764029
f
GR
GS
[0.75 0 0 0.75 308.63999 216.38198] CT
0 0.447 0.741 RC
N
f-1290764029
f
GR
GS
[0.75 0 0 0.75 311.89499 211.40238] CT
0 0.447 0.741 RC
N
f-1290764029
f
GR
GS
[0.75 0 0 0.75 315.15001 203.95649] CT
0 0.447 0.741 RC
N
f-1290764029
f
GR
GS
[0.75 0 0 0.75 318.40501 212.10821] CT
0 0.447 0.741 RC
N
f-1290764029
f
GR
GS
[0.75 0 0 0.75 321.66 218.17767] CT
0 0.447 0.741 RC
N
f-1290764029
f
GR
GS
[0.75 0 0 0.75 324.915 220.51499] CT
0 0.447 0.741 RC
N
f-1290764029
f
GR
GS
[0.75 0 0 0.75 328.17 225.44389] CT
0 0.447 0.741 RC
N
f-1290764029
f
GR
GS
[0.75 0 0 0.75 331.425 235.18943] CT
0 0.447 0.741 RC
N
f-1290764029
f
GR
GS
[0.75 0 0 0.75 334.67999 245.50907] CT
0 0.447 0.741 RC
N
f-1290764029
f
GR
GS
[0.75 0 0 0.75 337.93499 250.00486] CT
0 0.447 0.741 RC
N
f-1290764029
f
GR
GS
[0.75 0 0 0.75 341.19001 253.26201] CT
0 0.447 0.741 RC
N
f-1290764029
f
GR
GS
[0.75 0 0 0.75 344.44501 247.43582] CT
0 0.447 0.741 RC
N
f-1290764029
f
GR
GS
[0.75 0 0 0.75 347.7 256.60052] CT
0 0.447 0.741 RC
N
f-1290764029
f
GR
GS
[0.75 0 0 0.75 350.955 254.55851] CT
0 0.447 0.741 RC
N
f-1290764029
f
GR
GS
[0.75 0 0 0.75 354.21 254.73029] CT
0 0.447 0.741 RC
N
f-1290764029
f
GR
GS
[0.75 0 0 0.75 357.465 258.47436] CT
0 0.447 0.741 RC
N
f-1290764029
f
GR
GS
[0.75 0 0 0.75 360.71999 266.01807] CT
0 0.447 0.741 RC
N
f-1290764029
f
GR
GS
[0.75 0 0 0.75 363.97499 261.36855] CT
0 0.447 0.741 RC
N
f-1290764029
f
GR
GS
[0.75 0 0 0.75 367.23001 267.52473] CT
0 0.447 0.741 RC
N
f-1290764029
f
GR
GS
[0.75 0 0 0.75 370.48501 267.41022] CT
0 0.447 0.741 RC
N
f-1290764029
f
GR
GS
[0.75 0 0 0.75 373.74001 270.5381] CT
0 0.447 0.741 RC
N
f-1290764029
f
GR
GS
[0.75 0 0 0.75 376.995 275.24957] CT
0 0.447 0.741 RC
N
f-1290764029
f
GR
GS
[0.75 0 0 0.75 380.25 273.37971] CT
0 0.447 0.741 RC
N
f-1290764029
f
GR
GS
[0.75 0 0 0.75 0 0] CT
0.851 0.325 0.098 RC
[8 8] 0 setdash
2 LJ
2 LW
N
73 52.037 M
75.181 56.073 L
77.362 60.043 L
79.543 63.947 L
81.724 67.788 L
83.905 71.568 L
86.085 75.287 L
88.266 78.947 L
90.447 82.55 L
92.628 86.097 L
94.809 89.589 L
96.99 93.027 L
99.171 96.413 L
101.352 99.748 L
103.533 103.033 L
105.714 106.269 L
107.894 109.457 L
110.075 112.599 L
112.256 115.695 L
114.437 118.746 L
116.618 121.753 L
118.799 124.717 L
120.98 127.64 L
123.161 130.521 L
125.342 133.362 L
127.523 136.164 L
129.704 138.928 L
131.884 141.653 L
134.065 144.342 L
136.246 146.994 L
138.427 149.611 L
140.608 152.193 L
142.789 154.741 L
144.97 157.256 L
147.151 159.737 L
149.332 162.187 L
151.513 164.605 L
153.693 166.992 L
155.874 169.349 L
158.055 171.676 L
160.236 173.974 L
162.417 176.243 L
164.598 178.484 L
166.779 180.698 L
168.96 182.884 L
171.141 185.044 L
173.322 187.177 L
175.503 189.285 L
177.683 191.368 L
179.864 193.426 L
182.045 195.46 L
184.226 197.47 L
186.407 199.457 L
188.588 201.42 L
190.769 203.361 L
192.95 205.279 L
195.131 207.176 L
197.312 209.051 L
199.492 210.905 L
201.673 212.738 L
203.854 214.551 L
206.035 216.344 L
208.216 218.117 L
210.397 219.87 L
212.578 221.605 L
214.759 223.32 L
216.94 225.017 L
219.121 226.696 L
221.301 228.357 L
223.482 230 L
225.663 231.626 L
227.844 233.235 L
230.025 234.827 L
232.206 236.403 L
234.387 237.962 L
236.568 239.505 L
238.749 241.033 L
240.93 242.544 L
243.111 244.041 L
245.291 245.522 L
247.472 246.989 L
249.653 248.441 L
251.834 249.878 L
254.015 251.302 L
256.196 252.711 L
258.377 254.106 L
260.558 255.488 L
262.739 256.857 L
264.92 258.212 L
267.1 259.555 L
269.281 260.884 L
271.462 262.201 L
273.643 263.505 L
275.824 264.797 L
278.005 266.077 L
280.186 267.346 L
282.367 268.602 L
284.548 269.847 L
286.729 271.08 L
288.91 272.302 L
291.09 273.513 L
293.271 274.712 L
295.452 275.901 L
297.633 277.08 L
299.814 278.247 L
301.995 279.405 L
304.176 280.552 L
306.357 281.689 L
308.538 282.816 L
310.719 283.933 L
312.9 285.04 L
315.08 286.138 L
317.261 287.226 L
319.442 288.305 L
321.623 289.375 L
323.804 290.435 L
325.985 291.486 L
328.166 292.529 L
330.347 293.563 L
332.528 294.588 L
334.709 295.605 L
336.889 296.613 L
339.07 297.612 L
341.251 298.604 L
343.432 299.587 L
345.613 300.563 L
347.794 301.53 L
349.975 302.49 L
352.156 303.441 L
354.337 304.385 L
356.518 305.322 L
358.698 306.251 L
360.879 307.173 L
363.06 308.087 L
365.241 308.994 L
367.422 309.894 L
369.603 310.787 L
371.784 311.673 L
373.965 312.552 L
376.146 313.424 L
378.327 314.29 L
380.508 315.149 L
382.688 316.001 L
384.869 316.847 L
387.05 317.687 L
389.231 318.52 L
391.412 319.346 L
393.593 320.167 L
395.774 320.981 L
397.955 321.79 L
400.136 322.592 L
402.317 323.389 L
404.497 324.179 L
406.678 324.964 L
408.859 325.743 L
411.04 326.517 L
413.221 327.284 L
415.402 328.046 L
417.583 328.803 L
419.764 329.554 L
421.945 330.3 L
424.126 331.041 L
426.306 331.776 L
428.487 332.506 L
430.668 333.231 L
432.849 333.951 L
435.03 334.666 L
437.211 335.376 L
439.392 336.08 L
441.573 336.78 L
443.754 337.476 L
445.935 338.166 L
448.116 338.852 L
450.297 339.533 L
452.477 340.209 L
454.658 340.88 L
456.839 341.548 L
459.02 342.21 L
461.201 342.868 L
463.382 343.522 L
465.563 344.172 L
467.744 344.817 L
469.925 345.457 L
472.105 346.094 L
474.286 346.726 L
476.467 347.355 L
478.648 347.979 L
480.829 348.599 L
483.01 349.215 L
485.191 349.827 L
487.372 350.435 L
489.553 351.039 L
491.734 351.639 L
493.915 352.236 L
496.095 352.828 L
498.276 353.417 L
500.457 354.002 L
502.638 354.583 L
504.819 355.161 L
507 355.735 L
S
GR
GS
[0.75 0 0 0.75 0 0] CT
1 GC
N
496 84 M
496 42 L
341 42 L
341 84 L
cp
f
GR
GS
[0.75 0 0 0.75 291 40.02353] CT
/Helvetica 14.667 F
GS
[1 0 0 1 0 0] CT
0 5.5 moveto 
1 -1 scale
(Measurement) t 
GR
GR
GS
[0.75 0 0 0.75 273.75 40.02353] CT
0 0.447 0.741 RC
N
f-1290764029
f
GR
GS
[0.75 0 0 0.75 291 54.47647] CT
/Helvetica 14.667 F
GS
[1 0 0 1 0 0] CT
0 5.5 moveto 
1 -1 scale
(Identified model) t 
GR
GR
GS
[0.75 0 0 0.75 0 0] CT
0.851 0.325 0.098 RC
[8 8] 0 setdash
2 LJ
2 LW
N
345 72.635 M
385 72.635 L
S
GR
GS
[0.75 0 0 0.75 0 0] CT
0.149 GC
10.0 ML
0.667 LW
N
341 84 M
341 42 L
496 42 L
496 84 L
cp
S
GR
%%Trailer
%%Pages: 1
%%EOF
