%!PS-Adobe-3.0 EPSF-3.0
%%Creator: (MATLAB, The Mathworks, Inc. Version 9.3.0.713579 \(R2017b\). Operating System: Windows 7)
%%Title: D:/CVUT/Ultrasonic/IFAC_article/figures/ref_jump.eps
%%CreationDate: 2019-01-27T17:34:43
%%Pages: (atend)
%%BoundingBox: 0 0 372 248
%%LanguageLevel: 3
%%EndComments
%%BeginProlog
%%BeginResource: procset (Apache XML Graphics Std ProcSet) 1.2 0
%%Version: 1.2 0
%%Copyright: (Copyright 2001-2003,2010 The Apache Software Foundation. License terms: http://www.apache.org/licenses/LICENSE-2.0)
/bd{bind def}bind def
/ld{load def}bd
/GR/grestore ld
/GS/gsave ld
/RM/rmoveto ld
/C/curveto ld
/t/show ld
/L/lineto ld
/ML/setmiterlimit ld
/CT/concat ld
/f/fill ld
/N/newpath ld
/S/stroke ld
/CC/setcmykcolor ld
/A/ashow ld
/cp/closepath ld
/RC/setrgbcolor ld
/LJ/setlinejoin ld
/GC/setgray ld
/LW/setlinewidth ld
/M/moveto ld
/re {4 2 roll M
1 index 0 rlineto
0 exch rlineto
neg 0 rlineto
cp } bd
/_ctm matrix def
/_tm matrix def
/BT { _ctm currentmatrix pop matrix _tm copy pop 0 0 moveto } bd
/ET { _ctm setmatrix } bd
/iTm { _ctm setmatrix _tm concat } bd
/Tm { _tm astore pop iTm 0 0 moveto } bd
/ux 0.0 def
/uy 0.0 def
/F {
  /Tp exch def
  /Tf exch def
  Tf findfont Tp scalefont setfont
  /cf Tf def  /cs Tp def
} bd
/ULS {currentpoint /uy exch def /ux exch def} bd
/ULE {
  /Tcx currentpoint pop def
  gsave
  newpath
  cf findfont cs scalefont dup
  /FontMatrix get 0 get /Ts exch def /FontInfo get dup
  /UnderlinePosition get Ts mul /To exch def
  /UnderlineThickness get Ts mul /Tt exch def
  ux uy To add moveto  Tcx uy To add lineto
  Tt setlinewidth stroke
  grestore
} bd
/OLE {
  /Tcx currentpoint pop def
  gsave
  newpath
  cf findfont cs scalefont dup
  /FontMatrix get 0 get /Ts exch def /FontInfo get dup
  /UnderlinePosition get Ts mul /To exch def
  /UnderlineThickness get Ts mul /Tt exch def
  ux uy To add cs add moveto Tcx uy To add cs add lineto
  Tt setlinewidth stroke
  grestore
} bd
/SOE {
  /Tcx currentpoint pop def
  gsave
  newpath
  cf findfont cs scalefont dup
  /FontMatrix get 0 get /Ts exch def /FontInfo get dup
  /UnderlinePosition get Ts mul /To exch def
  /UnderlineThickness get Ts mul /Tt exch def
  ux uy To add cs 10 mul 26 idiv add moveto Tcx uy To add cs 10 mul 26 idiv add lineto
  Tt setlinewidth stroke
  grestore
} bd
/QT {
/Y22 exch store
/X22 exch store
/Y21 exch store
/X21 exch store
currentpoint
/Y21 load 2 mul add 3 div exch
/X21 load 2 mul add 3 div exch
/X21 load 2 mul /X22 load add 3 div
/Y21 load 2 mul /Y22 load add 3 div
/X22 load /Y22 load curveto
} bd
/SSPD {
dup length /d exch dict def
{
/v exch def
/k exch def
currentpagedevice k known {
/cpdv currentpagedevice k get def
v cpdv ne {
/upd false def
/nullv v type /nulltype eq def
/nullcpdv cpdv type /nulltype eq def
nullv nullcpdv or
{
/upd true def
} {
/sametype v type cpdv type eq def
sametype {
v type /arraytype eq {
/vlen v length def
/cpdvlen cpdv length def
vlen cpdvlen eq {
0 1 vlen 1 sub {
/i exch def
/obj v i get def
/cpdobj cpdv i get def
obj cpdobj ne {
/upd true def
exit
} if
} for
} {
/upd true def
} ifelse
} {
v type /dicttype eq {
v {
/dv exch def
/dk exch def
/cpddv cpdv dk get def
dv cpddv ne {
/upd true def
exit
} if
} forall
} {
/upd true def
} ifelse
} ifelse
} if
} ifelse
upd true eq {
d k v put
} if
} if
} if
} forall
d length 0 gt {
d setpagedevice
} if
} bd
/RE { % /NewFontName [NewEncodingArray] /FontName RE -
  findfont dup length dict begin
  {
    1 index /FID ne
    {def} {pop pop} ifelse
  } forall
  /Encoding exch def
  /FontName 1 index def
  currentdict definefont pop
  end
} bind def
%%EndResource
%%BeginResource: procset (Apache XML Graphics EPS ProcSet) 1.0 0
%%Version: 1.0 0
%%Copyright: (Copyright 2002-2003 The Apache Software Foundation. License terms: http://www.apache.org/licenses/LICENSE-2.0)
/BeginEPSF { %def
/b4_Inc_state save def         % Save state for cleanup
/dict_count countdictstack def % Count objects on dict stack
/op_count count 1 sub def      % Count objects on operand stack
userdict begin                 % Push userdict on dict stack
/showpage { } def              % Redefine showpage, { } = null proc
0 setgray 0 setlinecap         % Prepare graphics state
1 setlinewidth 0 setlinejoin
10 setmiterlimit [ ] 0 setdash newpath
/languagelevel where           % If level not equal to 1 then
{pop languagelevel             % set strokeadjust and
1 ne                           % overprint to their defaults.
{false setstrokeadjust false setoverprint
} if
} if
} bd
/EndEPSF { %def
count op_count sub {pop} repeat            % Clean up stacks
countdictstack dict_count sub {end} repeat
b4_Inc_state restore
} bd
%%EndResource
%FOPBeginFontDict
%%IncludeResource: font Courier-Oblique
%%IncludeResource: font Courier-BoldOblique
%%IncludeResource: font Courier-Bold
%%IncludeResource: font ZapfDingbats
%%IncludeResource: font Symbol
%%IncludeResource: font Helvetica
%%IncludeResource: font Helvetica-Oblique
%%IncludeResource: font Helvetica-Bold
%%IncludeResource: font Helvetica-BoldOblique
%%IncludeResource: font Times-Roman
%%IncludeResource: font Times-Italic
%%IncludeResource: font Times-Bold
%%IncludeResource: font Times-BoldItalic
%%IncludeResource: font Courier
%FOPEndFontDict
%%BeginResource: encoding WinAnsiEncoding
/WinAnsiEncoding [
/.notdef /.notdef /.notdef /.notdef /.notdef
/.notdef /.notdef /.notdef /.notdef /.notdef
/.notdef /.notdef /.notdef /.notdef /.notdef
/.notdef /.notdef /.notdef /.notdef /.notdef
/.notdef /.notdef /.notdef /.notdef /.notdef
/.notdef /.notdef /.notdef /.notdef /.notdef
/.notdef /.notdef /space /exclam /quotedbl
/numbersign /dollar /percent /ampersand /quotesingle
/parenleft /parenright /asterisk /plus /comma
/hyphen /period /slash /zero /one
/two /three /four /five /six
/seven /eight /nine /colon /semicolon
/less /equal /greater /question /at
/A /B /C /D /E
/F /G /H /I /J
/K /L /M /N /O
/P /Q /R /S /T
/U /V /W /X /Y
/Z /bracketleft /backslash /bracketright /asciicircum
/underscore /quoteleft /a /b /c
/d /e /f /g /h
/i /j /k /l /m
/n /o /p /q /r
/s /t /u /v /w
/x /y /z /braceleft /bar
/braceright /asciitilde /bullet /Euro /bullet
/quotesinglbase /florin /quotedblbase /ellipsis /dagger
/daggerdbl /circumflex /perthousand /Scaron /guilsinglleft
/OE /bullet /Zcaron /bullet /bullet
/quoteleft /quoteright /quotedblleft /quotedblright /bullet
/endash /emdash /asciitilde /trademark /scaron
/guilsinglright /oe /bullet /zcaron /Ydieresis
/space /exclamdown /cent /sterling /currency
/yen /brokenbar /section /dieresis /copyright
/ordfeminine /guillemotleft /logicalnot /sfthyphen /registered
/macron /degree /plusminus /twosuperior /threesuperior
/acute /mu /paragraph /middot /cedilla
/onesuperior /ordmasculine /guillemotright /onequarter /onehalf
/threequarters /questiondown /Agrave /Aacute /Acircumflex
/Atilde /Adieresis /Aring /AE /Ccedilla
/Egrave /Eacute /Ecircumflex /Edieresis /Igrave
/Iacute /Icircumflex /Idieresis /Eth /Ntilde
/Ograve /Oacute /Ocircumflex /Otilde /Odieresis
/multiply /Oslash /Ugrave /Uacute /Ucircumflex
/Udieresis /Yacute /Thorn /germandbls /agrave
/aacute /acircumflex /atilde /adieresis /aring
/ae /ccedilla /egrave /eacute /ecircumflex
/edieresis /igrave /iacute /icircumflex /idieresis
/eth /ntilde /ograve /oacute /ocircumflex
/otilde /odieresis /divide /oslash /ugrave
/uacute /ucircumflex /udieresis /yacute /thorn
/ydieresis
] def
%%EndResource
%FOPBeginFontReencode
/Courier-Oblique findfont
dup length dict begin
  {1 index /FID ne {def} {pop pop} ifelse} forall
  /Encoding WinAnsiEncoding def
  currentdict
end
/Courier-Oblique exch definefont pop
/Courier-BoldOblique findfont
dup length dict begin
  {1 index /FID ne {def} {pop pop} ifelse} forall
  /Encoding WinAnsiEncoding def
  currentdict
end
/Courier-BoldOblique exch definefont pop
/Courier-Bold findfont
dup length dict begin
  {1 index /FID ne {def} {pop pop} ifelse} forall
  /Encoding WinAnsiEncoding def
  currentdict
end
/Courier-Bold exch definefont pop
/Helvetica findfont
dup length dict begin
  {1 index /FID ne {def} {pop pop} ifelse} forall
  /Encoding WinAnsiEncoding def
  currentdict
end
/Helvetica exch definefont pop
/Helvetica-Oblique findfont
dup length dict begin
  {1 index /FID ne {def} {pop pop} ifelse} forall
  /Encoding WinAnsiEncoding def
  currentdict
end
/Helvetica-Oblique exch definefont pop
/Helvetica-Bold findfont
dup length dict begin
  {1 index /FID ne {def} {pop pop} ifelse} forall
  /Encoding WinAnsiEncoding def
  currentdict
end
/Helvetica-Bold exch definefont pop
/Helvetica-BoldOblique findfont
dup length dict begin
  {1 index /FID ne {def} {pop pop} ifelse} forall
  /Encoding WinAnsiEncoding def
  currentdict
end
/Helvetica-BoldOblique exch definefont pop
/Times-Roman findfont
dup length dict begin
  {1 index /FID ne {def} {pop pop} ifelse} forall
  /Encoding WinAnsiEncoding def
  currentdict
end
/Times-Roman exch definefont pop
/Times-Italic findfont
dup length dict begin
  {1 index /FID ne {def} {pop pop} ifelse} forall
  /Encoding WinAnsiEncoding def
  currentdict
end
/Times-Italic exch definefont pop
/Times-Bold findfont
dup length dict begin
  {1 index /FID ne {def} {pop pop} ifelse} forall
  /Encoding WinAnsiEncoding def
  currentdict
end
/Times-Bold exch definefont pop
/Times-BoldItalic findfont
dup length dict begin
  {1 index /FID ne {def} {pop pop} ifelse} forall
  /Encoding WinAnsiEncoding def
  currentdict
end
/Times-BoldItalic exch definefont pop
/Courier findfont
dup length dict begin
  {1 index /FID ne {def} {pop pop} ifelse} forall
  /Encoding WinAnsiEncoding def
  currentdict
end
/Courier exch definefont pop
%FOPEndFontReencode
%%EndProlog
%%Page: 1 1
%%PageBoundingBox: 0 0 372 248
%%BeginPageSetup
[1 0 0 -1 0 248] CT
%%EndPageSetup
GS
[0.75 0 0 0.75 0 0.5] CT
N
0 0 M
496 0 L
496 330 L
0 330 L
0 0 L
cp
clip
1 GC
N
0 0 496 330 re
f
GR
GS
[0.75 0 0 0.75 0 0.5] CT
1 GC
N
0 0 496 330 re
f
GR
GS
[0.75 0 0 0.75 0 0.5] CT
1 GC
N
64 123 M
449 123 L
449 32 L
64 32 L
cp
f
GR
GS
[0.75 0 0 0.75 0 0.5] CT
0.149 GC
2 setlinecap
1 LJ
0.667 LW
N
64 123 M
449 123 L
S
GR
GS
[0.75 0 0 0.75 0 0.5] CT
0.149 GC
2 setlinecap
1 LJ
0.667 LW
N
64 32 M
449 32 L
S
GR
GS
[0.75 0 0 0.75 0 0.5] CT
0.149 GC
2 setlinecap
1 LJ
0.667 LW
N
64 123 M
64 119.15 L
S
GR
GS
[0.75 0 0 0.75 0 0.5] CT
0.149 GC
2 setlinecap
1 LJ
0.667 LW
N
141 123 M
141 119.15 L
S
GR
GS
[0.75 0 0 0.75 0 0.5] CT
0.149 GC
2 setlinecap
1 LJ
0.667 LW
N
218 123 M
218 119.15 L
S
GR
GS
[0.75 0 0 0.75 0 0.5] CT
0.149 GC
2 setlinecap
1 LJ
0.667 LW
N
295 123 M
295 119.15 L
S
GR
GS
[0.75 0 0 0.75 0 0.5] CT
0.149 GC
2 setlinecap
1 LJ
0.667 LW
N
372 123 M
372 119.15 L
S
GR
GS
[0.75 0 0 0.75 0 0.5] CT
0.149 GC
2 setlinecap
1 LJ
0.667 LW
N
449 123 M
449 119.15 L
S
GR
GS
[0.75 0 0 0.75 0 0.5] CT
0.149 GC
2 setlinecap
1 LJ
0.667 LW
N
64 32 M
64 35.85 L
S
GR
GS
[0.75 0 0 0.75 0 0.5] CT
0.149 GC
2 setlinecap
1 LJ
0.667 LW
N
141 32 M
141 35.85 L
S
GR
GS
[0.75 0 0 0.75 0 0.5] CT
0.149 GC
2 setlinecap
1 LJ
0.667 LW
N
218 32 M
218 35.85 L
S
GR
GS
[0.75 0 0 0.75 0 0.5] CT
0.149 GC
2 setlinecap
1 LJ
0.667 LW
N
295 32 M
295 35.85 L
S
GR
GS
[0.75 0 0 0.75 0 0.5] CT
0.149 GC
2 setlinecap
1 LJ
0.667 LW
N
372 32 M
372 35.85 L
S
GR
GS
[0.75 0 0 0.75 0 0.5] CT
0.149 GC
2 setlinecap
1 LJ
0.667 LW
N
449 32 M
449 35.85 L
S
GR
GS
[0.75 0 0 0.75 48 96.75] CT
0.149 GC
/Helvetica 13.333 F
GS
[1 0 0 1 0 0] CT
-4 14 moveto 
1 -1 scale
(0) t 
GR
GR
GS
[0.75 0 0 0.75 105.75 96.75] CT
0.149 GC
/Helvetica 13.333 F
GS
[1 0 0 1 0 0] CT
-4 14 moveto 
1 -1 scale
(1) t 
GR
GR
GS
[0.75 0 0 0.75 163.5 96.75] CT
0.149 GC
/Helvetica 13.333 F
GS
[1 0 0 1 0 0] CT
-4 14 moveto 
1 -1 scale
(2) t 
GR
GR
GS
[0.75 0 0 0.75 221.25 96.75] CT
0.149 GC
/Helvetica 13.333 F
GS
[1 0 0 1 0 0] CT
-4 14 moveto 
1 -1 scale
(3) t 
GR
GR
GS
[0.75 0 0 0.75 279 96.75] CT
0.149 GC
/Helvetica 13.333 F
GS
[1 0 0 1 0 0] CT
-4 14 moveto 
1 -1 scale
(4) t 
GR
GR
GS
[0.75 0 0 0.75 336.75 96.75] CT
0.149 GC
/Helvetica 13.333 F
GS
[1 0 0 1 0 0] CT
-4 14 moveto 
1 -1 scale
(5) t 
GR
GR
GS
[0.75 0 0 0.75 192.37514 110.5] CT
0.149 GC
/Helvetica 14.667 F
GS
[1 0 0 1 0 0] CT
-26.5 15 moveto 
1 -1 scale
(Time [s]) t 
GR
GR
GS
[0.75 0 0 0.75 0 0.5] CT
0.149 GC
2 setlinecap
1 LJ
0.667 LW
N
64 123 M
64 32 L
S
GR
GS
[0.75 0 0 0.75 0 0.5] CT
0.149 GC
2 setlinecap
1 LJ
0.667 LW
N
449 123 M
449 32 L
S
GR
GS
[0.75 0 0 0.75 0 0.5] CT
0.149 GC
2 setlinecap
1 LJ
0.667 LW
N
64 123 M
67.85 123 L
S
GR
GS
[0.75 0 0 0.75 0 0.5] CT
0.149 GC
2 setlinecap
1 LJ
0.667 LW
N
64 92.667 M
67.85 92.667 L
S
GR
GS
[0.75 0 0 0.75 0 0.5] CT
0.149 GC
2 setlinecap
1 LJ
0.667 LW
N
64 62.333 M
67.85 62.333 L
S
GR
GS
[0.75 0 0 0.75 0 0.5] CT
0.149 GC
2 setlinecap
1 LJ
0.667 LW
N
64 32 M
67.85 32 L
S
GR
GS
[0.75 0 0 0.75 0 0.5] CT
0.149 GC
2 setlinecap
1 LJ
0.667 LW
N
449 123 M
445.15 123 L
S
GR
GS
[0.75 0 0 0.75 0 0.5] CT
0.149 GC
2 setlinecap
1 LJ
0.667 LW
N
449 92.667 M
445.15 92.667 L
S
GR
GS
[0.75 0 0 0.75 0 0.5] CT
0.149 GC
2 setlinecap
1 LJ
0.667 LW
N
449 62.333 M
445.15 62.333 L
S
GR
GS
[0.75 0 0 0.75 0 0.5] CT
0.149 GC
2 setlinecap
1 LJ
0.667 LW
N
449 32 M
445.15 32 L
S
GR
GS
[0.75 0 0 0.75 44 92.75] CT
0.149 GC
/Helvetica 13.333 F
GS
[1 0 0 1 0 0] CT
-8 5.5 moveto 
1 -1 scale
(0) t 
GR
GR
GS
[0.75 0 0 0.75 44 70] CT
0.149 GC
/Helvetica 13.333 F
GS
[1 0 0 1 0 0] CT
-8 5.5 moveto 
1 -1 scale
(5) t 
GR
GR
GS
[0.75 0 0 0.75 44 47.25] CT
0.149 GC
/Helvetica 13.333 F
GS
[1 0 0 1 0 0] CT
-15 5.5 moveto 
1 -1 scale
(10) t 
GR
GR
GS
[0.75 0 0 0.75 44 24.5] CT
0.149 GC
/Helvetica 13.333 F
GS
[1 0 0 1 0 0] CT
-15 5.5 moveto 
1 -1 scale
(15) t 
GR
GR
GS
[0 -0.75 0.75 0 29.75 58.62497] CT
0.149 GC
/Helvetica 14.667 F
GS
[1 0 0 1 0 0] CT
-44.5 -4 moveto 
1 -1 scale
(Position [mm]) t 
GR
GR
GS
[0.75 0 0 0.75 192.37518 22.4375] CT
/Helvetica-Bold 14.667 F
GS
[1 0 0 1 0 0] CT
-108 -4 moveto 
1 -1 scale
(Response to jump of reference) t 
GR
GR
GS
[0.75 0 0 0.75 0 0.5] CT
0 0.447 0.741 RC
1 LJ
1.333 LW
N
64 122.777 M
65.54 122.779 L
67.08 122.877 L
68.62 122.94 L
69.491 123.011 L
S
GR
GS
[0.75 0 0 0.75 0 0.5] CT
0 0.447 0.741 RC
1 LJ
1.333 LW
N
75.109 123.011 M
76.32 122.882 L
77.86 122.824 L
79.4 122.74 L
80.94 122.758 L
82.48 122.845 L
83.906 123.011 L
S
GR
GS
[0.75 0 0 0.75 0 0.5] CT
0 0.447 0.741 RC
1 LJ
1.333 LW
N
90.393 123.011 M
91.72 122.856 L
93.26 122.797 L
94.8 122.752 L
96.34 122.821 L
97.88 122.869 L
99.42 122.971 L
100.265 123.011 L
S
GR
GS
[0.75 0 0 0.75 0 0.5] CT
0 0.447 0.741 RC
1 LJ
1.333 LW
N
104.994 123.011 M
105.58 122.963 L
107.12 122.834 L
108.66 122.727 L
110.2 122.82 L
111.74 122.787 L
113.28 122.874 L
114.423 123.011 L
S
GR
GS
[0.75 0 0 0.75 0 0.5] CT
0 0.447 0.741 RC
1 LJ
1.333 LW
N
120.085 123.011 M
120.98 122.96 L
122.52 122.801 L
124.06 122.735 L
125.6 122.739 L
127.14 122.831 L
128.68 122.923 L
129.635 123.011 L
S
GR
GS
[0.75 0 0 0.75 0 0.5] CT
0 0.447 0.741 RC
1 LJ
1.333 LW
N
135.133 123.011 M
136.38 122.874 L
137.92 122.744 L
139.46 122.734 L
141 122.877 L
142.54 122.877 L
144.08 122.877 L
145.142 123.011 L
S
GR
GS
[0.75 0 0 0.75 0 0.5] CT
0 0.447 0.741 RC
1 LJ
1.333 LW
N
147.302 123.011 M
148.7 122.511 L
150.24 121.319 L
151.78 120.641 L
153.32 120.516 L
154.86 120.249 L
156.4 120.051 L
157.94 120.047 L
159.48 119.677 L
161.02 119.188 L
162.56 118.27 L
164.1 117.815 L
165.64 117.046 L
167.18 116.249 L
168.72 115.53 L
170.26 115.004 L
171.8 114.351 L
173.34 113.254 L
174.88 112.531 L
176.42 111.972 L
177.96 111.298 L
179.5 110.586 L
181.04 109.78 L
182.58 109.163 L
184.12 108.041 L
185.66 107.192 L
187.2 106.248 L
188.74 104.884 L
190.28 103.844 L
191.82 102.436 L
193.36 101.476 L
194.9 100.038 L
196.44 98.973 L
197.98 96.559 L
199.52 95.156 L
201.06 94.082 L
202.6 94.082 L
204.14 92.766 L
205.68 90.604 L
207.22 89.327 L
208.76 87.853 L
210.3 87.853 L
211.84 86.601 L
213.38 84.302 L
214.92 83.323 L
216.46 81.899 L
218 81.899 L
219.54 80.021 L
221.08 80.021 L
222.62 79.209 L
224.16 78.48 L
225.7 77.35 L
227.24 76.522 L
228.78 75.485 L
230.32 74.127 L
231.86 73.243 L
233.4 72.049 L
234.94 70.669 L
236.48 70.089 L
238.02 69.417 L
239.56 68.897 L
241.1 68.897 L
242.64 67.644 L
244.18 66.811 L
245.72 66.173 L
247.26 65.608 L
248.8 65.608 L
250.34 64.228 L
251.88 63.74 L
253.42 63.551 L
254.96 63.263 L
256.5 63.263 L
258.04 62.392 L
259.58 61.888 L
261.12 61.416 L
262.66 61.22 L
264.2 61.22 L
265.74 60.948 L
267.28 60.811 L
268.82 60.455 L
270.36 60.236 L
271.9 60.236 L
273.44 59.336 L
274.98 58.995 L
276.52 58.835 L
278.06 58.898 L
279.6 58.898 L
281.14 59.047 L
282.68 58.8 L
284.22 58.8 L
285.76 58.741 L
287.3 58.628 L
288.84 58.456 L
290.38 58.343 L
291.92 58.307 L
293.46 58.294 L
295 58.294 L
296.54 58.299 L
298.08 58.215 L
299.62 58.166 L
301.16 58.098 L
302.7 58.098 L
304.24 57.923 L
305.78 57.82 L
307.32 57.714 L
308.86 57.605 L
310.4 57.605 L
311.94 57.537 L
313.48 57.656 L
315.02 57.714 L
316.56 57.75 L
318.1 57.75 L
319.64 57.635 L
321.18 57.489 L
322.72 57.461 L
324.26 57.538 L
325.8 57.538 L
327.34 57.732 L
328.88 57.738 L
330.42 57.748 L
331.96 57.787 L
333.5 57.787 L
335.04 57.791 L
336.58 57.964 L
338.12 58.095 L
339.66 58.126 L
341.2 58.126 L
342.74 58.139 L
344.28 58.14 L
345.82 58.14 L
347.36 58.067 L
348.9 58.192 L
350.44 58.168 L
351.98 58.246 L
353.52 58.309 L
355.06 58.334 L
356.6 58.404 L
358.14 58.487 L
359.68 58.495 L
361.22 58.491 L
362.76 58.479 L
364.3 58.479 L
365.84 58.506 L
367.38 58.643 L
368.92 58.727 L
370.46 58.735 L
372 58.735 L
373.54 58.821 L
375.08 58.778 L
376.62 58.882 L
378.16 58.921 L
379.7 58.921 L
381.24 59.037 L
382.78 59.093 L
384.32 59.144 L
385.86 59.147 L
387.4 59.147 L
388.94 59.288 L
390.48 59.279 L
392.02 59.518 L
393.56 59.464 L
395.1 59.635 L
396.64 59.691 L
398.18 59.773 L
399.72 59.827 L
401.26 59.877 L
402.8 59.937 L
404.34 60.052 L
405.88 60.096 L
407.42 60.161 L
408.96 60.161 L
410.5 60.169 L
412.04 60.171 L
413.58 60.233 L
415.12 60.314 L
416.66 60.413 L
418.2 60.543 L
419.74 60.64 L
421.28 60.809 L
422.82 60.689 L
424.36 60.644 L
425.9 60.614 L
427.44 60.659 L
428.98 60.818 L
430.52 60.886 L
432.06 60.911 L
433.6 60.911 L
435.14 60.982 L
436.68 61.012 L
438.22 60.97 L
439.76 60.952 L
441.3 60.952 L
442.84 61.109 L
444.38 61.188 L
445.92 61.243 L
447.46 61.259 L
449 61.259 L
S
GR
GS
[0.75 0 0 0.75 0 0.5] CT
0.851 0.325 0.098 RC
1 LJ
1.333 LW
N
64 123 M
65.54 123 L
67.08 123 L
68.62 123 L
70.16 123 L
71.7 123 L
73.24 123 L
74.78 123 L
76.32 123 L
77.86 123 L
79.4 123 L
80.94 123 L
82.48 123 L
84.02 123 L
85.56 123 L
87.1 123 L
88.64 123 L
90.18 123 L
91.72 123 L
93.26 123 L
94.8 123 L
96.34 123 L
97.88 123 L
99.42 123 L
100.96 123 L
102.5 123 L
104.04 123 L
105.58 123 L
107.12 123 L
108.66 123 L
110.2 123 L
111.74 123 L
113.28 123 L
114.82 123 L
116.36 123 L
117.9 123 L
119.44 123 L
120.98 123 L
122.52 123 L
124.06 123 L
125.6 123 L
127.14 123 L
128.68 123 L
130.22 123 L
131.76 123 L
133.3 123 L
134.84 123 L
136.38 123 L
137.92 123 L
139.46 123 L
141 62.333 L
142.54 62.333 L
144.08 62.333 L
145.62 62.333 L
147.16 62.333 L
148.7 62.333 L
150.24 62.333 L
151.78 62.333 L
153.32 62.333 L
154.86 62.333 L
156.4 62.333 L
157.94 62.333 L
159.48 62.333 L
161.02 62.333 L
162.56 62.333 L
164.1 62.333 L
165.64 62.333 L
167.18 62.333 L
168.72 62.333 L
170.26 62.333 L
171.8 62.333 L
173.34 62.333 L
174.88 62.333 L
176.42 62.333 L
177.96 62.333 L
179.5 62.333 L
181.04 62.333 L
182.58 62.333 L
184.12 62.333 L
185.66 62.333 L
187.2 62.333 L
188.74 62.333 L
190.28 62.333 L
191.82 62.333 L
193.36 62.333 L
194.9 62.333 L
196.44 62.333 L
197.98 62.333 L
199.52 62.333 L
201.06 62.333 L
202.6 62.333 L
204.14 62.333 L
205.68 62.333 L
207.22 62.333 L
208.76 62.333 L
210.3 62.333 L
211.84 62.333 L
213.38 62.333 L
214.92 62.333 L
216.46 62.333 L
218 62.333 L
219.54 62.333 L
221.08 62.333 L
222.62 62.333 L
224.16 62.333 L
225.7 62.333 L
227.24 62.333 L
228.78 62.333 L
230.32 62.333 L
231.86 62.333 L
233.4 62.333 L
234.94 62.333 L
236.48 62.333 L
238.02 62.333 L
239.56 62.333 L
241.1 62.333 L
242.64 62.333 L
244.18 62.333 L
245.72 62.333 L
247.26 62.333 L
248.8 62.333 L
250.34 62.333 L
251.88 62.333 L
253.42 62.333 L
254.96 62.333 L
256.5 62.333 L
258.04 62.333 L
259.58 62.333 L
261.12 62.333 L
262.66 62.333 L
264.2 62.333 L
265.74 62.333 L
267.28 62.333 L
268.82 62.333 L
270.36 62.333 L
271.9 62.333 L
273.44 62.333 L
274.98 62.333 L
276.52 62.333 L
278.06 62.333 L
279.6 62.333 L
281.14 62.333 L
282.68 62.333 L
284.22 62.333 L
285.76 62.333 L
287.3 62.333 L
288.84 62.333 L
290.38 62.333 L
291.92 62.333 L
293.46 62.333 L
295 62.333 L
296.54 62.333 L
298.08 62.333 L
299.62 62.333 L
301.16 62.333 L
302.7 62.333 L
304.24 62.333 L
305.78 62.333 L
307.32 62.333 L
308.86 62.333 L
310.4 62.333 L
311.94 62.333 L
313.48 62.333 L
315.02 62.333 L
316.56 62.333 L
318.1 62.333 L
319.64 62.333 L
321.18 62.333 L
322.72 62.333 L
324.26 62.333 L
325.8 62.333 L
327.34 62.333 L
328.88 62.333 L
330.42 62.333 L
331.96 62.333 L
333.5 62.333 L
335.04 62.333 L
336.58 62.333 L
338.12 62.333 L
339.66 62.333 L
341.2 62.333 L
342.74 62.333 L
344.28 62.333 L
345.82 62.333 L
347.36 62.333 L
348.9 62.333 L
350.44 62.333 L
351.98 62.333 L
353.52 62.333 L
355.06 62.333 L
356.6 62.333 L
358.14 62.333 L
359.68 62.333 L
361.22 62.333 L
362.76 62.333 L
364.3 62.333 L
365.84 62.333 L
367.38 62.333 L
368.92 62.333 L
370.46 62.333 L
372 62.333 L
373.54 62.333 L
375.08 62.333 L
376.62 62.333 L
378.16 62.333 L
379.7 62.333 L
381.24 62.333 L
382.78 62.333 L
384.32 62.333 L
385.86 62.333 L
387.4 62.333 L
388.94 62.333 L
390.48 62.333 L
392.02 62.333 L
393.56 62.333 L
395.1 62.333 L
396.64 62.333 L
398.18 62.333 L
399.72 62.333 L
401.26 62.333 L
402.8 62.333 L
404.34 62.333 L
405.88 62.333 L
407.42 62.333 L
408.96 62.333 L
410.5 62.333 L
412.04 62.333 L
413.58 62.333 L
415.12 62.333 L
416.66 62.333 L
418.2 62.333 L
419.74 62.333 L
421.28 62.333 L
422.82 62.333 L
424.36 62.333 L
425.9 62.333 L
427.44 62.333 L
428.98 62.333 L
430.52 62.333 L
432.06 62.333 L
433.6 62.333 L
435.14 62.333 L
436.68 62.333 L
438.22 62.333 L
439.76 62.333 L
441.3 62.333 L
442.84 62.333 L
444.38 62.333 L
445.92 62.333 L
447.46 62.333 L
449 62.333 L
S
GR
GS
[0.75 0 0 0.75 0 0.5] CT
1 GC
N
436 110 M
436 73 L
305 73 L
305 110 L
cp
f
GR
GS
[0.75 0 0 0.75 264 62.85274] CT
/Helvetica 12 F
GS
[1 0 0 1 0 0] CT
0 5 moveto 
1 -1 scale
(Object position) t 
GR
GR
GS
[0.75 0 0 0.75 0 0.5] CT
0 0.447 0.741 RC
1 LJ
1.333 LW
N
309 83.137 M
349 83.137 L
S
GR
GS
[0.75 0 0 0.75 264 75.39726] CT
/Helvetica 12 F
GS
[1 0 0 1 0 0] CT
0 5 moveto 
1 -1 scale
(Reference) t 
GR
GR
GS
[0.75 0 0 0.75 0 0.5] CT
0.851 0.325 0.098 RC
1 LJ
1.333 LW
N
309 99.863 M
349 99.863 L
S
GR
GS
[0.75 0 0 0.75 0 0.5] CT
0.149 GC
10.0 ML
0.667 LW
N
305 110 M
305 73 L
436 73 L
436 110 L
cp
S
GR
GS
[0.75 0 0 0.75 0 0.5] CT
1 GC
N
64 279 M
449 279 L
449 188 L
64 188 L
cp
f
GR
GS
[0.75 0 0 0.75 0 0.5] CT
0.149 GC
2 setlinecap
1 LJ
0.667 LW
N
64 279 M
449 279 L
S
GR
GS
[0.75 0 0 0.75 0 0.5] CT
0.149 GC
2 setlinecap
1 LJ
0.667 LW
N
64 188 M
449 188 L
S
GR
GS
[0.75 0 0 0.75 0 0.5] CT
0.149 GC
2 setlinecap
1 LJ
0.667 LW
N
64 279 M
64 275.15 L
S
GR
GS
[0.75 0 0 0.75 0 0.5] CT
0.149 GC
2 setlinecap
1 LJ
0.667 LW
N
141 279 M
141 275.15 L
S
GR
GS
[0.75 0 0 0.75 0 0.5] CT
0.149 GC
2 setlinecap
1 LJ
0.667 LW
N
218 279 M
218 275.15 L
S
GR
GS
[0.75 0 0 0.75 0 0.5] CT
0.149 GC
2 setlinecap
1 LJ
0.667 LW
N
295 279 M
295 275.15 L
S
GR
GS
[0.75 0 0 0.75 0 0.5] CT
0.149 GC
2 setlinecap
1 LJ
0.667 LW
N
372 279 M
372 275.15 L
S
GR
GS
[0.75 0 0 0.75 0 0.5] CT
0.149 GC
2 setlinecap
1 LJ
0.667 LW
N
449 279 M
449 275.15 L
S
GR
GS
[0.75 0 0 0.75 0 0.5] CT
0.149 GC
2 setlinecap
1 LJ
0.667 LW
N
64 188 M
64 191.85 L
S
GR
GS
[0.75 0 0 0.75 0 0.5] CT
0.149 GC
2 setlinecap
1 LJ
0.667 LW
N
141 188 M
141 191.85 L
S
GR
GS
[0.75 0 0 0.75 0 0.5] CT
0.149 GC
2 setlinecap
1 LJ
0.667 LW
N
218 188 M
218 191.85 L
S
GR
GS
[0.75 0 0 0.75 0 0.5] CT
0.149 GC
2 setlinecap
1 LJ
0.667 LW
N
295 188 M
295 191.85 L
S
GR
GS
[0.75 0 0 0.75 0 0.5] CT
0.149 GC
2 setlinecap
1 LJ
0.667 LW
N
372 188 M
372 191.85 L
S
GR
GS
[0.75 0 0 0.75 0 0.5] CT
0.149 GC
2 setlinecap
1 LJ
0.667 LW
N
449 188 M
449 191.85 L
S
GR
GS
[0.75 0 0 0.75 48 213.75001] CT
0.149 GC
/Helvetica 13.333 F
GS
[1 0 0 1 0 0] CT
-4 14 moveto 
1 -1 scale
(0) t 
GR
GR
GS
[0.75 0 0 0.75 105.75 213.75001] CT
0.149 GC
/Helvetica 13.333 F
GS
[1 0 0 1 0 0] CT
-4 14 moveto 
1 -1 scale
(1) t 
GR
GR
GS
[0.75 0 0 0.75 163.5 213.75001] CT
0.149 GC
/Helvetica 13.333 F
GS
[1 0 0 1 0 0] CT
-4 14 moveto 
1 -1 scale
(2) t 
GR
GR
GS
[0.75 0 0 0.75 221.25 213.75001] CT
0.149 GC
/Helvetica 13.333 F
GS
[1 0 0 1 0 0] CT
-4 14 moveto 
1 -1 scale
(3) t 
GR
GR
GS
[0.75 0 0 0.75 279 213.75001] CT
0.149 GC
/Helvetica 13.333 F
GS
[1 0 0 1 0 0] CT
-4 14 moveto 
1 -1 scale
(4) t 
GR
GR
GS
[0.75 0 0 0.75 336.75 213.75001] CT
0.149 GC
/Helvetica 13.333 F
GS
[1 0 0 1 0 0] CT
-4 14 moveto 
1 -1 scale
(5) t 
GR
GR
GS
[0.75 0 0 0.75 192.37514 227.49999] CT
0.149 GC
/Helvetica 14.667 F
GS
[1 0 0 1 0 0] CT
-26.5 15 moveto 
1 -1 scale
(Time [s]) t 
GR
GR
GS
[0.75 0 0 0.75 0 0.5] CT
0.149 GC
2 setlinecap
1 LJ
0.667 LW
N
64 279 M
64 188 L
S
GR
GS
[0.75 0 0 0.75 0 0.5] CT
0.149 GC
2 setlinecap
1 LJ
0.667 LW
N
449 279 M
449 188 L
S
GR
GS
[0.75 0 0 0.75 0 0.5] CT
0.149 GC
2 setlinecap
1 LJ
0.667 LW
N
64 279 M
67.85 279 L
S
GR
GS
[0.75 0 0 0.75 0 0.5] CT
0.149 GC
2 setlinecap
1 LJ
0.667 LW
N
64 258.778 M
67.85 258.778 L
S
GR
GS
[0.75 0 0 0.75 0 0.5] CT
0.149 GC
2 setlinecap
1 LJ
0.667 LW
N
64 238.556 M
67.85 238.556 L
S
GR
GS
[0.75 0 0 0.75 0 0.5] CT
0.149 GC
2 setlinecap
1 LJ
0.667 LW
N
64 218.333 M
67.85 218.333 L
S
GR
GS
[0.75 0 0 0.75 0 0.5] CT
0.149 GC
2 setlinecap
1 LJ
0.667 LW
N
64 198.111 M
67.85 198.111 L
S
GR
GS
[0.75 0 0 0.75 0 0.5] CT
0.149 GC
2 setlinecap
1 LJ
0.667 LW
N
449 279 M
445.15 279 L
S
GR
GS
[0.75 0 0 0.75 0 0.5] CT
0.149 GC
2 setlinecap
1 LJ
0.667 LW
N
449 258.778 M
445.15 258.778 L
S
GR
GS
[0.75 0 0 0.75 0 0.5] CT
0.149 GC
2 setlinecap
1 LJ
0.667 LW
N
449 238.556 M
445.15 238.556 L
S
GR
GS
[0.75 0 0 0.75 0 0.5] CT
0.149 GC
2 setlinecap
1 LJ
0.667 LW
N
449 218.333 M
445.15 218.333 L
S
GR
GS
[0.75 0 0 0.75 0 0.5] CT
0.149 GC
2 setlinecap
1 LJ
0.667 LW
N
449 198.111 M
445.15 198.111 L
S
GR
GS
[0.75 0 0 0.75 44 209.75] CT
0.149 GC
/Helvetica 13.333 F
GS
[1 0 0 1 0 0] CT
-23 5.5 moveto 
1 -1 scale
(500) t 
GR
GR
GS
[0.75 0 0 0.75 44 194.58333] CT
0.149 GC
/Helvetica 13.333 F
GS
[1 0 0 1 0 0] CT
-30 5.5 moveto 
1 -1 scale
(1000) t 
GR
GR
GS
[0.75 0 0 0.75 44 179.41667] CT
0.149 GC
/Helvetica 13.333 F
GS
[1 0 0 1 0 0] CT
-30 5.5 moveto 
1 -1 scale
(1500) t 
GR
GR
GS
[0.75 0 0 0.75 44 164.25] CT
0.149 GC
/Helvetica 13.333 F
GS
[1 0 0 1 0 0] CT
-30 5.5 moveto 
1 -1 scale
(2000) t 
GR
GR
GS
[0.75 0 0 0.75 44 149.08334] CT
0.149 GC
/Helvetica 13.333 F
GS
[1 0 0 1 0 0] CT
-30 5.5 moveto 
1 -1 scale
(2500) t 
GR
GR
GS
[0 -0.75 0.75 0 18.5 175.62497] CT
0.149 GC
/Helvetica 14.667 F
GS
[1 0 0 1 0 0] CT
-44.5 -4 moveto 
1 -1 scale
(Pressure [Pa]) t 
GR
GR
GS
[0.75 0 0 0.75 192.37518 139.4375] CT
/Helvetica-Bold 14.667 F
GS
[1 0 0 1 0 0] CT
-50 -4 moveto 
1 -1 scale
(Control action) t 
GR
GR
GS
[0.75 0 0 0.75 0 0.5] CT
0 0.447 0.741 RC
1 LJ
1.333 LW
N
64 264.556 M
65.54 264.607 L
67.08 266.792 L
68.62 269.524 L
70.16 267.418 L
71.7 265.867 L
73.24 266.132 L
74.78 268.017 L
76.32 269.103 L
77.86 265.676 L
79.4 264.405 L
80.94 265.353 L
82.48 267.627 L
84.02 268.462 L
85.56 266.276 L
87.1 265.469 L
88.64 265.436 L
90.18 267.912 L
91.72 267.344 L
93.26 264.885 L
94.8 264.104 L
96.34 265.732 L
97.88 268.035 L
99.42 267.838 L
100.96 265.916 L
102.5 266.087 L
104.04 266.864 L
105.58 269.538 L
107.12 267.523 L
108.66 265.295 L
110.2 265.527 L
111.74 266.832 L
113.28 268.871 L
114.82 268.158 L
116.36 266.402 L
117.9 266.341 L
119.44 267.207 L
120.98 269.034 L
122.52 266.19 L
124.06 264.532 L
125.6 264.521 L
127.14 266.583 L
128.68 268.792 L
130.22 267.678 L
131.76 266.308 L
133.3 266.315 L
134.84 268.132 L
136.38 268.764 L
137.92 266.483 L
139.46 265.339 L
141 198.111 L
142.54 198.111 L
144.08 198.111 L
145.62 198.111 L
147.16 198.111 L
148.7 198.111 L
150.24 198.111 L
151.78 198.111 L
153.32 198.111 L
154.86 198.111 L
156.4 198.111 L
157.94 198.111 L
159.48 198.111 L
161.02 198.111 L
162.56 198.111 L
164.1 198.111 L
165.64 198.111 L
167.18 198.111 L
168.72 198.111 L
170.26 198.111 L
171.8 208.816 L
173.34 219.535 L
174.88 228.301 L
176.42 234.019 L
177.96 237.489 L
179.5 238.989 L
181.04 239.168 L
182.58 237.28 L
184.12 236.552 L
185.66 235.278 L
187.2 234.18 L
188.74 235.384 L
190.28 236.606 L
191.82 239.531 L
193.36 241.484 L
194.9 245.21 L
196.44 248.294 L
197.98 253.751 L
199.52 255.71 L
201.06 255.24 L
202.6 258.157 L
204.14 261.079 L
205.68 262.691 L
207.22 263.005 L
208.76 261.75 L
210.3 264.603 L
211.84 263.117 L
213.38 261.954 L
214.92 261.101 L
216.46 260.91 L
218 263.884 L
219.54 264.632 L
221.08 268.865 L
222.62 267.984 L
224.16 264.296 L
225.7 263.354 L
227.24 263.339 L
228.78 265.131 L
230.32 267.94 L
231.86 265.336 L
233.4 260.007 L
234.94 253.1 L
236.48 249.707 L
238.02 248.612 L
239.56 250.147 L
241.1 256.169 L
242.64 258.596 L
244.18 260.375 L
245.72 262.243 L
247.26 264.18 L
248.8 268.477 L
250.34 267.298 L
251.88 266.46 L
253.42 267.105 L
254.96 268.109 L
256.5 268.903 L
258.04 269.164 L
259.58 268.941 L
261.12 267.257 L
262.66 266.282 L
264.2 266.886 L
265.74 267.777 L
267.28 269.444 L
268.82 270.22 L
270.36 268.483 L
271.9 266.64 L
273.44 267.302 L
274.98 267.119 L
276.52 265.996 L
278.06 265.907 L
279.6 266.435 L
281.14 268.751 L
282.68 268.725 L
284.22 266.389 L
285.76 264.192 L
287.3 262.725 L
288.84 262.36 L
290.38 262.941 L
291.92 263.791 L
293.46 264.48 L
295 265.099 L
296.54 265.326 L
298.08 265.716 L
299.62 266.13 L
301.16 266.534 L
302.7 266.733 L
304.24 267.217 L
305.78 267.649 L
307.32 267.752 L
308.86 267.69 L
310.4 267.721 L
311.94 267.937 L
313.48 268.302 L
315.02 267.682 L
316.56 266.54 L
318.1 265.425 L
319.64 265.102 L
321.18 265.56 L
322.72 265.856 L
324.26 265.702 L
325.8 265.668 L
327.34 264.885 L
328.88 264.798 L
330.42 264.858 L
331.96 264.897 L
333.5 265.1 L
335.04 265.332 L
336.58 264.763 L
338.12 263.861 L
339.66 263.337 L
341.2 263.262 L
342.74 263.442 L
344.28 263.815 L
345.82 264.38 L
347.36 265.158 L
348.9 265.045 L
350.44 265.127 L
351.98 264.999 L
353.52 264.878 L
355.06 264.969 L
356.6 265.203 L
358.14 264.958 L
359.68 264.74 L
361.22 264.817 L
362.76 264.892 L
364.3 265.123 L
365.84 264.835 L
367.38 264.046 L
368.92 263.288 L
370.46 263.059 L
372 263.184 L
373.54 263.924 L
375.08 264.947 L
376.62 265.347 L
378.16 265.455 L
379.7 265.71 L
381.24 264.788 L
382.78 263.744 L
384.32 262.523 L
385.86 261.977 L
387.4 261.881 L
388.94 263.027 L
390.48 264.432 L
392.02 264.119 L
393.56 264.327 L
395.1 263.547 L
396.64 262.776 L
398.18 261.554 L
399.72 260.807 L
401.26 260.771 L
402.8 261.536 L
404.34 262.253 L
405.88 262.823 L
407.42 263.156 L
408.96 263.737 L
410.5 263.719 L
412.04 263.355 L
413.58 263.005 L
415.12 262.671 L
416.66 262.696 L
418.2 263.307 L
419.74 263.826 L
421.28 262.93 L
422.82 262.939 L
424.36 263.47 L
425.9 263.871 L
427.44 262.896 L
428.98 261.821 L
430.52 261.773 L
432.06 263.01 L
433.6 263.992 L
435.14 264.927 L
436.68 265.097 L
438.22 265.311 L
439.76 265.261 L
441.3 264.956 L
442.84 263.363 L
444.38 262.16 L
445.92 262.477 L
447.46 263.39 L
449 263.978 L
S
GR
%%Trailer
%%Pages: 1
%%EOF
