%!PS-Adobe-3.0 EPSF-3.0
%%Creator: (MATLAB, The Mathworks, Inc. Version 9.5.0.944444 \(R2018b\). Operating System: Windows 10)
%%Title: D:/LS2018/Mereni/PID/solid_example1.eps
%%CreationDate: 2019-01-25T18:01:45
%%Pages: (atend)
%%BoundingBox: 0 0 420 315
%%LanguageLevel: 3
%%EndComments
%%BeginProlog
%%BeginResource: procset (Apache XML Graphics Std ProcSet) 1.2 0
%%Version: 1.2 0
%%Copyright: (Copyright 2001-2003,2010 The Apache Software Foundation. License terms: http://www.apache.org/licenses/LICENSE-2.0)
/bd{bind def}bind def
/ld{load def}bd
/GR/grestore ld
/GS/gsave ld
/RM/rmoveto ld
/C/curveto ld
/t/show ld
/L/lineto ld
/ML/setmiterlimit ld
/CT/concat ld
/f/fill ld
/N/newpath ld
/S/stroke ld
/CC/setcmykcolor ld
/A/ashow ld
/cp/closepath ld
/RC/setrgbcolor ld
/LJ/setlinejoin ld
/GC/setgray ld
/LW/setlinewidth ld
/M/moveto ld
/re {4 2 roll M
1 index 0 rlineto
0 exch rlineto
neg 0 rlineto
cp } bd
/_ctm matrix def
/_tm matrix def
/BT { _ctm currentmatrix pop matrix _tm copy pop 0 0 moveto } bd
/ET { _ctm setmatrix } bd
/iTm { _ctm setmatrix _tm concat } bd
/Tm { _tm astore pop iTm 0 0 moveto } bd
/ux 0.0 def
/uy 0.0 def
/F {
  /Tp exch def
  /Tf exch def
  Tf findfont Tp scalefont setfont
  /cf Tf def  /cs Tp def
} bd
/ULS {currentpoint /uy exch def /ux exch def} bd
/ULE {
  /Tcx currentpoint pop def
  gsave
  newpath
  cf findfont cs scalefont dup
  /FontMatrix get 0 get /Ts exch def /FontInfo get dup
  /UnderlinePosition get Ts mul /To exch def
  /UnderlineThickness get Ts mul /Tt exch def
  ux uy To add moveto  Tcx uy To add lineto
  Tt setlinewidth stroke
  grestore
} bd
/OLE {
  /Tcx currentpoint pop def
  gsave
  newpath
  cf findfont cs scalefont dup
  /FontMatrix get 0 get /Ts exch def /FontInfo get dup
  /UnderlinePosition get Ts mul /To exch def
  /UnderlineThickness get Ts mul /Tt exch def
  ux uy To add cs add moveto Tcx uy To add cs add lineto
  Tt setlinewidth stroke
  grestore
} bd
/SOE {
  /Tcx currentpoint pop def
  gsave
  newpath
  cf findfont cs scalefont dup
  /FontMatrix get 0 get /Ts exch def /FontInfo get dup
  /UnderlinePosition get Ts mul /To exch def
  /UnderlineThickness get Ts mul /Tt exch def
  ux uy To add cs 10 mul 26 idiv add moveto Tcx uy To add cs 10 mul 26 idiv add lineto
  Tt setlinewidth stroke
  grestore
} bd
/QT {
/Y22 exch store
/X22 exch store
/Y21 exch store
/X21 exch store
currentpoint
/Y21 load 2 mul add 3 div exch
/X21 load 2 mul add 3 div exch
/X21 load 2 mul /X22 load add 3 div
/Y21 load 2 mul /Y22 load add 3 div
/X22 load /Y22 load curveto
} bd
/SSPD {
dup length /d exch dict def
{
/v exch def
/k exch def
currentpagedevice k known {
/cpdv currentpagedevice k get def
v cpdv ne {
/upd false def
/nullv v type /nulltype eq def
/nullcpdv cpdv type /nulltype eq def
nullv nullcpdv or
{
/upd true def
} {
/sametype v type cpdv type eq def
sametype {
v type /arraytype eq {
/vlen v length def
/cpdvlen cpdv length def
vlen cpdvlen eq {
0 1 vlen 1 sub {
/i exch def
/obj v i get def
/cpdobj cpdv i get def
obj cpdobj ne {
/upd true def
exit
} if
} for
} {
/upd true def
} ifelse
} {
v type /dicttype eq {
v {
/dv exch def
/dk exch def
/cpddv cpdv dk get def
dv cpddv ne {
/upd true def
exit
} if
} forall
} {
/upd true def
} ifelse
} ifelse
} if
} ifelse
upd true eq {
d k v put
} if
} if
} if
} forall
d length 0 gt {
d setpagedevice
} if
} bd
/RE { % /NewFontName [NewEncodingArray] /FontName RE -
  findfont dup length dict begin
  {
    1 index /FID ne
    {def} {pop pop} ifelse
  } forall
  /Encoding exch def
  /FontName 1 index def
  currentdict definefont pop
  end
} bind def
%%EndResource
%%BeginResource: procset (Apache XML Graphics EPS ProcSet) 1.0 0
%%Version: 1.0 0
%%Copyright: (Copyright 2002-2003 The Apache Software Foundation. License terms: http://www.apache.org/licenses/LICENSE-2.0)
/BeginEPSF { %def
/b4_Inc_state save def         % Save state for cleanup
/dict_count countdictstack def % Count objects on dict stack
/op_count count 1 sub def      % Count objects on operand stack
userdict begin                 % Push userdict on dict stack
/showpage { } def              % Redefine showpage, { } = null proc
0 setgray 0 setlinecap         % Prepare graphics state
1 setlinewidth 0 setlinejoin
10 setmiterlimit [ ] 0 setdash newpath
/languagelevel where           % If level not equal to 1 then
{pop languagelevel             % set strokeadjust and
1 ne                           % overprint to their defaults.
{false setstrokeadjust false setoverprint
} if
} if
} bd
/EndEPSF { %def
count op_count sub {pop} repeat            % Clean up stacks
countdictstack dict_count sub {end} repeat
b4_Inc_state restore
} bd
%%EndResource
%FOPBeginFontDict
%%IncludeResource: font Courier-Oblique
%%IncludeResource: font Courier-BoldOblique
%%IncludeResource: font Courier-Bold
%%IncludeResource: font ZapfDingbats
%%IncludeResource: font Symbol
%%IncludeResource: font Helvetica
%%IncludeResource: font Helvetica-Oblique
%%IncludeResource: font Helvetica-Bold
%%IncludeResource: font Helvetica-BoldOblique
%%IncludeResource: font Times-Roman
%%IncludeResource: font Times-Italic
%%IncludeResource: font Times-Bold
%%IncludeResource: font Times-BoldItalic
%%IncludeResource: font Courier
%FOPEndFontDict
%%BeginResource: encoding WinAnsiEncoding
/WinAnsiEncoding [
/.notdef /.notdef /.notdef /.notdef /.notdef
/.notdef /.notdef /.notdef /.notdef /.notdef
/.notdef /.notdef /.notdef /.notdef /.notdef
/.notdef /.notdef /.notdef /.notdef /.notdef
/.notdef /.notdef /.notdef /.notdef /.notdef
/.notdef /.notdef /.notdef /.notdef /.notdef
/.notdef /.notdef /space /exclam /quotedbl
/numbersign /dollar /percent /ampersand /quotesingle
/parenleft /parenright /asterisk /plus /comma
/hyphen /period /slash /zero /one
/two /three /four /five /six
/seven /eight /nine /colon /semicolon
/less /equal /greater /question /at
/A /B /C /D /E
/F /G /H /I /J
/K /L /M /N /O
/P /Q /R /S /T
/U /V /W /X /Y
/Z /bracketleft /backslash /bracketright /asciicircum
/underscore /quoteleft /a /b /c
/d /e /f /g /h
/i /j /k /l /m
/n /o /p /q /r
/s /t /u /v /w
/x /y /z /braceleft /bar
/braceright /asciitilde /bullet /Euro /bullet
/quotesinglbase /florin /quotedblbase /ellipsis /dagger
/daggerdbl /circumflex /perthousand /Scaron /guilsinglleft
/OE /bullet /Zcaron /bullet /bullet
/quoteleft /quoteright /quotedblleft /quotedblright /bullet
/endash /emdash /asciitilde /trademark /scaron
/guilsinglright /oe /bullet /zcaron /Ydieresis
/space /exclamdown /cent /sterling /currency
/yen /brokenbar /section /dieresis /copyright
/ordfeminine /guillemotleft /logicalnot /sfthyphen /registered
/macron /degree /plusminus /twosuperior /threesuperior
/acute /mu /paragraph /middot /cedilla
/onesuperior /ordmasculine /guillemotright /onequarter /onehalf
/threequarters /questiondown /Agrave /Aacute /Acircumflex
/Atilde /Adieresis /Aring /AE /Ccedilla
/Egrave /Eacute /Ecircumflex /Edieresis /Igrave
/Iacute /Icircumflex /Idieresis /Eth /Ntilde
/Ograve /Oacute /Ocircumflex /Otilde /Odieresis
/multiply /Oslash /Ugrave /Uacute /Ucircumflex
/Udieresis /Yacute /Thorn /germandbls /agrave
/aacute /acircumflex /atilde /adieresis /aring
/ae /ccedilla /egrave /eacute /ecircumflex
/edieresis /igrave /iacute /icircumflex /idieresis
/eth /ntilde /ograve /oacute /ocircumflex
/otilde /odieresis /divide /oslash /ugrave
/uacute /ucircumflex /udieresis /yacute /thorn
/ydieresis
] def
%%EndResource
%FOPBeginFontReencode
/Courier-Oblique findfont
dup length dict begin
  {1 index /FID ne {def} {pop pop} ifelse} forall
  /Encoding WinAnsiEncoding def
  currentdict
end
/Courier-Oblique exch definefont pop
/Courier-BoldOblique findfont
dup length dict begin
  {1 index /FID ne {def} {pop pop} ifelse} forall
  /Encoding WinAnsiEncoding def
  currentdict
end
/Courier-BoldOblique exch definefont pop
/Courier-Bold findfont
dup length dict begin
  {1 index /FID ne {def} {pop pop} ifelse} forall
  /Encoding WinAnsiEncoding def
  currentdict
end
/Courier-Bold exch definefont pop
/Helvetica findfont
dup length dict begin
  {1 index /FID ne {def} {pop pop} ifelse} forall
  /Encoding WinAnsiEncoding def
  currentdict
end
/Helvetica exch definefont pop
/Helvetica-Oblique findfont
dup length dict begin
  {1 index /FID ne {def} {pop pop} ifelse} forall
  /Encoding WinAnsiEncoding def
  currentdict
end
/Helvetica-Oblique exch definefont pop
/Helvetica-Bold findfont
dup length dict begin
  {1 index /FID ne {def} {pop pop} ifelse} forall
  /Encoding WinAnsiEncoding def
  currentdict
end
/Helvetica-Bold exch definefont pop
/Helvetica-BoldOblique findfont
dup length dict begin
  {1 index /FID ne {def} {pop pop} ifelse} forall
  /Encoding WinAnsiEncoding def
  currentdict
end
/Helvetica-BoldOblique exch definefont pop
/Times-Roman findfont
dup length dict begin
  {1 index /FID ne {def} {pop pop} ifelse} forall
  /Encoding WinAnsiEncoding def
  currentdict
end
/Times-Roman exch definefont pop
/Times-Italic findfont
dup length dict begin
  {1 index /FID ne {def} {pop pop} ifelse} forall
  /Encoding WinAnsiEncoding def
  currentdict
end
/Times-Italic exch definefont pop
/Times-Bold findfont
dup length dict begin
  {1 index /FID ne {def} {pop pop} ifelse} forall
  /Encoding WinAnsiEncoding def
  currentdict
end
/Times-Bold exch definefont pop
/Times-BoldItalic findfont
dup length dict begin
  {1 index /FID ne {def} {pop pop} ifelse} forall
  /Encoding WinAnsiEncoding def
  currentdict
end
/Times-BoldItalic exch definefont pop
/Courier findfont
dup length dict begin
  {1 index /FID ne {def} {pop pop} ifelse} forall
  /Encoding WinAnsiEncoding def
  currentdict
end
/Courier exch definefont pop
%FOPEndFontReencode
%%EndProlog
%%Page: 1 1
%%PageBoundingBox: 0 0 420 315
%%BeginPageSetup
[1 0 0 -1 0 315] CT
%%EndPageSetup
GS
[0.75 0 0 0.75 0 0] CT
1 GC
N
0 0 560 420 re
f
GR
GS
[0.75 0 0 0.75 0 0] CT
1 GC
N
0 0 560 420 re
f
GR
GS
[0.75 0 0 0.75 0 0] CT
1 GC
N
78 370 M
507 370 L
507 31 L
78 31 L
cp
f
GR
GS
[0.75 0 0 0.75 0 0] CT
0.873 GC
1 LJ
0.667 LW
N
78 370 M
78 31 L
S
GR
GS
[0.75 0 0 0.75 0 0] CT
0.873 GC
1 LJ
0.667 LW
N
185.25 370 M
185.25 31 L
S
GR
GS
[0.75 0 0 0.75 0 0] CT
0.873 GC
1 LJ
0.667 LW
N
292.5 370 M
292.5 31 L
S
GR
GS
[0.75 0 0 0.75 0 0] CT
0.873 GC
1 LJ
0.667 LW
N
399.75 370 M
399.75 31 L
S
GR
GS
[0.75 0 0 0.75 0 0] CT
0.873 GC
1 LJ
0.667 LW
N
507 370 M
507 31 L
S
GR
GS
[0.75 0 0 0.75 0 0] CT
0.873 GC
1 LJ
0.667 LW
N
507 354.591 M
78 354.591 L
S
GR
GS
[0.75 0 0 0.75 0 0] CT
0.873 GC
1 LJ
0.667 LW
N
507 277.545 M
78 277.545 L
S
GR
GS
[0.75 0 0 0.75 0 0] CT
0.873 GC
1 LJ
0.667 LW
N
507 200.5 M
78 200.5 L
S
GR
GS
[0.75 0 0 0.75 0 0] CT
0.873 GC
1 LJ
0.667 LW
N
507 123.455 M
78 123.455 L
S
GR
GS
[0.75 0 0 0.75 0 0] CT
0.873 GC
1 LJ
0.667 LW
N
507 46.409 M
78 46.409 L
S
GR
GS
[0.75 0 0 0.75 0 0] CT
0.149 GC
2 setlinecap
1 LJ
0.667 LW
N
78 370 M
507 370 L
S
GR
GS
[0.75 0 0 0.75 0 0] CT
0.149 GC
2 setlinecap
1 LJ
0.667 LW
N
78 31 M
507 31 L
S
GR
GS
[0.75 0 0 0.75 0 0] CT
0.149 GC
2 setlinecap
1 LJ
0.667 LW
N
78 370 M
78 365.71 L
S
GR
GS
[0.75 0 0 0.75 0 0] CT
0.149 GC
2 setlinecap
1 LJ
0.667 LW
N
185.25 370 M
185.25 365.71 L
S
GR
GS
[0.75 0 0 0.75 0 0] CT
0.149 GC
2 setlinecap
1 LJ
0.667 LW
N
292.5 370 M
292.5 365.71 L
S
GR
GS
[0.75 0 0 0.75 0 0] CT
0.149 GC
2 setlinecap
1 LJ
0.667 LW
N
399.75 370 M
399.75 365.71 L
S
GR
GS
[0.75 0 0 0.75 0 0] CT
0.149 GC
2 setlinecap
1 LJ
0.667 LW
N
507 370 M
507 365.71 L
S
GR
GS
[0.75 0 0 0.75 0 0] CT
0.149 GC
2 setlinecap
1 LJ
0.667 LW
N
78 31 M
78 35.29 L
S
GR
GS
[0.75 0 0 0.75 0 0] CT
0.149 GC
2 setlinecap
1 LJ
0.667 LW
N
185.25 31 M
185.25 35.29 L
S
GR
GS
[0.75 0 0 0.75 0 0] CT
0.149 GC
2 setlinecap
1 LJ
0.667 LW
N
292.5 31 M
292.5 35.29 L
S
GR
GS
[0.75 0 0 0.75 0 0] CT
0.149 GC
2 setlinecap
1 LJ
0.667 LW
N
399.75 31 M
399.75 35.29 L
S
GR
GS
[0.75 0 0 0.75 0 0] CT
0.149 GC
2 setlinecap
1 LJ
0.667 LW
N
507 31 M
507 35.29 L
S
GR
GS
[0.75 0 0 0.75 58.5 281.9] CT
0.149 GC
/Helvetica 16 F
GS
[1 0 0 1 0 0] CT
-9 17 moveto 
1 -1 scale
(34) t 
GR
GR
GS
[0.75 0 0 0.75 138.9375 281.9] CT
0.149 GC
/Helvetica 16 F
GS
[1 0 0 1 0 0] CT
-16 17 moveto 
1 -1 scale
(34.5) t 
GR
GR
GS
[0.75 0 0 0.75 219.375 281.9] CT
0.149 GC
/Helvetica 16 F
GS
[1 0 0 1 0 0] CT
-9 17 moveto 
1 -1 scale
(35) t 
GR
GR
GS
[0.75 0 0 0.75 299.8125 281.9] CT
0.149 GC
/Helvetica 16 F
GS
[1 0 0 1 0 0] CT
-16 17 moveto 
1 -1 scale
(35.5) t 
GR
GR
GS
[0.75 0 0 0.75 380.25 281.9] CT
0.149 GC
/Helvetica 16 F
GS
[1 0 0 1 0 0] CT
-9 17 moveto 
1 -1 scale
(36) t 
GR
GR
GS
[0.75 0 0 0.75 219.375 298.5] CT
0.149 GC
/Helvetica 17.6 F
GS
[1 0 0 1 0 0] CT
-14.5 18 moveto 
1 -1 scale
(t [s]) t 
GR
GR
GS
[0.75 0 0 0.75 0 0] CT
0.149 GC
2 setlinecap
1 LJ
0.667 LW
N
78 370 M
78 31 L
S
GR
GS
[0.75 0 0 0.75 0 0] CT
0.149 GC
2 setlinecap
1 LJ
0.667 LW
N
507 370 M
507 31 L
S
GR
GS
[0.75 0 0 0.75 0 0] CT
0.149 GC
2 setlinecap
1 LJ
0.667 LW
N
78 354.591 M
82.29 354.591 L
S
GR
GS
[0.75 0 0 0.75 0 0] CT
0.149 GC
2 setlinecap
1 LJ
0.667 LW
N
78 277.545 M
82.29 277.545 L
S
GR
GS
[0.75 0 0 0.75 0 0] CT
0.149 GC
2 setlinecap
1 LJ
0.667 LW
N
78 200.5 M
82.29 200.5 L
S
GR
GS
[0.75 0 0 0.75 0 0] CT
0.149 GC
2 setlinecap
1 LJ
0.667 LW
N
78 123.455 M
82.29 123.455 L
S
GR
GS
[0.75 0 0 0.75 0 0] CT
0.149 GC
2 setlinecap
1 LJ
0.667 LW
N
78 46.409 M
82.29 46.409 L
S
GR
GS
[0.75 0 0 0.75 0 0] CT
0.149 GC
2 setlinecap
1 LJ
0.667 LW
N
507 354.591 M
502.71 354.591 L
S
GR
GS
[0.75 0 0 0.75 0 0] CT
0.149 GC
2 setlinecap
1 LJ
0.667 LW
N
507 277.545 M
502.71 277.545 L
S
GR
GS
[0.75 0 0 0.75 0 0] CT
0.149 GC
2 setlinecap
1 LJ
0.667 LW
N
507 200.5 M
502.71 200.5 L
S
GR
GS
[0.75 0 0 0.75 0 0] CT
0.149 GC
2 setlinecap
1 LJ
0.667 LW
N
507 123.455 M
502.71 123.455 L
S
GR
GS
[0.75 0 0 0.75 0 0] CT
0.149 GC
2 setlinecap
1 LJ
0.667 LW
N
507 46.409 M
502.71 46.409 L
S
GR
GS
[0.75 0 0 0.75 54.09984 265.94318] CT
0.149 GC
/Helvetica 16 F
GS
[1 0 0 1 0 0] CT
-37 6.5 moveto 
1 -1 scale
(-0.01) t 
GR
GR
GS
[0.75 0 0 0.75 54.09984 208.15908] CT
0.149 GC
/Helvetica 16 F
GS
[1 0 0 1 0 0] CT
-46 6.5 moveto 
1 -1 scale
(-0.005) t 
GR
GR
GS
[0.75 0 0 0.75 54.09984 150.375] CT
0.149 GC
/Helvetica 16 F
GS
[1 0 0 1 0 0] CT
-9 6.5 moveto 
1 -1 scale
(0) t 
GR
GR
GS
[0.75 0 0 0.75 54.09984 92.59091] CT
0.149 GC
/Helvetica 16 F
GS
[1 0 0 1 0 0] CT
-41 6.5 moveto 
1 -1 scale
(0.005) t 
GR
GR
GS
[0.75 0 0 0.75 54.09984 34.80682] CT
0.149 GC
/Helvetica 16 F
GS
[1 0 0 1 0 0] CT
-32 6.5 moveto 
1 -1 scale
(0.01) t 
GR
GR
GS
[0 -0.75 0.75 0 16.49971 150.37487] CT
0.149 GC
/Helvetica 17.6 F
GS
[1 0 0 1 0 0] CT
-45 -4 moveto 
1 -1 scale
(position [m]) t 
GR
GR
GS
[0.75 0 0 0.75 0 0] CT
0 0.447 0.741 RC
1 LJ
2.667 LW
N
78 122.501 M
82.29 120.917 L
86.58 119.076 L
90.87 117.308 L
95.16 114.192 L
99.45 111.054 L
103.74 108.508 L
108.03 106.989 L
112.32 107.591 L
116.61 110.774 L
120.9 114.821 L
125.19 118.915 L
129.48 122.621 L
133.77 125.466 L
138.06 128.157 L
142.35 130.699 L
146.64 132.94 L
150.93 134.953 L
155.22 136.725 L
159.51 138.409 L
163.8 140.365 L
168.09 142.506 L
172.38 145.247 L
176.67 148.643 L
180.96 152.142 L
185.25 155.723 L
189.54 159.278 L
193.83 163.058 L
198.12 167.716 L
202.41 173.394 L
206.7 179.3 L
210.99 185.575 L
215.28 192.097 L
219.57 198.4 L
223.86 204.26 L
228.15 208.769 L
232.44 212.441 L
236.73 216.736 L
241.02 221.948 L
245.31 228.21 L
249.6 235.889 L
253.89 244.374 L
258.18 252.653 L
262.47 259.74 L
266.76 265.675 L
271.05 270.023 L
275.34 274.381 L
279.63 278.533 L
283.92 282.173 L
288.21 285.167 L
292.5 287.929 L
296.79 290.343 L
301.08 293.29 L
305.37 296.43 L
309.66 299.518 L
313.95 302.751 L
318.24 304.98 L
322.53 305.208 L
326.82 303.725 L
331.11 300.509 L
335.4 296.582 L
339.69 292.553 L
343.98 288.802 L
348.27 285.203 L
352.56 282.145 L
356.85 279.521 L
361.14 277.046 L
365.43 274.5 L
369.72 270.727 L
374.01 265.912 L
378.3 260.671 L
382.59 254.616 L
386.88 248.722 L
391.17 242.326 L
395.46 236.106 L
399.75 229.742 L
404.04 223.656 L
408.33 217.513 L
412.62 211.326 L
416.91 205.092 L
421.2 198.965 L
425.49 192.921 L
429.78 186.344 L
434.07 179.967 L
438.36 173.734 L
442.65 168.187 L
446.94 163.186 L
451.23 158.404 L
455.52 153.797 L
459.81 148.867 L
464.1 144.455 L
468.39 140.621 L
472.68 137.076 L
476.97 133.695 L
481.26 130.563 L
485.55 127.589 L
489.84 124.497 L
494.13 121.574 L
498.42 118.887 L
502.71 116.68 L
507 114.271 L
S
GR
GS
[0.75 0 0 0.75 0 0] CT
0.851 0.325 0.098 RC
[8 2 4 2] 0 setdash
2 LJ
2.667 LW
N
78 108.045 M
82.29 108.228 L
86.58 108.774 L
90.87 109.683 L
95.16 110.95 L
99.45 112.571 L
103.74 114.538 L
108.03 116.845 L
112.32 119.481 L
116.61 122.438 L
120.9 125.703 L
125.19 129.263 L
129.48 133.104 L
133.77 137.211 L
138.06 141.567 L
142.35 146.157 L
146.64 150.96 L
150.93 155.96 L
155.22 161.135 L
159.51 166.465 L
163.8 171.93 L
168.09 177.507 L
172.38 183.176 L
176.67 188.912 L
180.96 194.695 L
185.25 200.5 L
189.54 206.305 L
193.83 212.088 L
198.12 217.824 L
202.41 223.493 L
206.7 229.07 L
210.99 234.535 L
215.28 239.865 L
219.57 245.04 L
223.86 250.04 L
228.15 254.843 L
232.44 259.433 L
236.73 263.789 L
241.02 267.896 L
245.31 271.737 L
249.6 275.297 L
253.89 278.562 L
258.18 281.519 L
262.47 284.155 L
266.76 286.462 L
271.05 288.43 L
275.34 290.05 L
279.63 291.317 L
283.92 292.226 L
288.21 292.772 L
292.5 292.955 L
296.79 292.772 L
301.08 292.226 L
305.37 291.317 L
309.66 290.05 L
313.95 288.43 L
318.24 286.462 L
322.53 284.155 L
326.82 281.519 L
331.11 278.562 L
335.4 275.297 L
339.69 271.737 L
343.98 267.896 L
348.27 263.789 L
352.56 259.433 L
356.85 254.843 L
361.14 250.04 L
365.43 245.04 L
369.72 239.865 L
374.01 234.535 L
378.3 229.07 L
382.59 223.493 L
386.88 217.824 L
391.17 212.088 L
395.46 206.305 L
399.75 200.5 L
404.04 194.695 L
408.33 188.912 L
412.62 183.176 L
416.91 177.507 L
421.2 171.93 L
425.49 166.465 L
429.78 161.135 L
434.07 155.96 L
438.36 150.96 L
442.65 146.157 L
446.94 141.567 L
451.23 137.211 L
455.52 133.104 L
459.81 129.263 L
464.1 125.703 L
468.39 122.438 L
472.68 119.481 L
476.97 116.845 L
481.26 114.538 L
485.55 112.571 L
489.84 110.95 L
494.13 109.683 L
498.42 108.774 L
502.71 108.228 L
507 108.045 L
S
GR
GS
[0.75 0 0 0.75 0 0] CT
0.929 0.694 0.125 RC
1 LJ
2.667 LW
N
78 237.16 M
82.29 234.033 L
86.58 230.838 L
90.87 227.459 L
95.16 225.083 L
99.45 222.912 L
103.74 220.094 L
108.03 216.392 L
112.32 211.669 L
116.61 204.641 L
120.9 196.294 L
125.19 187.764 L
129.48 179.503 L
133.77 172.751 L
138.06 167.06 L
142.35 162.405 L
146.64 157.435 L
150.93 152.739 L
155.22 146.99 L
159.51 141.662 L
163.8 136.621 L
168.09 131.571 L
172.38 127.398 L
176.67 124.093 L
180.96 120.822 L
185.25 117.803 L
189.54 114.787 L
193.83 111.774 L
198.12 108.823 L
202.41 106.826 L
206.7 104.539 L
210.99 103.212 L
215.28 103.43 L
219.57 103.72 L
223.86 105.558 L
228.15 107.172 L
232.44 108.04 L
236.73 108.803 L
241.02 109.621 L
245.31 110.987 L
249.6 113.355 L
253.89 117.34 L
258.18 122.458 L
262.47 127.79 L
266.76 132.641 L
271.05 137.195 L
275.34 141.775 L
279.63 146.593 L
283.92 151.767 L
288.21 157.672 L
292.5 163.742 L
296.79 169.836 L
301.08 175.14 L
305.37 179.973 L
309.66 184.726 L
313.95 189.535 L
318.24 193.637 L
322.53 196.048 L
326.82 198.451 L
331.11 202.029 L
335.4 206.464 L
339.69 212.78 L
343.98 221.183 L
348.27 230.516 L
352.56 239.41 L
356.85 248.014 L
361.14 255.405 L
365.43 261.781 L
369.72 267.03 L
374.01 271.212 L
378.3 274.308 L
382.59 276.329 L
386.88 278.396 L
391.17 280.662 L
395.46 283.194 L
399.75 285.17 L
404.04 286.749 L
408.33 289.285 L
412.62 291.372 L
416.91 292.942 L
421.2 293.847 L
425.49 294.87 L
429.78 295.225 L
434.07 294.294 L
438.36 293.405 L
442.65 292.135 L
446.94 290.023 L
451.23 287.612 L
455.52 285.863 L
459.81 284.007 L
464.1 281.974 L
468.39 279.607 L
472.68 276.655 L
476.97 272.999 L
481.26 268.336 L
485.55 263.412 L
489.84 258.634 L
494.13 253.923 L
498.42 249.376 L
502.71 245.231 L
507 241.746 L
S
GR
GS
[0.75 0 0 0.75 0 0] CT
0 1 0 RC
[8 8] 0 setdash
2 LJ
2.667 LW
N
78 200.5 M
82.29 194.695 L
86.58 188.912 L
90.87 183.176 L
95.16 177.507 L
99.45 171.93 L
103.74 166.465 L
108.03 161.135 L
112.32 155.96 L
116.61 150.96 L
120.9 146.157 L
125.19 141.567 L
129.48 137.211 L
133.77 133.104 L
138.06 129.263 L
142.35 125.703 L
146.64 122.438 L
150.93 119.481 L
155.22 116.845 L
159.51 114.538 L
163.8 112.571 L
168.09 110.95 L
172.38 109.683 L
176.67 108.774 L
180.96 108.228 L
185.25 108.045 L
189.54 108.228 L
193.83 108.774 L
198.12 109.683 L
202.41 110.95 L
206.7 112.571 L
210.99 114.538 L
215.28 116.845 L
219.57 119.481 L
223.86 122.438 L
228.15 125.703 L
232.44 129.263 L
236.73 133.104 L
241.02 137.211 L
245.31 141.567 L
249.6 146.157 L
253.89 150.96 L
258.18 155.96 L
262.47 161.135 L
266.76 166.465 L
271.05 171.93 L
275.34 177.507 L
279.63 183.176 L
283.92 188.912 L
288.21 194.695 L
292.5 200.5 L
296.79 206.305 L
301.08 212.088 L
305.37 217.824 L
309.66 223.493 L
313.95 229.07 L
318.24 234.535 L
322.53 239.865 L
326.82 245.04 L
331.11 250.04 L
335.4 254.843 L
339.69 259.433 L
343.98 263.789 L
348.27 267.896 L
352.56 271.737 L
356.85 275.297 L
361.14 278.562 L
365.43 281.519 L
369.72 284.155 L
374.01 286.462 L
378.3 288.43 L
382.59 290.05 L
386.88 291.317 L
391.17 292.226 L
395.46 292.772 L
399.75 292.955 L
404.04 292.772 L
408.33 292.226 L
412.62 291.317 L
416.91 290.05 L
421.2 288.43 L
425.49 286.462 L
429.78 284.155 L
434.07 281.519 L
438.36 278.562 L
442.65 275.297 L
446.94 271.737 L
451.23 267.896 L
455.52 263.789 L
459.81 259.433 L
464.1 254.843 L
468.39 250.04 L
472.68 245.04 L
476.97 239.865 L
481.26 234.535 L
485.55 229.07 L
489.84 223.493 L
494.13 217.824 L
498.42 212.088 L
502.71 206.305 L
507 200.5 L
S
GR
GS
[0.75 0 0 0.75 0 0] CT
1 GC
N
496 359 M
496 313 L
216 313 L
216 359 L
cp
f
GR
GS
[0.75 0 0 0.75 197.25 244.0242] CT
/Helvetica 16 F
GS
[1 0 0 1 0 0] CT
0 6.5 moveto 
1 -1 scale
(x-coordinate) t 
GR
GR
GS
[0.75 0 0 0.75 0 0] CT
0 0.447 0.741 RC
1 LJ
2.667 LW
N
220 325.366 M
260 325.366 L
S
GR
GS
[0.75 0 0 0.75 197.25 259.9758] CT
/Helvetica 16 F
GS
[1 0 0 1 0 0] CT
0 6.5 moveto 
1 -1 scale
(x-reference) t 
GR
GR
GS
[0.75 0 0 0.75 0 0] CT
0.851 0.325 0.098 RC
[8 2 4 2] 0 setdash
2 LJ
2.667 LW
N
220 346.634 M
260 346.634 L
S
GR
GS
[0.75 0 0 0.75 302.25 244.0242] CT
/Helvetica 16 F
GS
[1 0 0 1 0 0] CT
0 6.5 moveto 
1 -1 scale
(y-coordinate) t 
GR
GR
GS
[0.75 0 0 0.75 0 0] CT
0.929 0.694 0.125 RC
1 LJ
2.667 LW
N
360 325.366 M
400 325.366 L
S
GR
GS
[0.75 0 0 0.75 302.25 259.9758] CT
/Helvetica 16 F
GS
[1 0 0 1 0 0] CT
0 6.5 moveto 
1 -1 scale
(y-reference) t 
GR
GR
GS
[0.75 0 0 0.75 0 0] CT
0 1 0 RC
[8 8] 0 setdash
2 LJ
2.667 LW
N
360 346.634 M
400 346.634 L
S
GR
GS
[0.75 0 0 0.75 0 0] CT
0.149 GC
10.0 ML
0.667 LW
N
216 359 M
216 313 L
496 313 L
496 359 L
cp
S
GR
%%Trailer
%%Pages: 1
%%EOF
