/*
WARNING: Do NOT edit the input and output ports in this file in a text
editor if you plan to continue editing the block that represents it in
the Block Editor! File corruption is VERY likely to occur.
*/
/*
Copyright (C) 1991-2013 Altera Corporation
Your use of Altera Corporation's design tools, logic functions 
and other software and tools, and its AMPP partner logic 
functions, and any output files from any of the foregoing 
(including device programming or simulation files), and any 
associated documentation or information are expressly subject 
to the terms and conditions of the Altera Program License 
Subscription Agreement, Altera MegaCore Function License 
Agreement, or other applicable license agreement, including, 
without limitation, that your use is for the sole purpose of 
programming logic devices manufactured by Altera and sold by 
Altera or its authorized distributors.  Please refer to the 
applicable agreement for further details.
*/
(header "graphic" (version "1.4"))
(pin
	(input)
	(rect 16 320 192 336)
	(text "INPUT" (rect 133 0 162 10)(font "Arial" (font_size 6)))
	(text "CLOCK_50" (rect 9 0 66 11)(font "Arial" ))
	(pt 176 8)
	(drawing
		(line (pt 92 12)(pt 117 12))
		(line (pt 92 4)(pt 117 4))
		(line (pt 121 8)(pt 176 8))
		(line (pt 92 12)(pt 92 4))
		(line (pt 117 4)(pt 121 8))
		(line (pt 117 12)(pt 121 8))
	)
	(text "VCC" (rect 136 7 157 17)(font "Arial" (font_size 6)))
	(annotation_block (location)(rect -40 336 16 352))
)
(pin
	(input)
	(rect 1960 -8 2128 8)
	(text "INPUT" (rect 125 0 154 10)(font "Arial" (font_size 6)))
	(text "SW[0]" (rect 5 0 35 11)(font "Arial" ))
	(pt 168 8)
	(drawing
		(line (pt 84 12)(pt 109 12))
		(line (pt 84 4)(pt 109 4))
		(line (pt 113 8)(pt 168 8))
		(line (pt 84 12)(pt 84 4))
		(line (pt 109 4)(pt 113 8))
		(line (pt 109 12)(pt 113 8))
	)
	(text "VCC" (rect 128 7 149 17)(font "Arial" (font_size 6)))
	(annotation_block (location)(rect 1968 8 2024 24))
)
(pin
	(input)
	(rect 8 448 176 464)
	(text "INPUT" (rect 125 0 154 10)(font "Arial" (font_size 6)))
	(text "GPIO_0_IN[0]" (rect 5 0 75 11)(font "Arial" ))
	(pt 168 8)
	(drawing
		(line (pt 84 12)(pt 109 12))
		(line (pt 84 4)(pt 109 4))
		(line (pt 113 8)(pt 168 8))
		(line (pt 84 12)(pt 84 4))
		(line (pt 109 4)(pt 113 8))
		(line (pt 109 12)(pt 113 8))
	)
	(text "VCC" (rect 128 7 149 17)(font "Arial" (font_size 6)))
	(annotation_block (location)(rect -64 464 0 480))
)
(pin
	(output)
	(rect 2136 512 2312 528)
	(text "OUTPUT" (rect 1 0 41 10)(font "Arial" (font_size 6)))
	(text "LED[1]" (rect 90 0 124 11)(font "Arial" ))
	(pt 0 8)
	(drawing
		(line (pt 0 8)(pt 52 8))
		(line (pt 52 4)(pt 78 4))
		(line (pt 52 12)(pt 78 12))
		(line (pt 52 12)(pt 52 4))
		(line (pt 78 4)(pt 82 8))
		(line (pt 82 8)(pt 78 12))
		(line (pt 78 12)(pt 82 8))
	)
	(annotation_block (location)(rect 2368 520 2424 536))
)
(pin
	(output)
	(rect 2136 544 2312 560)
	(text "OUTPUT" (rect 1 0 41 10)(font "Arial" (font_size 6)))
	(text "GPIO_2[0]" (rect 90 0 143 11)(font "Arial" ))
	(pt 0 8)
	(drawing
		(line (pt 0 8)(pt 52 8))
		(line (pt 52 4)(pt 78 4))
		(line (pt 52 12)(pt 78 12))
		(line (pt 52 12)(pt 52 4))
		(line (pt 78 4)(pt 82 8))
		(line (pt 82 8)(pt 78 12))
		(line (pt 78 12)(pt 82 8))
	)
	(annotation_block (location)(rect 2368 552 2424 568))
)
(pin
	(output)
	(rect 2160 -8 2336 8)
	(text "OUTPUT" (rect 1 0 41 10)(font "Arial" (font_size 6)))
	(text "LED[0]" (rect 90 0 124 11)(font "Arial" ))
	(pt 0 8)
	(drawing
		(line (pt 0 8)(pt 52 8))
		(line (pt 52 4)(pt 78 4))
		(line (pt 52 12)(pt 78 12))
		(line (pt 52 12)(pt 52 4))
		(line (pt 78 4)(pt 82 8))
		(line (pt 82 8)(pt 78 12))
		(line (pt 78 12)(pt 82 8))
	)
	(annotation_block (location)(rect 2400 8 2456 24))
)
(pin
	(output)
	(rect 2248 368 4241 384)
	(text "OUTPUT" (rect 1 0 41 10)(font "Arial" (font_size 6)))
	(text "GPIO_0[1],GPIO_0[3],GPIO_0[5],GPIO_0[7],GPIO_0[9],GPIO_0[11],GPIO_0[13],GPIO_0[15],GPIO_0[17],GPIO_0[19],GPIO_0[21],GPIO_0[23],GPIO_0[25],GPIO_0[27],GPIO_0[29],GPIO_0[31],GPIO_0[32],GPIO_0[30],GPIO_0[28],GPIO_0[26],GPIO_0[24],GPIO_0[22],GPIO_0[20],GPIO_0[18],GPIO_0[16],GPIO_0[14],GPIO_0[12],GPIO_0[10],GPIO_0[8],GPIO_0[6],GPIO_0[4],GPIO_0[2]" (rect 90 0 1987 11)(font "Arial" ))
	(pt 0 8)
	(drawing
		(line (pt 0 8)(pt 52 8))
		(line (pt 52 4)(pt 78 4))
		(line (pt 52 12)(pt 78 12))
		(line (pt 52 12)(pt 52 4))
		(line (pt 78 4)(pt 82 8))
		(line (pt 82 8)(pt 78 12))
		(line (pt 78 12)(pt 82 8))
	)
	(annotation_block (location)(rect 2488 344 2552 360))
)
(pin
	(output)
	(rect 2248 432 4241 448)
	(text "OUTPUT" (rect 1 0 41 10)(font "Arial" (font_size 6)))
	(text "GPIO_1[1],GPIO_1[3],GPIO_1[5],GPIO_1[7],GPIO_1[9],GPIO_1[11],GPIO_1[13],GPIO_1[15],GPIO_1[17],GPIO_1[19],GPIO_1[21],GPIO_1[23],GPIO_1[25],GPIO_1[27],GPIO_1[29],GPIO_1[31],GPIO_1[32],GPIO_1[30],GPIO_1[28],GPIO_1[26],GPIO_1[24],GPIO_1[22],GPIO_1[20],GPIO_1[18],GPIO_1[16],GPIO_1[14],GPIO_1[12],GPIO_1[10],GPIO_1[8],GPIO_1[6],GPIO_1[4],GPIO_1[2]" (rect 90 0 1987 11)(font "Arial" ))
	(pt 0 8)
	(drawing
		(line (pt 0 8)(pt 52 8))
		(line (pt 52 4)(pt 78 4))
		(line (pt 52 12)(pt 78 12))
		(line (pt 52 12)(pt 52 4))
		(line (pt 78 4)(pt 82 8))
		(line (pt 82 8)(pt 78 12))
		(line (pt 78 12)(pt 82 8))
	)
	(annotation_block (location)(rect 2488 440 2552 456))
)
(symbol
	(rect 368 408 560 552)
	(text "uart_rx" (rect 5 0 40 11)(font "Arial" ))
	(text "inst" (rect 8 128 26 139)(font "Arial" ))
	(port
		(pt 0 32)
		(input)
		(text "clock" (rect 0 0 27 11)(font "Arial" ))
		(text "clock" (rect 21 27 48 38)(font "Arial" ))
		(line (pt 0 32)(pt 16 32))
	)
	(port
		(pt 0 48)
		(input)
		(text "rxd" (rect 0 0 16 11)(font "Arial" ))
		(text "rxd" (rect 21 43 37 54)(font "Arial" ))
		(line (pt 0 48)(pt 16 48))
	)
	(port
		(pt 192 32)
		(output)
		(text "data[data_bits-1..0]" (rect 0 0 94 11)(font "Arial" ))
		(text "data[data_bits-1..0]" (rect 91 27 185 38)(font "Arial" ))
		(line (pt 192 32)(pt 176 32)(line_width 3))
	)
	(port
		(pt 192 48)
		(output)
		(text "send" (rect 0 0 25 11)(font "Arial" ))
		(text "send" (rect 152 43 177 54)(font "Arial" ))
		(line (pt 192 48)(pt 176 48))
	)
	(port
		(pt 192 64)
		(output)
		(text "fe" (rect 0 0 10 11)(font "Arial" ))
		(text "fe" (rect 163 59 173 70)(font "Arial" ))
		(line (pt 192 64)(pt 176 64))
	)
	(port
		(pt 192 80)
		(output)
		(text "data_out" (rect 0 0 44 11)(font "Arial" ))
		(text "data_out" (rect 136 75 180 86)(font "Arial" ))
		(line (pt 192 80)(pt 176 80))
	)
	(port
		(pt 192 96)
		(output)
		(text "data_out_clk" (rect 0 0 63 11)(font "Arial" ))
		(text "data_out_clk" (rect 119 91 182 102)(font "Arial" ))
		(line (pt 192 96)(pt 176 96))
	)
	(parameter
		"DATA_BITS"
		"8"
		""
		(type "PARAMETER_SIGNED_DEC")	)
	(parameter
		"UART_BAUD_RATE"
		"230400"
		""
		(type "PARAMETER_SIGNED_DEC")	)
	(parameter
		"TARGET_MCLK"
		"50000000"
		""
		(type "PARAMETER_SIGNED_DEC")	)
	(drawing
		(rectangle (rect 16 16 176 128))
	)
	(annotation_block (parameter)(rect 304 344 544 400))
)
(symbol
	(rect 1136 392 1280 472)
	(text "shiftReg" (rect 50 64 109 80)(font "Arial" (font_size 10)))
	(text "inst2" (rect 8 4 32 15)(font "Arial" ))
	(port
		(pt 0 48)
		(input)
		(text "clock" (rect 0 0 31 13)(font "Arial" (font_size 8)))
		(text "clock" (rect 26 41 57 54)(font "Arial" (font_size 8)))
		(line (pt 0 48)(pt 16 48))
	)
	(port
		(pt 0 32)
		(input)
		(text "shiftin" (rect 0 0 34 13)(font "Arial" (font_size 8)))
		(text "shiftin" (rect 20 25 54 38)(font "Arial" (font_size 8)))
		(line (pt 0 32)(pt 16 32))
	)
	(port
		(pt 144 40)
		(output)
		(text "shiftout" (rect 0 0 42 13)(font "Arial" (font_size 8)))
		(text "shiftout" (rect 89 33 131 46)(font "Arial" (font_size 8)))
		(line (pt 144 40)(pt 128 40))
	)
	(port
		(pt 144 24)
		(output)
		(text "q[1151..0]" (rect 0 0 57 13)(font "Arial" (font_size 8)))
		(text "q[1151..0]" (rect 78 17 135 30)(font "Arial" (font_size 8)))
		(line (pt 144 24)(pt 128 24)(line_width 3))
	)
	(drawing
		(text "right shift" (rect 88 51 134 62)(font "Arial" ))
		(line (pt 16 64)(pt 16 16))
		(line (pt 16 64)(pt 128 64))
		(line (pt 16 16)(pt 128 16))
		(line (pt 128 64)(pt 128 16))
		(line (pt 0 80)(pt 146 80))
		(line (pt 146 80)(pt 146 -2))
		(line (pt 0 -2)(pt 146 -2))
		(line (pt 0 80)(pt 0 -2))
		(line (pt 16 54)(pt 22 48))
		(line (pt 22 48)(pt 16 42))
		(line (pt 0 80)(pt 0 80))
		(line (pt 0 80)(pt 0 80))
		(line (pt 0 80)(pt 0 80))
		(line (pt 0 80)(pt 0 80))
	)
	(flipx)
)
(symbol
	(rect 1912 488 2064 568)
	(text "Latcher" (rect 5 68 43 79)(font "Arial" ))
	(text "inst4" (rect 8 4 32 15)(font "Arial" ))
	(port
		(pt 0 48)
		(input)
		(text "CLK" (rect 0 0 24 11)(font "Arial" ))
		(text "CLK" (rect 21 41 45 52)(font "Arial" ))
		(line (pt 0 48)(pt 16 48))
	)
	(port
		(pt 0 32)
		(input)
		(text "in_val" (rect 0 0 30 11)(font "Arial" ))
		(text "in_val" (rect 21 25 51 36)(font "Arial" ))
		(line (pt 0 32)(pt 16 32))
	)
	(port
		(pt 152 48)
		(output)
		(text "out_val" (rect 0 0 37 11)(font "Arial" ))
		(text "out_val" (rect 101 41 138 52)(font "Arial" ))
		(line (pt 152 48)(pt 136 48))
	)
	(drawing
		(rectangle (rect 16 16 136 64))
	)
	(flipx)
)
(symbol
	(rect 1856 376 2120 488)
	(text "ChannelArray64" (rect 5 0 86 11)(font "Arial" ))
	(text "inst5" (rect 8 96 32 107)(font "Arial" ))
	(port
		(pt 0 32)
		(input)
		(text "CLK_LOGIC" (rect 0 0 63 11)(font "Arial" ))
		(text "CLK_LOGIC" (rect 21 27 84 38)(font "Arial" ))
		(line (pt 0 32)(pt 16 32))
	)
	(port
		(pt 0 48)
		(input)
		(text "CLK_FREQ" (rect 0 0 60 11)(font "Arial" ))
		(text "CLK_FREQ" (rect 21 43 81 54)(font "Arial" ))
		(line (pt 0 48)(pt 16 48))
	)
	(port
		(pt 0 64)
		(input)
		(text "DATA_IN[1151..0]" (rect 0 0 89 11)(font "Arial" ))
		(text "DATA_IN[1151..0]" (rect 21 59 110 70)(font "Arial" ))
		(line (pt 0 64)(pt 16 64)(line_width 3))
	)
	(port
		(pt 0 80)
		(input)
		(text "DATA_READY" (rect 0 0 76 11)(font "Arial" ))
		(text "DATA_READY" (rect 21 75 97 86)(font "Arial" ))
		(line (pt 0 80)(pt 16 80))
	)
	(port
		(pt 264 32)
		(output)
		(text "OUT_SIGNAL[63..0]" (rect 0 0 100 11)(font "Arial" ))
		(text "OUT_SIGNAL[63..0]" (rect 159 27 259 38)(font "Arial" ))
		(line (pt 264 32)(pt 248 32)(line_width 3))
	)
	(drawing
		(rectangle (rect 16 16 248 96))
	)
)
(symbol
	(rect 1320 -64 1472 16)
	(text "clock_divider" (rect 5 0 69 11)(font "Arial" ))
	(text "inst6" (rect 8 64 32 75)(font "Arial" ))
	(port
		(pt 0 32)
		(input)
		(text "clk_in" (rect 0 0 29 11)(font "Arial" ))
		(text "clk_in" (rect 21 27 50 38)(font "Arial" ))
		(line (pt 0 32)(pt 16 32))
	)
	(port
		(pt 152 32)
		(output)
		(text "clk_out" (rect 0 0 36 11)(font "Arial" ))
		(text "clk_out" (rect 102 27 138 38)(font "Arial" ))
		(line (pt 152 32)(pt 136 32))
	)
	(parameter
		"clock_divisor_factor"
		"180"
		""
		(type "PARAMETER_SIGNED_DEC")	)
	(drawing
		(rectangle (rect 16 16 136 64))
	)
	(annotation_block (parameter)(rect 1320 -104 1555 -76))
)
(symbol
	(rect 952 392 1096 504)
	(text "Demux" (rect 5 0 41 11)(font "Arial" ))
	(text "instasfd" (rect 8 96 48 107)(font "Arial" ))
	(port
		(pt 0 32)
		(input)
		(text "a" (rect 0 0 9 11)(font "Arial" ))
		(text "a" (rect 21 27 30 38)(font "Arial" ))
		(line (pt 0 32)(pt 16 32))
	)
	(port
		(pt 0 48)
		(input)
		(text "b" (rect 0 0 8 11)(font "Arial" ))
		(text "b" (rect 21 43 29 54)(font "Arial" ))
		(line (pt 0 48)(pt 16 48))
	)
	(port
		(pt 0 64)
		(input)
		(text "selector" (rect 0 0 40 11)(font "Arial" ))
		(text "selector" (rect 21 59 61 70)(font "Arial" ))
		(line (pt 0 64)(pt 16 64))
	)
	(port
		(pt 144 32)
		(output)
		(text "a0" (rect 0 0 14 11)(font "Arial" ))
		(text "a0" (rect 114 27 128 38)(font "Arial" ))
		(line (pt 144 32)(pt 128 32))
	)
	(port
		(pt 144 48)
		(output)
		(text "b0" (rect 0 0 14 11)(font "Arial" ))
		(text "b0" (rect 114 43 128 54)(font "Arial" ))
		(line (pt 144 48)(pt 128 48))
	)
	(port
		(pt 144 64)
		(output)
		(text "a1" (rect 0 0 14 11)(font "Arial" ))
		(text "a1" (rect 114 59 128 70)(font "Arial" ))
		(line (pt 144 64)(pt 128 64))
	)
	(port
		(pt 144 80)
		(output)
		(text "b1" (rect 0 0 14 11)(font "Arial" ))
		(text "b1" (rect 114 75 128 86)(font "Arial" ))
		(line (pt 144 80)(pt 128 80))
	)
	(drawing
		(rectangle (rect 16 16 128 96))
	)
)
(symbol
	(rect 584 392 800 568)
	(text "ComDecoder" (rect 5 0 71 11)(font "Arial" ))
	(text "inst3" (rect 8 160 32 171)(font "Arial" ))
	(port
		(pt 0 32)
		(input)
		(text "CLK" (rect 0 0 24 11)(font "Arial" ))
		(text "CLK" (rect 21 27 45 38)(font "Arial" ))
		(line (pt 0 32)(pt 16 32))
	)
	(port
		(pt 0 48)
		(input)
		(text "byte_in[7..0]" (rect 0 0 60 11)(font "Arial" ))
		(text "byte_in[7..0]" (rect 21 43 81 54)(font "Arial" ))
		(line (pt 0 48)(pt 16 48)(line_width 3))
	)
	(port
		(pt 0 64)
		(input)
		(text "byte_in_valid" (rect 0 0 66 11)(font "Arial" ))
		(text "byte_in_valid" (rect 21 59 87 70)(font "Arial" ))
		(line (pt 0 64)(pt 16 64))
	)
	(port
		(pt 216 32)
		(output)
		(text "bit_out" (rect 0 0 34 11)(font "Arial" ))
		(text "bit_out" (rect 168 27 202 38)(font "Arial" ))
		(line (pt 216 32)(pt 200 32))
	)
	(port
		(pt 216 48)
		(output)
		(text "bit_out_shift" (rect 0 0 61 11)(font "Arial" ))
		(text "bit_out_shift" (rect 144 43 205 54)(font "Arial" ))
		(line (pt 216 48)(pt 200 48))
	)
	(port
		(pt 216 64)
		(output)
		(text "selector" (rect 0 0 40 11)(font "Arial" ))
		(text "selector" (rect 163 59 203 70)(font "Arial" ))
		(line (pt 216 64)(pt 200 64))
	)
	(port
		(pt 216 80)
		(output)
		(text "pll_scanclkena" (rect 0 0 75 11)(font "Arial" ))
		(text "pll_scanclkena" (rect 135 75 210 86)(font "Arial" ))
		(line (pt 216 80)(pt 200 80))
	)
	(port
		(pt 216 96)
		(output)
		(text "pll_configupdate" (rect 0 0 81 11)(font "Arial" ))
		(text "pll_configupdate" (rect 128 91 209 102)(font "Arial" ))
		(line (pt 216 96)(pt 200 96))
	)
	(port
		(pt 216 112)
		(output)
		(text "chan_stop" (rect 0 0 53 11)(font "Arial" ))
		(text "chan_stop" (rect 153 107 206 118)(font "Arial" ))
		(line (pt 216 112)(pt 200 112))
	)
	(port
		(pt 216 128)
		(output)
		(text "debug[7..0]" (rect 0 0 55 11)(font "Arial" ))
		(text "debug[7..0]" (rect 149 123 204 134)(font "Arial" ))
		(line (pt 216 128)(pt 200 128)(line_width 3))
	)
	(drawing
		(rectangle (rect 16 16 200 160))
	)
)
(symbol
	(rect 928 -88 1240 96)
	(text "pll180" (rect 139 0 182 16)(font "Arial" (font_size 10)))
	(text "inst7" (rect 8 168 32 179)(font "Arial" ))
	(port
		(pt 0 64)
		(input)
		(text "inclk0" (rect 0 0 34 13)(font "Arial" (font_size 8)))
		(text "inclk0" (rect 4 50 38 63)(font "Arial" (font_size 8)))
		(line (pt 0 64)(pt 72 64))
	)
	(port
		(pt 0 80)
		(input)
		(text "areset" (rect 0 0 36 13)(font "Arial" (font_size 8)))
		(text "areset" (rect 4 66 40 79)(font "Arial" (font_size 8)))
		(line (pt 0 80)(pt 72 80))
	)
	(port
		(pt 0 96)
		(input)
		(text "scanclk" (rect 0 0 44 13)(font "Arial" (font_size 8)))
		(text "scanclk" (rect 4 82 48 95)(font "Arial" (font_size 8)))
		(line (pt 0 96)(pt 72 96))
	)
	(port
		(pt 0 112)
		(input)
		(text "scandata" (rect 0 0 53 13)(font "Arial" (font_size 8)))
		(text "scandata" (rect 4 98 57 111)(font "Arial" (font_size 8)))
		(line (pt 0 112)(pt 72 112))
	)
	(port
		(pt 0 128)
		(input)
		(text "scanclkena" (rect 0 0 64 13)(font "Arial" (font_size 8)))
		(text "scanclkena" (rect 4 114 68 127)(font "Arial" (font_size 8)))
		(line (pt 0 128)(pt 72 128))
	)
	(port
		(pt 0 144)
		(input)
		(text "configupdate" (rect 0 0 73 13)(font "Arial" (font_size 8)))
		(text "configupdate" (rect 4 130 77 143)(font "Arial" (font_size 8)))
		(line (pt 0 144)(pt 72 144))
	)
	(port
		(pt 312 64)
		(output)
		(text "c0" (rect 0 0 15 13)(font "Arial" (font_size 8)))
		(text "c0" (rect 296 50 311 63)(font "Arial" (font_size 8)))
	)
	(port
		(pt 312 80)
		(output)
		(text "scandataout" (rect 0 0 70 13)(font "Arial" (font_size 8)))
		(text "scandataout" (rect 248 66 318 79)(font "Arial" (font_size 8)))
	)
	(port
		(pt 312 96)
		(output)
		(text "scandone" (rect 0 0 56 13)(font "Arial" (font_size 8)))
		(text "scandone" (rect 260 82 316 95)(font "Arial" (font_size 8)))
	)
	(port
		(pt 312 112)
		(output)
		(text "locked" (rect 0 0 37 13)(font "Arial" (font_size 8)))
		(text "locked" (rect 277 98 314 111)(font "Arial" (font_size 8)))
	)
	(drawing
		(text "Cyclone IV E" (rect 236 169 300 180)(font "Arial" ))
		(text "inclk0 frequency: 50.000 MHz" (rect 82 92 228 103)(font "Arial" ))
		(text "Operation Mode: Normal" (rect 82 105 204 116)(font "Arial" ))
		(text "Clk " (rect 83 126 103 137)(font "Arial" ))
		(text "Ratio" (rect 107 126 134 137)(font "Arial" ))
		(text "Ph (dg)" (rect 136 126 173 137)(font "Arial" ))
		(text "DC (%)" (rect 170 126 207 137)(font "Arial" ))
		(text "c0" (rect 86 140 98 151)(font "Arial" ))
		(text "36/125" (rect 104 140 139 151)(font "Arial" ))
		(text "0.00" (rect 142 140 165 151)(font "Arial" ))
		(text "50.00" (rect 174 140 203 151)(font "Arial" ))
		(line (pt 0 0)(pt 313 0))
		(line (pt 313 0)(pt 313 186))
		(line (pt 0 186)(pt 313 186))
		(line (pt 0 0)(pt 0 186))
		(line (pt 80 124)(pt 202 124))
		(line (pt 80 137)(pt 202 137))
		(line (pt 80 151)(pt 202 151))
		(line (pt 80 124)(pt 80 151))
		(line (pt 101 124)(pt 101 151)(line_width 3))
		(line (pt 133 124)(pt 133 151)(line_width 3))
		(line (pt 167 124)(pt 167 151)(line_width 3))
		(line (pt 201 124)(pt 201 151))
		(line (pt 72 48)(pt 239 48))
		(line (pt 239 48)(pt 239 168))
		(line (pt 72 168)(pt 239 168))
		(line (pt 72 48)(pt 72 168))
		(line (pt 311 64)(pt 239 64))
		(line (pt 311 80)(pt 239 80))
		(line (pt 311 96)(pt 239 96))
		(line (pt 311 112)(pt 239 112))
	)
)
(connector
	(pt 368 440)
	(pt 272 440)
)
(connector
	(pt 272 440)
	(pt 272 576)
)
(connector
	(pt 576 424)
	(pt 584 424)
)
(connector
	(pt 560 440)
	(pt 584 440)
	(bus)
)
(connector
	(pt 560 456)
	(pt 584 456)
)
(connector
	(pt 800 424)
	(pt 952 424)
)
(connector
	(pt 800 440)
	(pt 952 440)
)
(connector
	(pt 800 456)
	(pt 952 456)
)
(connector
	(pt 576 328)
	(pt 576 424)
)
(connector
	(pt 1304 -32)
	(pt 1320 -32)
)
(connector
	(pt 1472 -32)
	(pt 1808 -32)
)
(connector
	(pt 1808 -32)
	(pt 1808 424)
)
(connector
	(pt 1304 24)
	(pt 1792 24)
)
(connector
	(pt 1792 408)
	(pt 1856 408)
)
(connector
	(pt 800 472)
	(pt 840 472)
)
(connector
	(pt 800 488)
	(pt 856 488)
)
(connector
	(pt 1808 456)
	(pt 1856 456)
)
(connector
	(pt 1888 536)
	(pt 1912 536)
)
(connector
	(pt 1888 576)
	(pt 272 576)
)
(connector
	(pt 1888 536)
	(pt 1888 576)
)
(connector
	(pt 800 504)
	(pt 848 504)
)
(connector
	(pt 1808 520)
	(pt 1912 520)
)
(connector
	(pt 848 504)
	(pt 848 536)
)
(connector
	(pt 1808 536)
	(pt 848 536)
)
(connector
	(pt 1808 456)
	(pt 1808 520)
)
(connector
	(pt 1808 520)
	(pt 1808 536)
)
(connector
	(pt 1112 456)
	(pt 1096 456)
)
(connector
	(pt 1128 472)
	(pt 1096 472)
)
(connector
	(pt 184 328)
	(pt 192 328)
)
(connector
	(pt 192 328)
	(pt 272 328)
)
(connector
	(pt 272 328)
	(pt 576 328)
)
(connector
	(pt 1456 440)
	(pt 1856 440)
	(bus)
)
(connector
	(pt 1456 416)
	(pt 1456 440)
	(bus)
)
(connector
	(pt 808 352)
	(pt 1128 352)
)
(connector
	(pt 824 368)
	(pt 1112 368)
)
(connector
	(pt 1280 416)
	(pt 1456 416)
	(bus)
)
(connector
	(pt 1112 368)
	(pt 1112 456)
)
(connector
	(pt 1128 352)
	(pt 1128 472)
)
(connector
	(pt 1136 440)
	(pt 1096 440)
)
(connector
	(pt 1096 424)
	(pt 1136 424)
)
(connector
	(pt 1792 24)
	(pt 1792 408)
)
(connector
	(pt 272 -24)
	(pt 928 -24)
)
(connector
	(pt 1304 -24)
	(pt 1240 -24)
)
(connector
	(pt 824 24)
	(pt 928 24)
)
(connector
	(pt 808 8)
	(pt 928 8)
)
(connector
	(pt 840 40)
	(pt 928 40)
)
(connector
	(pt 856 56)
	(pt 928 56)
)
(connector
	(pt 856 488)
	(pt 856 56)
)
(connector
	(pt 840 472)
	(pt 840 40)
)
(connector
	(pt 808 352)
	(pt 808 8)
)
(connector
	(pt 824 368)
	(pt 824 24)
)
(connector
	(pt 1304 -32)
	(pt 1304 -24)
)
(connector
	(pt 1304 -24)
	(pt 1304 24)
)
(connector
	(pt 272 -24)
	(pt 272 328)
)
(connector
	(pt 272 328)
	(pt 272 440)
)
(connector
	(text "arrout[63..0]" (rect 2130 392 2190 403)(font "Arial" ))
	(pt 2120 408)
	(pt 2216 408)
	(bus)
)
(connector
	(pt 1808 424)
	(pt 1856 424)
)
(connector
	(pt 2064 536)
	(pt 2096 536)
)
(connector
	(pt 2096 520)
	(pt 2096 536)
)
(connector
	(pt 2096 536)
	(pt 2096 552)
)
(connector
	(pt 2096 520)
	(pt 2136 520)
)
(connector
	(pt 2096 552)
	(pt 2136 552)
)
(connector
	(pt 2128 0)
	(pt 2160 0)
)
(connector
	(pt 176 456)
	(pt 368 456)
)
(connector
	(text "arrout[0..31]" (rect 2168 360 2228 371)(font "Arial" ))
	(pt 2144 376)
	(pt 2248 376)
	(bus)
)
(connector
	(text "arrout[32..63]" (rect 2168 424 2234 435)(font "Arial" ))
	(pt 2144 440)
	(pt 2248 440)
	(bus)
)
(junction (pt 272 440))
(junction (pt 272 328))
(junction (pt 1808 520))
(junction (pt 192 328))
(junction (pt 1304 -24))
(junction (pt 2096 536))
